\relax 
\providecommand\hyper@newdestlabel[2]{}
\@writefile{toc}{\contentsline {chapter}{\numberline {1}Introduction}{1}{chapter.1}}
\@writefile{lof}{\addvspace {10\p@ }}
\@writefile{lot}{\addvspace {10\p@ }}
\newlabel{ch:intro}{{1}{1}{Introduction}{chapter.1}{}}
\citation{West04}
\citation{Bellazzini03,Mackey10b}
\citation{WhitmoreSchwiezer95,Miller97,Trancho07}
\@writefile{lof}{\contentsline {figure}{\numberline {(1.1)}{\ignorespaces Globular cluster examples}}{2}{figure.caption.12}}
\providecommand*\caption@xref[2]{\@setref\relax\@undefined{#1}}
\newlabel{fig:exampleGCs}{{1.1}{2}{Globular cluster examples}{figure.caption.12}{}}
\@writefile{toc}{\contentsline {section}{\numberline {1.1}Globular Clusters}{2}{section.1.1}}
\citation{Hesser87,Stetson93}
\citation{Rubenstein97}
\citation{Fusci-Pecci00}
\citation{Rubenstein97}
\citation{Fusci-Pecci00}
\citation{Rubenstein97}
\citation{Fusci-Pecci00}
\citation{Ferraro04,Piotto07,Piotto12,Milone08}
\citation{Villanova07}
\citation{Piotto07}
\@writefile{lof}{\contentsline {figure}{\numberline {(1.2)}{\ignorespaces Example of a classical GC colour-magnitude diagrams }}{3}{figure.caption.13}}
\newlabel{fig:GC-CMD-early}{{1.2}{3}{Example of a classical GC colour-magnitude diagrams}{figure.caption.13}{}}
\citation{Villanova07}
\citation{Piotto07}
\citation{Villanova07}
\citation{Piotto07}
\citation{GCreview06,Pota13}
\citation{ForbesForte01}
\citation{Rhode12,Harris13}
\citation{Hudson14}
\citation{Richtler03}
\citation{Woodley10,Schuberth12}
\citation{Burkert10,Pota13BH,Harris14BH}
\@writefile{lof}{\contentsline {figure}{\numberline {(1.3)}{\ignorespaces Examples of high quality GC colour-magnitude diagrams}}{4}{figure.caption.14}}
\newlabel{fig:GC-CMD-late}{{1.3}{4}{Examples of high quality GC colour-magnitude diagrams}{figure.caption.14}{}}
\citation{Kuntschner02,Beasley04,Puzia05b,Woodley10a}
\citation{Harris96Cat}
\citation{Harris01}
\citation{Morgan59,Kinman95spec}
\citation{Koch08,Koch10a,Koch10b,DaCosta09,Carretta09}
\@writefile{toc}{\contentsline {section}{\numberline {1.2}The globular cluster system of the Milky Way}{5}{section.1.2}}
\citation{Harris96Cat}
\citation{Harris96Cat}
\citation{Zinn84}
\citation{Harris96Cat}
\citation{Zinn84}
\citation{Harris96Cat}
\citation{Morgan56,Morgan59}
\citation{Kinman95spec}
\citation{GCbook98}
\citation{Harris96Cat}
\@writefile{toc}{\contentsline {subsection}{\numberline {1.2.1}The bimodal nature of the Milky Way GC system}{6}{subsection.1.2.1}}
\@writefile{toc}{\contentsline {subsubsection}{Metallicity and colour bimodality}{6}{subsection.1.2.1}}
\@writefile{toc}{\contentsline {subsubsection}{Spatial distributions}{6}{figure.caption.15}}
\citation{Harris96Cat}
\citation{Harris96Cat}
\citation{Zinn85,Cote99}
\citation{Harris01}
\@writefile{lof}{\contentsline {figure}{\numberline {(1.4)}{\ignorespaces Metallicity and colour histograms of the Galactic GCs}}{7}{figure.caption.15}}
\newlabel{fig:MW-hist}{{1.4}{7}{Metallicity and colour histograms of the Galactic GCs}{figure.caption.15}{}}
\@writefile{toc}{\contentsline {subsubsection}{Kinematics}{7}{figure.caption.16}}
\citation{Harris01}
\citation{Harris01}
\citation{Minniti95}
\citation{Zinn96}
\citation{Burkert97}
\@writefile{lof}{\contentsline {figure}{\numberline {(1.5)}{\ignorespaces Spatial distribution of the Galactic GCs}}{8}{figure.caption.16}}
\newlabel{fig:MW-spatial}{{1.5}{8}{Spatial distribution of the Galactic GCs}{figure.caption.16}{}}
\citation{Zinn85}
\citation{Armandroff89}
\citation{Burkert97}
\citation{Armandroff89}
\citation{Harris01}
\citation{Harris01}
\citation{SZ78}
\citation{Eggen62}
\citation{SZ78}
\citation{SZ78}
\@writefile{lot}{\contentsline {table}{\numberline {(1.1)}{\ignorespaces Kinematics of the Milky Way GC system}}{9}{table.caption.17}}
\newlabel{tab:MWrot}{{1.1}{9}{Kinematics of the Milky Way GC system}{table.caption.17}{}}
\citation{Sarajedini89}
\citation{Sarajedini89}
\citation{Larson72}
\citation{Tinsley78}
\citation{SZ78}
\citation{MF09}
\citation{Anderson08}
\citation{MF09}
\citation{Dotter10,Dotter11}
\@writefile{toc}{\contentsline {subsection}{\numberline {1.2.2}The age-metallicity relation of the Galactic GC system}{10}{subsection.1.2.2}}
\citation{Siegel07}
\citation{Pagel98}
\citation{Muratov10}
\citation{Dotter11}
\citation{Siegel07}
\citation{Pagel98}
\citation{Muratov10}
\citation{Dotter11}
\citation{MF09}
\citation{Newber02}
\citation{Ibata94,IbataGilmore95,MartinezDelgado99,Cohen04,Law10}
\citation{Dotter11}
\citation{Siegel07}
\citation{Siegel07}
\citation{Pagel98}
\@writefile{lof}{\contentsline {figure}{\numberline {(1.6)}{\ignorespaces Age-metallicity relation for the Galactic GCs}}{11}{figure.caption.18}}
\newlabel{fig:MW-AMR}{{1.6}{11}{Age-metallicity relation for the Galactic GCs}{figure.caption.18}{}}
\citation{Pengetal11}
\citation{Blom12}
\citation{Gomez04}
\citation{Jordan04}
\@writefile{toc}{\contentsline {section}{\numberline {1.3}Extragalactic globular cluster systems}{12}{section.1.3}}
\citation{Blom12,Usher13,Kartha14}
\citation{Strader11}
\citation{Puzia02,Faifer11}
\citation{Faifer11}
\citation{Faifer11}
\citation{Harris81}
\citation{Harris13}
\citation{Harris13}
\citation{Harris13}
\citation{Peng08,Spitler08,Spitler09,Georgiev10}
\citation{Harris13}
\citation{Harris13}
\@writefile{lof}{\contentsline {figure}{\numberline {(1.7)}{\ignorespaces Spatial incompleteness example}}{14}{figure.caption.19}}
\newlabel{fig:spatial-incompleteness}{{1.7}{14}{Spatial incompleteness example}{figure.caption.19}{}}
\@writefile{toc}{\contentsline {subsection}{\numberline {1.3.1}Specific frequency}{14}{subsection.1.3.1}}
\newlabel{eq:Sn}{{1.1}{14}{Specific frequency}{equation.1.3.1}{}}
\citation{Harris13}
\citation{Harris13}
\citation{Harris13}
\citation{Harris13}
\citation{Harris13}
\citation{Gebhardt&KP99}
\citation{Gebhardt&KP99}
\citation{LarsenHST01,KunduWhitmore01a,Faifer11,Hargis12,Kim13}
\citation{GCreview06}
\citation{LarsenHST01}
\@writefile{lof}{\contentsline {figure}{\numberline {(1.8)}{\ignorespaces $S_N$ vs. galaxy luminosity}}{15}{figure.caption.20}}
\newlabel{fig:SnvsL}{{1.8}{15}{$S_N$ vs. galaxy luminosity}{figure.caption.20}{}}
\newlabel{eq:Ngc-Rsigma}{{1.2}{15}{Specific frequency}{equation.1.3.2}{}}
\@writefile{lof}{\contentsline {figure}{\numberline {(1.9)}{\ignorespaces $N_{\rm  GC}$ vs. the $M_{\rm  dyn}$}}{16}{figure.caption.21}}
\newlabel{fig:Ngc-Mdyn}{{1.9}{16}{$N_{\rm GC}$ vs. the $M_{\rm dyn}$}{figure.caption.21}{}}
\@writefile{lof}{\contentsline {figure}{\numberline {(1.10)}{\ignorespaces \ $N_{\rm  GC}$ vs. the $R_{\rm  e}\sigma _{\rm  e}$}}{16}{figure.caption.22}}
\newlabel{fig:Ngc-Rsigma}{{1.10}{16}{\ $N_{\rm GC}$ vs. the $R_{\rm e}\sigma _{\rm e}$}{figure.caption.22}{}}
\citation{LarsenHST01}
\citation{LarsenHST01}
\citation{Goudfrooij03,Chandar04,Young12}
\citation{LarsenHST01}
\@writefile{lof}{\contentsline {figure}{\numberline {(1.11)}{\ignorespaces \ Examples of colour bimodality in GC systems}}{17}{figure.caption.23}}
\newlabel{fig:extragalacitc-colour-bimodality}{{1.11}{17}{\ Examples of colour bimodality in GC systems}{figure.caption.23}{}}
\@writefile{toc}{\contentsline {subsection}{\numberline {1.3.2}Colour bimodality}{17}{subsection.1.3.2}}
\newlabel{sec:col-bim}{{1.3.2}{17}{Colour bimodality}{subsection.1.3.2}{}}
\citation{Pota13}
\citation{Usher12,Brodie12}
\citation{Yoon06,Yoon11,Blakeslee}
\citation{Yoon11}
\citation{Brodie12}
\citation{Brodie12}
\citation{Zepf00,Woodley10,Strader11}
\citation{Pota13}
\@writefile{toc}{\contentsline {subsection}{\numberline {1.3.3}Kinematics}{18}{subsection.1.3.3}}
\citation{Pota13}
\citation{Pota13}
\@writefile{lof}{\contentsline {figure}{\numberline {(1.12)}{\ignorespaces \ Metallicity vs. colour bimodality}}{19}{figure.caption.24}}
\newlabel{fig:color-metallicity-bimodality}{{1.12}{19}{\ Metallicity vs. colour bimodality}{figure.caption.24}{}}
\citation{Olsen04}
\citation{Nantais10}
\citation{AshmanZepf02}
\citation{Barnes95,Bekki02,Bekki10}
\citation{WhitmoreSchwiezer95,Miller97,Trancho07}
\@writefile{toc}{\contentsline {subsection}{\numberline {1.3.4}The origin of bimodality and galaxy formation models}{20}{subsection.1.3.4}}
\@writefile{toc}{\contentsline {subsubsection}{The major merger model}{20}{subsection.1.3.4}}
\citation{AshmanCarr88}
\citation{Forbes01,Cohen03,Beasley04,Pierce05}
\citation{Woodley10,Strader11}
\citation{Forbes97}
\citation{GCreview06}
\@writefile{toc}{\contentsline {subsubsection}{The multiphase collapse model}{21}{subsection.1.3.4}}
\citation{Cote98}
\citation{Woodley11,Strader11}
\citation{Ibata94,IbataGilmore95,MartinezDelgado99,Cohen04}
\citation{Belokurov06}
\@writefile{toc}{\contentsline {subsubsection}{The dissipationless accretion model}{22}{subsection.1.3.4}}
\citation{Peebles84}
\citation{Kravtsov05,Muratov10}
\citation{Kravtsov05}
\citation{Kravtsov05}
\@writefile{toc}{\contentsline {subsubsection}{Cosmological formation of GCs}{23}{subsection.1.3.4}}
\citation{Kravtsov05}
\citation{Kravtsov05}
\citation{Kravtsov05}
\citation{Kravtsov05}
\citation{Kravtsov05}
\citation{Kravtsov05}
\citation{Kravtsov05}
\citation{Kravtsov05}
\citation{Muratov10}
\citation{Muratov10}
\citation{MF09,Dotter11}
\@writefile{lof}{\contentsline {figure}{\numberline {(1.13)}{\ignorespaces \ Dark matter density in a cosmological simulation}}{24}{figure.caption.25}}
\newlabel{fig:DMsim}{{1.13}{24}{\ Dark matter density in a cosmological simulation}{figure.caption.25}{}}
\citation{Muratov10}
\citation{Muratov10}
\@writefile{lof}{\contentsline {figure}{\numberline {(1.14)}{\ignorespaces \ Gas density of proto-galactic disc at redshift $z = 4$}}{25}{figure.caption.26}}
\newlabel{fig:cosmoGC}{{1.14}{25}{\ Gas density of proto-galactic disc at redshift $z = 4$}{figure.caption.26}{}}
\@writefile{toc}{\contentsline {section}{\numberline {1.4}The globular cluster system of M31}{25}{section.1.4}}
\citation{Hubble32}
\citation{Seyfert45,Vetesnik62a,Baade64,Mayall53,Alloin76,Sargent77,Battistini87}
\citation{Auriere92,Battistini93,Mochejska98,Barmby01,GalletiRBC04,Huxor05,Huxor08,Huxor14,Lee08,Zinn13}
\citation{GalletiRBC04}
\@writefile{lof}{\contentsline {figure}{\numberline {(1.15)}{\ignorespaces \ Metallicity distribution of simulated and observed GCs}}{26}{figure.caption.27}}
\newlabel{fig:simGCmetal}{{1.15}{26}{\ Metallicity distribution of simulated and observed GCs}{figure.caption.27}{}}
\@writefile{toc}{\contentsline {subsection}{\numberline {1.4.1}The GCs in the inner regions of M31}{26}{subsection.1.4.1}}
\citation{Perrett02}
\citation{Ashman94}
\citation{Perrett02}
\citation{Ashman93}
\citation{Barmby00}
\citation{Perrett02}
\citation{Perrett02}
\citation{Sharov88,Huchra91}
\citation{Perrett02}
\citation{Lee08}
\@writefile{toc}{\contentsline {subsubsection}{Metallicity}{27}{subsection.1.4.1}}
\@writefile{lof}{\contentsline {figure}{\numberline {(1.16)}{\ignorespaces \ Metallicity distribution and gradient of the M31 GCs}}{28}{figure.caption.28}}
\newlabel{fig:M31-metal}{{1.16}{28}{\ Metallicity distribution and gradient of the M31 GCs}{figure.caption.28}{}}
\citation{vdBergh69}
\citation{Hartwick74}
\citation{Huchra82,Huchra91,Federici90,Federici93}
\citation{Perrett02}
\citation{Perrett02}
\citation{Lee08}
\citation{Kim07}
\@writefile{toc}{\contentsline {subsubsection}{Kinematics}{29}{figure.caption.28}}
\citation{Perrett02}
\citation{Lee08}
\citation{Peacock10}
\citation{Lee08}
\citation{Lee08}
\citation{Peacock10}
\citation{Lee08}
\citation{Lee08}
\citation{Lee08}
\@writefile{lof}{\contentsline {figure}{\numberline {(1.17)}{\ignorespaces \ Rotation of GCs in the inner regions of M31}}{30}{figure.caption.29}}
\newlabel{fig:M31-rot-Lee08}{{1.17}{30}{\ Rotation of GCs in the inner regions of M31}{figure.caption.29}{}}
\citation{Lee08}
\citation{Peacock10}
\citation{Kim07}
\citation{Kim07}
\citation{Lee08}
\citation{Ashman93,Perrett03,Perina09}
\citation{Ashman93}
\citation{Ashman93}
\citation{Perrett03}
\citation{Perrett03}
\citation{Perina09}
\citation{Perina09}
\citation{Ferguson02,Ibata07}
\citation{Ferguson02}
\citation{Ibata01}
\citation{Ibata05}
\citation{Ibata05}
\@writefile{toc}{\contentsline {subsection}{\numberline {1.4.2}The Pan-Andromeda Archaeological Survey}{32}{subsection.1.4.2}}
\newlabel{sec:pandas}{{1.4.2}{32}{The Pan-Andromeda Archaeological Survey}{subsection.1.4.2}{}}
\citation{Huxor05,Huxor08}
\citation{Mackey06}
\citation{Irwin08}
\citation{Ibata07}
\citation{Ibata07}
\citation{mcconnachie09}
\citation{Boulade03}
\citation{Regnault09}
\citation{McConnachie10}
\citation{Ibata14}
\citation{Dotter08}
\citation{Ibata14}
\citation{Lewis13}
\@writefile{lof}{\contentsline {figure}{\numberline {(1.18)}{\ignorespaces \ The observed area with the \emph  {INT/WFC} survey}}{34}{figure.caption.30}}
\newlabel{fig:INTarea}{{1.18}{34}{\ The observed area with the \emph {INT/WFC} survey}{figure.caption.30}{}}
\citation{Ibata14}
\citation{Ibata14}
\citation{Martin09,Richardson11}
\citation{Ibata13Natur}
\citation{Huxor08}
\citation{Huxor14}
\citation{Mackey10a}
\citation{Martin13}
\citation{Huxor14}
\citation{Huxor14}
\citation{Huxor14}
\citation{Huxor14}
\@writefile{lof}{\contentsline {figure}{\numberline {(1.19)}{\ignorespaces \ Resolved stellar maps of the M31 halo from PAndAS}}{36}{figure.caption.31}}
\newlabel{fig:PAndAS-metallicity-cuts}{{1.19}{36}{\ Resolved stellar maps of the M31 halo from PAndAS}{figure.caption.31}{}}
\@writefile{lof}{\contentsline {figure}{\numberline {(1.20)}{\ignorespaces \ The newly-discovered GCs by PAndAS}}{37}{figure.caption.32}}
\newlabel{fig:PAndAS-GCs}{{1.20}{37}{\ The newly-discovered GCs by PAndAS}{figure.caption.32}{}}
\citation{Deveikis08}
\citation{Bertin09}
\citation{King62}
\citation{Harris96Cat}
\citation{Koposov07}
\citation{Huxor14}
\citation{Mackey10b}
\citation{Mackey13}
\citation{Huxor11}
\citation{Huxor14}
\citation{Mackey05}
\@writefile{lof}{\contentsline {figure}{\numberline {(1.21)}{\ignorespaces \ PAndAS map of M31 with all halo GCs}}{39}{figure.caption.33}}
\newlabel{fig:map-all-GC}{{1.21}{39}{\ PAndAS map of M31 with all halo GCs}{figure.caption.33}{}}
\citation{Huxor14}
\citation{Huxor14}
\citation{Huxor11}
\citation{Huxor11}
\citation{Abadi06}
\citation{Abadi06}
\citation{Abadi06}
\citation{Huxor14}
\@writefile{lof}{\contentsline {figure}{\numberline {(1.22)}{\ignorespaces \ M31 GC luminosity function}}{40}{figure.caption.34}}
\newlabel{fig:M31GCLF}{{1.22}{40}{\ M31 GC luminosity function}{figure.caption.34}{}}
\@writefile{lof}{\contentsline {figure}{\numberline {(1.23)}{\ignorespaces \ M31 GC radial number density profile}}{41}{figure.caption.35}}
\newlabel{fig:M31GCnumdenprof}{{1.23}{41}{\ M31 GC radial number density profile}{figure.caption.35}{}}
\@setckpt{Introduction/Intro}{
\setcounter{page}{42}
\setcounter{equation}{2}
\setcounter{enumi}{0}
\setcounter{enumii}{0}
\setcounter{enumiii}{0}
\setcounter{enumiv}{0}
\setcounter{footnote}{8}
\setcounter{mpfootnote}{0}
\setcounter{part}{0}
\setcounter{chapter}{1}
\setcounter{section}{4}
\setcounter{subsection}{2}
\setcounter{subsubsection}{0}
\setcounter{paragraph}{0}
\setcounter{subparagraph}{0}
\setcounter{figure}{23}
\setcounter{table}{1}
\setcounter{ContinuedFloat}{0}
\setcounter{KVtest}{0}
\setcounter{subfigure}{0}
\setcounter{subfigure@save}{0}
\setcounter{lofdepth}{1}
\setcounter{subtable}{0}
\setcounter{subtable@save}{0}
\setcounter{lotdepth}{1}
\setcounter{Item}{0}
\setcounter{Hfootnote}{8}
\setcounter{bookmark@seq@number}{20}
\setcounter{NAT@ctr}{0}
\setcounter{r@tfl@t}{0}
\setcounter{cp@cntr}{0}
\setcounter{@pps}{0}
\setcounter{@ppsavesec}{0}
\setcounter{@ppsaveapp}{0}
\setcounter{lstnumber}{1}
\setcounter{parentequation}{0}
\setcounter{section@level}{0}
\setcounter{lstlisting}{0}
}
