\relax 
\providecommand\hyper@newdestlabel[2]{}
\citation{Stiavelli04,vanderWell11}
\citation{Barnard84}
\citation{Mateo98,McConnachie12}
\citation{Gorski11}
\citation{Battinelli06}
\citation{Roberts72}
\citation{deBlok00,deBlok06a,Weldrake03}
\citation{deBlok00}
\citation{Cannon12}
\citation{deBlok00,deBlok06a,Cannon12}
\citation{Demers06kin}
\citation{Demers06kin}
\@writefile{toc}{\contentsline {chapter}{\numberline {5}The globular cluster system of NGC\nobreakspace  {}6822}{120}{chapter.5}}
\@writefile{lof}{\addvspace {10\p@ }}
\@writefile{lot}{\addvspace {10\p@ }}
\citation{Hodge80,Gallart96b,Gallart96c,Israel96,Mateo98,Cannon12}
\citation{Cannon12}
\citation{Hubble25N6822,Hodge77N6822,Hodge80,Wilson92}
\citation{Hubble25N6822}
\citation{Cohen98,Chandar00}
\citation{hwang11}
\citation{huxor12}
\citation{deBlok00}
\citation{Battinelli06}
\citation{Battinelli06}
\citation{deBlok00}
\citation{huxor12}
\citation{Battinelli06}
\citation{deBlok00}
\citation{huxor12}
\citation{Hubble25N6822}
\citation{hwang11}
\citation{hwang11}
\citation{hwang11}
\citation{hwang11}
\citation{huxor12}
\citation{huxor12}
\citation{huxor12}
\citation{hwang11,huxor12}
\citation{Grocholski09}
\citation{Hwang14}
\citation{Evans03}
\citation{Hwang14}
\@writefile{lof}{\contentsline {figure}{\numberline {(5.1)}{\ignorespaces Schematic view of NGC\nobreakspace  {}6822}}{122}{figure.caption.74}}
\newlabel{fig:spatialN6822}{{5.1}{122}{Schematic view of NGC~6822}{figure.caption.74}{}}
\citation{hwang11,huxor12}
\citation{Kaiser04}
\citation{Kaiser10}
\@writefile{lot}{\contentsline {table}{\numberline {(5.1)}{\ignorespaces Coordinates of the GCs in NGC\nobreakspace  {}6822}}{123}{table.caption.75}}
\newlabel{tab:N6822coords}{{5.1}{123}{Coordinates of the GCs in NGC~6822}{table.caption.75}{}}
\@writefile{toc}{\contentsline {section}{\numberline {5.1}The data}{123}{section.5.1}}
\citation{Onaka08,Tonry09}
\citation{Tonry12photsys}
\citation{Morganson12}
\citation{Magnier06}
\citation{Casali07}
\@writefile{lof}{\contentsline {figure}{\numberline {(5.2)}{\ignorespaces $g_{p1}$ and $K$ band thumbnails of all GC hosted by NGC\nobreakspace  {}6822}}{125}{figure.caption.76}}
\newlabel{fig:N6822cutouts}{{5.2}{125}{$g_{p1}$ and $K$ band thumbnails of all GC hosted by NGC~6822}{figure.caption.76}{}}
\citation{Schlegel98}
\citation{Tonry12photsys}
\@writefile{lot}{\contentsline {table}{\numberline {(5.2)}{\ignorespaces Log of spectroscopic observations of NGC\nobreakspace  {}6822 GCs}}{126}{table.caption.77}}
\newlabel{tab:specObsN6822}{{5.2}{126}{Log of spectroscopic observations of NGC~6822 GCs}{table.caption.77}{}}
\@writefile{toc}{\contentsline {section}{\numberline {5.2}Photometry}{126}{section.5.2}}
\citation{Schlafly11}
\citation{Schlegel98}
\citation{Tonry12photsys}
\citation{Tonry12photsys}
\@writefile{lof}{\contentsline {figure}{\numberline {(5.3)}{\ignorespaces Examples spectra of the NGC\nobreakspace  {}6822 GCs}}{127}{figure.caption.78}}
\newlabel{fig:specExamplesN6822}{{5.3}{127}{Examples spectra of the NGC~6822 GCs}{figure.caption.78}{}}
\newlabel{RF6}{128}
\@writefile{lot}{\contentsline {table}{\numberline {(5.3)}{\ignorespaces Magnitudes of the GCs hosted by NGC\nobreakspace  {}6822}}{128}{table.caption.79}}
\newlabel{tab:N6822phot}{{5.3}{128}{Magnitudes of the GCs hosted by NGC~6822}{table.caption.79}{}}
\@writefile{lot}{\contentsline {table}{\numberline {(5.4)}{\ignorespaces Photometry of the NGC\nobreakspace  {}6822 GCs in the Johnson/Cousis system }}{128}{table.caption.79}}
\newlabel{tab:N6822photVI}{{5.4}{128}{Photometry of the NGC~6822 GCs in the Johnson/Cousis system}{table.caption.79}{}}
\citation{Tonry12photsys}
\citation{hwang11}
\citation{huxor12}
\citation{Bressan12}
\citation{Hwang14}
\newlabel{eq:p1-to-VI}{{5.6}{129}{Photometry}{equation.5.2.6}{}}
\newlabel{eq:p1-to-V}{{5.6a}{129}{Photometry}{equation.5.2.1}{}}
\newlabel{eq:p1-to-I}{{5.6b}{129}{Photometry}{equation.5.2.2}{}}
\citation{Bressan12}
\citation{Bressan12}
\citation{Hwang14}
\@writefile{lof}{\contentsline {figure}{\numberline {(5.4)}{\ignorespaces SSP diagrams for the NGC\nobreakspace  {}6822 GC system}}{130}{figure.caption.80}}
\newlabel{fig:SSPN6822}{{5.4}{130}{SSP diagrams for the NGC~6822 GC system}{figure.caption.80}{}}
\@writefile{toc}{\contentsline {section}{\numberline {5.3}Ages and metallicities}{130}{section.5.3}}
\citation{KP02}
\citation{Hwang14}
\citation{Cohen98,Chandar00}
\citation{Hwang14}
\citation{Hwang14}
\citation{Cohen98}
\citation{Chandar00}
\citation{KP02}
\citation{Hwang14}
\citation{Cohen98}
\citation{Chandar00}
\citation{KP02}
\citation{Hwang14}
\citation{Cohen98}
\citation{Chandar00}
\@writefile{lot}{\contentsline {table}{\numberline {(5.5)}{\ignorespaces Empirical ${\rm  [Fe/H]}$ values for the GCs in NGC\nobreakspace  {}6822}}{131}{table.caption.81}}
\newlabel{tab:cal6822}{{5.5}{131}{Empirical ${\rm [Fe/H]}$ values for the GCs in NGC~6822}{table.caption.81}{}}
\citation{huxor12}
\citation{hwang11}
\citation{hwang11}
\citation{hwang11}
\citation{McConnachie12}
\citation{Cohen98}
\citation{Hwang14}
\citation{Hwang14}
\citation{Hwang14}
\citation{Hwang14}
\citation{Hwang14}
\citation{Hwang14}
\citation{Hwang14}
\citation{Demers06kin}
\citation{Weldrake03}
\@writefile{lot}{\contentsline {table}{\numberline {(5.6)}{\ignorespaces $V_{\rm  helio}$ of the GCs around NGC\nobreakspace  {}6822 }}{133}{table.caption.82}}
\newlabel{tab:rvN6822}{{5.6}{133}{$V_{\rm helio}$ of the GCs around NGC~6822}{table.caption.82}{}}
\@writefile{toc}{\contentsline {section}{\numberline {5.4}Kinematics}{133}{section.5.4}}
\newlabel{sec:N6822kin}{{5.4}{133}{Kinematics}{section.5.4}{}}
\citation{Beers90}
\citation{Evans03}
\citation{Hwang14}
\@writefile{toc}{\contentsline {section}{\numberline {5.5}The dynamical mass of NGC\nobreakspace  {}6822}{134}{section.5.5}}
\@writefile{lof}{\contentsline {figure}{\numberline {(5.5)}{\ignorespaces Kinematics of the NGC\nobreakspace  {}6822 GC system}}{135}{figure.caption.83}}
\newlabel{fig:kinN6822}{{5.5}{135}{Kinematics of the NGC~6822 GC system}{figure.caption.83}{}}
\citation{NFW96,Watkins10}
\citation{Hwang14}
\citation{Hwang14}
\citation{Weldrake03}
\citation{Carigi06}
\citation{Mateo98,Kirby14}
\citation{Seth04,Sharina05,Georgiev06,Georgiev08}
\citation{Georgiev08}
\citation{Georgiev08}
\citation{Georgiev08}
\citation{Georgiev08}
\@writefile{lot}{\contentsline {table}{\numberline {(5.7)}{\ignorespaces The dynamical mass of NGC\nobreakspace  {}6822}}{137}{table.caption.84}}
\newlabel{tab:N6822mass}{{5.7}{137}{The dynamical mass of NGC~6822}{table.caption.84}{}}
\@writefile{toc}{\contentsline {section}{\numberline {5.6}Discussion}{137}{section.5.6}}
\@writefile{toc}{\contentsline {section}{\numberline {5.7}Summary}{138}{section.5.7}}
\@setckpt{N6822/N6822}{
\setcounter{page}{139}
\setcounter{equation}{6}
\setcounter{enumi}{0}
\setcounter{enumii}{0}
\setcounter{enumiii}{0}
\setcounter{enumiv}{0}
\setcounter{footnote}{0}
\setcounter{mpfootnote}{0}
\setcounter{part}{0}
\setcounter{chapter}{5}
\setcounter{section}{7}
\setcounter{subsection}{0}
\setcounter{subsubsection}{0}
\setcounter{paragraph}{0}
\setcounter{subparagraph}{0}
\setcounter{figure}{5}
\setcounter{table}{7}
\setcounter{ContinuedFloat}{0}
\setcounter{KVtest}{0}
\setcounter{subfigure}{0}
\setcounter{subfigure@save}{0}
\setcounter{lofdepth}{1}
\setcounter{subtable}{0}
\setcounter{subtable@save}{0}
\setcounter{lotdepth}{1}
\setcounter{Item}{0}
\setcounter{Hfootnote}{14}
\setcounter{bookmark@seq@number}{61}
\setcounter{NAT@ctr}{0}
\setcounter{r@tfl@t}{6}
\setcounter{cp@cntr}{0}
\setcounter{@pps}{0}
\setcounter{@ppsavesec}{0}
\setcounter{@ppsaveapp}{0}
\setcounter{lstnumber}{1}
\setcounter{parentequation}{6}
\setcounter{section@level}{0}
\setcounter{lstlisting}{0}
}
