%!PS-Adobe-3.0 EPSF-3.0
%%Title: /Users/Jovan/Desktop/monday/xcsao-vel/comparison-xcsao.eps
%%Creator: matplotlib version 1.3.1, http://matplotlib.org/
%%CreationDate: Sun Mar 23 18:23:04 2014
%%Orientation: portrait
%%BoundingBox: 90 180 522 612
%%EndComments
%%BeginProlog
/mpldict 11 dict def
mpldict begin
/m { moveto } bind def
/l { lineto } bind def
/r { rlineto } bind def
/c { curveto } bind def
/cl { closepath } bind def
/box {
m
1 index 0 r
0 exch r
neg 0 r
cl
} bind def
/clipbox {
box
clip
newpath
} bind def
%!PS-Adobe-3.0 Resource-Font
%%Title: cmr10
%%Copyright: Copyright (C) 1994, Basil K. Malyshev. All Rights Reserved.012BaKoMa Fonts Collection, Level-B.
%%Creator: Converted from TrueType to type 3 by PPR
25 dict begin
/_d{bind def}bind def
/_m{moveto}_d
/_l{lineto}_d
/_cl{closepath eofill}_d
/_c{curveto}_d
/_sc{7 -1 roll{setcachedevice}{pop pop pop pop pop pop}ifelse}_d
/_e{exec}_d
/FontName /Cmr10 def
/PaintType 0 def
/FontMatrix[.001 0 0 .001 0 0]def
/FontBBox[-44 -250 1009 750]def
/FontType 3 def
/Encoding [ /x /two /o /s /one /a ] def
/FontInfo 10 dict dup begin
/FamilyName (cmr10) def
/FullName (cmr10) def
/Notice (Copyright (C) 1994, Basil K. Malyshev. All Rights Reserved.012BaKoMa Fonts Collection, Level-B. ) def
/Weight (Regular) def
/Version (1.1/12-Nov-94) def
/ItalicAngle 0.0 def
/isFixedPitch false def
/UnderlinePosition -133 def
/UnderlineThickness 20 def
end readonly def
/CharStrings 6 dict dup begin
/x{{527 0 12 0 516 431 _sc
12 0 _m
12 35 _l
37 35 61 40 84 50 _c
106 60 125 74 141 94 _c
232 210 _l
114 364 _l
102 378 89 387 75 391 _c
61 394 42 396 17 396 _c
17 431 _l
225 431 _l
225 396 _l
216 396 208 394 200 390 _c
192 386 189 380 189 373 _c
189 370 190 367 192 364 _c
272 260 _l
332 337 _l
340 347 344 356 344 366 _c
344 374 341 381 336 387 _c
}_e{330 393 323 396 315 396 _c
315 431 _l
499 431 _l
499 396 _l
473 396 448 391 426 381 _c
404 371 385 356 369 337 _c
290 236 _l
418 67 _l
430 52 443 43 457 40 _c
471 36 490 35 516 35 _c
516 0 _l
308 0 _l
308 35 _l
316 35 323 37 331 41 _c
339 45 343 50 343 58 _c
343 61 342 64 340 67 _c
250 186 _l
178 94 _l
170 86 167 76 167 65 _c
}_e{167 57 169 50 175 44 _c
181 38 187 35 195 35 _c
195 0 _l
12 0 _l
_cl}_e}_d
/two{{500 0 50 0 449 666 _sc
50 0 _m
50 27 _l
50 28 50 30 52 32 _c
207 204 _l
230 229 249 250 264 268 _c
278 285 293 305 307 327 _c
321 349 333 372 341 396 _c
349 419 354 444 354 470 _c
354 497 349 523 339 548 _c
329 573 314 593 294 608 _c
274 623 249 631 221 631 _c
192 631 166 622 143 605 _c
119 587 103 565 94 537 _c
96 537 100 538 105 538 _c
}_e{119 538 132 533 143 523 _c
153 513 159 500 159 484 _c
159 468 153 455 143 445 _c
132 434 119 429 105 429 _c
89 429 76 434 66 445 _c
55 456 50 469 50 484 _c
50 508 54 532 64 554 _c
73 576 86 595 104 613 _c
122 630 142 643 164 652 _c
186 661 210 666 236 666 _c
274 666 309 658 342 642 _c
375 626 401 603 420 573 _c
439 543 449 509 449 470 _c
}_e{449 441 442 414 430 388 _c
417 362 401 338 381 317 _c
361 295 336 271 305 244 _c
274 217 254 199 244 190 _c
131 81 _l
227 81 _l
274 81 313 81 345 82 _c
377 82 394 84 396 86 _c
404 94 412 125 420 178 _c
449 178 _l
421 0 _l
50 0 _l
_cl}_e}_d
/o{{500 0 28 -10 471 448 _sc
250 -10 _m
210 -10 172 0 138 20 _c
104 40 77 67 57 101 _c
37 135 28 172 28 213 _c
28 243 33 273 44 301 _c
55 329 71 355 91 377 _c
111 399 135 417 162 429 _c
189 441 218 448 250 448 _c
291 448 328 437 362 415 _c
396 393 422 364 442 328 _c
461 292 471 253 471 213 _c
471 173 461 135 441 101 _c
421 67 395 40 361 20 _c
}_e{327 0 290 -10 250 -10 _c
250 18 _m
303 18 339 37 357 76 _c
375 114 384 164 384 224 _c
384 257 382 285 378 307 _c
374 329 367 349 355 367 _c
347 378 338 388 326 396 _c
314 404 302 411 290 415 _c
277 419 264 422 250 422 _c
229 422 209 417 191 408 _c
172 398 156 385 144 367 _c
131 348 123 327 120 305 _c
116 282 115 255 115 224 _c
115 186 118 153 125 123 _c
}_e{131 93 144 68 164 48 _c
184 28 212 18 250 18 _c
_cl}_e}_d
/s{{394 0 33 -10 360 448 _sc
33 -2 _m
33 160 _l
33 165 36 168 42 168 _c
54 168 _l
58 168 60 165 62 160 _c
80 63 125 15 197 15 _c
228 15 254 22 276 36 _c
297 50 308 73 308 103 _c
308 124 299 142 283 158 _c
266 173 246 183 224 189 _c
157 202 _l
135 206 114 214 96 224 _c
77 234 62 248 50 265 _c
38 281 33 301 33 323 _c
33 352 40 376 56 395 _c
}_e{72 413 92 427 117 435 _c
141 443 168 448 197 448 _c
231 448 260 439 286 421 _c
315 446 _l
315 447 316 448 320 448 _c
327 448 _l
329 448 330 447 332 445 _c
334 443 335 442 335 440 _c
335 309 _l
335 303 332 300 327 300 _c
315 300 _l
309 300 306 303 306 309 _c
306 343 296 371 277 393 _c
257 414 230 425 196 425 _c
166 425 140 419 118 408 _c
96 397 85 378 85 351 _c
}_e{85 332 92 317 108 305 _c
124 293 142 285 164 280 _c
232 267 _l
254 261 275 252 295 240 _c
315 228 330 212 342 194 _c
354 175 360 154 360 130 _c
360 106 355 85 347 67 _c
339 49 327 35 313 23 _c
298 11 280 2 260 -2 _c
240 -7 219 -10 197 -10 _c
155 -10 119 3 90 31 _c
53 -8 _l
53 -9 51 -10 48 -10 _c
42 -10 _l
36 -10 33 -7 33 -2 _c
_cl}_e}_d
/one{500 0 87 0 421 666 _sc
93 0 _m
93 35 _l
176 35 218 45 218 67 _c
218 592 _l
183 575 139 567 87 567 _c
87 602 _l
168 602 230 623 272 666 _c
286 666 _l
288 666 291 665 293 663 _c
295 661 296 659 296 657 _c
296 67 _l
296 45 337 35 421 35 _c
421 0 _l
93 0 _l
_cl}_d
/a{{500 0 40 -10 493 448 _sc
40 98 _m
40 138 55 170 87 195 _c
118 219 155 237 199 247 _c
243 257 284 263 324 263 _c
324 304 _l
324 323 319 342 311 360 _c
303 378 291 392 275 404 _c
259 416 241 422 222 422 _c
178 422 144 412 121 392 _c
133 392 144 387 152 377 _c
160 367 165 356 165 344 _c
165 330 160 319 151 310 _c
141 300 130 296 117 296 _c
103 296 92 300 83 310 _c
}_e{73 319 69 330 69 344 _c
69 379 85 405 117 422 _c
149 439 184 448 222 448 _c
249 448 276 442 304 431 _c
331 419 353 403 371 381 _c
388 359 397 334 397 306 _c
397 81 _l
397 68 399 56 405 45 _c
411 34 419 29 431 29 _c
442 29 450 34 456 45 _c
461 56 464 68 464 81 _c
464 145 _l
493 145 _l
493 81 _l
493 66 489 52 481 38 _c
473 24 463 14 450 6 _c
}_e{436 -1 422 -5 407 -5 _c
387 -5 370 2 356 17 _c
342 32 334 50 333 71 _c
320 45 302 25 278 11 _c
254 -3 228 -10 201 -10 _c
175 -10 150 -6 126 0 _c
101 7 80 19 64 35 _c
48 51 40 72 40 98 _c
121 98 _m
121 74 129 55 147 39 _c
164 23 184 15 208 15 _c
229 15 248 20 266 31 _c
284 41 298 56 308 75 _c
318 93 324 113 324 134 _c
324 238 _l
}_e{294 238 263 233 231 223 _c
199 213 173 197 152 176 _c
131 155 121 129 121 98 _c
_cl}_e}_d
end readonly def

/BuildGlyph
 {exch begin
 CharStrings exch
 2 copy known not{pop /.notdef}if
 true 3 1 roll get exec
 end}_d

/BuildChar {
 1 index /Encoding get exch get
 1 index /BuildGlyph get exec
}_d

FontName currentdict end definefont pop
%!PS-Adobe-3.0 Resource-Font
%%Title: cmsy10
%%Copyright: Copyright (C) 1994, Basil K. Malyshev. All Rights Reserved.012BaKoMa Fonts Collection, Level-B.
%%Creator: Converted from TrueType to type 3 by PPR
25 dict begin
/_d{bind def}bind def
/_m{moveto}_d
/_l{lineto}_d
/_cl{closepath eofill}_d
/_c{curveto}_d
/_sc{7 -1 roll{setcachedevice}{pop pop pop pop pop pop}ifelse}_d
/_e{exec}_d
/FontName /Cmsy10 def
/PaintType 0 def
/FontMatrix[.001 0 0 .001 0 0]def
/FontBBox[-29 -960 1123 779]def
/FontType 3 def
/Encoding [ /minus ] def
/FontInfo 10 dict dup begin
/FamilyName (cmsy10) def
/FullName (cmsy10) def
/Notice (Copyright (C) 1994, Basil K. Malyshev. All Rights Reserved.012BaKoMa Fonts Collection, Level-B. ) def
/Weight (Regular) def
/Version (1.1/12-Nov-94) def
/ItalicAngle 0.0 def
/isFixedPitch false def
/UnderlinePosition -133 def
/UnderlineThickness 20 def
end readonly def
/CharStrings 1 dict dup begin
/minus{777 0 83 230 694 270 _sc
102 230 _m
96 230 92 232 88 236 _c
84 240 83 245 83 250 _c
83 254 84 259 88 263 _c
92 267 96 270 102 270 _c
676 270 _l
681 270 685 267 689 263 _c
692 259 694 254 694 250 _c
694 245 692 240 689 236 _c
685 232 681 230 676 230 _c
102 230 _l
_cl}_d
end readonly def

/BuildGlyph
 {exch begin
 CharStrings exch
 2 copy known not{pop /.notdef}if
 true 3 1 roll get exec
 end}_d

/BuildChar {
 1 index /Encoding get exch get
 1 index /BuildGlyph get exec
}_d

FontName currentdict end definefont pop
%!PS-Adobe-3.0 Resource-Font
%%Title: cmmi10
%%Copyright: Copyright (C) 1994, Basil K. Malyshev. All Rights Reserved.012BaKoMa Fonts Collection, Level-B.
%%Creator: Converted from TrueType to type 3 by PPR
25 dict begin
/_d{bind def}bind def
/_m{moveto}_d
/_l{lineto}_d
/_cl{closepath eofill}_d
/_c{curveto}_d
/_sc{7 -1 roll{setcachedevice}{pop pop pop pop pop pop}ifelse}_d
/_e{exec}_d
/FontName /Cmmi10 def
/PaintType 0 def
/FontMatrix[.001 0 0 .001 0 0]def
/FontBBox[-34 -250 1048 750]def
/FontType 3 def
/Encoding [ /chi /s /V ] def
/FontInfo 10 dict dup begin
/FamilyName (cmmi10) def
/FullName (cmmi10) def
/Notice (Copyright (C) 1994, Basil K. Malyshev. All Rights Reserved.012BaKoMa Fonts Collection, Level-B. ) def
/Weight (Regular) def
/Version (1.1/12-Nov-94) def
/ItalicAngle 0.0 def
/isFixedPitch false def
/UnderlinePosition -133 def
/UnderlineThickness 20 def
end readonly def
/CharStrings 3 dict dup begin
/chi{{625 0 29 -204 596 442 _sc
43 -193 _m
39 -193 36 -191 33 -189 _c
30 -186 29 -183 29 -180 _c
29 -175 30 -172 33 -170 _c
278 101 _l
266 141 254 183 240 227 _c
226 271 210 313 191 354 _c
171 395 154 416 139 416 _c
126 416 116 412 108 405 _c
100 398 94 389 88 379 _c
82 368 79 362 77 362 _c
65 362 _l
63 362 61 363 59 365 _c
57 367 57 370 57 372 _c
}_e{57 382 61 393 71 404 _c
80 415 91 424 105 431 _c
118 438 131 442 143 442 _c
169 442 193 437 215 428 _c
236 418 252 403 263 382 _c
272 362 281 340 290 317 _c
299 293 308 268 316 242 _c
324 216 331 191 338 167 _c
570 425 _l
573 429 577 431 582 431 _c
586 431 589 429 592 427 _c
594 425 596 422 596 418 _c
596 414 594 410 592 408 _c
347 136 _l
355 106 366 67 382 18 _c
}_e{398 -30 415 -75 434 -116 _c
453 -157 470 -178 486 -178 _c
498 -178 508 -174 516 -167 _c
524 -159 530 -150 536 -140 _c
542 -130 546 -124 548 -124 _c
560 -124 _l
565 -124 568 -127 568 -134 _c
568 -150 558 -166 538 -181 _c
518 -196 500 -204 482 -204 _c
456 -204 432 -199 410 -190 _c
388 -180 373 -165 363 -144 _c
338 -91 313 -20 287 70 _c
55 -187 _l
51 -191 47 -193 43 -193 _c
_cl}_e}_d
/s{{468 0 52 -10 419 442 _sc
87 61 _m
105 30 141 15 195 15 _c
218 15 240 19 261 27 _c
282 35 300 47 314 63 _c
328 79 335 98 335 121 _c
335 138 328 152 316 163 _c
304 174 289 182 271 186 _c
217 197 _l
192 203 172 214 156 231 _c
140 248 132 269 132 293 _c
132 322 140 348 156 371 _c
172 394 193 412 219 424 _c
245 436 273 442 302 442 _c
332 442 359 434 383 420 _c
}_e{407 405 419 384 419 356 _c
419 340 414 327 406 315 _c
397 303 385 298 370 298 _c
361 298 353 300 347 306 _c
341 312 338 319 338 328 _c
338 336 340 343 344 351 _c
348 358 354 364 362 368 _c
369 372 377 375 385 375 _c
379 389 368 399 352 406 _c
336 412 318 416 300 416 _c
282 416 265 412 249 406 _c
232 399 218 389 208 376 _c
198 362 193 347 193 329 _c
}_e{193 317 197 306 205 297 _c
213 288 224 282 237 278 _c
295 266 _l
313 262 330 255 346 245 _c
361 235 373 222 382 207 _c
391 192 396 175 396 156 _c
396 131 389 106 375 82 _c
361 58 344 39 324 25 _c
288 1 245 -10 194 -10 _c
158 -10 126 -2 96 14 _c
66 30 52 54 52 86 _c
52 104 57 119 67 133 _c
77 147 92 154 111 154 _c
121 154 130 150 138 144 _c
}_e{145 137 149 128 149 118 _c
149 102 143 89 132 78 _c
120 66 107 61 92 61 _c
87 61 _l
_cl}_e}_d
/V{{583 0 55 -21 769 683 _sc
220 -10 _m
140 626 _l
135 640 110 648 65 648 _c
58 648 55 652 55 661 _c
56 668 58 673 60 677 _c
62 681 66 683 72 683 _c
316 683 _l
319 683 321 681 323 679 _c
325 676 326 673 326 670 _c
323 655 319 648 313 648 _c
261 648 233 639 230 621 _c
296 98 _l
604 590 _l
610 600 613 609 613 616 _c
613 628 607 636 597 641 _c
586 645 574 648 560 648 _c
}_e{553 648 550 652 550 661 _c
551 666 552 670 553 673 _c
554 676 556 678 558 680 _c
560 682 563 683 567 683 _c
760 683 _l
766 683 769 678 769 670 _c
766 655 762 648 756 648 _c
706 648 666 626 638 582 _c
636 580 635 580 635 580 _c
266 -10 _l
261 -17 255 -21 247 -21 _c
233 -21 _l
225 -21 221 -17 220 -10 _c
_cl}_e}_d
end readonly def

/BuildGlyph
 {exch begin
 CharStrings exch
 2 copy known not{pop /.notdef}if
 true 3 1 roll get exec
 end}_d

/BuildChar {
 1 index /Encoding get exch get
 1 index /BuildGlyph get exec
}_d

FontName currentdict end definefont pop
%!PS-Adobe-3.0 Resource-Font
%%Title: Bitstream Vera Sans
%%Copyright: Copyright (c) 2003 by Bitstream, Inc. All Rights Reserved.
%%Creator: Converted from TrueType to type 3 by PPR
25 dict begin
/_d{bind def}bind def
/_m{moveto}_d
/_l{lineto}_d
/_cl{closepath eofill}_d
/_c{curveto}_d
/_sc{7 -1 roll{setcachedevice}{pop pop pop pop pop pop}ifelse}_d
/_e{exec}_d
/FontName /BitstreamVeraSans-Roman def
/PaintType 0 def
/FontMatrix[.001 0 0 .001 0 0]def
/FontBBox[-183 -236 1287 928]def
/FontType 3 def
/Encoding [ /space /zero /one /two /three /four /five /six /bracketleft /bracketright /k /m /minus ] def
/FontInfo 10 dict dup begin
/FamilyName (Bitstream Vera Sans) def
/FullName (Bitstream Vera Sans) def
/Notice (Copyright (c) 2003 by Bitstream, Inc. All Rights Reserved. Bitstream Vera is a trademark of Bitstream, Inc.) def
/Weight (Roman) def
/Version (Release 1.10) def
/ItalicAngle 0.0 def
/isFixedPitch false def
/UnderlinePosition -213 def
/UnderlineThickness 143 def
end readonly def
/CharStrings 13 dict dup begin
/space{318 0 0 0 0 0 _sc
}_d
/zero{636 0 66 -13 570 742 _sc
318 664 _m
267 664 229 639 203 589 _c
177 539 165 464 165 364 _c
165 264 177 189 203 139 _c
229 89 267 64 318 64 _c
369 64 407 89 433 139 _c
458 189 471 264 471 364 _c
471 464 458 539 433 589 _c
407 639 369 664 318 664 _c
318 742 _m
399 742 461 709 505 645 _c
548 580 570 486 570 364 _c
570 241 548 147 505 83 _c
461 19 399 -13 318 -13 _c
236 -13 173 19 130 83 _c
87 147 66 241 66 364 _c
66 486 87 580 130 645 _c
173 709 236 742 318 742 _c
_cl}_d
/one{636 0 110 0 544 729 _sc
124 83 _m
285 83 _l
285 639 _l
110 604 _l
110 694 _l
284 729 _l
383 729 _l
383 83 _l
544 83 _l
544 0 _l
124 0 _l
124 83 _l
_cl}_d
/two{{636 0 73 0 536 742 _sc
192 83 _m
536 83 _l
536 0 _l
73 0 _l
73 83 _l
110 121 161 173 226 239 _c
290 304 331 346 348 365 _c
380 400 402 430 414 455 _c
426 479 433 504 433 528 _c
433 566 419 598 392 622 _c
365 646 330 659 286 659 _c
255 659 222 653 188 643 _c
154 632 117 616 78 594 _c
78 694 _l
118 710 155 722 189 730 _c
223 738 255 742 284 742 _c
}_e{359 742 419 723 464 685 _c
509 647 532 597 532 534 _c
532 504 526 475 515 449 _c
504 422 484 390 454 354 _c
446 344 420 317 376 272 _c
332 227 271 164 192 83 _c
_cl}_e}_d
/three{{636 0 76 -13 556 742 _sc
406 393 _m
453 383 490 362 516 330 _c
542 298 556 258 556 212 _c
556 140 531 84 482 45 _c
432 6 362 -13 271 -13 _c
240 -13 208 -10 176 -4 _c
144 1 110 10 76 22 _c
76 117 _l
103 101 133 89 166 81 _c
198 73 232 69 268 69 _c
330 69 377 81 409 105 _c
441 129 458 165 458 212 _c
458 254 443 288 413 312 _c
383 336 341 349 287 349 _c
}_e{202 349 _l
202 430 _l
291 430 _l
339 430 376 439 402 459 _c
428 478 441 506 441 543 _c
441 580 427 609 401 629 _c
374 649 336 659 287 659 _c
260 659 231 656 200 650 _c
169 644 135 635 98 623 _c
98 711 _l
135 721 170 729 203 734 _c
235 739 266 742 296 742 _c
370 742 429 725 473 691 _c
517 657 539 611 539 553 _c
539 513 527 479 504 451 _c
481 423 448 403 406 393 _c
_cl}_e}_d
/four{636 0 49 0 580 729 _sc
378 643 _m
129 254 _l
378 254 _l
378 643 _l
352 729 _m
476 729 _l
476 254 _l
580 254 _l
580 172 _l
476 172 _l
476 0 _l
378 0 _l
378 172 _l
49 172 _l
49 267 _l
352 729 _l
_cl}_d
/five{{636 0 77 -13 549 729 _sc
108 729 _m
495 729 _l
495 646 _l
198 646 _l
198 467 _l
212 472 227 476 241 478 _c
255 480 270 482 284 482 _c
365 482 429 459 477 415 _c
525 370 549 310 549 234 _c
549 155 524 94 475 51 _c
426 8 357 -13 269 -13 _c
238 -13 207 -10 175 -6 _c
143 -1 111 6 77 17 _c
77 116 _l
106 100 136 88 168 80 _c
199 72 232 69 267 69 _c
}_e{323 69 368 83 401 113 _c
433 143 450 183 450 234 _c
450 284 433 324 401 354 _c
368 384 323 399 267 399 _c
241 399 214 396 188 390 _c
162 384 135 375 108 363 _c
108 729 _l
_cl}_e}_d
/six{{636 0 70 -13 573 742 _sc
330 404 _m
286 404 251 388 225 358 _c
199 328 186 286 186 234 _c
186 181 199 139 225 109 _c
251 79 286 64 330 64 _c
374 64 409 79 435 109 _c
461 139 474 181 474 234 _c
474 286 461 328 435 358 _c
409 388 374 404 330 404 _c
526 713 _m
526 623 _l
501 635 476 644 451 650 _c
425 656 400 659 376 659 _c
310 659 260 637 226 593 _c
}_e{192 549 172 482 168 394 _c
187 422 211 444 240 459 _c
269 474 301 482 336 482 _c
409 482 467 459 509 415 _c
551 371 573 310 573 234 _c
573 159 550 99 506 54 _c
462 9 403 -13 330 -13 _c
246 -13 181 19 137 83 _c
92 147 70 241 70 364 _c
70 479 97 571 152 639 _c
206 707 280 742 372 742 _c
396 742 421 739 447 735 _c
472 730 498 723 526 713 _c
_cl}_e}_d
/bracketleft{390 0 86 -131 293 760 _sc
86 760 _m
293 760 _l
293 690 _l
176 690 _l
176 -61 _l
293 -61 _l
293 -131 _l
86 -131 _l
86 760 _l
_cl}_d
/bracketright{390 0 97 -131 304 760 _sc
304 760 _m
304 -131 _l
97 -131 _l
97 -61 _l
214 -61 _l
214 690 _l
97 690 _l
97 760 _l
304 760 _l
_cl}_d
/k{579 0 91 0 576 760 _sc
91 760 _m
181 760 _l
181 311 _l
449 547 _l
564 547 _l
274 291 _l
576 0 _l
459 0 _l
181 267 _l
181 0 _l
91 0 _l
91 760 _l
_cl}_d
/m{{974 0 91 0 889 560 _sc
520 442 _m
542 482 569 511 600 531 _c
631 550 668 560 711 560 _c
767 560 811 540 842 500 _c
873 460 889 403 889 330 _c
889 0 _l
799 0 _l
799 327 _l
799 379 789 418 771 444 _c
752 469 724 482 686 482 _c
639 482 602 466 575 435 _c
548 404 535 362 535 309 _c
535 0 _l
445 0 _l
445 327 _l
445 379 435 418 417 444 _c
398 469 369 482 331 482 _c
}_e{285 482 248 466 221 435 _c
194 404 181 362 181 309 _c
181 0 _l
91 0 _l
91 547 _l
181 547 _l
181 462 _l
201 495 226 520 255 536 _c
283 552 317 560 357 560 _c
397 560 430 550 458 530 _c
486 510 506 480 520 442 _c
_cl}_e}_d
/minus{838 0 106 272 732 355 _sc
106 355 _m
732 355 _l
732 272 _l
106 272 _l
106 355 _l
_cl}_d
end readonly def

/BuildGlyph
 {exch begin
 CharStrings exch
 2 copy known not{pop /.notdef}if
 true 3 1 roll get exec
 end}_d

/BuildChar {
 1 index /Encoding get exch get
 1 index /BuildGlyph get exec
}_d

FontName currentdict end definefont pop
end
%%EndProlog
mpldict begin
90 180 translate
432 432 0 0 clipbox
gsave
0 0 m
432 0 l
432 432 l
0 432 l
cl
1.000 setgray
fill
grestore
gsave
54 43.2 m
388.8 43.2 l
388.8 388.8 l
54 388.8 l
cl
1.000 setgray
fill
grestore
/p0_0 {
newpath
translate
144.874 141.394 m
153.377 141.394 l
} bind def
/p0_1 {
newpath
translate
253.286 247.817 m
267.103 247.817 l
} bind def
/p0_2 {
newpath
translate
297.926 293.349 m
304.303 293.349 l
} bind def
/p0_3 {
newpath
translate
218.743 216 m
224.057 216 l
} bind def
/p0_4 {
newpath
translate
199.08 206.674 m
219.274 206.674 l
} bind def
/p0_5 {
newpath
translate
241.063 247.817 m
249.566 247.817 l
} bind def
/p0_6 {
newpath
translate
343.097 346.56 m
349.474 346.56 l
} bind def
/p0_7 {
newpath
translate
268.166 265.371 m
275.606 265.371 l
} bind def
/p0_8 {
newpath
translate
118.834 115.063 m
135.84 115.063 l
} bind def
/p0_9 {
newpath
translate
350.006 352.594 m
359.571 352.594 l
} bind def
/p0_a {
newpath
translate
202.269 197.897 m
210.771 197.897 l
} bind def
/p0_b {
newpath
translate
183.137 184.731 m
195.891 184.731 l
} bind def
/p0_c {
newpath
translate
155.503 166.08 m
179.949 166.08 l
} bind def
/p0_d {
newpath
translate
152.314 145.783 m
155.503 145.783 l
} bind def
/p0_e {
newpath
translate
205.989 194.606 m
211.303 194.606 l
} bind def
/p0_f {
newpath
translate
205.457 206.674 m
215.023 206.674 l
} bind def
/p0_10 {
newpath
translate
281.451 282.926 m
288.891 282.926 l
} bind def
/p0_11 {
newpath
translate
187.389 182.537 m
198.017 182.537 l
} bind def
/p0_12 {
newpath
translate
248.503 251.109 m
264.446 251.109 l
} bind def
/p0_13 {
newpath
translate
242.126 198.446 m
252.754 198.446 l
} bind def
/p0_14 {
newpath
translate
261.257 264.823 m
278.263 264.823 l
} bind def
/p0_15 {
newpath
translate
275.606 286.766 m
297.926 286.766 l
} bind def
/p0_16 {
newpath
translate
247.44 250.56 m
266.571 250.56 l
} bind def
/p0_17 {
newpath
translate
240.531 229.166 m
246.909 229.166 l
} bind def
/p0_18 {
newpath
translate
191.109 192.96 m
202.8 192.96 l
} bind def
/p0_19 {
newpath
translate
333 333.394 m
348.943 333.394 l
} bind def
/p0_1a {
newpath
translate
281.983 287.863 m
296.863 287.863 l
} bind def
/p0_1b {
newpath
translate
179.417 174.309 m
186.857 174.309 l
} bind def
/p0_1c {
newpath
translate
249.566 240.137 m
254.88 240.137 l
} bind def
/p0_1d {
newpath
translate
275.074 271.954 m
284.64 271.954 l
} bind def
/p0_1e {
newpath
translate
213.429 212.709 m
222.994 212.709 l
} bind def
/p0_1f {
newpath
translate
322.903 327.36 m
335.657 327.36 l
} bind def
/p0_20 {
newpath
translate
343.097 346.011 m
348.411 346.011 l
} bind def
/p0_21 {
newpath
translate
285.703 281.829 m
291.017 281.829 l
} bind def
/p0_22 {
newpath
translate
200.143 198.994 m
205.457 198.994 l
} bind def
/p0_23 {
newpath
translate
207.051 205.029 m
214.491 205.029 l
} bind def
/p0_24 {
newpath
translate
224.057 217.097 m
246.377 217.097 l
} bind def
/p0_25 {
newpath
translate
255.411 253.851 m
259.663 253.851 l
} bind def
/p0_26 {
newpath
translate
188.451 181.989 m
195.891 181.989 l
} bind def
/p0_27 {
newpath
translate
298.989 299.383 m
306.429 299.383 l
} bind def
/p0_28 {
newpath
translate
198.549 220.389 m
214.491 220.389 l
} bind def
/p0_29 {
newpath
translate
149.126 151.817 m
168.257 151.817 l
} bind def
/p0_2a {
newpath
translate
173.04 171.566 m
181.543 171.566 l
} bind def
/p0_2b {
newpath
translate
73.6629 156.206 m
95.9829 156.206 l
} bind def
/p0_2c {
newpath
translate
162.411 161.143 m
173.04 161.143 l
} bind def
/p0_2d {
newpath
translate
155.503 154.56 m
169.32 154.56 l
} bind def
/p0_2e {
newpath
translate
146.469 140.846 m
151.783 140.846 l
} bind def
/p0_2f {
newpath
translate
51.3429 87.0857 m
99.1714 87.0857 l
} bind def
/p0_30 {
newpath
translate
195.891 200.64 m
205.457 200.64 l
} bind def
/p0_31 {
newpath
translate
191.64 188.571 m
198.017 188.571 l
} bind def
/p0_32 {
newpath
translate
183.669 130.971 m
199.611 130.971 l
} bind def
/p0_33 {
newpath
translate
250.629 246.72 m
266.571 246.72 l
} bind def
/p0_34 {
newpath
translate
99.7029 97.5086 m
118.834 97.5086 l
} bind def
/p0_35 {
newpath
translate
108.206 101.349 m
114.583 101.349 l
} bind def
/p0_36 {
newpath
translate
79.5086 70.6286 m
86.9486 70.6286 l
} bind def
/p0_37 {
newpath
translate
167.194 160.046 m
168.257 160.046 l
} bind def
/p0_38 {
newpath
translate
144.343 138.651 m
149.657 138.651 l
} bind def
/p0_39 {
newpath
translate
375.514 374.537 m
384.017 374.537 l
} bind def
/p0_3a {
newpath
translate
181.543 180.891 m
188.983 180.891 l
} bind def
/p0_3b {
newpath
translate
179.949 178.149 m
195.891 178.149 l
} bind def
/p0_3c {
newpath
translate
336.189 348.206 m
344.691 348.206 l
} bind def
/p0_3d {
newpath
translate
303.771 303.223 m
308.023 303.223 l
} bind def
/p0_3e {
newpath
translate
323.966 325.714 m
330.343 325.714 l
} bind def
/p0_3f {
newpath
translate
218.211 208.32 m
229.903 208.32 l
} bind def
/p0_40 {
newpath
translate
319.183 325.714 m
336.189 325.714 l
} bind def
/p0_41 {
newpath
translate
327.154 327.36 m
344.16 327.36 l
} bind def
/p0_42 {
newpath
translate
202.8 202.834 m
219.806 202.834 l
} bind def
/p0_43 {
newpath
translate
263.914 262.629 m
269.229 262.629 l
} bind def
/p0_44 {
newpath
translate
271.354 268.114 m
278.794 268.114 l
} bind def
/p0_45 {
newpath
translate
225.651 222.583 m
233.091 222.583 l
} bind def
/p0_46 {
newpath
translate
279.326 275.794 m
284.64 275.794 l
} bind def
/p0_47 {
newpath
translate
234.686 236.846 m
244.251 236.846 l
} bind def
/p0_48 {
newpath
translate
247.971 260.983 m
258.6 260.983 l
} bind def
/p0_49 {
newpath
translate
213.96 215.451 m
222.463 215.451 l
} bind def
/p0_4a {
newpath
translate
263.383 268.663 m
271.886 268.663 l
} bind def
/p0_4b {
newpath
translate
298.457 297.737 m
304.834 297.737 l
} bind def
/p0_4c {
newpath
translate
303.771 308.16 m
314.4 308.16 l
} bind def
/p0_4d {
newpath
translate
291.549 294.994 m
302.177 294.994 l
} bind def
1.000 setlinewidth
1 setlinejoin
0 setlinecap
[] 0 setdash
0.000 setgray
gsave
334.8 345.6 54 43.2 clipbox
0 0 p0_0
stroke
grestore
gsave
334.8 345.6 54 43.2 clipbox
0 0 p0_1
stroke
grestore
gsave
334.8 345.6 54 43.2 clipbox
0 0 p0_2
stroke
grestore
gsave
334.8 345.6 54 43.2 clipbox
0 0 p0_3
stroke
grestore
gsave
334.8 345.6 54 43.2 clipbox
0 0 p0_4
stroke
grestore
gsave
334.8 345.6 54 43.2 clipbox
0 0 p0_5
stroke
grestore
gsave
334.8 345.6 54 43.2 clipbox
0 0 p0_6
stroke
grestore
gsave
334.8 345.6 54 43.2 clipbox
0 0 p0_7
stroke
grestore
gsave
334.8 345.6 54 43.2 clipbox
0 0 p0_8
stroke
grestore
gsave
334.8 345.6 54 43.2 clipbox
0 0 p0_9
stroke
grestore
gsave
334.8 345.6 54 43.2 clipbox
0 0 p0_a
stroke
grestore
gsave
334.8 345.6 54 43.2 clipbox
0 0 p0_b
stroke
grestore
gsave
334.8 345.6 54 43.2 clipbox
0 0 p0_c
stroke
grestore
gsave
334.8 345.6 54 43.2 clipbox
0 0 p0_d
stroke
grestore
gsave
334.8 345.6 54 43.2 clipbox
0 0 p0_e
stroke
grestore
gsave
334.8 345.6 54 43.2 clipbox
0 0 p0_f
stroke
grestore
gsave
334.8 345.6 54 43.2 clipbox
0 0 p0_10
stroke
grestore
gsave
334.8 345.6 54 43.2 clipbox
0 0 p0_11
stroke
grestore
gsave
334.8 345.6 54 43.2 clipbox
0 0 p0_12
stroke
grestore
gsave
334.8 345.6 54 43.2 clipbox
0 0 p0_13
stroke
grestore
gsave
334.8 345.6 54 43.2 clipbox
0 0 p0_14
stroke
grestore
gsave
334.8 345.6 54 43.2 clipbox
0 0 p0_15
stroke
grestore
gsave
334.8 345.6 54 43.2 clipbox
0 0 p0_16
stroke
grestore
gsave
334.8 345.6 54 43.2 clipbox
0 0 p0_17
stroke
grestore
gsave
334.8 345.6 54 43.2 clipbox
0 0 p0_18
stroke
grestore
gsave
334.8 345.6 54 43.2 clipbox
0 0 p0_19
stroke
grestore
gsave
334.8 345.6 54 43.2 clipbox
0 0 p0_1a
stroke
grestore
gsave
334.8 345.6 54 43.2 clipbox
0 0 p0_1b
stroke
grestore
gsave
334.8 345.6 54 43.2 clipbox
0 0 p0_1c
stroke
grestore
gsave
334.8 345.6 54 43.2 clipbox
0 0 p0_1d
stroke
grestore
gsave
334.8 345.6 54 43.2 clipbox
0 0 p0_1e
stroke
grestore
gsave
334.8 345.6 54 43.2 clipbox
0 0 p0_1f
stroke
grestore
gsave
334.8 345.6 54 43.2 clipbox
0 0 p0_20
stroke
grestore
gsave
334.8 345.6 54 43.2 clipbox
0 0 p0_21
stroke
grestore
gsave
334.8 345.6 54 43.2 clipbox
0 0 p0_22
stroke
grestore
gsave
334.8 345.6 54 43.2 clipbox
0 0 p0_23
stroke
grestore
gsave
334.8 345.6 54 43.2 clipbox
0 0 p0_24
stroke
grestore
gsave
334.8 345.6 54 43.2 clipbox
0 0 p0_25
stroke
grestore
gsave
334.8 345.6 54 43.2 clipbox
0 0 p0_26
stroke
grestore
gsave
334.8 345.6 54 43.2 clipbox
0 0 p0_27
stroke
grestore
gsave
334.8 345.6 54 43.2 clipbox
0 0 p0_28
stroke
grestore
gsave
334.8 345.6 54 43.2 clipbox
0 0 p0_29
stroke
grestore
gsave
334.8 345.6 54 43.2 clipbox
0 0 p0_2a
stroke
grestore
gsave
334.8 345.6 54 43.2 clipbox
0 0 p0_2b
stroke
grestore
gsave
334.8 345.6 54 43.2 clipbox
0 0 p0_2c
stroke
grestore
gsave
334.8 345.6 54 43.2 clipbox
0 0 p0_2d
stroke
grestore
gsave
334.8 345.6 54 43.2 clipbox
0 0 p0_2e
stroke
grestore
gsave
334.8 345.6 54 43.2 clipbox
0 0 p0_2f
stroke
grestore
gsave
334.8 345.6 54 43.2 clipbox
0 0 p0_30
stroke
grestore
gsave
334.8 345.6 54 43.2 clipbox
0 0 p0_31
stroke
grestore
gsave
334.8 345.6 54 43.2 clipbox
0 0 p0_32
stroke
grestore
gsave
334.8 345.6 54 43.2 clipbox
0 0 p0_33
stroke
grestore
gsave
334.8 345.6 54 43.2 clipbox
0 0 p0_34
stroke
grestore
gsave
334.8 345.6 54 43.2 clipbox
0 0 p0_35
stroke
grestore
gsave
334.8 345.6 54 43.2 clipbox
0 0 p0_36
stroke
grestore
gsave
334.8 345.6 54 43.2 clipbox
0 0 p0_37
stroke
grestore
gsave
334.8 345.6 54 43.2 clipbox
0 0 p0_38
stroke
grestore
gsave
334.8 345.6 54 43.2 clipbox
0 0 p0_39
stroke
grestore
gsave
334.8 345.6 54 43.2 clipbox
0 0 p0_3a
stroke
grestore
gsave
334.8 345.6 54 43.2 clipbox
0 0 p0_3b
stroke
grestore
gsave
334.8 345.6 54 43.2 clipbox
0 0 p0_3c
stroke
grestore
gsave
334.8 345.6 54 43.2 clipbox
0 0 p0_3d
stroke
grestore
gsave
334.8 345.6 54 43.2 clipbox
0 0 p0_3e
stroke
grestore
gsave
334.8 345.6 54 43.2 clipbox
0 0 p0_3f
stroke
grestore
gsave
334.8 345.6 54 43.2 clipbox
0 0 p0_40
stroke
grestore
gsave
334.8 345.6 54 43.2 clipbox
0 0 p0_41
stroke
grestore
gsave
334.8 345.6 54 43.2 clipbox
0 0 p0_42
stroke
grestore
gsave
334.8 345.6 54 43.2 clipbox
0 0 p0_43
stroke
grestore
gsave
334.8 345.6 54 43.2 clipbox
0 0 p0_44
stroke
grestore
gsave
334.8 345.6 54 43.2 clipbox
0 0 p0_45
stroke
grestore
gsave
334.8 345.6 54 43.2 clipbox
0 0 p0_46
stroke
grestore
gsave
334.8 345.6 54 43.2 clipbox
0 0 p0_47
stroke
grestore
gsave
334.8 345.6 54 43.2 clipbox
0 0 p0_48
stroke
grestore
gsave
334.8 345.6 54 43.2 clipbox
0 0 p0_49
stroke
grestore
gsave
334.8 345.6 54 43.2 clipbox
0 0 p0_4a
stroke
grestore
gsave
334.8 345.6 54 43.2 clipbox
0 0 p0_4b
stroke
grestore
gsave
334.8 345.6 54 43.2 clipbox
0 0 p0_4c
stroke
grestore
gsave
334.8 345.6 54 43.2 clipbox
0 0 p0_4d
stroke
grestore
/p1_0 {
newpath
translate
149.126 136.457 m
149.126 146.331 l
} bind def
/p1_1 {
newpath
translate
260.194 239.589 m
260.194 256.046 l
} bind def
/p1_2 {
newpath
translate
301.114 287.314 m
301.114 299.383 l
} bind def
/p1_3 {
newpath
translate
221.4 213.257 m
221.4 218.743 l
} bind def
/p1_4 {
newpath
translate
209.177 195.154 m
209.177 218.194 l
} bind def
/p1_5 {
newpath
translate
245.314 242.88 m
245.314 252.754 l
} bind def
/p1_6 {
newpath
translate
346.286 339.977 m
346.286 353.143 l
} bind def
/p1_7 {
newpath
translate
271.886 259.337 m
271.886 271.406 l
} bind def
/p1_8 {
newpath
translate
127.337 108.48 m
127.337 121.646 l
} bind def
/p1_9 {
newpath
translate
354.789 347.657 m
354.789 357.531 l
} bind def
/p1_a {
newpath
translate
206.52 190.766 m
206.52 205.029 l
} bind def
/p1_b {
newpath
translate
189.514 178.149 m
189.514 191.314 l
} bind def
/p1_c {
newpath
translate
167.726 152.366 m
167.726 179.794 l
} bind def
/p1_d {
newpath
translate
153.909 143.04 m
153.909 148.526 l
} bind def
/p1_e {
newpath
translate
208.646 193.509 m
208.646 195.703 l
} bind def
/p1_f {
newpath
translate
210.24 200.091 m
210.24 213.257 l
} bind def
/p1_10 {
newpath
translate
285.171 277.989 m
285.171 287.863 l
} bind def
/p1_11 {
newpath
translate
192.703 175.954 m
192.703 189.12 l
} bind def
/p1_12 {
newpath
translate
256.474 244.526 m
256.474 257.691 l
} bind def
/p1_13 {
newpath
translate
247.44 191.314 m
247.44 205.577 l
} bind def
/p1_14 {
newpath
translate
269.76 257.143 m
269.76 272.503 l
} bind def
/p1_15 {
newpath
translate
286.766 273.6 m
286.766 299.931 l
} bind def
/p1_16 {
newpath
translate
257.006 239.589 m
257.006 261.531 l
} bind def
/p1_17 {
newpath
translate
243.72 222.034 m
243.72 236.297 l
} bind def
/p1_18 {
newpath
translate
196.954 186.377 m
196.954 199.543 l
} bind def
/p1_19 {
newpath
translate
340.971 326.811 m
340.971 339.977 l
} bind def
/p1_1a {
newpath
translate
289.423 277.989 m
289.423 297.737 l
} bind def
/p1_1b {
newpath
translate
183.137 167.726 m
183.137 180.891 l
} bind def
/p1_1c {
newpath
translate
252.223 236.297 m
252.223 243.977 l
} bind def
/p1_1d {
newpath
translate
279.857 264.823 m
279.857 279.086 l
} bind def
/p1_1e {
newpath
translate
218.211 202.834 m
218.211 222.583 l
} bind def
/p1_1f {
newpath
translate
329.28 316.389 m
329.28 338.331 l
} bind def
/p1_20 {
newpath
translate
345.754 340.526 m
345.754 351.497 l
} bind def
/p1_21 {
newpath
translate
288.36 274.697 m
288.36 288.96 l
} bind def
/p1_22 {
newpath
translate
202.8 193.509 m
202.8 204.48 l
} bind def
/p1_23 {
newpath
translate
210.771 201.189 m
210.771 208.869 l
} bind def
/p1_24 {
newpath
translate
235.217 203.931 m
235.217 230.263 l
} bind def
/p1_25 {
newpath
translate
257.537 250.011 m
257.537 257.691 l
} bind def
/p1_26 {
newpath
translate
192.171 177.051 m
192.171 186.926 l
} bind def
/p1_27 {
newpath
translate
302.709 293.897 m
302.709 304.869 l
} bind def
/p1_28 {
newpath
translate
206.52 215.451 m
206.52 225.326 l
} bind def
/p1_29 {
newpath
translate
158.691 143.589 m
158.691 160.046 l
} bind def
/p1_2a {
newpath
translate
177.291 165.531 m
177.291 177.6 l
} bind def
/p1_2b {
newpath
translate
84.8229 147.429 m
84.8229 164.983 l
} bind def
/p1_2c {
newpath
translate
167.726 155.657 m
167.726 166.629 l
} bind def
/p1_2d {
newpath
translate
162.411 146.88 m
162.411 162.24 l
} bind def
/p1_2e {
newpath
translate
149.126 133.166 m
149.126 148.526 l
} bind def
/p1_2f {
newpath
translate
75.2571 51.4286 m
75.2571 122.743 l
} bind def
/p1_30 {
newpath
translate
200.674 192.96 m
200.674 208.32 l
} bind def
/p1_31 {
newpath
translate
194.829 185.28 m
194.829 191.863 l
} bind def
/p1_32 {
newpath
translate
191.64 109.577 m
191.64 152.366 l
} bind def
/p1_33 {
newpath
translate
258.6 240.137 m
258.6 253.303 l
} bind def
/p1_34 {
newpath
translate
109.269 81.6 m
109.269 113.417 l
} bind def
/p1_35 {
newpath
translate
111.394 93.6686 m
111.394 109.029 l
} bind def
/p1_36 {
newpath
translate
83.2286 63.4971 m
83.2286 77.76 l
} bind def
/p1_37 {
newpath
translate
167.726 159.497 m
167.726 160.594 l
} bind def
/p1_38 {
newpath
translate
147 134.811 m
147 142.491 l
} bind def
/p1_39 {
newpath
translate
379.766 369.6 m
379.766 379.474 l
} bind def
/p1_3a {
newpath
translate
185.263 174.309 m
185.263 187.474 l
} bind def
/p1_3b {
newpath
translate
187.92 171.017 m
187.92 185.28 l
} bind def
/p1_3c {
newpath
translate
340.44 341.074 m
340.44 355.337 l
} bind def
/p1_3d {
newpath
translate
305.897 298.286 m
305.897 308.16 l
} bind def
/p1_3e {
newpath
translate
327.154 322.971 m
327.154 328.457 l
} bind def
/p1_3f {
newpath
translate
224.057 202.834 m
224.057 213.806 l
} bind def
/p1_40 {
newpath
translate
327.686 316.937 m
327.686 334.491 l
} bind def
/p1_41 {
newpath
translate
335.657 319.131 m
335.657 335.589 l
} bind def
/p1_42 {
newpath
translate
211.303 192.96 m
211.303 212.709 l
} bind def
/p1_43 {
newpath
translate
266.571 259.886 m
266.571 265.371 l
} bind def
/p1_44 {
newpath
translate
275.074 261.531 m
275.074 274.697 l
} bind def
/p1_45 {
newpath
translate
229.371 218.743 m
229.371 226.423 l
} bind def
/p1_46 {
newpath
translate
281.983 268.114 m
281.983 283.474 l
} bind def
/p1_47 {
newpath
translate
239.469 228.617 m
239.469 245.074 l
} bind def
/p1_48 {
newpath
translate
253.286 256.046 m
253.286 265.92 l
} bind def
/p1_49 {
newpath
translate
218.211 209.966 m
218.211 220.937 l
} bind def
/p1_4a {
newpath
translate
267.634 263.177 m
267.634 274.149 l
} bind def
/p1_4b {
newpath
translate
301.646 294.446 m
301.646 301.029 l
} bind def
/p1_4c {
newpath
translate
309.086 301.577 m
309.086 314.743 l
} bind def
/p1_4d {
newpath
translate
296.863 285.669 m
296.863 304.32 l
} bind def
gsave
334.8 345.6 54 43.2 clipbox
0 0 p1_0
stroke
grestore
gsave
334.8 345.6 54 43.2 clipbox
0 0 p1_1
stroke
grestore
gsave
334.8 345.6 54 43.2 clipbox
0 0 p1_2
stroke
grestore
gsave
334.8 345.6 54 43.2 clipbox
0 0 p1_3
stroke
grestore
gsave
334.8 345.6 54 43.2 clipbox
0 0 p1_4
stroke
grestore
gsave
334.8 345.6 54 43.2 clipbox
0 0 p1_5
stroke
grestore
gsave
334.8 345.6 54 43.2 clipbox
0 0 p1_6
stroke
grestore
gsave
334.8 345.6 54 43.2 clipbox
0 0 p1_7
stroke
grestore
gsave
334.8 345.6 54 43.2 clipbox
0 0 p1_8
stroke
grestore
gsave
334.8 345.6 54 43.2 clipbox
0 0 p1_9
stroke
grestore
gsave
334.8 345.6 54 43.2 clipbox
0 0 p1_a
stroke
grestore
gsave
334.8 345.6 54 43.2 clipbox
0 0 p1_b
stroke
grestore
gsave
334.8 345.6 54 43.2 clipbox
0 0 p1_c
stroke
grestore
gsave
334.8 345.6 54 43.2 clipbox
0 0 p1_d
stroke
grestore
gsave
334.8 345.6 54 43.2 clipbox
0 0 p1_e
stroke
grestore
gsave
334.8 345.6 54 43.2 clipbox
0 0 p1_f
stroke
grestore
gsave
334.8 345.6 54 43.2 clipbox
0 0 p1_10
stroke
grestore
gsave
334.8 345.6 54 43.2 clipbox
0 0 p1_11
stroke
grestore
gsave
334.8 345.6 54 43.2 clipbox
0 0 p1_12
stroke
grestore
gsave
334.8 345.6 54 43.2 clipbox
0 0 p1_13
stroke
grestore
gsave
334.8 345.6 54 43.2 clipbox
0 0 p1_14
stroke
grestore
gsave
334.8 345.6 54 43.2 clipbox
0 0 p1_15
stroke
grestore
gsave
334.8 345.6 54 43.2 clipbox
0 0 p1_16
stroke
grestore
gsave
334.8 345.6 54 43.2 clipbox
0 0 p1_17
stroke
grestore
gsave
334.8 345.6 54 43.2 clipbox
0 0 p1_18
stroke
grestore
gsave
334.8 345.6 54 43.2 clipbox
0 0 p1_19
stroke
grestore
gsave
334.8 345.6 54 43.2 clipbox
0 0 p1_1a
stroke
grestore
gsave
334.8 345.6 54 43.2 clipbox
0 0 p1_1b
stroke
grestore
gsave
334.8 345.6 54 43.2 clipbox
0 0 p1_1c
stroke
grestore
gsave
334.8 345.6 54 43.2 clipbox
0 0 p1_1d
stroke
grestore
gsave
334.8 345.6 54 43.2 clipbox
0 0 p1_1e
stroke
grestore
gsave
334.8 345.6 54 43.2 clipbox
0 0 p1_1f
stroke
grestore
gsave
334.8 345.6 54 43.2 clipbox
0 0 p1_20
stroke
grestore
gsave
334.8 345.6 54 43.2 clipbox
0 0 p1_21
stroke
grestore
gsave
334.8 345.6 54 43.2 clipbox
0 0 p1_22
stroke
grestore
gsave
334.8 345.6 54 43.2 clipbox
0 0 p1_23
stroke
grestore
gsave
334.8 345.6 54 43.2 clipbox
0 0 p1_24
stroke
grestore
gsave
334.8 345.6 54 43.2 clipbox
0 0 p1_25
stroke
grestore
gsave
334.8 345.6 54 43.2 clipbox
0 0 p1_26
stroke
grestore
gsave
334.8 345.6 54 43.2 clipbox
0 0 p1_27
stroke
grestore
gsave
334.8 345.6 54 43.2 clipbox
0 0 p1_28
stroke
grestore
gsave
334.8 345.6 54 43.2 clipbox
0 0 p1_29
stroke
grestore
gsave
334.8 345.6 54 43.2 clipbox
0 0 p1_2a
stroke
grestore
gsave
334.8 345.6 54 43.2 clipbox
0 0 p1_2b
stroke
grestore
gsave
334.8 345.6 54 43.2 clipbox
0 0 p1_2c
stroke
grestore
gsave
334.8 345.6 54 43.2 clipbox
0 0 p1_2d
stroke
grestore
gsave
334.8 345.6 54 43.2 clipbox
0 0 p1_2e
stroke
grestore
gsave
334.8 345.6 54 43.2 clipbox
0 0 p1_2f
stroke
grestore
gsave
334.8 345.6 54 43.2 clipbox
0 0 p1_30
stroke
grestore
gsave
334.8 345.6 54 43.2 clipbox
0 0 p1_31
stroke
grestore
gsave
334.8 345.6 54 43.2 clipbox
0 0 p1_32
stroke
grestore
gsave
334.8 345.6 54 43.2 clipbox
0 0 p1_33
stroke
grestore
gsave
334.8 345.6 54 43.2 clipbox
0 0 p1_34
stroke
grestore
gsave
334.8 345.6 54 43.2 clipbox
0 0 p1_35
stroke
grestore
gsave
334.8 345.6 54 43.2 clipbox
0 0 p1_36
stroke
grestore
gsave
334.8 345.6 54 43.2 clipbox
0 0 p1_37
stroke
grestore
gsave
334.8 345.6 54 43.2 clipbox
0 0 p1_38
stroke
grestore
gsave
334.8 345.6 54 43.2 clipbox
0 0 p1_39
stroke
grestore
gsave
334.8 345.6 54 43.2 clipbox
0 0 p1_3a
stroke
grestore
gsave
334.8 345.6 54 43.2 clipbox
0 0 p1_3b
stroke
grestore
gsave
334.8 345.6 54 43.2 clipbox
0 0 p1_3c
stroke
grestore
gsave
334.8 345.6 54 43.2 clipbox
0 0 p1_3d
stroke
grestore
gsave
334.8 345.6 54 43.2 clipbox
0 0 p1_3e
stroke
grestore
gsave
334.8 345.6 54 43.2 clipbox
0 0 p1_3f
stroke
grestore
gsave
334.8 345.6 54 43.2 clipbox
0 0 p1_40
stroke
grestore
gsave
334.8 345.6 54 43.2 clipbox
0 0 p1_41
stroke
grestore
gsave
334.8 345.6 54 43.2 clipbox
0 0 p1_42
stroke
grestore
gsave
334.8 345.6 54 43.2 clipbox
0 0 p1_43
stroke
grestore
gsave
334.8 345.6 54 43.2 clipbox
0 0 p1_44
stroke
grestore
gsave
334.8 345.6 54 43.2 clipbox
0 0 p1_45
stroke
grestore
gsave
334.8 345.6 54 43.2 clipbox
0 0 p1_46
stroke
grestore
gsave
334.8 345.6 54 43.2 clipbox
0 0 p1_47
stroke
grestore
gsave
334.8 345.6 54 43.2 clipbox
0 0 p1_48
stroke
grestore
gsave
334.8 345.6 54 43.2 clipbox
0 0 p1_49
stroke
grestore
gsave
334.8 345.6 54 43.2 clipbox
0 0 p1_4a
stroke
grestore
gsave
334.8 345.6 54 43.2 clipbox
0 0 p1_4b
stroke
grestore
gsave
334.8 345.6 54 43.2 clipbox
0 0 p1_4c
stroke
grestore
gsave
334.8 345.6 54 43.2 clipbox
0 0 p1_4d
stroke
grestore
0.500 setlinewidth
gsave
334.8 345.6 54 43.2 clipbox
/o {
gsave
newpath
translate
0.5 setlinewidth
1 setlinejoin
0 setlinecap
0 -3 m
0 3 l
gsave
0.000 setgray
fill
grestore
stroke
grestore
} bind def
144.874 141.394 o
253.286 247.817 o
297.926 293.349 o
218.743 216 o
199.08 206.674 o
241.063 247.817 o
343.097 346.56 o
268.166 265.371 o
118.834 115.063 o
350.006 352.594 o
202.269 197.897 o
183.137 184.731 o
155.503 166.08 o
152.314 145.783 o
205.989 194.606 o
205.457 206.674 o
281.451 282.926 o
187.389 182.537 o
248.503 251.109 o
242.126 198.446 o
261.257 264.823 o
275.606 286.766 o
247.44 250.56 o
240.531 229.166 o
191.109 192.96 o
333 333.394 o
281.983 287.863 o
179.417 174.309 o
249.566 240.137 o
275.074 271.954 o
213.429 212.709 o
322.903 327.36 o
343.097 346.011 o
285.703 281.829 o
200.143 198.994 o
207.051 205.029 o
224.057 217.097 o
255.411 253.851 o
188.451 181.989 o
298.989 299.383 o
198.549 220.389 o
149.126 151.817 o
173.04 171.566 o
73.6629 156.206 o
162.411 161.143 o
155.503 154.56 o
146.469 140.846 o
51.3429 87.0857 o
195.891 200.64 o
191.64 188.571 o
183.669 130.971 o
250.629 246.72 o
99.7029 97.5086 o
108.206 101.349 o
79.5086 70.6286 o
167.194 160.046 o
144.343 138.651 o
375.514 374.537 o
181.543 180.891 o
179.949 178.149 o
336.189 348.206 o
303.771 303.223 o
323.966 325.714 o
218.211 208.32 o
319.183 325.714 o
327.154 327.36 o
202.8 202.834 o
263.914 262.629 o
271.354 268.114 o
225.651 222.583 o
279.326 275.794 o
234.686 236.846 o
247.971 260.983 o
213.96 215.451 o
263.383 268.663 o
298.457 297.737 o
303.771 308.16 o
291.549 294.994 o
grestore
gsave
334.8 345.6 54 43.2 clipbox
/o {
gsave
newpath
translate
0.5 setlinewidth
1 setlinejoin
0 setlinecap
0 -3 m
0 3 l
gsave
0.000 setgray
fill
grestore
stroke
grestore
} bind def
153.377 141.394 o
267.103 247.817 o
304.303 293.349 o
224.057 216 o
219.274 206.674 o
249.566 247.817 o
349.474 346.56 o
275.606 265.371 o
135.84 115.063 o
359.571 352.594 o
210.771 197.897 o
195.891 184.731 o
179.949 166.08 o
155.503 145.783 o
211.303 194.606 o
215.023 206.674 o
288.891 282.926 o
198.017 182.537 o
264.446 251.109 o
252.754 198.446 o
278.263 264.823 o
297.926 286.766 o
266.571 250.56 o
246.909 229.166 o
202.8 192.96 o
348.943 333.394 o
296.863 287.863 o
186.857 174.309 o
254.88 240.137 o
284.64 271.954 o
222.994 212.709 o
335.657 327.36 o
348.411 346.011 o
291.017 281.829 o
205.457 198.994 o
214.491 205.029 o
246.377 217.097 o
259.663 253.851 o
195.891 181.989 o
306.429 299.383 o
214.491 220.389 o
168.257 151.817 o
181.543 171.566 o
95.9829 156.206 o
173.04 161.143 o
169.32 154.56 o
151.783 140.846 o
99.1714 87.0857 o
205.457 200.64 o
198.017 188.571 o
199.611 130.971 o
266.571 246.72 o
118.834 97.5086 o
114.583 101.349 o
86.9486 70.6286 o
168.257 160.046 o
149.657 138.651 o
384.017 374.537 o
188.983 180.891 o
195.891 178.149 o
344.691 348.206 o
308.023 303.223 o
330.343 325.714 o
229.903 208.32 o
336.189 325.714 o
344.16 327.36 o
219.806 202.834 o
269.229 262.629 o
278.794 268.114 o
233.091 222.583 o
284.64 275.794 o
244.251 236.846 o
258.6 260.983 o
222.463 215.451 o
271.886 268.663 o
304.834 297.737 o
314.4 308.16 o
302.177 294.994 o
grestore
gsave
334.8 345.6 54 43.2 clipbox
/o {
gsave
newpath
translate
0.5 setlinewidth
1 setlinejoin
0 setlinecap
3 -1.83697e-16 m
-3 1.83697e-16 l
gsave
0.000 setgray
fill
grestore
stroke
grestore
} bind def
149.126 136.457 o
260.194 239.589 o
301.114 287.314 o
221.4 213.257 o
209.177 195.154 o
245.314 242.88 o
346.286 339.977 o
271.886 259.337 o
127.337 108.48 o
354.789 347.657 o
206.52 190.766 o
189.514 178.149 o
167.726 152.366 o
153.909 143.04 o
208.646 193.509 o
210.24 200.091 o
285.171 277.989 o
192.703 175.954 o
256.474 244.526 o
247.44 191.314 o
269.76 257.143 o
286.766 273.6 o
257.006 239.589 o
243.72 222.034 o
196.954 186.377 o
340.971 326.811 o
289.423 277.989 o
183.137 167.726 o
252.223 236.297 o
279.857 264.823 o
218.211 202.834 o
329.28 316.389 o
345.754 340.526 o
288.36 274.697 o
202.8 193.509 o
210.771 201.189 o
235.217 203.931 o
257.537 250.011 o
192.171 177.051 o
302.709 293.897 o
206.52 215.451 o
158.691 143.589 o
177.291 165.531 o
84.8229 147.429 o
167.726 155.657 o
162.411 146.88 o
149.126 133.166 o
75.2571 51.4286 o
200.674 192.96 o
194.829 185.28 o
191.64 109.577 o
258.6 240.137 o
109.269 81.6 o
111.394 93.6686 o
83.2286 63.4971 o
167.726 159.497 o
147 134.811 o
379.766 369.6 o
185.263 174.309 o
187.92 171.017 o
340.44 341.074 o
305.897 298.286 o
327.154 322.971 o
224.057 202.834 o
327.686 316.937 o
335.657 319.131 o
211.303 192.96 o
266.571 259.886 o
275.074 261.531 o
229.371 218.743 o
281.983 268.114 o
239.469 228.617 o
253.286 256.046 o
218.211 209.966 o
267.634 263.177 o
301.646 294.446 o
309.086 301.577 o
296.863 285.669 o
grestore
gsave
334.8 345.6 54 43.2 clipbox
/o {
gsave
newpath
translate
0.5 setlinewidth
1 setlinejoin
0 setlinecap
3 -1.83697e-16 m
-3 1.83697e-16 l
gsave
0.000 setgray
fill
grestore
stroke
grestore
} bind def
149.126 146.331 o
260.194 256.046 o
301.114 299.383 o
221.4 218.743 o
209.177 218.194 o
245.314 252.754 o
346.286 353.143 o
271.886 271.406 o
127.337 121.646 o
354.789 357.531 o
206.52 205.029 o
189.514 191.314 o
167.726 179.794 o
153.909 148.526 o
208.646 195.703 o
210.24 213.257 o
285.171 287.863 o
192.703 189.12 o
256.474 257.691 o
247.44 205.577 o
269.76 272.503 o
286.766 299.931 o
257.006 261.531 o
243.72 236.297 o
196.954 199.543 o
340.971 339.977 o
289.423 297.737 o
183.137 180.891 o
252.223 243.977 o
279.857 279.086 o
218.211 222.583 o
329.28 338.331 o
345.754 351.497 o
288.36 288.96 o
202.8 204.48 o
210.771 208.869 o
235.217 230.263 o
257.537 257.691 o
192.171 186.926 o
302.709 304.869 o
206.52 225.326 o
158.691 160.046 o
177.291 177.6 o
84.8229 164.983 o
167.726 166.629 o
162.411 162.24 o
149.126 148.526 o
75.2571 122.743 o
200.674 208.32 o
194.829 191.863 o
191.64 152.366 o
258.6 253.303 o
109.269 113.417 o
111.394 109.029 o
83.2286 77.76 o
167.726 160.594 o
147 142.491 o
379.766 379.474 o
185.263 187.474 o
187.92 185.28 o
340.44 355.337 o
305.897 308.16 o
327.154 328.457 o
224.057 213.806 o
327.686 334.491 o
335.657 335.589 o
211.303 212.709 o
266.571 265.371 o
275.074 274.697 o
229.371 226.423 o
281.983 283.474 o
239.469 245.074 o
253.286 265.92 o
218.211 220.937 o
267.634 274.149 o
301.646 301.029 o
309.086 314.743 o
296.863 304.32 o
grestore
gsave
334.8 345.6 54 43.2 clipbox
/o {
gsave
newpath
translate
0.5 setlinewidth
1 setlinejoin
0 setlinecap
0 -1.5 m
0.397805 -1.5 0.77937 -1.34195 1.06066 -1.06066 c
1.34195 -0.77937 1.5 -0.397805 1.5 0 c
1.5 0.397805 1.34195 0.77937 1.06066 1.06066 c
0.77937 1.34195 0.397805 1.5 0 1.5 c
-0.397805 1.5 -0.77937 1.34195 -1.06066 1.06066 c
-1.34195 0.77937 -1.5 0.397805 -1.5 0 c
-1.5 -0.397805 -1.34195 -0.77937 -1.06066 -1.06066 c
-0.77937 -1.34195 -0.397805 -1.5 0 -1.5 c
cl
gsave
0.000 setgray
fill
grestore
stroke
grestore
} bind def
149.126 141.394 o
260.194 247.817 o
301.114 293.349 o
221.4 216 o
209.177 206.674 o
245.314 247.817 o
346.286 346.56 o
271.886 265.371 o
127.337 115.063 o
354.789 352.594 o
206.52 197.897 o
189.514 184.731 o
167.726 166.08 o
153.909 145.783 o
208.646 194.606 o
210.24 206.674 o
285.171 282.926 o
192.703 182.537 o
256.474 251.109 o
247.44 198.446 o
269.76 264.823 o
286.766 286.766 o
257.006 250.56 o
243.72 229.166 o
196.954 192.96 o
340.971 333.394 o
289.423 287.863 o
183.137 174.309 o
252.223 240.137 o
279.857 271.954 o
218.211 212.709 o
329.28 327.36 o
345.754 346.011 o
288.36 281.829 o
202.8 198.994 o
210.771 205.029 o
235.217 217.097 o
257.537 253.851 o
192.171 181.989 o
302.709 299.383 o
206.52 220.389 o
158.691 151.817 o
177.291 171.566 o
84.8229 156.206 o
167.726 161.143 o
162.411 154.56 o
149.126 140.846 o
75.2571 87.0857 o
200.674 200.64 o
194.829 188.571 o
191.64 130.971 o
258.6 246.72 o
109.269 97.5086 o
111.394 101.349 o
83.2286 70.6286 o
167.726 160.046 o
147 138.651 o
379.766 374.537 o
185.263 180.891 o
187.92 178.149 o
340.44 348.206 o
305.897 303.223 o
327.154 325.714 o
224.057 208.32 o
327.686 325.714 o
335.657 327.36 o
211.303 202.834 o
266.571 262.629 o
275.074 268.114 o
229.371 222.583 o
281.983 275.794 o
239.469 236.846 o
253.286 260.983 o
218.211 215.451 o
267.634 268.663 o
301.646 297.737 o
309.086 308.16 o
296.863 294.994 o
grestore
1.310 setlinewidth
2 setlinecap
gsave
334.8 345.6 54 43.2 clipbox
54 43.2 m
388.8 388.8 l
388.8 388.8 l
stroke
grestore
2.300 setlinewidth
0 setlinecap
gsave
/o {
gsave
newpath
translate
2.3 setlinewidth
1 setlinejoin
0 setlinecap
0 0 m
0 5.5 l
gsave
0.000 setgray
fill
grestore
stroke
grestore
} bind def
80.5714 43.2 o
grestore
gsave
/o {
gsave
newpath
translate
2.3 setlinewidth
1 setlinejoin
0 setlinecap
0 0 m
0 -5.5 l
gsave
0.000 setgray
fill
grestore
stroke
grestore
} bind def
80.5714 388.8 o
grestore
/BitstreamVeraSans-Roman findfont
10.000 scalefont
setfont
gsave
67.704241 31.606250 translate
0.000000 rotate
0.000000 0.000000 m /minus glyphshow
8.378906 0.000000 m /six glyphshow
14.741211 0.000000 m /zero glyphshow
21.103516 0.000000 m /zero glyphshow
grestore
gsave
/o {
gsave
newpath
translate
2.3 setlinewidth
1 setlinejoin
0 setlinecap
0 0 m
0 5.5 l
gsave
0.000 setgray
fill
grestore
stroke
grestore
} bind def
133.714 43.2 o
grestore
gsave
/o {
gsave
newpath
translate
2.3 setlinewidth
1 setlinejoin
0 setlinecap
0 0 m
0 -5.5 l
gsave
0.000 setgray
fill
grestore
stroke
grestore
} bind def
133.714 388.8 o
grestore
gsave
120.847098 31.606250 translate
0.000000 rotate
0.000000 0.000000 m /minus glyphshow
8.378906 0.000000 m /five glyphshow
14.741211 0.000000 m /zero glyphshow
21.103516 0.000000 m /zero glyphshow
grestore
gsave
/o {
gsave
newpath
translate
2.3 setlinewidth
1 setlinejoin
0 setlinecap
0 0 m
0 5.5 l
gsave
0.000 setgray
fill
grestore
stroke
grestore
} bind def
186.857 43.2 o
grestore
gsave
/o {
gsave
newpath
translate
2.3 setlinewidth
1 setlinejoin
0 setlinecap
0 0 m
0 -5.5 l
gsave
0.000 setgray
fill
grestore
stroke
grestore
} bind def
186.857 388.8 o
grestore
gsave
173.989955 31.606250 translate
0.000000 rotate
0.000000 0.000000 m /minus glyphshow
8.378906 0.000000 m /four glyphshow
14.741211 0.000000 m /zero glyphshow
21.103516 0.000000 m /zero glyphshow
grestore
gsave
/o {
gsave
newpath
translate
2.3 setlinewidth
1 setlinejoin
0 setlinecap
0 0 m
0 5.5 l
gsave
0.000 setgray
fill
grestore
stroke
grestore
} bind def
240 43.2 o
grestore
gsave
/o {
gsave
newpath
translate
2.3 setlinewidth
1 setlinejoin
0 setlinecap
0 0 m
0 -5.5 l
gsave
0.000 setgray
fill
grestore
stroke
grestore
} bind def
240 388.8 o
grestore
gsave
227.132813 31.606250 translate
0.000000 rotate
0.000000 0.000000 m /minus glyphshow
8.378906 0.000000 m /three glyphshow
14.741211 0.000000 m /zero glyphshow
21.103516 0.000000 m /zero glyphshow
grestore
gsave
/o {
gsave
newpath
translate
2.3 setlinewidth
1 setlinejoin
0 setlinecap
0 0 m
0 5.5 l
gsave
0.000 setgray
fill
grestore
stroke
grestore
} bind def
293.143 43.2 o
grestore
gsave
/o {
gsave
newpath
translate
2.3 setlinewidth
1 setlinejoin
0 setlinecap
0 0 m
0 -5.5 l
gsave
0.000 setgray
fill
grestore
stroke
grestore
} bind def
293.143 388.8 o
grestore
gsave
280.275670 31.606250 translate
0.000000 rotate
0.000000 0.000000 m /minus glyphshow
8.378906 0.000000 m /two glyphshow
14.741211 0.000000 m /zero glyphshow
21.103516 0.000000 m /zero glyphshow
grestore
gsave
/o {
gsave
newpath
translate
2.3 setlinewidth
1 setlinejoin
0 setlinecap
0 0 m
0 5.5 l
gsave
0.000 setgray
fill
grestore
stroke
grestore
} bind def
346.286 43.2 o
grestore
gsave
/o {
gsave
newpath
translate
2.3 setlinewidth
1 setlinejoin
0 setlinecap
0 0 m
0 -5.5 l
gsave
0.000 setgray
fill
grestore
stroke
grestore
} bind def
346.286 388.8 o
grestore
gsave
333.418527 31.606250 translate
0.000000 rotate
0.000000 0.000000 m /minus glyphshow
8.378906 0.000000 m /one glyphshow
14.741211 0.000000 m /zero glyphshow
21.103516 0.000000 m /zero glyphshow
grestore
1.700 setlinewidth
gsave
/o {
gsave
newpath
translate
1.7 setlinewidth
1 setlinejoin
0 setlinecap
0 0 m
0 3.5 l
gsave
0.000 setgray
fill
grestore
stroke
grestore
} bind def
54 43.2 o
grestore
gsave
/o {
gsave
newpath
translate
1.7 setlinewidth
1 setlinejoin
0 setlinecap
0 0 m
0 -3.5 l
gsave
0.000 setgray
fill
grestore
stroke
grestore
} bind def
54 388.8 o
grestore
gsave
/o {
gsave
newpath
translate
1.7 setlinewidth
1 setlinejoin
0 setlinecap
0 0 m
0 3.5 l
gsave
0.000 setgray
fill
grestore
stroke
grestore
} bind def
67.2857 43.2 o
grestore
gsave
/o {
gsave
newpath
translate
1.7 setlinewidth
1 setlinejoin
0 setlinecap
0 0 m
0 -3.5 l
gsave
0.000 setgray
fill
grestore
stroke
grestore
} bind def
67.2857 388.8 o
grestore
gsave
/o {
gsave
newpath
translate
1.7 setlinewidth
1 setlinejoin
0 setlinecap
0 0 m
0 3.5 l
gsave
0.000 setgray
fill
grestore
stroke
grestore
} bind def
80.5714 43.2 o
grestore
gsave
/o {
gsave
newpath
translate
1.7 setlinewidth
1 setlinejoin
0 setlinecap
0 0 m
0 -3.5 l
gsave
0.000 setgray
fill
grestore
stroke
grestore
} bind def
80.5714 388.8 o
grestore
gsave
/o {
gsave
newpath
translate
1.7 setlinewidth
1 setlinejoin
0 setlinecap
0 0 m
0 3.5 l
gsave
0.000 setgray
fill
grestore
stroke
grestore
} bind def
93.8571 43.2 o
grestore
gsave
/o {
gsave
newpath
translate
1.7 setlinewidth
1 setlinejoin
0 setlinecap
0 0 m
0 -3.5 l
gsave
0.000 setgray
fill
grestore
stroke
grestore
} bind def
93.8571 388.8 o
grestore
gsave
/o {
gsave
newpath
translate
1.7 setlinewidth
1 setlinejoin
0 setlinecap
0 0 m
0 3.5 l
gsave
0.000 setgray
fill
grestore
stroke
grestore
} bind def
107.143 43.2 o
grestore
gsave
/o {
gsave
newpath
translate
1.7 setlinewidth
1 setlinejoin
0 setlinecap
0 0 m
0 -3.5 l
gsave
0.000 setgray
fill
grestore
stroke
grestore
} bind def
107.143 388.8 o
grestore
gsave
/o {
gsave
newpath
translate
1.7 setlinewidth
1 setlinejoin
0 setlinecap
0 0 m
0 3.5 l
gsave
0.000 setgray
fill
grestore
stroke
grestore
} bind def
120.429 43.2 o
grestore
gsave
/o {
gsave
newpath
translate
1.7 setlinewidth
1 setlinejoin
0 setlinecap
0 0 m
0 -3.5 l
gsave
0.000 setgray
fill
grestore
stroke
grestore
} bind def
120.429 388.8 o
grestore
gsave
/o {
gsave
newpath
translate
1.7 setlinewidth
1 setlinejoin
0 setlinecap
0 0 m
0 3.5 l
gsave
0.000 setgray
fill
grestore
stroke
grestore
} bind def
133.714 43.2 o
grestore
gsave
/o {
gsave
newpath
translate
1.7 setlinewidth
1 setlinejoin
0 setlinecap
0 0 m
0 -3.5 l
gsave
0.000 setgray
fill
grestore
stroke
grestore
} bind def
133.714 388.8 o
grestore
gsave
/o {
gsave
newpath
translate
1.7 setlinewidth
1 setlinejoin
0 setlinecap
0 0 m
0 3.5 l
gsave
0.000 setgray
fill
grestore
stroke
grestore
} bind def
147 43.2 o
grestore
gsave
/o {
gsave
newpath
translate
1.7 setlinewidth
1 setlinejoin
0 setlinecap
0 0 m
0 -3.5 l
gsave
0.000 setgray
fill
grestore
stroke
grestore
} bind def
147 388.8 o
grestore
gsave
/o {
gsave
newpath
translate
1.7 setlinewidth
1 setlinejoin
0 setlinecap
0 0 m
0 3.5 l
gsave
0.000 setgray
fill
grestore
stroke
grestore
} bind def
160.286 43.2 o
grestore
gsave
/o {
gsave
newpath
translate
1.7 setlinewidth
1 setlinejoin
0 setlinecap
0 0 m
0 -3.5 l
gsave
0.000 setgray
fill
grestore
stroke
grestore
} bind def
160.286 388.8 o
grestore
gsave
/o {
gsave
newpath
translate
1.7 setlinewidth
1 setlinejoin
0 setlinecap
0 0 m
0 3.5 l
gsave
0.000 setgray
fill
grestore
stroke
grestore
} bind def
173.571 43.2 o
grestore
gsave
/o {
gsave
newpath
translate
1.7 setlinewidth
1 setlinejoin
0 setlinecap
0 0 m
0 -3.5 l
gsave
0.000 setgray
fill
grestore
stroke
grestore
} bind def
173.571 388.8 o
grestore
gsave
/o {
gsave
newpath
translate
1.7 setlinewidth
1 setlinejoin
0 setlinecap
0 0 m
0 3.5 l
gsave
0.000 setgray
fill
grestore
stroke
grestore
} bind def
186.857 43.2 o
grestore
gsave
/o {
gsave
newpath
translate
1.7 setlinewidth
1 setlinejoin
0 setlinecap
0 0 m
0 -3.5 l
gsave
0.000 setgray
fill
grestore
stroke
grestore
} bind def
186.857 388.8 o
grestore
gsave
/o {
gsave
newpath
translate
1.7 setlinewidth
1 setlinejoin
0 setlinecap
0 0 m
0 3.5 l
gsave
0.000 setgray
fill
grestore
stroke
grestore
} bind def
200.143 43.2 o
grestore
gsave
/o {
gsave
newpath
translate
1.7 setlinewidth
1 setlinejoin
0 setlinecap
0 0 m
0 -3.5 l
gsave
0.000 setgray
fill
grestore
stroke
grestore
} bind def
200.143 388.8 o
grestore
gsave
/o {
gsave
newpath
translate
1.7 setlinewidth
1 setlinejoin
0 setlinecap
0 0 m
0 3.5 l
gsave
0.000 setgray
fill
grestore
stroke
grestore
} bind def
213.429 43.2 o
grestore
gsave
/o {
gsave
newpath
translate
1.7 setlinewidth
1 setlinejoin
0 setlinecap
0 0 m
0 -3.5 l
gsave
0.000 setgray
fill
grestore
stroke
grestore
} bind def
213.429 388.8 o
grestore
gsave
/o {
gsave
newpath
translate
1.7 setlinewidth
1 setlinejoin
0 setlinecap
0 0 m
0 3.5 l
gsave
0.000 setgray
fill
grestore
stroke
grestore
} bind def
226.714 43.2 o
grestore
gsave
/o {
gsave
newpath
translate
1.7 setlinewidth
1 setlinejoin
0 setlinecap
0 0 m
0 -3.5 l
gsave
0.000 setgray
fill
grestore
stroke
grestore
} bind def
226.714 388.8 o
grestore
gsave
/o {
gsave
newpath
translate
1.7 setlinewidth
1 setlinejoin
0 setlinecap
0 0 m
0 3.5 l
gsave
0.000 setgray
fill
grestore
stroke
grestore
} bind def
240 43.2 o
grestore
gsave
/o {
gsave
newpath
translate
1.7 setlinewidth
1 setlinejoin
0 setlinecap
0 0 m
0 -3.5 l
gsave
0.000 setgray
fill
grestore
stroke
grestore
} bind def
240 388.8 o
grestore
gsave
/o {
gsave
newpath
translate
1.7 setlinewidth
1 setlinejoin
0 setlinecap
0 0 m
0 3.5 l
gsave
0.000 setgray
fill
grestore
stroke
grestore
} bind def
253.286 43.2 o
grestore
gsave
/o {
gsave
newpath
translate
1.7 setlinewidth
1 setlinejoin
0 setlinecap
0 0 m
0 -3.5 l
gsave
0.000 setgray
fill
grestore
stroke
grestore
} bind def
253.286 388.8 o
grestore
gsave
/o {
gsave
newpath
translate
1.7 setlinewidth
1 setlinejoin
0 setlinecap
0 0 m
0 3.5 l
gsave
0.000 setgray
fill
grestore
stroke
grestore
} bind def
266.571 43.2 o
grestore
gsave
/o {
gsave
newpath
translate
1.7 setlinewidth
1 setlinejoin
0 setlinecap
0 0 m
0 -3.5 l
gsave
0.000 setgray
fill
grestore
stroke
grestore
} bind def
266.571 388.8 o
grestore
gsave
/o {
gsave
newpath
translate
1.7 setlinewidth
1 setlinejoin
0 setlinecap
0 0 m
0 3.5 l
gsave
0.000 setgray
fill
grestore
stroke
grestore
} bind def
279.857 43.2 o
grestore
gsave
/o {
gsave
newpath
translate
1.7 setlinewidth
1 setlinejoin
0 setlinecap
0 0 m
0 -3.5 l
gsave
0.000 setgray
fill
grestore
stroke
grestore
} bind def
279.857 388.8 o
grestore
gsave
/o {
gsave
newpath
translate
1.7 setlinewidth
1 setlinejoin
0 setlinecap
0 0 m
0 3.5 l
gsave
0.000 setgray
fill
grestore
stroke
grestore
} bind def
293.143 43.2 o
grestore
gsave
/o {
gsave
newpath
translate
1.7 setlinewidth
1 setlinejoin
0 setlinecap
0 0 m
0 -3.5 l
gsave
0.000 setgray
fill
grestore
stroke
grestore
} bind def
293.143 388.8 o
grestore
gsave
/o {
gsave
newpath
translate
1.7 setlinewidth
1 setlinejoin
0 setlinecap
0 0 m
0 3.5 l
gsave
0.000 setgray
fill
grestore
stroke
grestore
} bind def
306.429 43.2 o
grestore
gsave
/o {
gsave
newpath
translate
1.7 setlinewidth
1 setlinejoin
0 setlinecap
0 0 m
0 -3.5 l
gsave
0.000 setgray
fill
grestore
stroke
grestore
} bind def
306.429 388.8 o
grestore
gsave
/o {
gsave
newpath
translate
1.7 setlinewidth
1 setlinejoin
0 setlinecap
0 0 m
0 3.5 l
gsave
0.000 setgray
fill
grestore
stroke
grestore
} bind def
319.714 43.2 o
grestore
gsave
/o {
gsave
newpath
translate
1.7 setlinewidth
1 setlinejoin
0 setlinecap
0 0 m
0 -3.5 l
gsave
0.000 setgray
fill
grestore
stroke
grestore
} bind def
319.714 388.8 o
grestore
gsave
/o {
gsave
newpath
translate
1.7 setlinewidth
1 setlinejoin
0 setlinecap
0 0 m
0 3.5 l
gsave
0.000 setgray
fill
grestore
stroke
grestore
} bind def
333 43.2 o
grestore
gsave
/o {
gsave
newpath
translate
1.7 setlinewidth
1 setlinejoin
0 setlinecap
0 0 m
0 -3.5 l
gsave
0.000 setgray
fill
grestore
stroke
grestore
} bind def
333 388.8 o
grestore
gsave
/o {
gsave
newpath
translate
1.7 setlinewidth
1 setlinejoin
0 setlinecap
0 0 m
0 3.5 l
gsave
0.000 setgray
fill
grestore
stroke
grestore
} bind def
346.286 43.2 o
grestore
gsave
/o {
gsave
newpath
translate
1.7 setlinewidth
1 setlinejoin
0 setlinecap
0 0 m
0 -3.5 l
gsave
0.000 setgray
fill
grestore
stroke
grestore
} bind def
346.286 388.8 o
grestore
gsave
/o {
gsave
newpath
translate
1.7 setlinewidth
1 setlinejoin
0 setlinecap
0 0 m
0 3.5 l
gsave
0.000 setgray
fill
grestore
stroke
grestore
} bind def
359.571 43.2 o
grestore
gsave
/o {
gsave
newpath
translate
1.7 setlinewidth
1 setlinejoin
0 setlinecap
0 0 m
0 -3.5 l
gsave
0.000 setgray
fill
grestore
stroke
grestore
} bind def
359.571 388.8 o
grestore
gsave
/o {
gsave
newpath
translate
1.7 setlinewidth
1 setlinejoin
0 setlinecap
0 0 m
0 3.5 l
gsave
0.000 setgray
fill
grestore
stroke
grestore
} bind def
372.857 43.2 o
grestore
gsave
/o {
gsave
newpath
translate
1.7 setlinewidth
1 setlinejoin
0 setlinecap
0 0 m
0 -3.5 l
gsave
0.000 setgray
fill
grestore
stroke
grestore
} bind def
372.857 388.8 o
grestore
gsave
/o {
gsave
newpath
translate
1.7 setlinewidth
1 setlinejoin
0 setlinecap
0 0 m
0 3.5 l
gsave
0.000 setgray
fill
grestore
stroke
grestore
} bind def
386.143 43.2 o
grestore
gsave
/o {
gsave
newpath
translate
1.7 setlinewidth
1 setlinejoin
0 setlinecap
0 0 m
0 -3.5 l
gsave
0.000 setgray
fill
grestore
stroke
grestore
} bind def
386.143 388.8 o
grestore
gsave
182.400000 13.528125 translate
0.000000 rotate
/Cmmi10 findfont
12.0 scalefont
setfont
0.000000 0.298125 moveto
/V glyphshow

/Cmr10 findfont
8.4 scalefont
setfont
6.996094 -2.763000 moveto
/x glyphshow

11.421680 -2.763000 moveto
/s glyphshow

14.731641 -2.763000 moveto
/a glyphshow

18.931641 -2.763000 moveto
/o glyphshow

/BitstreamVeraSans-Roman findfont
12.0 scalefont
setfont
23.131641 0.298125 moveto
/space glyphshow

26.946094 0.298125 moveto
/bracketleft glyphshow

31.627734 0.298125 moveto
/k glyphshow

38.576953 0.298125 moveto
/m glyphshow

50.266406 0.298125 moveto
/space glyphshow

/Cmmi10 findfont
12.0 scalefont
setfont
54.080859 0.298125 moveto
/s glyphshow

/Cmsy10 findfont
8.4 scalefont
setfont
59.694141 5.400000 moveto
/minus glyphshow

/Cmr10 findfont
8.4 scalefont
setfont
66.219727 5.400000 moveto
/one glyphshow

/BitstreamVeraSans-Roman findfont
12.0 scalefont
setfont
72.460477 0.298125 moveto
/bracketright glyphshow


grestore
2.300 setlinewidth
gsave
/o {
gsave
newpath
translate
2.3 setlinewidth
1 setlinejoin
0 setlinecap
0 0 m
5.5 0 l
gsave
0.000 setgray
fill
grestore
stroke
grestore
} bind def
54 70.6286 o
grestore
gsave
/o {
gsave
newpath
translate
2.3 setlinewidth
1 setlinejoin
0 setlinecap
0 0 m
-5.5 0 l
gsave
0.000 setgray
fill
grestore
stroke
grestore
} bind def
388.8 70.6286 o
grestore
gsave
24.265625 67.870759 translate
0.000000 rotate
0.000000 0.000000 m /minus glyphshow
8.378906 0.000000 m /six glyphshow
14.741211 0.000000 m /zero glyphshow
21.103516 0.000000 m /zero glyphshow
grestore
gsave
/o {
gsave
newpath
translate
2.3 setlinewidth
1 setlinejoin
0 setlinecap
0 0 m
5.5 0 l
gsave
0.000 setgray
fill
grestore
stroke
grestore
} bind def
54 125.486 o
grestore
gsave
/o {
gsave
newpath
translate
2.3 setlinewidth
1 setlinejoin
0 setlinecap
0 0 m
-5.5 0 l
gsave
0.000 setgray
fill
grestore
stroke
grestore
} bind def
388.8 125.486 o
grestore
gsave
24.265625 122.727902 translate
0.000000 rotate
0.000000 0.000000 m /minus glyphshow
8.378906 0.000000 m /five glyphshow
14.741211 0.000000 m /zero glyphshow
21.103516 0.000000 m /zero glyphshow
grestore
gsave
/o {
gsave
newpath
translate
2.3 setlinewidth
1 setlinejoin
0 setlinecap
0 0 m
5.5 0 l
gsave
0.000 setgray
fill
grestore
stroke
grestore
} bind def
54 180.343 o
grestore
gsave
/o {
gsave
newpath
translate
2.3 setlinewidth
1 setlinejoin
0 setlinecap
0 0 m
-5.5 0 l
gsave
0.000 setgray
fill
grestore
stroke
grestore
} bind def
388.8 180.343 o
grestore
gsave
24.265625 177.585045 translate
0.000000 rotate
0.000000 0.000000 m /minus glyphshow
8.378906 0.000000 m /four glyphshow
14.741211 0.000000 m /zero glyphshow
21.103516 0.000000 m /zero glyphshow
grestore
gsave
/o {
gsave
newpath
translate
2.3 setlinewidth
1 setlinejoin
0 setlinecap
0 0 m
5.5 0 l
gsave
0.000 setgray
fill
grestore
stroke
grestore
} bind def
54 235.2 o
grestore
gsave
/o {
gsave
newpath
translate
2.3 setlinewidth
1 setlinejoin
0 setlinecap
0 0 m
-5.5 0 l
gsave
0.000 setgray
fill
grestore
stroke
grestore
} bind def
388.8 235.2 o
grestore
gsave
24.265625 232.442188 translate
0.000000 rotate
0.000000 0.000000 m /minus glyphshow
8.378906 0.000000 m /three glyphshow
14.741211 0.000000 m /zero glyphshow
21.103516 0.000000 m /zero glyphshow
grestore
gsave
/o {
gsave
newpath
translate
2.3 setlinewidth
1 setlinejoin
0 setlinecap
0 0 m
5.5 0 l
gsave
0.000 setgray
fill
grestore
stroke
grestore
} bind def
54 290.057 o
grestore
gsave
/o {
gsave
newpath
translate
2.3 setlinewidth
1 setlinejoin
0 setlinecap
0 0 m
-5.5 0 l
gsave
0.000 setgray
fill
grestore
stroke
grestore
} bind def
388.8 290.057 o
grestore
gsave
24.265625 287.299330 translate
0.000000 rotate
0.000000 0.000000 m /minus glyphshow
8.378906 0.000000 m /two glyphshow
14.741211 0.000000 m /zero glyphshow
21.103516 0.000000 m /zero glyphshow
grestore
gsave
/o {
gsave
newpath
translate
2.3 setlinewidth
1 setlinejoin
0 setlinecap
0 0 m
5.5 0 l
gsave
0.000 setgray
fill
grestore
stroke
grestore
} bind def
54 344.914 o
grestore
gsave
/o {
gsave
newpath
translate
2.3 setlinewidth
1 setlinejoin
0 setlinecap
0 0 m
-5.5 0 l
gsave
0.000 setgray
fill
grestore
stroke
grestore
} bind def
388.8 344.914 o
grestore
gsave
24.265625 342.156473 translate
0.000000 rotate
0.000000 0.000000 m /minus glyphshow
8.378906 0.000000 m /one glyphshow
14.741211 0.000000 m /zero glyphshow
21.103516 0.000000 m /zero glyphshow
grestore
1.700 setlinewidth
gsave
/o {
gsave
newpath
translate
1.7 setlinewidth
1 setlinejoin
0 setlinecap
0 0 m
3.5 0 l
gsave
0.000 setgray
fill
grestore
stroke
grestore
} bind def
54 43.2 o
grestore
gsave
/o {
gsave
newpath
translate
1.7 setlinewidth
1 setlinejoin
0 setlinecap
0 0 m
-3.5 0 l
gsave
0.000 setgray
fill
grestore
stroke
grestore
} bind def
388.8 43.2 o
grestore
gsave
/o {
gsave
newpath
translate
1.7 setlinewidth
1 setlinejoin
0 setlinecap
0 0 m
3.5 0 l
gsave
0.000 setgray
fill
grestore
stroke
grestore
} bind def
54 56.9143 o
grestore
gsave
/o {
gsave
newpath
translate
1.7 setlinewidth
1 setlinejoin
0 setlinecap
0 0 m
-3.5 0 l
gsave
0.000 setgray
fill
grestore
stroke
grestore
} bind def
388.8 56.9143 o
grestore
gsave
/o {
gsave
newpath
translate
1.7 setlinewidth
1 setlinejoin
0 setlinecap
0 0 m
3.5 0 l
gsave
0.000 setgray
fill
grestore
stroke
grestore
} bind def
54 70.6286 o
grestore
gsave
/o {
gsave
newpath
translate
1.7 setlinewidth
1 setlinejoin
0 setlinecap
0 0 m
-3.5 0 l
gsave
0.000 setgray
fill
grestore
stroke
grestore
} bind def
388.8 70.6286 o
grestore
gsave
/o {
gsave
newpath
translate
1.7 setlinewidth
1 setlinejoin
0 setlinecap
0 0 m
3.5 0 l
gsave
0.000 setgray
fill
grestore
stroke
grestore
} bind def
54 84.3429 o
grestore
gsave
/o {
gsave
newpath
translate
1.7 setlinewidth
1 setlinejoin
0 setlinecap
0 0 m
-3.5 0 l
gsave
0.000 setgray
fill
grestore
stroke
grestore
} bind def
388.8 84.3429 o
grestore
gsave
/o {
gsave
newpath
translate
1.7 setlinewidth
1 setlinejoin
0 setlinecap
0 0 m
3.5 0 l
gsave
0.000 setgray
fill
grestore
stroke
grestore
} bind def
54 98.0571 o
grestore
gsave
/o {
gsave
newpath
translate
1.7 setlinewidth
1 setlinejoin
0 setlinecap
0 0 m
-3.5 0 l
gsave
0.000 setgray
fill
grestore
stroke
grestore
} bind def
388.8 98.0571 o
grestore
gsave
/o {
gsave
newpath
translate
1.7 setlinewidth
1 setlinejoin
0 setlinecap
0 0 m
3.5 0 l
gsave
0.000 setgray
fill
grestore
stroke
grestore
} bind def
54 111.771 o
grestore
gsave
/o {
gsave
newpath
translate
1.7 setlinewidth
1 setlinejoin
0 setlinecap
0 0 m
-3.5 0 l
gsave
0.000 setgray
fill
grestore
stroke
grestore
} bind def
388.8 111.771 o
grestore
gsave
/o {
gsave
newpath
translate
1.7 setlinewidth
1 setlinejoin
0 setlinecap
0 0 m
3.5 0 l
gsave
0.000 setgray
fill
grestore
stroke
grestore
} bind def
54 125.486 o
grestore
gsave
/o {
gsave
newpath
translate
1.7 setlinewidth
1 setlinejoin
0 setlinecap
0 0 m
-3.5 0 l
gsave
0.000 setgray
fill
grestore
stroke
grestore
} bind def
388.8 125.486 o
grestore
gsave
/o {
gsave
newpath
translate
1.7 setlinewidth
1 setlinejoin
0 setlinecap
0 0 m
3.5 0 l
gsave
0.000 setgray
fill
grestore
stroke
grestore
} bind def
54 139.2 o
grestore
gsave
/o {
gsave
newpath
translate
1.7 setlinewidth
1 setlinejoin
0 setlinecap
0 0 m
-3.5 0 l
gsave
0.000 setgray
fill
grestore
stroke
grestore
} bind def
388.8 139.2 o
grestore
gsave
/o {
gsave
newpath
translate
1.7 setlinewidth
1 setlinejoin
0 setlinecap
0 0 m
3.5 0 l
gsave
0.000 setgray
fill
grestore
stroke
grestore
} bind def
54 152.914 o
grestore
gsave
/o {
gsave
newpath
translate
1.7 setlinewidth
1 setlinejoin
0 setlinecap
0 0 m
-3.5 0 l
gsave
0.000 setgray
fill
grestore
stroke
grestore
} bind def
388.8 152.914 o
grestore
gsave
/o {
gsave
newpath
translate
1.7 setlinewidth
1 setlinejoin
0 setlinecap
0 0 m
3.5 0 l
gsave
0.000 setgray
fill
grestore
stroke
grestore
} bind def
54 166.629 o
grestore
gsave
/o {
gsave
newpath
translate
1.7 setlinewidth
1 setlinejoin
0 setlinecap
0 0 m
-3.5 0 l
gsave
0.000 setgray
fill
grestore
stroke
grestore
} bind def
388.8 166.629 o
grestore
gsave
/o {
gsave
newpath
translate
1.7 setlinewidth
1 setlinejoin
0 setlinecap
0 0 m
3.5 0 l
gsave
0.000 setgray
fill
grestore
stroke
grestore
} bind def
54 180.343 o
grestore
gsave
/o {
gsave
newpath
translate
1.7 setlinewidth
1 setlinejoin
0 setlinecap
0 0 m
-3.5 0 l
gsave
0.000 setgray
fill
grestore
stroke
grestore
} bind def
388.8 180.343 o
grestore
gsave
/o {
gsave
newpath
translate
1.7 setlinewidth
1 setlinejoin
0 setlinecap
0 0 m
3.5 0 l
gsave
0.000 setgray
fill
grestore
stroke
grestore
} bind def
54 194.057 o
grestore
gsave
/o {
gsave
newpath
translate
1.7 setlinewidth
1 setlinejoin
0 setlinecap
0 0 m
-3.5 0 l
gsave
0.000 setgray
fill
grestore
stroke
grestore
} bind def
388.8 194.057 o
grestore
gsave
/o {
gsave
newpath
translate
1.7 setlinewidth
1 setlinejoin
0 setlinecap
0 0 m
3.5 0 l
gsave
0.000 setgray
fill
grestore
stroke
grestore
} bind def
54 207.771 o
grestore
gsave
/o {
gsave
newpath
translate
1.7 setlinewidth
1 setlinejoin
0 setlinecap
0 0 m
-3.5 0 l
gsave
0.000 setgray
fill
grestore
stroke
grestore
} bind def
388.8 207.771 o
grestore
gsave
/o {
gsave
newpath
translate
1.7 setlinewidth
1 setlinejoin
0 setlinecap
0 0 m
3.5 0 l
gsave
0.000 setgray
fill
grestore
stroke
grestore
} bind def
54 221.486 o
grestore
gsave
/o {
gsave
newpath
translate
1.7 setlinewidth
1 setlinejoin
0 setlinecap
0 0 m
-3.5 0 l
gsave
0.000 setgray
fill
grestore
stroke
grestore
} bind def
388.8 221.486 o
grestore
gsave
/o {
gsave
newpath
translate
1.7 setlinewidth
1 setlinejoin
0 setlinecap
0 0 m
3.5 0 l
gsave
0.000 setgray
fill
grestore
stroke
grestore
} bind def
54 235.2 o
grestore
gsave
/o {
gsave
newpath
translate
1.7 setlinewidth
1 setlinejoin
0 setlinecap
0 0 m
-3.5 0 l
gsave
0.000 setgray
fill
grestore
stroke
grestore
} bind def
388.8 235.2 o
grestore
gsave
/o {
gsave
newpath
translate
1.7 setlinewidth
1 setlinejoin
0 setlinecap
0 0 m
3.5 0 l
gsave
0.000 setgray
fill
grestore
stroke
grestore
} bind def
54 248.914 o
grestore
gsave
/o {
gsave
newpath
translate
1.7 setlinewidth
1 setlinejoin
0 setlinecap
0 0 m
-3.5 0 l
gsave
0.000 setgray
fill
grestore
stroke
grestore
} bind def
388.8 248.914 o
grestore
gsave
/o {
gsave
newpath
translate
1.7 setlinewidth
1 setlinejoin
0 setlinecap
0 0 m
3.5 0 l
gsave
0.000 setgray
fill
grestore
stroke
grestore
} bind def
54 262.629 o
grestore
gsave
/o {
gsave
newpath
translate
1.7 setlinewidth
1 setlinejoin
0 setlinecap
0 0 m
-3.5 0 l
gsave
0.000 setgray
fill
grestore
stroke
grestore
} bind def
388.8 262.629 o
grestore
gsave
/o {
gsave
newpath
translate
1.7 setlinewidth
1 setlinejoin
0 setlinecap
0 0 m
3.5 0 l
gsave
0.000 setgray
fill
grestore
stroke
grestore
} bind def
54 276.343 o
grestore
gsave
/o {
gsave
newpath
translate
1.7 setlinewidth
1 setlinejoin
0 setlinecap
0 0 m
-3.5 0 l
gsave
0.000 setgray
fill
grestore
stroke
grestore
} bind def
388.8 276.343 o
grestore
gsave
/o {
gsave
newpath
translate
1.7 setlinewidth
1 setlinejoin
0 setlinecap
0 0 m
3.5 0 l
gsave
0.000 setgray
fill
grestore
stroke
grestore
} bind def
54 290.057 o
grestore
gsave
/o {
gsave
newpath
translate
1.7 setlinewidth
1 setlinejoin
0 setlinecap
0 0 m
-3.5 0 l
gsave
0.000 setgray
fill
grestore
stroke
grestore
} bind def
388.8 290.057 o
grestore
gsave
/o {
gsave
newpath
translate
1.7 setlinewidth
1 setlinejoin
0 setlinecap
0 0 m
3.5 0 l
gsave
0.000 setgray
fill
grestore
stroke
grestore
} bind def
54 303.771 o
grestore
gsave
/o {
gsave
newpath
translate
1.7 setlinewidth
1 setlinejoin
0 setlinecap
0 0 m
-3.5 0 l
gsave
0.000 setgray
fill
grestore
stroke
grestore
} bind def
388.8 303.771 o
grestore
gsave
/o {
gsave
newpath
translate
1.7 setlinewidth
1 setlinejoin
0 setlinecap
0 0 m
3.5 0 l
gsave
0.000 setgray
fill
grestore
stroke
grestore
} bind def
54 317.486 o
grestore
gsave
/o {
gsave
newpath
translate
1.7 setlinewidth
1 setlinejoin
0 setlinecap
0 0 m
-3.5 0 l
gsave
0.000 setgray
fill
grestore
stroke
grestore
} bind def
388.8 317.486 o
grestore
gsave
/o {
gsave
newpath
translate
1.7 setlinewidth
1 setlinejoin
0 setlinecap
0 0 m
3.5 0 l
gsave
0.000 setgray
fill
grestore
stroke
grestore
} bind def
54 331.2 o
grestore
gsave
/o {
gsave
newpath
translate
1.7 setlinewidth
1 setlinejoin
0 setlinecap
0 0 m
-3.5 0 l
gsave
0.000 setgray
fill
grestore
stroke
grestore
} bind def
388.8 331.2 o
grestore
gsave
/o {
gsave
newpath
translate
1.7 setlinewidth
1 setlinejoin
0 setlinecap
0 0 m
3.5 0 l
gsave
0.000 setgray
fill
grestore
stroke
grestore
} bind def
54 344.914 o
grestore
gsave
/o {
gsave
newpath
translate
1.7 setlinewidth
1 setlinejoin
0 setlinecap
0 0 m
-3.5 0 l
gsave
0.000 setgray
fill
grestore
stroke
grestore
} bind def
388.8 344.914 o
grestore
gsave
/o {
gsave
newpath
translate
1.7 setlinewidth
1 setlinejoin
0 setlinecap
0 0 m
3.5 0 l
gsave
0.000 setgray
fill
grestore
stroke
grestore
} bind def
54 358.629 o
grestore
gsave
/o {
gsave
newpath
translate
1.7 setlinewidth
1 setlinejoin
0 setlinecap
0 0 m
-3.5 0 l
gsave
0.000 setgray
fill
grestore
stroke
grestore
} bind def
388.8 358.629 o
grestore
gsave
/o {
gsave
newpath
translate
1.7 setlinewidth
1 setlinejoin
0 setlinecap
0 0 m
3.5 0 l
gsave
0.000 setgray
fill
grestore
stroke
grestore
} bind def
54 372.343 o
grestore
gsave
/o {
gsave
newpath
translate
1.7 setlinewidth
1 setlinejoin
0 setlinecap
0 0 m
-3.5 0 l
gsave
0.000 setgray
fill
grestore
stroke
grestore
} bind def
388.8 372.343 o
grestore
gsave
/o {
gsave
newpath
translate
1.7 setlinewidth
1 setlinejoin
0 setlinecap
0 0 m
3.5 0 l
gsave
0.000 setgray
fill
grestore
stroke
grestore
} bind def
54 386.057 o
grestore
gsave
/o {
gsave
newpath
translate
1.7 setlinewidth
1 setlinejoin
0 setlinecap
0 0 m
-3.5 0 l
gsave
0.000 setgray
fill
grestore
stroke
grestore
} bind def
388.8 386.057 o
grestore
gsave
14.265625 180.000000 translate
90.000000 rotate
/Cmmi10 findfont
12.0 scalefont
setfont
0.000000 0.298125 moveto
/V glyphshow

/Cmmi10 findfont
8.4 scalefont
setfont
6.996094 -2.763000 moveto
/chi glyphshow

/Cmr10 findfont
5.88 scalefont
setfont
12.246094 0.808312 moveto
/two glyphshow

/BitstreamVeraSans-Roman findfont
12.0 scalefont
setfont
17.874619 0.298125 moveto
/space glyphshow

21.689072 0.298125 moveto
/bracketleft glyphshow

26.370712 0.298125 moveto
/k glyphshow

33.319931 0.298125 moveto
/m glyphshow

45.009384 0.298125 moveto
/space glyphshow

/Cmmi10 findfont
12.0 scalefont
setfont
48.823837 0.298125 moveto
/s glyphshow

/Cmsy10 findfont
8.4 scalefont
setfont
54.437119 5.400000 moveto
/minus glyphshow

/Cmr10 findfont
8.4 scalefont
setfont
60.962705 5.400000 moveto
/one glyphshow

/BitstreamVeraSans-Roman findfont
12.0 scalefont
setfont
67.203455 0.298125 moveto
/bracketright glyphshow


grestore
1.000 setlinewidth
gsave
54 388.8 m
388.8 388.8 l
stroke
grestore
gsave
388.8 43.2 m
388.8 388.8 l
stroke
grestore
gsave
54 43.2 m
388.8 43.2 l
stroke
grestore
gsave
54 43.2 m
54 388.8 l
stroke
grestore

end
showpage
