%!PS-Adobe-3.0 EPSF-3.0
%%Title: /home/jv/Desktop/ISIScomp.eps
%%Creator: matplotlib version 1.1.1rc2, http://matplotlib.sourceforge.net/
%%CreationDate: Sun Mar 23 12:20:42 2014
%%Orientation: portrait
%%BoundingBox: 108 201 503 590
%%EndComments
%%BeginProlog
/mpldict 11 dict def
mpldict begin
/m { moveto } bind def
/l { lineto } bind def
/r { rlineto } bind def
/c { curveto } bind def
/cl { closepath } bind def
/box {
m
1 index 0 r
0 exch r
neg 0 r
cl
} bind def
/clipbox {
box
clip
newpath
} bind def
%!PS-Adobe-3.0 Resource-Font
%%Title: cmsy10
%%Copyright: Copyright (C) 1994, Basil K. Malyshev. All Rights Reserved.012BaKoMa Fonts Collection, Level-B.
%%Creator: Converted from TrueType to type 3 by PPR
25 dict begin
/_d{bind def}bind def
/_m{moveto}_d
/_l{lineto}_d
/_cl{closepath eofill}_d
/_c{curveto}_d
/_sc{7 -1 roll{setcachedevice}{pop pop pop pop pop pop}ifelse}_d
/_e{exec}_d
/FontName /Cmsy10 def
/PaintType 0 def
/FontMatrix[.001 0 0 .001 0 0]def
/FontBBox[-29 -960 1123 779]def
/FontType 3 def
/Encoding [ /minus ] def
/FontInfo 10 dict dup begin
/FamilyName (cmsy10) def
/FullName (cmsy10) def
/Notice (Copyright (C) 1994, Basil K. Malyshev. All Rights Reserved.012BaKoMa Fonts Collection, Level-B. ) def
/Weight (Regular) def
/Version (1.1/12-Nov-94) def
/ItalicAngle 0.0 def
/isFixedPitch false def
/UnderlinePosition -133 def
/UnderlineThickness 20 def
end readonly def
/CharStrings 1 dict dup begin
/minus{777 0 83 230 694 270 _sc
102 230 _m
96 230 92 232 88 236 _c
84 240 83 245 83 250 _c
83 254 84 259 88 263 _c
92 267 96 270 102 270 _c
676 270 _l
681 270 685 267 689 263 _c
692 259 694 254 694 250 _c
694 245 692 240 689 236 _c
685 232 681 230 676 230 _c
102 230 _l
_cl}_d
end readonly def

/BuildGlyph
 {exch begin
 CharStrings exch
 2 copy known not{pop /.notdef}if
 true 3 1 roll get exec
 end}_d

/BuildChar {
 1 index /Encoding get exch get
 1 index /BuildGlyph get exec
}_d

FontName currentdict end definefont pop
%!PS-Adobe-3.0 Resource-Font
%%Title: cmmi10
%%Copyright: Copyright (C) 1994, Basil K. Malyshev. All Rights Reserved.012BaKoMa Fonts Collection, Level-B.
%%Creator: Converted from TrueType to type 3 by PPR
25 dict begin
/_d{bind def}bind def
/_m{moveto}_d
/_l{lineto}_d
/_cl{closepath eofill}_d
/_c{curveto}_d
/_sc{7 -1 roll{setcachedevice}{pop pop pop pop pop pop}ifelse}_d
/_e{exec}_d
/FontName /Cmmi10 def
/PaintType 0 def
/FontMatrix[.001 0 0 .001 0 0]def
/FontBBox[-34 -250 1048 750]def
/FontType 3 def
/Encoding [ /S /I /V ] def
/FontInfo 10 dict dup begin
/FamilyName (cmmi10) def
/FullName (cmmi10) def
/Notice (Copyright (C) 1994, Basil K. Malyshev. All Rights Reserved.012BaKoMa Fonts Collection, Level-B. ) def
/Weight (Regular) def
/Version (1.1/12-Nov-94) def
/ItalicAngle 0.0 def
/isFixedPitch false def
/UnderlinePosition -133 def
/UnderlineThickness 20 def
end readonly def
/CharStrings 3 dict dup begin
/S{{613 0 53 -21 646 705 _sc
61 -21 _m
59 -21 57 -19 55 -17 _c
53 -15 53 -13 53 -11 _c
111 221 _l
112 225 115 227 119 227 _c
131 227 _l
133 227 135 226 137 224 _c
138 222 139 219 139 217 _c
133 194 131 174 131 156 _c
131 107 147 71 180 48 _c
213 24 255 13 306 13 _c
328 13 349 18 370 29 _c
391 39 410 53 426 71 _c
442 88 454 107 464 129 _c
}_e{473 150 478 172 478 194 _c
478 217 471 238 459 256 _c
447 274 430 286 408 292 _c
286 324 _l
253 332 227 350 207 377 _c
187 403 178 433 178 467 _c
178 507 190 545 214 582 _c
238 619 269 649 307 671 _c
345 693 384 705 424 705 _c
454 705 482 699 508 688 _c
533 676 553 659 567 635 _c
624 702 _l
628 704 630 705 631 705 _c
637 705 _l
639 705 641 703 643 701 _c
}_e{645 699 646 697 646 695 _c
588 463 _l
586 458 584 456 580 456 _c
568 456 _l
562 456 559 459 559 467 _c
562 488 564 506 564 522 _c
564 552 558 579 548 602 _c
537 625 521 643 500 655 _c
478 667 452 673 421 673 _c
394 673 367 665 341 650 _c
315 634 293 614 277 589 _c
261 563 253 537 253 510 _c
253 488 259 469 272 453 _c
284 436 301 425 322 419 _c
444 387 _l
}_e{466 381 485 370 501 356 _c
517 341 530 323 539 303 _c
547 283 552 261 552 237 _c
552 205 545 173 532 143 _c
518 112 500 84 476 59 _c
452 33 424 14 394 0 _c
364 -14 333 -21 302 -21 _c
222 -21 165 2 131 48 _c
75 -18 _l
71 -20 68 -21 68 -21 _c
61 -21 _l
_cl}_e}_d
/I{{439 0 32 0 500 683 _sc
42 0 _m
35 0 32 4 32 13 _c
34 27 39 35 45 35 _c
84 35 111 36 125 39 _c
140 42 150 52 154 69 _c
291 618 _l
292 624 293 629 293 631 _c
293 635 292 638 290 640 _c
288 642 284 643 280 644 _c
266 646 241 648 204 648 _c
197 648 194 652 194 661 _c
196 669 197 675 199 678 _c
200 681 204 683 211 683 _c
490 683 _l
}_e{496 683 500 678 500 670 _c
500 668 499 665 498 661 _c
497 657 496 654 494 652 _c
492 649 490 648 487 648 _c
447 648 420 646 406 644 _c
391 640 382 630 378 614 _c
241 65 _l
239 57 239 52 239 52 _c
239 50 239 48 239 47 _c
239 45 240 44 242 43 _c
244 42 245 41 247 41 _c
248 40 250 39 252 39 _c
264 36 290 35 328 35 _c
334 35 338 30 338 22 _c
}_e{335 12 333 6 332 4 _c
331 1 327 0 321 0 _c
42 0 _l
_cl}_e}_d
/V{{583 0 55 -21 769 683 _sc
220 -10 _m
140 626 _l
135 640 110 648 65 648 _c
58 648 55 652 55 661 _c
56 668 58 673 60 677 _c
62 681 66 683 72 683 _c
316 683 _l
319 683 321 681 323 679 _c
325 676 326 673 326 670 _c
323 655 319 648 313 648 _c
261 648 233 639 230 621 _c
296 98 _l
604 590 _l
610 600 613 609 613 616 _c
613 628 607 636 597 641 _c
586 645 574 648 560 648 _c
}_e{553 648 550 652 550 661 _c
551 666 552 670 553 673 _c
554 676 556 678 558 680 _c
560 682 563 683 567 683 _c
760 683 _l
766 683 769 678 769 670 _c
766 655 762 648 756 648 _c
706 648 666 626 638 582 _c
636 580 635 580 635 580 _c
266 -10 _l
261 -17 255 -21 247 -21 _c
233 -21 _l
225 -21 221 -17 220 -10 _c
_cl}_e}_d
end readonly def

/BuildGlyph
 {exch begin
 CharStrings exch
 2 copy known not{pop /.notdef}if
 true 3 1 roll get exec
 end}_d

/BuildChar {
 1 index /Encoding get exch get
 1 index /BuildGlyph get exec
}_d

FontName currentdict end definefont pop
%!PS-Adobe-3.0 Resource-Font
%%Title: cmr10
%%Copyright: Copyright (C) 1994, Basil K. Malyshev. All Rights Reserved.012BaKoMa Fonts Collection, Level-B.
%%Creator: Converted from TrueType to type 3 by PPR
25 dict begin
/_d{bind def}bind def
/_m{moveto}_d
/_l{lineto}_d
/_cl{closepath eofill}_d
/_c{curveto}_d
/_sc{7 -1 roll{setcachedevice}{pop pop pop pop pop pop}ifelse}_d
/_e{exec}_d
/FontName /Cmr10 def
/PaintType 0 def
/FontMatrix[.001 0 0 .001 0 0]def
/FontBBox[-44 -250 1009 750]def
/FontType 3 def
/Encoding [ /i /o /h /one /l /e ] def
/FontInfo 10 dict dup begin
/FamilyName (cmr10) def
/FullName (cmr10) def
/Notice (Copyright (C) 1994, Basil K. Malyshev. All Rights Reserved.012BaKoMa Fonts Collection, Level-B. ) def
/Weight (Regular) def
/Version (1.1/12-Nov-94) def
/ItalicAngle 0.0 def
/isFixedPitch false def
/UnderlinePosition -133 def
/UnderlineThickness 20 def
end readonly def
/CharStrings 6 dict dup begin
/i{{277 0 31 0 249 669 _sc
31 0 _m
31 35 _l
53 35 72 36 87 40 _c
101 44 109 53 109 67 _c
109 340 _l
109 365 104 381 94 387 _c
84 393 64 396 35 396 _c
35 431 _l
179 442 _l
179 67 _l
179 53 185 44 198 40 _c
210 36 227 35 249 35 _c
249 0 _l
31 0 _l
73 614 _m
73 628 78 641 89 652 _c
100 663 113 669 128 669 _c
137 669 146 666 155 661 _c
}_e{163 656 170 649 175 641 _c
180 632 183 623 183 614 _c
183 599 177 586 166 575 _c
155 564 142 559 128 559 _c
113 559 100 564 89 575 _c
78 586 73 599 73 614 _c
_cl}_e}_d
/o{{500 0 28 -10 471 448 _sc
250 -10 _m
210 -10 172 0 138 20 _c
104 40 77 67 57 101 _c
37 135 28 172 28 213 _c
28 243 33 273 44 301 _c
55 329 71 355 91 377 _c
111 399 135 417 162 429 _c
189 441 218 448 250 448 _c
291 448 328 437 362 415 _c
396 393 422 364 442 328 _c
461 292 471 253 471 213 _c
471 173 461 135 441 101 _c
421 67 395 40 361 20 _c
}_e{327 0 290 -10 250 -10 _c
250 18 _m
303 18 339 37 357 76 _c
375 114 384 164 384 224 _c
384 257 382 285 378 307 _c
374 329 367 349 355 367 _c
347 378 338 388 326 396 _c
314 404 302 411 290 415 _c
277 419 264 422 250 422 _c
229 422 209 417 191 408 _c
172 398 156 385 144 367 _c
131 348 123 327 120 305 _c
116 282 115 255 115 224 _c
115 186 118 153 125 123 _c
}_e{131 93 144 68 164 48 _c
184 28 212 18 250 18 _c
_cl}_e}_d
/h{{555 0 30 0 537 694 _sc
30 0 _m
30 35 _l
52 35 71 36 86 40 _c
100 44 108 53 108 67 _c
108 592 _l
108 610 105 623 100 631 _c
94 639 87 643 77 645 _c
67 647 51 648 30 648 _c
30 683 _l
178 694 _l
178 350 _l
192 378 211 400 236 417 _c
261 433 289 442 320 442 _c
366 442 400 430 424 408 _c
447 386 459 352 459 307 _c
459 67 _l
459 53 466 44 481 40 _c
}_e{495 36 514 35 537 35 _c
537 0 _l
308 0 _l
308 35 _l
330 35 349 36 364 40 _c
378 44 386 53 386 67 _c
386 304 _l
386 336 381 363 372 384 _c
362 405 343 416 314 416 _c
275 416 243 400 218 369 _c
193 338 181 303 181 264 _c
181 67 _l
181 53 188 44 203 40 _c
217 36 236 35 259 35 _c
259 0 _l
30 0 _l
_cl}_e}_d
/one{500 0 87 0 421 666 _sc
93 0 _m
93 35 _l
176 35 218 45 218 67 _c
218 592 _l
183 575 139 567 87 567 _c
87 602 _l
168 602 230 623 272 666 _c
286 666 _l
288 666 291 665 293 663 _c
295 661 296 659 296 657 _c
296 67 _l
296 45 337 35 421 35 _c
421 0 _l
93 0 _l
_cl}_d
/l{277 0 31 0 257 694 _sc
31 0 _m
31 35 _l
53 35 72 36 87 40 _c
101 44 109 53 109 67 _c
109 592 _l
109 610 106 623 101 631 _c
95 639 88 643 78 645 _c
68 647 52 648 31 648 _c
31 683 _l
179 694 _l
179 67 _l
179 53 186 44 201 40 _c
215 36 234 35 257 35 _c
257 0 _l
31 0 _l
_cl}_d
/e{{444 0 28 -10 415 448 _sc
249 -10 _m
208 -10 171 0 137 21 _c
103 42 76 70 57 106 _c
37 142 28 179 28 219 _c
28 258 36 295 54 330 _c
72 365 96 393 128 415 _c
160 437 195 448 235 448 _c
265 448 292 442 315 432 _c
337 422 356 408 371 390 _c
385 372 396 350 404 326 _c
411 301 415 274 415 244 _c
415 235 411 231 405 231 _c
115 231 _l
115 220 _l
}_e{115 164 126 117 148 77 _c
170 37 207 18 258 18 _c
278 18 297 22 315 31 _c
332 40 347 53 360 69 _c
372 85 381 103 386 122 _c
386 124 388 126 390 128 _c
392 130 394 131 396 131 _c
405 131 _l
411 131 415 126 415 118 _c
405 80 385 50 354 26 _c
322 2 287 -10 249 -10 _c
116 256 _m
344 256 _l
344 280 340 306 333 332 _c
326 358 314 379 298 396 _c
}_e{282 413 261 422 235 422 _c
197 422 167 404 147 369 _c
126 333 116 296 116 256 _c
_cl}_e}_d
end readonly def

/BuildGlyph
 {exch begin
 CharStrings exch
 2 copy known not{pop /.notdef}if
 true 3 1 roll get exec
 end}_d

/BuildChar {
 1 index /Encoding get exch get
 1 index /BuildGlyph get exec
}_d

FontName currentdict end definefont pop
%!PS-Adobe-3.0 Resource-Font
%%Title: Bitstream Vera Sans
%%Copyright: Copyright (c) 2003 by Bitstream, Inc. All Rights Reserved.
%%Creator: Converted from TrueType to type 3 by PPR
25 dict begin
/_d{bind def}bind def
/_m{moveto}_d
/_l{lineto}_d
/_cl{closepath eofill}_d
/_c{curveto}_d
/_sc{7 -1 roll{setcachedevice}{pop pop pop pop pop pop}ifelse}_d
/_e{exec}_d
/FontName /BitstreamVeraSans-Roman def
/PaintType 0 def
/FontMatrix[.001 0 0 .001 0 0]def
/FontBBox[-183 -236 1287 928]def
/FontType 3 def
/Encoding [ /space /zero /one /two /three /four /five /six /bracketleft /bracketright /a /b /d /e /k /l /m /r /s /u /minus ] def
/FontInfo 10 dict dup begin
/FamilyName (Bitstream Vera Sans) def
/FullName (Bitstream Vera Sans) def
/Notice (Copyright (c) 2003 by Bitstream, Inc. All Rights Reserved. Bitstream Vera is a trademark of Bitstream, Inc.) def
/Weight (Roman) def
/Version (Release 1.10) def
/ItalicAngle 0.0 def
/isFixedPitch false def
/UnderlinePosition -213 def
/UnderlineThickness 143 def
end readonly def
/CharStrings 21 dict dup begin
/space{318 0 0 0 0 0 _sc
}_d
/zero{636 0 66 -13 570 742 _sc
318 664 _m
267 664 229 639 203 589 _c
177 539 165 464 165 364 _c
165 264 177 189 203 139 _c
229 89 267 64 318 64 _c
369 64 407 89 433 139 _c
458 189 471 264 471 364 _c
471 464 458 539 433 589 _c
407 639 369 664 318 664 _c
318 742 _m
399 742 461 709 505 645 _c
548 580 570 486 570 364 _c
570 241 548 147 505 83 _c
461 19 399 -13 318 -13 _c
236 -13 173 19 130 83 _c
87 147 66 241 66 364 _c
66 486 87 580 130 645 _c
173 709 236 742 318 742 _c
_cl}_d
/one{636 0 110 0 544 729 _sc
124 83 _m
285 83 _l
285 639 _l
110 604 _l
110 694 _l
284 729 _l
383 729 _l
383 83 _l
544 83 _l
544 0 _l
124 0 _l
124 83 _l
_cl}_d
/two{{636 0 73 0 536 742 _sc
192 83 _m
536 83 _l
536 0 _l
73 0 _l
73 83 _l
110 121 161 173 226 239 _c
290 304 331 346 348 365 _c
380 400 402 430 414 455 _c
426 479 433 504 433 528 _c
433 566 419 598 392 622 _c
365 646 330 659 286 659 _c
255 659 222 653 188 643 _c
154 632 117 616 78 594 _c
78 694 _l
118 710 155 722 189 730 _c
223 738 255 742 284 742 _c
}_e{359 742 419 723 464 685 _c
509 647 532 597 532 534 _c
532 504 526 475 515 449 _c
504 422 484 390 454 354 _c
446 344 420 317 376 272 _c
332 227 271 164 192 83 _c
_cl}_e}_d
/three{{636 0 76 -13 556 742 _sc
406 393 _m
453 383 490 362 516 330 _c
542 298 556 258 556 212 _c
556 140 531 84 482 45 _c
432 6 362 -13 271 -13 _c
240 -13 208 -10 176 -4 _c
144 1 110 10 76 22 _c
76 117 _l
103 101 133 89 166 81 _c
198 73 232 69 268 69 _c
330 69 377 81 409 105 _c
441 129 458 165 458 212 _c
458 254 443 288 413 312 _c
383 336 341 349 287 349 _c
}_e{202 349 _l
202 430 _l
291 430 _l
339 430 376 439 402 459 _c
428 478 441 506 441 543 _c
441 580 427 609 401 629 _c
374 649 336 659 287 659 _c
260 659 231 656 200 650 _c
169 644 135 635 98 623 _c
98 711 _l
135 721 170 729 203 734 _c
235 739 266 742 296 742 _c
370 742 429 725 473 691 _c
517 657 539 611 539 553 _c
539 513 527 479 504 451 _c
481 423 448 403 406 393 _c
_cl}_e}_d
/four{636 0 49 0 580 729 _sc
378 643 _m
129 254 _l
378 254 _l
378 643 _l
352 729 _m
476 729 _l
476 254 _l
580 254 _l
580 172 _l
476 172 _l
476 0 _l
378 0 _l
378 172 _l
49 172 _l
49 267 _l
352 729 _l
_cl}_d
/five{{636 0 77 -13 549 729 _sc
108 729 _m
495 729 _l
495 646 _l
198 646 _l
198 467 _l
212 472 227 476 241 478 _c
255 480 270 482 284 482 _c
365 482 429 459 477 415 _c
525 370 549 310 549 234 _c
549 155 524 94 475 51 _c
426 8 357 -13 269 -13 _c
238 -13 207 -10 175 -6 _c
143 -1 111 6 77 17 _c
77 116 _l
106 100 136 88 168 80 _c
199 72 232 69 267 69 _c
}_e{323 69 368 83 401 113 _c
433 143 450 183 450 234 _c
450 284 433 324 401 354 _c
368 384 323 399 267 399 _c
241 399 214 396 188 390 _c
162 384 135 375 108 363 _c
108 729 _l
_cl}_e}_d
/six{{636 0 70 -13 573 742 _sc
330 404 _m
286 404 251 388 225 358 _c
199 328 186 286 186 234 _c
186 181 199 139 225 109 _c
251 79 286 64 330 64 _c
374 64 409 79 435 109 _c
461 139 474 181 474 234 _c
474 286 461 328 435 358 _c
409 388 374 404 330 404 _c
526 713 _m
526 623 _l
501 635 476 644 451 650 _c
425 656 400 659 376 659 _c
310 659 260 637 226 593 _c
}_e{192 549 172 482 168 394 _c
187 422 211 444 240 459 _c
269 474 301 482 336 482 _c
409 482 467 459 509 415 _c
551 371 573 310 573 234 _c
573 159 550 99 506 54 _c
462 9 403 -13 330 -13 _c
246 -13 181 19 137 83 _c
92 147 70 241 70 364 _c
70 479 97 571 152 639 _c
206 707 280 742 372 742 _c
396 742 421 739 447 735 _c
472 730 498 723 526 713 _c
_cl}_e}_d
/bracketleft{390 0 86 -131 293 760 _sc
86 760 _m
293 760 _l
293 690 _l
176 690 _l
176 -61 _l
293 -61 _l
293 -131 _l
86 -131 _l
86 760 _l
_cl}_d
/bracketright{390 0 97 -131 304 760 _sc
304 760 _m
304 -131 _l
97 -131 _l
97 -61 _l
214 -61 _l
214 690 _l
97 690 _l
97 760 _l
304 760 _l
_cl}_d
/a{{613 0 60 -13 522 560 _sc
343 275 _m
270 275 220 266 192 250 _c
164 233 150 205 150 165 _c
150 133 160 107 181 89 _c
202 70 231 61 267 61 _c
317 61 357 78 387 114 _c
417 149 432 196 432 255 _c
432 275 _l
343 275 _l
522 312 _m
522 0 _l
432 0 _l
432 83 _l
411 49 385 25 355 10 _c
325 -5 287 -13 243 -13 _c
187 -13 142 2 109 33 _c
76 64 60 106 60 159 _c
}_e{60 220 80 266 122 298 _c
163 329 224 345 306 345 _c
432 345 _l
432 354 _l
432 395 418 427 391 450 _c
364 472 326 484 277 484 _c
245 484 215 480 185 472 _c
155 464 127 453 100 439 _c
100 522 _l
132 534 164 544 195 550 _c
226 556 256 560 286 560 _c
365 560 424 539 463 498 _c
502 457 522 395 522 312 _c
_cl}_e}_d
/b{{635 0 91 -13 580 760 _sc
487 273 _m
487 339 473 390 446 428 _c
418 466 381 485 334 485 _c
286 485 249 466 222 428 _c
194 390 181 339 181 273 _c
181 207 194 155 222 117 _c
249 79 286 61 334 61 _c
381 61 418 79 446 117 _c
473 155 487 207 487 273 _c
181 464 _m
199 496 223 520 252 536 _c
281 552 316 560 356 560 _c
422 560 476 533 518 481 _c
559 428 580 359 580 273 _c
}_e{580 187 559 117 518 65 _c
476 13 422 -13 356 -13 _c
316 -13 281 -5 252 10 _c
223 25 199 49 181 82 _c
181 0 _l
91 0 _l
91 760 _l
181 760 _l
181 464 _l
_cl}_e}_d
/d{{635 0 55 -13 544 760 _sc
454 464 _m
454 760 _l
544 760 _l
544 0 _l
454 0 _l
454 82 _l
435 49 411 25 382 10 _c
353 -5 319 -13 279 -13 _c
213 -13 159 13 117 65 _c
75 117 55 187 55 273 _c
55 359 75 428 117 481 _c
159 533 213 560 279 560 _c
319 560 353 552 382 536 _c
411 520 435 496 454 464 _c
148 273 _m
148 207 161 155 188 117 _c
215 79 253 61 301 61 _c
}_e{348 61 385 79 413 117 _c
440 155 454 207 454 273 _c
454 339 440 390 413 428 _c
385 466 348 485 301 485 _c
253 485 215 466 188 428 _c
161 390 148 339 148 273 _c
_cl}_e}_d
/e{{615 0 55 -13 562 560 _sc
562 296 _m
562 252 _l
149 252 _l
153 190 171 142 205 110 _c
238 78 284 62 344 62 _c
378 62 412 66 444 74 _c
476 82 509 95 541 113 _c
541 28 _l
509 14 476 3 442 -3 _c
408 -9 373 -13 339 -13 _c
251 -13 182 12 131 62 _c
80 112 55 181 55 268 _c
55 357 79 428 127 481 _c
175 533 241 560 323 560 _c
397 560 455 536 498 489 _c
}_e{540 441 562 377 562 296 _c
472 322 _m
471 371 457 410 431 440 _c
404 469 368 484 324 484 _c
274 484 234 469 204 441 _c
174 413 156 373 152 322 _c
472 322 _l
_cl}_e}_d
/k{579 0 91 0 576 760 _sc
91 760 _m
181 760 _l
181 311 _l
449 547 _l
564 547 _l
274 291 _l
576 0 _l
459 0 _l
181 267 _l
181 0 _l
91 0 _l
91 760 _l
_cl}_d
/l{278 0 94 0 184 760 _sc
94 760 _m
184 760 _l
184 0 _l
94 0 _l
94 760 _l
_cl}_d
/m{{974 0 91 0 889 560 _sc
520 442 _m
542 482 569 511 600 531 _c
631 550 668 560 711 560 _c
767 560 811 540 842 500 _c
873 460 889 403 889 330 _c
889 0 _l
799 0 _l
799 327 _l
799 379 789 418 771 444 _c
752 469 724 482 686 482 _c
639 482 602 466 575 435 _c
548 404 535 362 535 309 _c
535 0 _l
445 0 _l
445 327 _l
445 379 435 418 417 444 _c
398 469 369 482 331 482 _c
}_e{285 482 248 466 221 435 _c
194 404 181 362 181 309 _c
181 0 _l
91 0 _l
91 547 _l
181 547 _l
181 462 _l
201 495 226 520 255 536 _c
283 552 317 560 357 560 _c
397 560 430 550 458 530 _c
486 510 506 480 520 442 _c
_cl}_e}_d
/r{411 0 91 0 411 560 _sc
411 463 _m
401 469 390 473 378 476 _c
366 478 353 480 339 480 _c
288 480 249 463 222 430 _c
194 397 181 350 181 288 _c
181 0 _l
91 0 _l
91 547 _l
181 547 _l
181 462 _l
199 495 224 520 254 536 _c
284 552 321 560 365 560 _c
371 560 378 559 386 559 _c
393 558 401 557 411 555 _c
411 463 _l
_cl}_d
/s{{521 0 54 -13 472 560 _sc
443 531 _m
443 446 _l
417 458 391 468 364 475 _c
336 481 308 485 279 485 _c
234 485 200 478 178 464 _c
156 450 145 430 145 403 _c
145 382 153 366 169 354 _c
185 342 217 330 265 320 _c
296 313 _l
360 299 405 279 432 255 _c
458 230 472 195 472 151 _c
472 100 452 60 412 31 _c
372 1 316 -13 246 -13 _c
216 -13 186 -10 154 -5 _c
}_e{122 0 89 8 54 20 _c
54 113 _l
87 95 120 82 152 74 _c
184 65 216 61 248 61 _c
290 61 323 68 346 82 _c
368 96 380 117 380 144 _c
380 168 371 187 355 200 _c
339 213 303 226 247 238 _c
216 245 _l
160 257 119 275 95 299 _c
70 323 58 356 58 399 _c
58 450 76 490 112 518 _c
148 546 200 560 268 560 _c
301 560 332 557 362 552 _c
391 547 418 540 443 531 _c
}_e{_cl}_e}_d
/u{634 0 85 -13 543 547 _sc
85 216 _m
85 547 _l
175 547 _l
175 219 _l
175 167 185 129 205 103 _c
225 77 255 64 296 64 _c
344 64 383 79 411 110 _c
439 141 453 183 453 237 _c
453 547 _l
543 547 _l
543 0 _l
453 0 _l
453 84 _l
431 50 405 26 377 10 _c
348 -5 315 -13 277 -13 _c
214 -13 166 6 134 45 _c
101 83 85 140 85 216 _c
_cl}_d
/minus{838 0 106 272 732 355 _sc
106 355 _m
732 355 _l
732 272 _l
106 272 _l
106 355 _l
_cl}_d
end readonly def

/BuildGlyph
 {exch begin
 CharStrings exch
 2 copy known not{pop /.notdef}if
 true 3 1 roll get exec
 end}_d

/BuildChar {
 1 index /Encoding get exch get
 1 index /BuildGlyph get exec
}_d

FontName currentdict end definefont pop
end
%%EndProlog
mpldict begin
108.033 201.719 translate
395.934 388.562 0 0 clipbox
gsave
0 8.88178e-16 m
395.934 8.88178e-16 l
395.934 388.562 l
0 388.562 l
cl
1.000 setgray
fill
grestore
gsave
53.9344 35.7625 m
388.734 35.7625 l
388.734 381.363 l
53.9344 381.363 l
cl
1.000 setgray
fill
grestore
/p0_0 {
newpath
translate
131.871 128.111 m
145.044 128.111 l
} bind def
/p0_1 {
newpath
translate
199.38 197.231 m
211.455 197.231 l
} bind def
/p0_2 {
newpath
translate
182.915 204.03 m
193.892 204.03 l
} bind def
/p0_3 {
newpath
translate
231.214 238.023 m
248.777 238.023 l
} bind def
/p0_4 {
newpath
translate
173.035 168.903 m
184.012 168.903 l
} bind def
/p0_5 {
newpath
translate
62.716 56.7251 m
72.5954 56.7251 l
} bind def
/p0_6 {
newpath
translate
346.473 336.604 m
364.036 336.604 l
} bind def
/p0_7 {
newpath
translate
256.461 256.153 m
268.536 256.153 l
} bind def
/p0_8 {
newpath
translate
273.475 275.983 m
284.452 275.983 l
} bind def
/p0_9 {
newpath
translate
339.887 346.236 m
357.45 346.236 l
} bind def
/p0_a {
newpath
translate
196.636 184.767 m
214.199 184.767 l
} bind def
/p0_b {
newpath
translate
198.831 193.265 m
208.711 193.265 l
} bind def
/p0_c {
newpath
translate
177.975 166.637 m
187.854 166.637 l
} bind def
/p0_d {
newpath
translate
203.222 205.73 m
217.492 205.73 l
} bind def
/p0_e {
newpath
translate
259.754 258.986 m
272.927 258.986 l
} bind def
/p0_f {
newpath
translate
289.941 298.645 m
309.7 298.645 l
} bind def
/p0_10 {
newpath
translate
151.081 135.477 m
173.035 135.477 l
} bind def
/p0_11 {
newpath
translate
360.743 370.598 m
375.013 370.598 l
} bind def
/p0_12 {
newpath
translate
233.958 222.726 m
255.912 222.726 l
} bind def
/p0_13 {
newpath
translate
226.274 249.355 m
236.153 249.355 l
} bind def
/p0_14 {
newpath
translate
291.039 279.382 m
303.113 279.382 l
} bind def
/p0_15 {
newpath
translate
210.357 203.463 m
221.334 203.463 l
} bind def
/p0_16 {
newpath
translate
202.673 197.798 m
214.748 197.798 l
} bind def
/p0_17 {
newpath
translate
197.734 192.699 m
209.808 192.699 l
} bind def
/p0_18 {
newpath
translate
270.182 286.181 m
298.723 286.181 l
} bind def
1.000 setlinewidth
1 setlinejoin
0 setlinecap
[] 0 setdash
0.000 setgray
gsave
334.8 345.6 53.93 35.76 clipbox
0 0 p0_0
stroke
grestore
gsave
334.8 345.6 53.93 35.76 clipbox
0 0 p0_1
stroke
grestore
gsave
334.8 345.6 53.93 35.76 clipbox
0 0 p0_2
stroke
grestore
gsave
334.8 345.6 53.93 35.76 clipbox
0 0 p0_3
stroke
grestore
gsave
334.8 345.6 53.93 35.76 clipbox
0 0 p0_4
stroke
grestore
gsave
334.8 345.6 53.93 35.76 clipbox
0 0 p0_5
stroke
grestore
gsave
334.8 345.6 53.93 35.76 clipbox
0 0 p0_6
stroke
grestore
gsave
334.8 345.6 53.93 35.76 clipbox
0 0 p0_7
stroke
grestore
gsave
334.8 345.6 53.93 35.76 clipbox
0 0 p0_8
stroke
grestore
gsave
334.8 345.6 53.93 35.76 clipbox
0 0 p0_9
stroke
grestore
gsave
334.8 345.6 53.93 35.76 clipbox
0 0 p0_a
stroke
grestore
gsave
334.8 345.6 53.93 35.76 clipbox
0 0 p0_b
stroke
grestore
gsave
334.8 345.6 53.93 35.76 clipbox
0 0 p0_c
stroke
grestore
gsave
334.8 345.6 53.93 35.76 clipbox
0 0 p0_d
stroke
grestore
gsave
334.8 345.6 53.93 35.76 clipbox
0 0 p0_e
stroke
grestore
gsave
334.8 345.6 53.93 35.76 clipbox
0 0 p0_f
stroke
grestore
gsave
334.8 345.6 53.93 35.76 clipbox
0 0 p0_10
stroke
grestore
gsave
334.8 345.6 53.93 35.76 clipbox
0 0 p0_11
stroke
grestore
gsave
334.8 345.6 53.93 35.76 clipbox
0 0 p0_12
stroke
grestore
gsave
334.8 345.6 53.93 35.76 clipbox
0 0 p0_13
stroke
grestore
gsave
334.8 345.6 53.93 35.76 clipbox
0 0 p0_14
stroke
grestore
gsave
334.8 345.6 53.93 35.76 clipbox
0 0 p0_15
stroke
grestore
gsave
334.8 345.6 53.93 35.76 clipbox
0 0 p0_16
stroke
grestore
gsave
334.8 345.6 53.93 35.76 clipbox
0 0 p0_17
stroke
grestore
gsave
334.8 345.6 53.93 35.76 clipbox
0 0 p0_18
stroke
grestore
/p1_0 {
newpath
translate
138.458 122.446 m
138.458 133.777 l
} bind def
/p1_1 {
newpath
translate
205.418 191.566 m
205.418 202.897 l
} bind def
/p1_2 {
newpath
translate
188.403 198.364 m
188.403 209.696 l
} bind def
/p1_3 {
newpath
translate
239.995 232.924 m
239.995 243.123 l
} bind def
/p1_4 {
newpath
translate
178.524 163.238 m
178.524 174.569 l
} bind def
/p1_5 {
newpath
translate
67.6557 50.493 m
67.6557 62.9573 l
} bind def
/p1_6 {
newpath
translate
355.254 330.939 m
355.254 342.27 l
} bind def
/p1_7 {
newpath
translate
262.498 250.488 m
262.498 261.819 l
} bind def
/p1_8 {
newpath
translate
278.964 270.317 m
278.964 281.648 l
} bind def
/p1_9 {
newpath
translate
348.668 340.004 m
348.668 352.468 l
} bind def
/p1_a {
newpath
translate
205.418 178.535 m
205.418 190.999 l
} bind def
/p1_b {
newpath
translate
203.771 187.033 m
203.771 199.498 l
} bind def
/p1_c {
newpath
translate
182.915 159.272 m
182.915 174.002 l
} bind def
/p1_d {
newpath
translate
210.357 200.064 m
210.357 211.395 l
} bind def
/p1_e {
newpath
translate
266.34 253.321 m
266.34 264.652 l
} bind def
/p1_f {
newpath
translate
299.82 295.812 m
299.82 301.478 l
} bind def
/p1_10 {
newpath
translate
162.058 126.978 m
162.058 143.975 l
} bind def
/p1_11 {
newpath
translate
367.878 364.932 m
367.878 376.263 l
} bind def
/p1_12 {
newpath
translate
244.935 217.061 m
244.935 228.392 l
} bind def
/p1_13 {
newpath
translate
231.214 243.689 m
231.214 255.02 l
} bind def
/p1_14 {
newpath
translate
297.076 273.717 m
297.076 285.048 l
} bind def
/p1_15 {
newpath
translate
215.846 197.798 m
215.846 209.129 l
} bind def
/p1_16 {
newpath
translate
208.711 192.132 m
208.711 203.463 l
} bind def
/p1_17 {
newpath
translate
203.771 187.033 m
203.771 198.364 l
} bind def
/p1_18 {
newpath
translate
284.452 279.949 m
284.452 292.413 l
} bind def
gsave
334.8 345.6 53.93 35.76 clipbox
0 0 p1_0
stroke
grestore
gsave
334.8 345.6 53.93 35.76 clipbox
0 0 p1_1
stroke
grestore
gsave
334.8 345.6 53.93 35.76 clipbox
0 0 p1_2
stroke
grestore
gsave
334.8 345.6 53.93 35.76 clipbox
0 0 p1_3
stroke
grestore
gsave
334.8 345.6 53.93 35.76 clipbox
0 0 p1_4
stroke
grestore
gsave
334.8 345.6 53.93 35.76 clipbox
0 0 p1_5
stroke
grestore
gsave
334.8 345.6 53.93 35.76 clipbox
0 0 p1_6
stroke
grestore
gsave
334.8 345.6 53.93 35.76 clipbox
0 0 p1_7
stroke
grestore
gsave
334.8 345.6 53.93 35.76 clipbox
0 0 p1_8
stroke
grestore
gsave
334.8 345.6 53.93 35.76 clipbox
0 0 p1_9
stroke
grestore
gsave
334.8 345.6 53.93 35.76 clipbox
0 0 p1_a
stroke
grestore
gsave
334.8 345.6 53.93 35.76 clipbox
0 0 p1_b
stroke
grestore
gsave
334.8 345.6 53.93 35.76 clipbox
0 0 p1_c
stroke
grestore
gsave
334.8 345.6 53.93 35.76 clipbox
0 0 p1_d
stroke
grestore
gsave
334.8 345.6 53.93 35.76 clipbox
0 0 p1_e
stroke
grestore
gsave
334.8 345.6 53.93 35.76 clipbox
0 0 p1_f
stroke
grestore
gsave
334.8 345.6 53.93 35.76 clipbox
0 0 p1_10
stroke
grestore
gsave
334.8 345.6 53.93 35.76 clipbox
0 0 p1_11
stroke
grestore
gsave
334.8 345.6 53.93 35.76 clipbox
0 0 p1_12
stroke
grestore
gsave
334.8 345.6 53.93 35.76 clipbox
0 0 p1_13
stroke
grestore
gsave
334.8 345.6 53.93 35.76 clipbox
0 0 p1_14
stroke
grestore
gsave
334.8 345.6 53.93 35.76 clipbox
0 0 p1_15
stroke
grestore
gsave
334.8 345.6 53.93 35.76 clipbox
0 0 p1_16
stroke
grestore
gsave
334.8 345.6 53.93 35.76 clipbox
0 0 p1_17
stroke
grestore
gsave
334.8 345.6 53.93 35.76 clipbox
0 0 p1_18
stroke
grestore
0.500 setlinewidth
gsave
334.8 345.6 53.93 35.76 clipbox
/o {
gsave
newpath
translate
0.5 setlinewidth
1 setlinejoin
0 setlinecap
0 -3 m
0 3 l
gsave
0.000 setgray
fill
grestore
stroke
grestore
} bind def
131.871 128.111 o
199.38 197.231 o
182.915 204.03 o
231.214 238.023 o
173.035 168.903 o
62.716 56.7251 o
346.473 336.604 o
256.461 256.153 o
273.475 275.983 o
339.887 346.236 o
196.636 184.767 o
198.831 193.265 o
177.975 166.637 o
203.222 205.73 o
259.754 258.986 o
289.941 298.645 o
151.081 135.477 o
360.743 370.598 o
233.958 222.726 o
226.274 249.355 o
291.039 279.382 o
210.357 203.463 o
202.673 197.798 o
197.734 192.699 o
270.182 286.181 o
grestore
gsave
334.8 345.6 53.93 35.76 clipbox
/o {
gsave
newpath
translate
0.5 setlinewidth
1 setlinejoin
0 setlinecap
0 -3 m
0 3 l
gsave
0.000 setgray
fill
grestore
stroke
grestore
} bind def
145.044 128.111 o
211.455 197.231 o
193.892 204.03 o
248.777 238.023 o
184.012 168.903 o
72.5954 56.7251 o
364.036 336.604 o
268.536 256.153 o
284.452 275.983 o
357.45 346.236 o
214.199 184.767 o
208.711 193.265 o
187.854 166.637 o
217.492 205.73 o
272.927 258.986 o
309.7 298.645 o
173.035 135.477 o
375.013 370.598 o
255.912 222.726 o
236.153 249.355 o
303.113 279.382 o
221.334 203.463 o
214.748 197.798 o
209.808 192.699 o
298.723 286.181 o
grestore
gsave
334.8 345.6 53.93 35.76 clipbox
/o {
gsave
newpath
translate
0.5 setlinewidth
1 setlinejoin
0 setlinecap
3 -1.83697e-16 m
-3 1.83697e-16 l
gsave
0.000 setgray
fill
grestore
stroke
grestore
} bind def
138.458 122.446 o
205.418 191.566 o
188.403 198.364 o
239.995 232.924 o
178.524 163.238 o
67.6557 50.493 o
355.254 330.939 o
262.498 250.488 o
278.964 270.317 o
348.668 340.004 o
205.418 178.535 o
203.771 187.033 o
182.915 159.272 o
210.357 200.064 o
266.34 253.321 o
299.82 295.812 o
162.058 126.978 o
367.878 364.932 o
244.935 217.061 o
231.214 243.689 o
297.076 273.717 o
215.846 197.798 o
208.711 192.132 o
203.771 187.033 o
284.452 279.949 o
grestore
gsave
334.8 345.6 53.93 35.76 clipbox
/o {
gsave
newpath
translate
0.5 setlinewidth
1 setlinejoin
0 setlinecap
3 -1.83697e-16 m
-3 1.83697e-16 l
gsave
0.000 setgray
fill
grestore
stroke
grestore
} bind def
138.458 133.777 o
205.418 202.897 o
188.403 209.696 o
239.995 243.123 o
178.524 174.569 o
67.6557 62.9573 o
355.254 342.27 o
262.498 261.819 o
278.964 281.648 o
348.668 352.468 o
205.418 190.999 o
203.771 199.498 o
182.915 174.002 o
210.357 211.395 o
266.34 264.652 o
299.82 301.478 o
162.058 143.975 o
367.878 376.263 o
244.935 228.392 o
231.214 255.02 o
297.076 285.048 o
215.846 209.129 o
208.711 203.463 o
203.771 198.364 o
284.452 292.413 o
grestore
gsave
334.8 345.6 53.93 35.76 clipbox
/o {
gsave
newpath
translate
0.5 setlinewidth
1 setlinejoin
0 setlinecap
0 -1.5 m
0.397805 -1.5 0.77937 -1.34195 1.06066 -1.06066 c
1.34195 -0.77937 1.5 -0.397805 1.5 0 c
1.5 0.397805 1.34195 0.77937 1.06066 1.06066 c
0.77937 1.34195 0.397805 1.5 0 1.5 c
-0.397805 1.5 -0.77937 1.34195 -1.06066 1.06066 c
-1.34195 0.77937 -1.5 0.397805 -1.5 0 c
-1.5 -0.397805 -1.34195 -0.77937 -1.06066 -1.06066 c
-0.77937 -1.34195 -0.397805 -1.5 0 -1.5 c
cl
gsave
0.000 setgray
fill
grestore
stroke
grestore
} bind def
138.458 128.111 o
205.418 197.231 o
188.403 204.03 o
239.995 238.023 o
178.524 168.903 o
67.6557 56.7251 o
355.254 336.604 o
262.498 256.153 o
278.964 275.983 o
348.668 346.236 o
205.418 184.767 o
203.771 193.265 o
182.915 166.637 o
210.357 205.73 o
266.34 258.986 o
299.82 298.645 o
162.058 135.477 o
367.878 370.598 o
244.935 222.726 o
231.214 249.355 o
297.076 279.382 o
215.846 203.463 o
208.711 197.798 o
203.771 192.699 o
284.452 286.181 o
grestore
1.000 setlinewidth
2 setlinecap
gsave
334.8 345.6 53.93 35.76 clipbox
53.9344 35.7625 m
388.734 381.363 l
388.734 381.363 l
stroke
grestore
1.500 setlinewidth
0 setlinecap
gsave
/o {
gsave
newpath
translate
1.5 setlinewidth
1 setlinejoin
0 setlinecap
0 0 m
0 5.5 l
gsave
0.000 setgray
fill
grestore
stroke
grestore
} bind def
70.3999 35.7625 o
grestore
gsave
/o {
gsave
newpath
translate
1.5 setlinewidth
1 setlinejoin
0 setlinecap
0 0 m
0 -5.5 l
gsave
0.000 setgray
fill
grestore
stroke
grestore
} bind def
70.3999 381.363 o
grestore
/BitstreamVeraSans-Roman findfont
10.000 scalefont
setfont
gsave
57.532761 24.200000 translate
0.000000 rotate
0.000000 0.140625 m /minus glyphshow
8.378906 0.140625 m /six glyphshow
14.741211 0.140625 m /zero glyphshow
21.103516 0.140625 m /zero glyphshow
grestore
gsave
/o {
gsave
newpath
translate
1.5 setlinewidth
1 setlinejoin
0 setlinecap
0 0 m
0 5.5 l
gsave
0.000 setgray
fill
grestore
stroke
grestore
} bind def
125.285 35.7625 o
grestore
gsave
/o {
gsave
newpath
translate
1.5 setlinewidth
1 setlinejoin
0 setlinecap
0 0 m
0 -5.5 l
gsave
0.000 setgray
fill
grestore
stroke
grestore
} bind def
125.285 381.363 o
grestore
gsave
112.418007 24.200000 translate
0.000000 rotate
0.000000 0.140625 m /minus glyphshow
8.378906 0.140625 m /five glyphshow
14.741211 0.140625 m /zero glyphshow
21.103516 0.140625 m /zero glyphshow
grestore
gsave
/o {
gsave
newpath
translate
1.5 setlinewidth
1 setlinejoin
0 setlinecap
0 0 m
0 5.5 l
gsave
0.000 setgray
fill
grestore
stroke
grestore
} bind def
180.17 35.7625 o
grestore
gsave
/o {
gsave
newpath
translate
1.5 setlinewidth
1 setlinejoin
0 setlinecap
0 0 m
0 -5.5 l
gsave
0.000 setgray
fill
grestore
stroke
grestore
} bind def
180.17 381.363 o
grestore
gsave
167.303253 24.200000 translate
0.000000 rotate
0.000000 0.140625 m /minus glyphshow
8.378906 0.140625 m /four glyphshow
14.741211 0.140625 m /zero glyphshow
21.103516 0.140625 m /zero glyphshow
grestore
gsave
/o {
gsave
newpath
translate
1.5 setlinewidth
1 setlinejoin
0 setlinecap
0 0 m
0 5.5 l
gsave
0.000 setgray
fill
grestore
stroke
grestore
} bind def
235.056 35.7625 o
grestore
gsave
/o {
gsave
newpath
translate
1.5 setlinewidth
1 setlinejoin
0 setlinecap
0 0 m
0 -5.5 l
gsave
0.000 setgray
fill
grestore
stroke
grestore
} bind def
235.056 381.363 o
grestore
gsave
222.188499 24.200000 translate
0.000000 rotate
0.000000 0.140625 m /minus glyphshow
8.378906 0.140625 m /three glyphshow
14.741211 0.140625 m /zero glyphshow
21.103516 0.140625 m /zero glyphshow
grestore
gsave
/o {
gsave
newpath
translate
1.5 setlinewidth
1 setlinejoin
0 setlinecap
0 0 m
0 5.5 l
gsave
0.000 setgray
fill
grestore
stroke
grestore
} bind def
289.941 35.7625 o
grestore
gsave
/o {
gsave
newpath
translate
1.5 setlinewidth
1 setlinejoin
0 setlinecap
0 0 m
0 -5.5 l
gsave
0.000 setgray
fill
grestore
stroke
grestore
} bind def
289.941 381.363 o
grestore
gsave
277.073745 24.200000 translate
0.000000 rotate
0.000000 0.140625 m /minus glyphshow
8.378906 0.140625 m /two glyphshow
14.741211 0.140625 m /zero glyphshow
21.103516 0.140625 m /zero glyphshow
grestore
gsave
/o {
gsave
newpath
translate
1.5 setlinewidth
1 setlinejoin
0 setlinecap
0 0 m
0 5.5 l
gsave
0.000 setgray
fill
grestore
stroke
grestore
} bind def
344.826 35.7625 o
grestore
gsave
/o {
gsave
newpath
translate
1.5 setlinewidth
1 setlinejoin
0 setlinecap
0 0 m
0 -5.5 l
gsave
0.000 setgray
fill
grestore
stroke
grestore
} bind def
344.826 381.363 o
grestore
gsave
331.958991 24.200000 translate
0.000000 rotate
0.000000 0.140625 m /minus glyphshow
8.378906 0.140625 m /one glyphshow
14.741211 0.140625 m /zero glyphshow
21.103516 0.140625 m /zero glyphshow
grestore
1.200 setlinewidth
gsave
/o {
gsave
newpath
translate
1.2 setlinewidth
1 setlinejoin
0 setlinecap
0 0 m
0 3.5 l
gsave
0.000 setgray
fill
grestore
stroke
grestore
} bind def
59.4229 35.7625 o
grestore
gsave
/o {
gsave
newpath
translate
1.2 setlinewidth
1 setlinejoin
0 setlinecap
0 0 m
0 -3.5 l
gsave
0.000 setgray
fill
grestore
stroke
grestore
} bind def
59.4229 381.363 o
grestore
gsave
/o {
gsave
newpath
translate
1.2 setlinewidth
1 setlinejoin
0 setlinecap
0 0 m
0 3.5 l
gsave
0.000 setgray
fill
grestore
stroke
grestore
} bind def
70.3999 35.7625 o
grestore
gsave
/o {
gsave
newpath
translate
1.2 setlinewidth
1 setlinejoin
0 setlinecap
0 0 m
0 -3.5 l
gsave
0.000 setgray
fill
grestore
stroke
grestore
} bind def
70.3999 381.363 o
grestore
gsave
/o {
gsave
newpath
translate
1.2 setlinewidth
1 setlinejoin
0 setlinecap
0 0 m
0 3.5 l
gsave
0.000 setgray
fill
grestore
stroke
grestore
} bind def
81.377 35.7625 o
grestore
gsave
/o {
gsave
newpath
translate
1.2 setlinewidth
1 setlinejoin
0 setlinecap
0 0 m
0 -3.5 l
gsave
0.000 setgray
fill
grestore
stroke
grestore
} bind def
81.377 381.363 o
grestore
gsave
/o {
gsave
newpath
translate
1.2 setlinewidth
1 setlinejoin
0 setlinecap
0 0 m
0 3.5 l
gsave
0.000 setgray
fill
grestore
stroke
grestore
} bind def
92.354 35.7625 o
grestore
gsave
/o {
gsave
newpath
translate
1.2 setlinewidth
1 setlinejoin
0 setlinecap
0 0 m
0 -3.5 l
gsave
0.000 setgray
fill
grestore
stroke
grestore
} bind def
92.354 381.363 o
grestore
gsave
/o {
gsave
newpath
translate
1.2 setlinewidth
1 setlinejoin
0 setlinecap
0 0 m
0 3.5 l
gsave
0.000 setgray
fill
grestore
stroke
grestore
} bind def
103.331 35.7625 o
grestore
gsave
/o {
gsave
newpath
translate
1.2 setlinewidth
1 setlinejoin
0 setlinecap
0 0 m
0 -3.5 l
gsave
0.000 setgray
fill
grestore
stroke
grestore
} bind def
103.331 381.363 o
grestore
gsave
/o {
gsave
newpath
translate
1.2 setlinewidth
1 setlinejoin
0 setlinecap
0 0 m
0 3.5 l
gsave
0.000 setgray
fill
grestore
stroke
grestore
} bind def
114.308 35.7625 o
grestore
gsave
/o {
gsave
newpath
translate
1.2 setlinewidth
1 setlinejoin
0 setlinecap
0 0 m
0 -3.5 l
gsave
0.000 setgray
fill
grestore
stroke
grestore
} bind def
114.308 381.363 o
grestore
gsave
/o {
gsave
newpath
translate
1.2 setlinewidth
1 setlinejoin
0 setlinecap
0 0 m
0 3.5 l
gsave
0.000 setgray
fill
grestore
stroke
grestore
} bind def
125.285 35.7625 o
grestore
gsave
/o {
gsave
newpath
translate
1.2 setlinewidth
1 setlinejoin
0 setlinecap
0 0 m
0 -3.5 l
gsave
0.000 setgray
fill
grestore
stroke
grestore
} bind def
125.285 381.363 o
grestore
gsave
/o {
gsave
newpath
translate
1.2 setlinewidth
1 setlinejoin
0 setlinecap
0 0 m
0 3.5 l
gsave
0.000 setgray
fill
grestore
stroke
grestore
} bind def
136.262 35.7625 o
grestore
gsave
/o {
gsave
newpath
translate
1.2 setlinewidth
1 setlinejoin
0 setlinecap
0 0 m
0 -3.5 l
gsave
0.000 setgray
fill
grestore
stroke
grestore
} bind def
136.262 381.363 o
grestore
gsave
/o {
gsave
newpath
translate
1.2 setlinewidth
1 setlinejoin
0 setlinecap
0 0 m
0 3.5 l
gsave
0.000 setgray
fill
grestore
stroke
grestore
} bind def
147.239 35.7625 o
grestore
gsave
/o {
gsave
newpath
translate
1.2 setlinewidth
1 setlinejoin
0 setlinecap
0 0 m
0 -3.5 l
gsave
0.000 setgray
fill
grestore
stroke
grestore
} bind def
147.239 381.363 o
grestore
gsave
/o {
gsave
newpath
translate
1.2 setlinewidth
1 setlinejoin
0 setlinecap
0 0 m
0 3.5 l
gsave
0.000 setgray
fill
grestore
stroke
grestore
} bind def
158.216 35.7625 o
grestore
gsave
/o {
gsave
newpath
translate
1.2 setlinewidth
1 setlinejoin
0 setlinecap
0 0 m
0 -3.5 l
gsave
0.000 setgray
fill
grestore
stroke
grestore
} bind def
158.216 381.363 o
grestore
gsave
/o {
gsave
newpath
translate
1.2 setlinewidth
1 setlinejoin
0 setlinecap
0 0 m
0 3.5 l
gsave
0.000 setgray
fill
grestore
stroke
grestore
} bind def
169.193 35.7625 o
grestore
gsave
/o {
gsave
newpath
translate
1.2 setlinewidth
1 setlinejoin
0 setlinecap
0 0 m
0 -3.5 l
gsave
0.000 setgray
fill
grestore
stroke
grestore
} bind def
169.193 381.363 o
grestore
gsave
/o {
gsave
newpath
translate
1.2 setlinewidth
1 setlinejoin
0 setlinecap
0 0 m
0 3.5 l
gsave
0.000 setgray
fill
grestore
stroke
grestore
} bind def
180.17 35.7625 o
grestore
gsave
/o {
gsave
newpath
translate
1.2 setlinewidth
1 setlinejoin
0 setlinecap
0 0 m
0 -3.5 l
gsave
0.000 setgray
fill
grestore
stroke
grestore
} bind def
180.17 381.363 o
grestore
gsave
/o {
gsave
newpath
translate
1.2 setlinewidth
1 setlinejoin
0 setlinecap
0 0 m
0 3.5 l
gsave
0.000 setgray
fill
grestore
stroke
grestore
} bind def
191.147 35.7625 o
grestore
gsave
/o {
gsave
newpath
translate
1.2 setlinewidth
1 setlinejoin
0 setlinecap
0 0 m
0 -3.5 l
gsave
0.000 setgray
fill
grestore
stroke
grestore
} bind def
191.147 381.363 o
grestore
gsave
/o {
gsave
newpath
translate
1.2 setlinewidth
1 setlinejoin
0 setlinecap
0 0 m
0 3.5 l
gsave
0.000 setgray
fill
grestore
stroke
grestore
} bind def
202.125 35.7625 o
grestore
gsave
/o {
gsave
newpath
translate
1.2 setlinewidth
1 setlinejoin
0 setlinecap
0 0 m
0 -3.5 l
gsave
0.000 setgray
fill
grestore
stroke
grestore
} bind def
202.125 381.363 o
grestore
gsave
/o {
gsave
newpath
translate
1.2 setlinewidth
1 setlinejoin
0 setlinecap
0 0 m
0 3.5 l
gsave
0.000 setgray
fill
grestore
stroke
grestore
} bind def
213.102 35.7625 o
grestore
gsave
/o {
gsave
newpath
translate
1.2 setlinewidth
1 setlinejoin
0 setlinecap
0 0 m
0 -3.5 l
gsave
0.000 setgray
fill
grestore
stroke
grestore
} bind def
213.102 381.363 o
grestore
gsave
/o {
gsave
newpath
translate
1.2 setlinewidth
1 setlinejoin
0 setlinecap
0 0 m
0 3.5 l
gsave
0.000 setgray
fill
grestore
stroke
grestore
} bind def
224.079 35.7625 o
grestore
gsave
/o {
gsave
newpath
translate
1.2 setlinewidth
1 setlinejoin
0 setlinecap
0 0 m
0 -3.5 l
gsave
0.000 setgray
fill
grestore
stroke
grestore
} bind def
224.079 381.363 o
grestore
gsave
/o {
gsave
newpath
translate
1.2 setlinewidth
1 setlinejoin
0 setlinecap
0 0 m
0 3.5 l
gsave
0.000 setgray
fill
grestore
stroke
grestore
} bind def
235.056 35.7625 o
grestore
gsave
/o {
gsave
newpath
translate
1.2 setlinewidth
1 setlinejoin
0 setlinecap
0 0 m
0 -3.5 l
gsave
0.000 setgray
fill
grestore
stroke
grestore
} bind def
235.056 381.363 o
grestore
gsave
/o {
gsave
newpath
translate
1.2 setlinewidth
1 setlinejoin
0 setlinecap
0 0 m
0 3.5 l
gsave
0.000 setgray
fill
grestore
stroke
grestore
} bind def
246.033 35.7625 o
grestore
gsave
/o {
gsave
newpath
translate
1.2 setlinewidth
1 setlinejoin
0 setlinecap
0 0 m
0 -3.5 l
gsave
0.000 setgray
fill
grestore
stroke
grestore
} bind def
246.033 381.363 o
grestore
gsave
/o {
gsave
newpath
translate
1.2 setlinewidth
1 setlinejoin
0 setlinecap
0 0 m
0 3.5 l
gsave
0.000 setgray
fill
grestore
stroke
grestore
} bind def
257.01 35.7625 o
grestore
gsave
/o {
gsave
newpath
translate
1.2 setlinewidth
1 setlinejoin
0 setlinecap
0 0 m
0 -3.5 l
gsave
0.000 setgray
fill
grestore
stroke
grestore
} bind def
257.01 381.363 o
grestore
gsave
/o {
gsave
newpath
translate
1.2 setlinewidth
1 setlinejoin
0 setlinecap
0 0 m
0 3.5 l
gsave
0.000 setgray
fill
grestore
stroke
grestore
} bind def
267.987 35.7625 o
grestore
gsave
/o {
gsave
newpath
translate
1.2 setlinewidth
1 setlinejoin
0 setlinecap
0 0 m
0 -3.5 l
gsave
0.000 setgray
fill
grestore
stroke
grestore
} bind def
267.987 381.363 o
grestore
gsave
/o {
gsave
newpath
translate
1.2 setlinewidth
1 setlinejoin
0 setlinecap
0 0 m
0 3.5 l
gsave
0.000 setgray
fill
grestore
stroke
grestore
} bind def
278.964 35.7625 o
grestore
gsave
/o {
gsave
newpath
translate
1.2 setlinewidth
1 setlinejoin
0 setlinecap
0 0 m
0 -3.5 l
gsave
0.000 setgray
fill
grestore
stroke
grestore
} bind def
278.964 381.363 o
grestore
gsave
/o {
gsave
newpath
translate
1.2 setlinewidth
1 setlinejoin
0 setlinecap
0 0 m
0 3.5 l
gsave
0.000 setgray
fill
grestore
stroke
grestore
} bind def
289.941 35.7625 o
grestore
gsave
/o {
gsave
newpath
translate
1.2 setlinewidth
1 setlinejoin
0 setlinecap
0 0 m
0 -3.5 l
gsave
0.000 setgray
fill
grestore
stroke
grestore
} bind def
289.941 381.363 o
grestore
gsave
/o {
gsave
newpath
translate
1.2 setlinewidth
1 setlinejoin
0 setlinecap
0 0 m
0 3.5 l
gsave
0.000 setgray
fill
grestore
stroke
grestore
} bind def
300.918 35.7625 o
grestore
gsave
/o {
gsave
newpath
translate
1.2 setlinewidth
1 setlinejoin
0 setlinecap
0 0 m
0 -3.5 l
gsave
0.000 setgray
fill
grestore
stroke
grestore
} bind def
300.918 381.363 o
grestore
gsave
/o {
gsave
newpath
translate
1.2 setlinewidth
1 setlinejoin
0 setlinecap
0 0 m
0 3.5 l
gsave
0.000 setgray
fill
grestore
stroke
grestore
} bind def
311.895 35.7625 o
grestore
gsave
/o {
gsave
newpath
translate
1.2 setlinewidth
1 setlinejoin
0 setlinecap
0 0 m
0 -3.5 l
gsave
0.000 setgray
fill
grestore
stroke
grestore
} bind def
311.895 381.363 o
grestore
gsave
/o {
gsave
newpath
translate
1.2 setlinewidth
1 setlinejoin
0 setlinecap
0 0 m
0 3.5 l
gsave
0.000 setgray
fill
grestore
stroke
grestore
} bind def
322.872 35.7625 o
grestore
gsave
/o {
gsave
newpath
translate
1.2 setlinewidth
1 setlinejoin
0 setlinecap
0 0 m
0 -3.5 l
gsave
0.000 setgray
fill
grestore
stroke
grestore
} bind def
322.872 381.363 o
grestore
gsave
/o {
gsave
newpath
translate
1.2 setlinewidth
1 setlinejoin
0 setlinecap
0 0 m
0 3.5 l
gsave
0.000 setgray
fill
grestore
stroke
grestore
} bind def
333.849 35.7625 o
grestore
gsave
/o {
gsave
newpath
translate
1.2 setlinewidth
1 setlinejoin
0 setlinecap
0 0 m
0 -3.5 l
gsave
0.000 setgray
fill
grestore
stroke
grestore
} bind def
333.849 381.363 o
grestore
gsave
/o {
gsave
newpath
translate
1.2 setlinewidth
1 setlinejoin
0 setlinecap
0 0 m
0 3.5 l
gsave
0.000 setgray
fill
grestore
stroke
grestore
} bind def
344.826 35.7625 o
grestore
gsave
/o {
gsave
newpath
translate
1.2 setlinewidth
1 setlinejoin
0 setlinecap
0 0 m
0 -3.5 l
gsave
0.000 setgray
fill
grestore
stroke
grestore
} bind def
344.826 381.363 o
grestore
gsave
/o {
gsave
newpath
translate
1.2 setlinewidth
1 setlinejoin
0 setlinecap
0 0 m
0 3.5 l
gsave
0.000 setgray
fill
grestore
stroke
grestore
} bind def
355.803 35.7625 o
grestore
gsave
/o {
gsave
newpath
translate
1.2 setlinewidth
1 setlinejoin
0 setlinecap
0 0 m
0 -3.5 l
gsave
0.000 setgray
fill
grestore
stroke
grestore
} bind def
355.803 381.363 o
grestore
gsave
/o {
gsave
newpath
translate
1.2 setlinewidth
1 setlinejoin
0 setlinecap
0 0 m
0 3.5 l
gsave
0.000 setgray
fill
grestore
stroke
grestore
} bind def
366.78 35.7625 o
grestore
gsave
/o {
gsave
newpath
translate
1.2 setlinewidth
1 setlinejoin
0 setlinecap
0 0 m
0 -3.5 l
gsave
0.000 setgray
fill
grestore
stroke
grestore
} bind def
366.78 381.363 o
grestore
gsave
/o {
gsave
newpath
translate
1.2 setlinewidth
1 setlinejoin
0 setlinecap
0 0 m
0 3.5 l
gsave
0.000 setgray
fill
grestore
stroke
grestore
} bind def
377.757 35.7625 o
grestore
gsave
/o {
gsave
newpath
translate
1.2 setlinewidth
1 setlinejoin
0 setlinecap
0 0 m
0 -3.5 l
gsave
0.000 setgray
fill
grestore
stroke
grestore
} bind def
377.757 381.363 o
grestore
gsave
/o {
gsave
newpath
translate
1.2 setlinewidth
1 setlinejoin
0 setlinecap
0 0 m
0 3.5 l
gsave
0.000 setgray
fill
grestore
stroke
grestore
} bind def
388.734 35.7625 o
grestore
gsave
/o {
gsave
newpath
translate
1.2 setlinewidth
1 setlinejoin
0 setlinecap
0 0 m
0 -3.5 l
gsave
0.000 setgray
fill
grestore
stroke
grestore
} bind def
388.734 381.363 o
grestore
gsave
152.334375 7.200000 translate
0.000000 rotate
/Cmmi10 findfont
10.0 scalefont
setfont
0.000000 3.089063 moveto
/V glyphshow

/Cmr10 findfont
7.0 scalefont
setfont
5.830078 0.538125 moveto
/h glyphshow

9.716309 0.538125 moveto
/e glyphshow

12.823242 0.538125 moveto
/l glyphshow

14.761230 0.538125 moveto
/i glyphshow

16.699219 0.538125 moveto
/o glyphshow

/BitstreamVeraSans-Roman findfont
10.0 scalefont
setfont
20.199219 3.089063 moveto
/space glyphshow

/Cmmi10 findfont
10.0 scalefont
setfont
23.377930 3.089063 moveto
/I glyphshow

27.767578 3.089063 moveto
/S glyphshow

33.895508 3.089063 moveto
/I glyphshow

38.285156 3.089063 moveto
/S glyphshow

/BitstreamVeraSans-Roman findfont
10.0 scalefont
setfont
44.413086 3.089063 moveto
/space glyphshow

47.591797 3.089063 moveto
/b glyphshow

53.939453 3.089063 moveto
/l glyphshow

56.717773 3.089063 moveto
/u glyphshow

63.055664 3.089063 moveto
/e glyphshow

69.208008 3.089063 moveto
/space glyphshow

72.386719 3.089063 moveto
/a glyphshow

78.514648 3.089063 moveto
/r glyphshow

82.625977 3.089063 moveto
/m glyphshow

92.367188 3.089063 moveto
/space glyphshow

95.545898 3.089063 moveto
/bracketleft glyphshow

99.447266 3.089063 moveto
/k glyphshow

105.238281 3.089063 moveto
/m glyphshow

114.979492 3.089063 moveto
/space glyphshow

118.158203 3.089063 moveto
/s glyphshow

/Cmsy10 findfont
7.0 scalefont
setfont
123.368164 7.340625 moveto
/minus glyphshow

/Cmr10 findfont
7.0 scalefont
setfont
128.806152 7.340625 moveto
/one glyphshow

/BitstreamVeraSans-Roman findfont
10.0 scalefont
setfont
134.006777 3.089063 moveto
/bracketright glyphshow


grestore
1.500 setlinewidth
gsave
/o {
gsave
newpath
translate
1.5 setlinewidth
1 setlinejoin
0 setlinecap
0 0 m
5.5 0 l
gsave
0.000 setgray
fill
grestore
stroke
grestore
} bind def
53.9344 52.7592 o
grestore
gsave
/o {
gsave
newpath
translate
1.5 setlinewidth
1 setlinejoin
0 setlinecap
0 0 m
-5.5 0 l
gsave
0.000 setgray
fill
grestore
stroke
grestore
} bind def
388.734 52.7592 o
grestore
gsave
24.200000 48.977971 translate
0.000000 rotate
0.000000 0.140625 m /minus glyphshow
8.378906 0.140625 m /six glyphshow
14.741211 0.140625 m /zero glyphshow
21.103516 0.140625 m /zero glyphshow
grestore
gsave
/o {
gsave
newpath
translate
1.5 setlinewidth
1 setlinejoin
0 setlinecap
0 0 m
5.5 0 l
gsave
0.000 setgray
fill
grestore
stroke
grestore
} bind def
53.9344 109.415 o
grestore
gsave
/o {
gsave
newpath
translate
1.5 setlinewidth
1 setlinejoin
0 setlinecap
0 0 m
-5.5 0 l
gsave
0.000 setgray
fill
grestore
stroke
grestore
} bind def
388.734 109.415 o
grestore
gsave
24.200000 105.633709 translate
0.000000 rotate
0.000000 0.140625 m /minus glyphshow
8.378906 0.140625 m /five glyphshow
14.741211 0.140625 m /zero glyphshow
21.103516 0.140625 m /zero glyphshow
grestore
gsave
/o {
gsave
newpath
translate
1.5 setlinewidth
1 setlinejoin
0 setlinecap
0 0 m
5.5 0 l
gsave
0.000 setgray
fill
grestore
stroke
grestore
} bind def
53.9344 166.071 o
grestore
gsave
/o {
gsave
newpath
translate
1.5 setlinewidth
1 setlinejoin
0 setlinecap
0 0 m
-5.5 0 l
gsave
0.000 setgray
fill
grestore
stroke
grestore
} bind def
388.734 166.071 o
grestore
gsave
24.200000 162.289447 translate
0.000000 rotate
0.000000 0.140625 m /minus glyphshow
8.378906 0.140625 m /four glyphshow
14.741211 0.140625 m /zero glyphshow
21.103516 0.140625 m /zero glyphshow
grestore
gsave
/o {
gsave
newpath
translate
1.5 setlinewidth
1 setlinejoin
0 setlinecap
0 0 m
5.5 0 l
gsave
0.000 setgray
fill
grestore
stroke
grestore
} bind def
53.9344 222.726 o
grestore
gsave
/o {
gsave
newpath
translate
1.5 setlinewidth
1 setlinejoin
0 setlinecap
0 0 m
-5.5 0 l
gsave
0.000 setgray
fill
grestore
stroke
grestore
} bind def
388.734 222.726 o
grestore
gsave
24.200000 218.945184 translate
0.000000 rotate
0.000000 0.140625 m /minus glyphshow
8.378906 0.140625 m /three glyphshow
14.741211 0.140625 m /zero glyphshow
21.103516 0.140625 m /zero glyphshow
grestore
gsave
/o {
gsave
newpath
translate
1.5 setlinewidth
1 setlinejoin
0 setlinecap
0 0 m
5.5 0 l
gsave
0.000 setgray
fill
grestore
stroke
grestore
} bind def
53.9344 279.382 o
grestore
gsave
/o {
gsave
newpath
translate
1.5 setlinewidth
1 setlinejoin
0 setlinecap
0 0 m
-5.5 0 l
gsave
0.000 setgray
fill
grestore
stroke
grestore
} bind def
388.734 279.382 o
grestore
gsave
24.200000 275.600922 translate
0.000000 rotate
0.000000 0.140625 m /minus glyphshow
8.378906 0.140625 m /two glyphshow
14.741211 0.140625 m /zero glyphshow
21.103516 0.140625 m /zero glyphshow
grestore
gsave
/o {
gsave
newpath
translate
1.5 setlinewidth
1 setlinejoin
0 setlinecap
0 0 m
5.5 0 l
gsave
0.000 setgray
fill
grestore
stroke
grestore
} bind def
53.9344 336.038 o
grestore
gsave
/o {
gsave
newpath
translate
1.5 setlinewidth
1 setlinejoin
0 setlinecap
0 0 m
-5.5 0 l
gsave
0.000 setgray
fill
grestore
stroke
grestore
} bind def
388.734 336.038 o
grestore
gsave
24.200000 332.256660 translate
0.000000 rotate
0.000000 0.140625 m /minus glyphshow
8.378906 0.140625 m /one glyphshow
14.741211 0.140625 m /zero glyphshow
21.103516 0.140625 m /zero glyphshow
grestore
1.200 setlinewidth
gsave
/o {
gsave
newpath
translate
1.2 setlinewidth
1 setlinejoin
0 setlinecap
0 0 m
3.5 0 l
gsave
0.000 setgray
fill
grestore
stroke
grestore
} bind def
53.9344 41.4281 o
grestore
gsave
/o {
gsave
newpath
translate
1.2 setlinewidth
1 setlinejoin
0 setlinecap
0 0 m
-3.5 0 l
gsave
0.000 setgray
fill
grestore
stroke
grestore
} bind def
388.734 41.4281 o
grestore
gsave
/o {
gsave
newpath
translate
1.2 setlinewidth
1 setlinejoin
0 setlinecap
0 0 m
3.5 0 l
gsave
0.000 setgray
fill
grestore
stroke
grestore
} bind def
53.9344 52.7592 o
grestore
gsave
/o {
gsave
newpath
translate
1.2 setlinewidth
1 setlinejoin
0 setlinecap
0 0 m
-3.5 0 l
gsave
0.000 setgray
fill
grestore
stroke
grestore
} bind def
388.734 52.7592 o
grestore
gsave
/o {
gsave
newpath
translate
1.2 setlinewidth
1 setlinejoin
0 setlinecap
0 0 m
3.5 0 l
gsave
0.000 setgray
fill
grestore
stroke
grestore
} bind def
53.9344 64.0904 o
grestore
gsave
/o {
gsave
newpath
translate
1.2 setlinewidth
1 setlinejoin
0 setlinecap
0 0 m
-3.5 0 l
gsave
0.000 setgray
fill
grestore
stroke
grestore
} bind def
388.734 64.0904 o
grestore
gsave
/o {
gsave
newpath
translate
1.2 setlinewidth
1 setlinejoin
0 setlinecap
0 0 m
3.5 0 l
gsave
0.000 setgray
fill
grestore
stroke
grestore
} bind def
53.9344 75.4215 o
grestore
gsave
/o {
gsave
newpath
translate
1.2 setlinewidth
1 setlinejoin
0 setlinecap
0 0 m
-3.5 0 l
gsave
0.000 setgray
fill
grestore
stroke
grestore
} bind def
388.734 75.4215 o
grestore
gsave
/o {
gsave
newpath
translate
1.2 setlinewidth
1 setlinejoin
0 setlinecap
0 0 m
3.5 0 l
gsave
0.000 setgray
fill
grestore
stroke
grestore
} bind def
53.9344 86.7527 o
grestore
gsave
/o {
gsave
newpath
translate
1.2 setlinewidth
1 setlinejoin
0 setlinecap
0 0 m
-3.5 0 l
gsave
0.000 setgray
fill
grestore
stroke
grestore
} bind def
388.734 86.7527 o
grestore
gsave
/o {
gsave
newpath
translate
1.2 setlinewidth
1 setlinejoin
0 setlinecap
0 0 m
3.5 0 l
gsave
0.000 setgray
fill
grestore
stroke
grestore
} bind def
53.9344 98.0838 o
grestore
gsave
/o {
gsave
newpath
translate
1.2 setlinewidth
1 setlinejoin
0 setlinecap
0 0 m
-3.5 0 l
gsave
0.000 setgray
fill
grestore
stroke
grestore
} bind def
388.734 98.0838 o
grestore
gsave
/o {
gsave
newpath
translate
1.2 setlinewidth
1 setlinejoin
0 setlinecap
0 0 m
3.5 0 l
gsave
0.000 setgray
fill
grestore
stroke
grestore
} bind def
53.9344 109.415 o
grestore
gsave
/o {
gsave
newpath
translate
1.2 setlinewidth
1 setlinejoin
0 setlinecap
0 0 m
-3.5 0 l
gsave
0.000 setgray
fill
grestore
stroke
grestore
} bind def
388.734 109.415 o
grestore
gsave
/o {
gsave
newpath
translate
1.2 setlinewidth
1 setlinejoin
0 setlinecap
0 0 m
3.5 0 l
gsave
0.000 setgray
fill
grestore
stroke
grestore
} bind def
53.9344 120.746 o
grestore
gsave
/o {
gsave
newpath
translate
1.2 setlinewidth
1 setlinejoin
0 setlinecap
0 0 m
-3.5 0 l
gsave
0.000 setgray
fill
grestore
stroke
grestore
} bind def
388.734 120.746 o
grestore
gsave
/o {
gsave
newpath
translate
1.2 setlinewidth
1 setlinejoin
0 setlinecap
0 0 m
3.5 0 l
gsave
0.000 setgray
fill
grestore
stroke
grestore
} bind def
53.9344 132.077 o
grestore
gsave
/o {
gsave
newpath
translate
1.2 setlinewidth
1 setlinejoin
0 setlinecap
0 0 m
-3.5 0 l
gsave
0.000 setgray
fill
grestore
stroke
grestore
} bind def
388.734 132.077 o
grestore
gsave
/o {
gsave
newpath
translate
1.2 setlinewidth
1 setlinejoin
0 setlinecap
0 0 m
3.5 0 l
gsave
0.000 setgray
fill
grestore
stroke
grestore
} bind def
53.9344 143.408 o
grestore
gsave
/o {
gsave
newpath
translate
1.2 setlinewidth
1 setlinejoin
0 setlinecap
0 0 m
-3.5 0 l
gsave
0.000 setgray
fill
grestore
stroke
grestore
} bind def
388.734 143.408 o
grestore
gsave
/o {
gsave
newpath
translate
1.2 setlinewidth
1 setlinejoin
0 setlinecap
0 0 m
3.5 0 l
gsave
0.000 setgray
fill
grestore
stroke
grestore
} bind def
53.9344 154.74 o
grestore
gsave
/o {
gsave
newpath
translate
1.2 setlinewidth
1 setlinejoin
0 setlinecap
0 0 m
-3.5 0 l
gsave
0.000 setgray
fill
grestore
stroke
grestore
} bind def
388.734 154.74 o
grestore
gsave
/o {
gsave
newpath
translate
1.2 setlinewidth
1 setlinejoin
0 setlinecap
0 0 m
3.5 0 l
gsave
0.000 setgray
fill
grestore
stroke
grestore
} bind def
53.9344 166.071 o
grestore
gsave
/o {
gsave
newpath
translate
1.2 setlinewidth
1 setlinejoin
0 setlinecap
0 0 m
-3.5 0 l
gsave
0.000 setgray
fill
grestore
stroke
grestore
} bind def
388.734 166.071 o
grestore
gsave
/o {
gsave
newpath
translate
1.2 setlinewidth
1 setlinejoin
0 setlinecap
0 0 m
3.5 0 l
gsave
0.000 setgray
fill
grestore
stroke
grestore
} bind def
53.9344 177.402 o
grestore
gsave
/o {
gsave
newpath
translate
1.2 setlinewidth
1 setlinejoin
0 setlinecap
0 0 m
-3.5 0 l
gsave
0.000 setgray
fill
grestore
stroke
grestore
} bind def
388.734 177.402 o
grestore
gsave
/o {
gsave
newpath
translate
1.2 setlinewidth
1 setlinejoin
0 setlinecap
0 0 m
3.5 0 l
gsave
0.000 setgray
fill
grestore
stroke
grestore
} bind def
53.9344 188.733 o
grestore
gsave
/o {
gsave
newpath
translate
1.2 setlinewidth
1 setlinejoin
0 setlinecap
0 0 m
-3.5 0 l
gsave
0.000 setgray
fill
grestore
stroke
grestore
} bind def
388.734 188.733 o
grestore
gsave
/o {
gsave
newpath
translate
1.2 setlinewidth
1 setlinejoin
0 setlinecap
0 0 m
3.5 0 l
gsave
0.000 setgray
fill
grestore
stroke
grestore
} bind def
53.9344 200.064 o
grestore
gsave
/o {
gsave
newpath
translate
1.2 setlinewidth
1 setlinejoin
0 setlinecap
0 0 m
-3.5 0 l
gsave
0.000 setgray
fill
grestore
stroke
grestore
} bind def
388.734 200.064 o
grestore
gsave
/o {
gsave
newpath
translate
1.2 setlinewidth
1 setlinejoin
0 setlinecap
0 0 m
3.5 0 l
gsave
0.000 setgray
fill
grestore
stroke
grestore
} bind def
53.9344 211.395 o
grestore
gsave
/o {
gsave
newpath
translate
1.2 setlinewidth
1 setlinejoin
0 setlinecap
0 0 m
-3.5 0 l
gsave
0.000 setgray
fill
grestore
stroke
grestore
} bind def
388.734 211.395 o
grestore
gsave
/o {
gsave
newpath
translate
1.2 setlinewidth
1 setlinejoin
0 setlinecap
0 0 m
3.5 0 l
gsave
0.000 setgray
fill
grestore
stroke
grestore
} bind def
53.9344 222.726 o
grestore
gsave
/o {
gsave
newpath
translate
1.2 setlinewidth
1 setlinejoin
0 setlinecap
0 0 m
-3.5 0 l
gsave
0.000 setgray
fill
grestore
stroke
grestore
} bind def
388.734 222.726 o
grestore
gsave
/o {
gsave
newpath
translate
1.2 setlinewidth
1 setlinejoin
0 setlinecap
0 0 m
3.5 0 l
gsave
0.000 setgray
fill
grestore
stroke
grestore
} bind def
53.9344 234.058 o
grestore
gsave
/o {
gsave
newpath
translate
1.2 setlinewidth
1 setlinejoin
0 setlinecap
0 0 m
-3.5 0 l
gsave
0.000 setgray
fill
grestore
stroke
grestore
} bind def
388.734 234.058 o
grestore
gsave
/o {
gsave
newpath
translate
1.2 setlinewidth
1 setlinejoin
0 setlinecap
0 0 m
3.5 0 l
gsave
0.000 setgray
fill
grestore
stroke
grestore
} bind def
53.9344 245.389 o
grestore
gsave
/o {
gsave
newpath
translate
1.2 setlinewidth
1 setlinejoin
0 setlinecap
0 0 m
-3.5 0 l
gsave
0.000 setgray
fill
grestore
stroke
grestore
} bind def
388.734 245.389 o
grestore
gsave
/o {
gsave
newpath
translate
1.2 setlinewidth
1 setlinejoin
0 setlinecap
0 0 m
3.5 0 l
gsave
0.000 setgray
fill
grestore
stroke
grestore
} bind def
53.9344 256.72 o
grestore
gsave
/o {
gsave
newpath
translate
1.2 setlinewidth
1 setlinejoin
0 setlinecap
0 0 m
-3.5 0 l
gsave
0.000 setgray
fill
grestore
stroke
grestore
} bind def
388.734 256.72 o
grestore
gsave
/o {
gsave
newpath
translate
1.2 setlinewidth
1 setlinejoin
0 setlinecap
0 0 m
3.5 0 l
gsave
0.000 setgray
fill
grestore
stroke
grestore
} bind def
53.9344 268.051 o
grestore
gsave
/o {
gsave
newpath
translate
1.2 setlinewidth
1 setlinejoin
0 setlinecap
0 0 m
-3.5 0 l
gsave
0.000 setgray
fill
grestore
stroke
grestore
} bind def
388.734 268.051 o
grestore
gsave
/o {
gsave
newpath
translate
1.2 setlinewidth
1 setlinejoin
0 setlinecap
0 0 m
3.5 0 l
gsave
0.000 setgray
fill
grestore
stroke
grestore
} bind def
53.9344 279.382 o
grestore
gsave
/o {
gsave
newpath
translate
1.2 setlinewidth
1 setlinejoin
0 setlinecap
0 0 m
-3.5 0 l
gsave
0.000 setgray
fill
grestore
stroke
grestore
} bind def
388.734 279.382 o
grestore
gsave
/o {
gsave
newpath
translate
1.2 setlinewidth
1 setlinejoin
0 setlinecap
0 0 m
3.5 0 l
gsave
0.000 setgray
fill
grestore
stroke
grestore
} bind def
53.9344 290.713 o
grestore
gsave
/o {
gsave
newpath
translate
1.2 setlinewidth
1 setlinejoin
0 setlinecap
0 0 m
-3.5 0 l
gsave
0.000 setgray
fill
grestore
stroke
grestore
} bind def
388.734 290.713 o
grestore
gsave
/o {
gsave
newpath
translate
1.2 setlinewidth
1 setlinejoin
0 setlinecap
0 0 m
3.5 0 l
gsave
0.000 setgray
fill
grestore
stroke
grestore
} bind def
53.9344 302.044 o
grestore
gsave
/o {
gsave
newpath
translate
1.2 setlinewidth
1 setlinejoin
0 setlinecap
0 0 m
-3.5 0 l
gsave
0.000 setgray
fill
grestore
stroke
grestore
} bind def
388.734 302.044 o
grestore
gsave
/o {
gsave
newpath
translate
1.2 setlinewidth
1 setlinejoin
0 setlinecap
0 0 m
3.5 0 l
gsave
0.000 setgray
fill
grestore
stroke
grestore
} bind def
53.9344 313.376 o
grestore
gsave
/o {
gsave
newpath
translate
1.2 setlinewidth
1 setlinejoin
0 setlinecap
0 0 m
-3.5 0 l
gsave
0.000 setgray
fill
grestore
stroke
grestore
} bind def
388.734 313.376 o
grestore
gsave
/o {
gsave
newpath
translate
1.2 setlinewidth
1 setlinejoin
0 setlinecap
0 0 m
3.5 0 l
gsave
0.000 setgray
fill
grestore
stroke
grestore
} bind def
53.9344 324.707 o
grestore
gsave
/o {
gsave
newpath
translate
1.2 setlinewidth
1 setlinejoin
0 setlinecap
0 0 m
-3.5 0 l
gsave
0.000 setgray
fill
grestore
stroke
grestore
} bind def
388.734 324.707 o
grestore
gsave
/o {
gsave
newpath
translate
1.2 setlinewidth
1 setlinejoin
0 setlinecap
0 0 m
3.5 0 l
gsave
0.000 setgray
fill
grestore
stroke
grestore
} bind def
53.9344 336.038 o
grestore
gsave
/o {
gsave
newpath
translate
1.2 setlinewidth
1 setlinejoin
0 setlinecap
0 0 m
-3.5 0 l
gsave
0.000 setgray
fill
grestore
stroke
grestore
} bind def
388.734 336.038 o
grestore
gsave
/o {
gsave
newpath
translate
1.2 setlinewidth
1 setlinejoin
0 setlinecap
0 0 m
3.5 0 l
gsave
0.000 setgray
fill
grestore
stroke
grestore
} bind def
53.9344 347.369 o
grestore
gsave
/o {
gsave
newpath
translate
1.2 setlinewidth
1 setlinejoin
0 setlinecap
0 0 m
-3.5 0 l
gsave
0.000 setgray
fill
grestore
stroke
grestore
} bind def
388.734 347.369 o
grestore
gsave
/o {
gsave
newpath
translate
1.2 setlinewidth
1 setlinejoin
0 setlinecap
0 0 m
3.5 0 l
gsave
0.000 setgray
fill
grestore
stroke
grestore
} bind def
53.9344 358.7 o
grestore
gsave
/o {
gsave
newpath
translate
1.2 setlinewidth
1 setlinejoin
0 setlinecap
0 0 m
-3.5 0 l
gsave
0.000 setgray
fill
grestore
stroke
grestore
} bind def
388.734 358.7 o
grestore
gsave
/o {
gsave
newpath
translate
1.2 setlinewidth
1 setlinejoin
0 setlinecap
0 0 m
3.5 0 l
gsave
0.000 setgray
fill
grestore
stroke
grestore
} bind def
53.9344 370.031 o
grestore
gsave
/o {
gsave
newpath
translate
1.2 setlinewidth
1 setlinejoin
0 setlinecap
0 0 m
-3.5 0 l
gsave
0.000 setgray
fill
grestore
stroke
grestore
} bind def
388.734 370.031 o
grestore
gsave
/o {
gsave
newpath
translate
1.2 setlinewidth
1 setlinejoin
0 setlinecap
0 0 m
3.5 0 l
gsave
0.000 setgray
fill
grestore
stroke
grestore
} bind def
53.9344 381.363 o
grestore
gsave
/o {
gsave
newpath
translate
1.2 setlinewidth
1 setlinejoin
0 setlinecap
0 0 m
-3.5 0 l
gsave
0.000 setgray
fill
grestore
stroke
grestore
} bind def
388.734 381.363 o
grestore
gsave
19.200000 142.062500 translate
90.000000 rotate
/Cmmi10 findfont
10.0 scalefont
setfont
0.000000 3.089063 moveto
/V glyphshow

/Cmr10 findfont
7.0 scalefont
setfont
5.830078 0.538125 moveto
/h glyphshow

9.716309 0.538125 moveto
/e glyphshow

12.823242 0.538125 moveto
/l glyphshow

14.761230 0.538125 moveto
/i glyphshow

16.699219 0.538125 moveto
/o glyphshow

/BitstreamVeraSans-Roman findfont
10.0 scalefont
setfont
20.199219 3.089063 moveto
/space glyphshow

/Cmmi10 findfont
10.0 scalefont
setfont
23.377930 3.089063 moveto
/I glyphshow

27.767578 3.089063 moveto
/S glyphshow

33.895508 3.089063 moveto
/I glyphshow

38.285156 3.089063 moveto
/S glyphshow

/BitstreamVeraSans-Roman findfont
10.0 scalefont
setfont
44.413086 3.089063 moveto
/space glyphshow

47.591797 3.089063 moveto
/r glyphshow

51.703125 3.089063 moveto
/e glyphshow

57.855469 3.089063 moveto
/d glyphshow

64.203125 3.089063 moveto
/space glyphshow

67.381836 3.089063 moveto
/a glyphshow

73.509766 3.089063 moveto
/r glyphshow

77.621094 3.089063 moveto
/m glyphshow

87.362305 3.089063 moveto
/space glyphshow

90.541016 3.089063 moveto
/bracketleft glyphshow

94.442383 3.089063 moveto
/k glyphshow

100.233398 3.089063 moveto
/m glyphshow

109.974609 3.089063 moveto
/space glyphshow

113.153320 3.089063 moveto
/s glyphshow

/Cmsy10 findfont
7.0 scalefont
setfont
118.363281 7.340625 moveto
/minus glyphshow

/Cmr10 findfont
7.0 scalefont
setfont
123.801270 7.340625 moveto
/one glyphshow

/BitstreamVeraSans-Roman findfont
10.0 scalefont
setfont
129.001895 3.089063 moveto
/bracketright glyphshow


grestore
1.000 setlinewidth
2 setlinecap
gsave
53.9344 381.363 m
388.734 381.363 l
stroke
grestore
gsave
388.734 35.7625 m
388.734 381.363 l
stroke
grestore
gsave
53.9344 35.7625 m
388.734 35.7625 l
stroke
grestore
gsave
53.9344 35.7625 m
53.9344 381.363 l
stroke
grestore

end
showpage
