\relax 
\providecommand\hyper@newdestlabel[2]{}
\citation{Veljanoski13a}
\citation{Veljanoski14}
\@writefile{toc}{\contentsline {chapter}{\numberline {3}Kinematics of the M31 halo globular clusters}{60}{chapter.3}}
\@writefile{lof}{\addvspace {10\p@ }}
\@writefile{lot}{\addvspace {10\p@ }}
\newlabel{ch:kinematics}{{3}{60}{Kinematics of the M31 halo globular clusters}{chapter.3}{}}
\@writefile{toc}{\contentsline {section}{\numberline {3.1}Bayesian inference}{60}{section.3.1}}
\newlabel{sec:bayes}{{3.1}{60}{Bayesian inference}{section.3.1}{}}
\citation{Jeffreys61book}
\citation{Jeffreys61book}
\citation{Jeffreys61book}
\citation{Kass95}
\@writefile{lot}{\contentsline {table}{\numberline {(3.1)}{\ignorespaces The Bayes factor scale}}{61}{table.caption.47}}
\newlabel{tab:bayesfactor}{{3.1}{61}{The Bayes factor scale}{table.caption.47}{}}
\newlabel{eq:bayes}{{3.1}{61}{Bayesian inference}{equation.3.1.1}{}}
\newlabel{eq:evidence}{{3.2}{61}{Bayesian inference}{equation.3.1.2}{}}
\newlabel{eq:bayesfactor}{{3.3}{61}{Bayesian inference}{equation.3.1.3}{}}
\citation{Cote01}
\citation{Cote01}
\@writefile{toc}{\contentsline {section}{\numberline {3.2}Kinematic models}{62}{section.3.2}}
\newlabel{sec:kinMod}{{3.2}{62}{Kinematic models}{section.3.2}{}}
\newlabel{eq:rot}{{3.4}{62}{Kinematic models}{equation.3.2.4}{}}
\citation{Lee08}
\newlabel{eq:disp}{{3.5}{63}{Kinematic models}{equation.3.2.5}{}}
\newlabel{eq:rotmodel}{{3.6}{63}{Kinematic models}{equation.3.2.6}{}}
\newlabel{eq:norotmodel}{{3.7}{63}{Kinematic models}{equation.3.2.7}{}}
\newlabel{eq:like1}{{3.8}{63}{Kinematic models}{equation.3.2.8}{}}
\newlabel{eq:like2}{{3.9}{63}{Kinematic models}{equation.3.2.9}{}}
\citation{Lewis02,Skilling04,Feroz08,Feroz09}
\@writefile{toc}{\contentsline {section}{\numberline {3.3}Overall halo kinematics}{64}{section.3.3}}
\newlabel{sec:m31kin}{{3.3}{64}{Overall halo kinematics}{section.3.3}{}}
\citation{Ferguson02}
\@writefile{lot}{\contentsline {table}{\numberline {(3.2)}{\ignorespaces Results of the Bayesian kinematic analysis}}{65}{table.caption.48}}
\newlabel{tab:resall}{{3.2}{65}{Results of the Bayesian kinematic analysis}{table.caption.48}{}}
\citation{Chapman06}
\citation{Huxor11}
\@writefile{lof}{\contentsline {figure}{\numberline {(3.1)}{\ignorespaces Posterior probability functions for the parameters of model ${\cal  M}$}}{66}{figure.caption.49}}
\newlabel{fig:pdf}{{3.1}{66}{Posterior probability functions for the parameters of model ${\cal M}$}{figure.caption.49}{}}
\@writefile{lof}{\contentsline {figure}{\numberline {(3.2)}{\ignorespaces $V_{\rm  M31corr}$ plotted against the principal axes of M31}}{67}{figure.caption.50}}
\newlabel{fig:XX}{{3.2}{67}{$V_{\rm M31corr}$ plotted against the principal axes of M31}{figure.caption.50}{}}
\citation{Chapman06}
\citation{Chapman06}
\citation{Mackey10b}
\@writefile{lof}{\contentsline {figure}{\numberline {(3.3)}{\ignorespaces Likelihood contours in $\gamma - \sigma _0$ space}}{68}{figure.caption.51}}
\newlabel{fig:contour}{{3.3}{68}{Likelihood contours in $\gamma - \sigma _0$ space}{figure.caption.51}{}}
\@writefile{toc}{\contentsline {section}{\numberline {3.4}Globular cluster groups on streams}{68}{section.3.4}}
\newlabel{sec:str}{{3.4}{68}{Globular cluster groups on streams}{section.3.4}{}}
\citation{Mackey13}
\@writefile{lof}{\contentsline {figure}{\numberline {(3.4)}{\ignorespaces Rotation corrected $V_{\rm  helio}$ vs. $R_{\rm  proj}$ from the M31 centre}}{69}{figure.caption.52}}
\newlabel{fig:velproj}{{3.4}{69}{Rotation corrected $V_{\rm helio}$ vs. $\Rproj $ from the M31 centre}{figure.caption.52}{}}
\@writefile{lof}{\contentsline {figure}{\numberline {(3.5)}{\ignorespaces Radial velocity map with marked substructures}}{70}{figure.caption.53}}
\newlabel{fig:streammap}{{3.5}{70}{Radial velocity map with marked substructures}{figure.caption.53}{}}
\@writefile{toc}{\contentsline {subsection}{\numberline {3.4.1}The North-West stream}{71}{subsection.3.4.1}}
\newlabel{sec:nws}{{3.4.1}{71}{The North-West stream}{subsection.3.4.1}{}}
\@writefile{lof}{\contentsline {figure}{\numberline {(3.6)}{\ignorespaces $R_{\rm  proj}$ vs. rotation corrected $V_{\rm  helio}$ for the North-West stream GCs}}{72}{figure.caption.54}}
\newlabel{fig:NWs}{{3.6}{72}{$\Rproj $ vs. rotation corrected $V_{\rm helio}$ for the North-West stream GCs}{figure.caption.54}{}}
\citation{Bate13}
\citation{Lewis13}
\citation{Mackey13}
\citation{Mackey13}
\citation{Gilbert12}
\citation{Gilbert12}
\citation{Mackey13}
\@writefile{toc}{\contentsline {subsection}{\numberline {3.4.2}The South-West Cloud}{73}{subsection.3.4.2}}
\citation{Mackey10b}
\citation{Bate13}
\citation{Gilbert12}
\@writefile{lof}{\contentsline {figure}{\numberline {(3.7)}{\ignorespaces PA vs. rotation corrected $V_{\rm  helio}$ for the South-West Cloud GCs}}{74}{figure.caption.55}}
\newlabel{fig:SWC}{{3.7}{74}{PA vs. rotation corrected $V_{\rm helio}$ for the South-West Cloud GCs}{figure.caption.55}{}}
\citation{Mackey13}
\citation{Bate13}
\citation{Ibata07,Richardson11}
\citation{Chapman08}
\citation{Martin13,Ibata14}
\citation{Mackey10b}
\citation{Beers90}
\@writefile{toc}{\contentsline {subsection}{\numberline {3.4.3}Streams C and D}{75}{subsection.3.4.3}}
\citation{Perina09}
\citation{Mackey10b}
\citation{Chapman08}
\citation{Chapman08,Collins09}
\citation{Chapman08}
\@writefile{toc}{\contentsline {subsection}{\numberline {3.4.4}The Eastern Cloud}{77}{subsection.3.4.4}}
\citation{Mackey10b}
\citation{Mackey10b}
\citation{Mackey10b}
\citation{Faria07}
\@writefile{toc}{\contentsline {subsection}{\numberline {3.4.5}Association 2}{78}{subsection.3.4.5}}
\citation{Beers90}
\citation{Reitzel04}
\citation{Irwin08}
\citation{Irwin08}
\citation{McConnachie12}
\citation{Collins13}
\@writefile{toc}{\contentsline {subsection}{\numberline {3.4.6}The case of And\nobreakspace  {}XVII}{80}{subsection.3.4.6}}
\citation{Collins14}
\citation{Federici90,Federici93}
\citation{Evans00}
\citation{Seigar08}
\citation{Seigar08}
\citation{Penarrubia14}
\citation{Hudson14}
\citation{Fardal13}
\citation{vdMarel12}
\citation{Tollerud12}
\citation{Watkins10}
\citation{Lee08}
\citation{Evans03}
\citation{BT87}
\newlabel{eq:esc}{{3.10}{81}{The case of And~XVII}{equation.3.4.10}{}}
\@writefile{toc}{\contentsline {section}{\numberline {3.5}The dynamical mass of M31}{81}{section.3.5}}
\citation{Mamon05}
\citation{Evans03}
\@writefile{lot}{\contentsline {table}{\numberline {(3.3)}{\ignorespaces Recent literature estimates of the M31 mass}}{82}{table.caption.56}}
\newlabel{tab:masstable}{{3.3}{82}{Recent literature estimates of the M31 mass}{table.caption.56}{}}
\newlabel{eq:jeans}{{3.11}{82}{The dynamical mass of M31}{equation.3.5.11}{}}
\newlabel{eq:massrot}{{3.12}{82}{The dynamical mass of M31}{equation.3.5.12}{}}
\citation{Evans03}
\citation{Mackey10a}
\citation{NFW96}
\citation{Watkins10}
\citation{NFW96}
\citation{Evans03}
\citation{Evans03}
\citation{Watkins13,Penarrubia14}
\citation{Hudson14}
\citation{Yencho06,Deason12}
\citation{DiCintio12}
\newlabel{eq:TME}{{3.13}{83}{The dynamical mass of M31}{equation.3.5.13}{}}
\newlabel{eq:C}{{3.14}{83}{The dynamical mass of M31}{equation.3.5.14}{}}
\citation{mcconnachie09,Ibata14}
\citation{Mackey10b}
\@writefile{lot}{\contentsline {table}{\numberline {(3.4)}{\ignorespaces M31 dynamical mass estimates}}{84}{table.caption.57}}
\newlabel{tab:mass}{{3.4}{84}{M31 dynamical mass estimates}{table.caption.57}{}}
\citation{Mackey10b}
\citation{Harris01,GCreview06}
\citation{Olsen04}
\citation{Nantais10}
\citation{Woodley10,Strader11,Blom12,Pota13}
\@writefile{toc}{\contentsline {section}{\numberline {3.6}Discussion}{85}{section.3.6}}
\citation{Bekki10}
\citation{Ibata13Natur}
\citation{Metz07}
\citation{Keller12}
\citation{Libeskind05,Libeskind11,Lovell11}
\@writefile{toc}{\contentsline {section}{\numberline {3.7}Summary}{87}{section.3.7}}
\@setckpt{Kinematics/Kinematics}{
\setcounter{page}{88}
\setcounter{equation}{14}
\setcounter{enumi}{0}
\setcounter{enumii}{0}
\setcounter{enumiii}{0}
\setcounter{enumiv}{0}
\setcounter{footnote}{2}
\setcounter{mpfootnote}{0}
\setcounter{part}{0}
\setcounter{chapter}{3}
\setcounter{section}{7}
\setcounter{subsection}{0}
\setcounter{subsubsection}{0}
\setcounter{paragraph}{0}
\setcounter{subparagraph}{0}
\setcounter{figure}{7}
\setcounter{table}{4}
\setcounter{ContinuedFloat}{0}
\setcounter{KVtest}{0}
\setcounter{subfigure}{0}
\setcounter{subfigure@save}{0}
\setcounter{lofdepth}{1}
\setcounter{subtable}{0}
\setcounter{subtable@save}{0}
\setcounter{lotdepth}{1}
\setcounter{Item}{0}
\setcounter{Hfootnote}{11}
\setcounter{bookmark@seq@number}{42}
\setcounter{NAT@ctr}{0}
\setcounter{r@tfl@t}{3}
\setcounter{cp@cntr}{0}
\setcounter{@pps}{0}
\setcounter{@ppsavesec}{0}
\setcounter{@ppsaveapp}{0}
\setcounter{lstnumber}{1}
\setcounter{parentequation}{0}
\setcounter{section@level}{0}
\setcounter{lstlisting}{0}
}
