\relax 
\citation{Codishetal2000}
\citation{Conway2000}
\citation{Meyer2000}
\citation{Huetal2000}
\@writefile{toc}{\contentsline {chapter}{\numberline {1}Introduction}{1}{chapter.1}}
\@writefile{lof}{\addvspace {10\p@ }}
\@writefile{lot}{\addvspace {10\p@ }}
\@writefile{lof}{\contentsline {figure}{\numberline {(1.1)}{\ignorespaces Short caption}}{1}{figure.caption.11}}
\@writefile{lof}{\contentsline {subfigure}{\numberline{(a)}{\ignorespaces {Science One caption}}}{1}{subfigure.1.1}}
\@writefile{lof}{\contentsline {subfigure}{\numberline{(b)}{\ignorespaces {Science Two caption}}}{1}{subfigure.1.2}}
\providecommand*\caption@xref[2]{\@setref\relax\@undefined{#1}}
\newlabel{fig:figures1+2}{{1.1}{1}{Short caption\relax }{figure.caption.11}{}}
\@writefile{lot}{\contentsline {table}{\numberline {(1.1)}{\ignorespaces An example table, illustrating the use of the booktabs package.\relax }}{2}{table.caption.12}}
\newlabel{tab:example}{{1.1}{2}{An example table, illustrating the use of the booktabs package.\relax \relax }{table.caption.12}{}}
\@writefile{toc}{\contentsline {section}{\numberline {1.1}Section One}{2}{section.1.1}}
\@writefile{toc}{\contentsline {subsection}{\numberline {1.1.1}Subsection One}{2}{subsection.1.1.1}}
\@setckpt{chapter1/chapter1}{
\setcounter{page}{4}
\setcounter{equation}{0}
\setcounter{enumi}{0}
\setcounter{enumii}{0}
\setcounter{enumiii}{0}
\setcounter{enumiv}{0}
\setcounter{footnote}{0}
\setcounter{mpfootnote}{0}
\setcounter{part}{0}
\setcounter{chapter}{1}
\setcounter{section}{1}
\setcounter{subsection}{1}
\setcounter{subsubsection}{0}
\setcounter{paragraph}{0}
\setcounter{subparagraph}{0}
\setcounter{figure}{1}
\setcounter{table}{1}
\setcounter{ContinuedFloat}{0}
\setcounter{KVtest}{0}
\setcounter{subfigure}{0}
\setcounter{subfigure@save}{2}
\setcounter{lofdepth}{1}
\setcounter{subtable}{0}
\setcounter{subtable@save}{0}
\setcounter{lotdepth}{1}
\setcounter{Item}{0}
\setcounter{Hfootnote}{0}
\setcounter{bookmark@seq@number}{9}
\setcounter{NAT@ctr}{0}
\setcounter{@pps}{0}
\setcounter{@ppsavesec}{0}
\setcounter{@ppsaveapp}{0}
\setcounter{lstnumber}{1}
\setcounter{parentequation}{0}
\setcounter{section@level}{0}
\setcounter{lstlisting}{0}
}
