%!PS-Adobe-3.0 EPSF-3.0
%%Title: /disk1/jv/NGC6822/SSP/SSP-latest/PARSEC1-1.1/sspfig.eps
%%Creator: matplotlib version 1.1.1rc2, http://matplotlib.sourceforge.net/
%%CreationDate: Mon Jun  2 14:26:22 2014
%%Orientation: portrait
%%BoundingBox: 90 180 522 612
%%EndComments
%%BeginProlog
/mpldict 11 dict def
mpldict begin
/m { moveto } bind def
/l { lineto } bind def
/r { rlineto } bind def
/c { curveto } bind def
/cl { closepath } bind def
/box {
m
1 index 0 r
0 exch r
neg 0 r
cl
} bind def
/clipbox {
box
clip
newpath
} bind def
%!PS-Adobe-3.0 Resource-Font
%%Title: cmsy10
%%Copyright: Copyright (C) 1994, Basil K. Malyshev. All Rights Reserved.012BaKoMa Fonts Collection, Level-B.
%%Creator: Converted from TrueType to type 3 by PPR
25 dict begin
/_d{bind def}bind def
/_m{moveto}_d
/_l{lineto}_d
/_cl{closepath eofill}_d
/_c{curveto}_d
/_sc{7 -1 roll{setcachedevice}{pop pop pop pop pop pop}ifelse}_d
/_e{exec}_d
/FontName /Cmsy10 def
/PaintType 0 def
/FontMatrix[.001 0 0 .001 0 0]def
/FontBBox[-29 -960 1123 779]def
/FontType 3 def
/Encoding [ /minus ] def
/FontInfo 10 dict dup begin
/FamilyName (cmsy10) def
/FullName (cmsy10) def
/Notice (Copyright (C) 1994, Basil K. Malyshev. All Rights Reserved.012BaKoMa Fonts Collection, Level-B. ) def
/Weight (Regular) def
/Version (1.1/12-Nov-94) def
/ItalicAngle 0.0 def
/isFixedPitch false def
/UnderlinePosition -133 def
/UnderlineThickness 20 def
end readonly def
/CharStrings 1 dict dup begin
/minus{777 0 83 230 694 270 _sc
102 230 _m
96 230 92 232 88 236 _c
84 240 83 245 83 250 _c
83 254 84 259 88 263 _c
92 267 96 270 102 270 _c
676 270 _l
681 270 685 267 689 263 _c
692 259 694 254 694 250 _c
694 245 692 240 689 236 _c
685 232 681 230 676 230 _c
102 230 _l
_cl}_d
end readonly def

/BuildGlyph
 {exch begin
 CharStrings exch
 2 copy known not{pop /.notdef}if
 true 3 1 roll get exec
 end}_d

/BuildChar {
 1 index /Encoding get exch get
 1 index /BuildGlyph get exec
}_d

FontName currentdict end definefont pop
%!PS-Adobe-3.0 Resource-Font
%%Title: cmmi10
%%Copyright: Copyright (C) 1994, Basil K. Malyshev. All Rights Reserved.012BaKoMa Fonts Collection, Level-B.
%%Creator: Converted from TrueType to type 3 by PPR
25 dict begin
/_d{bind def}bind def
/_m{moveto}_d
/_l{lineto}_d
/_cl{closepath eofill}_d
/_c{curveto}_d
/_sc{7 -1 roll{setcachedevice}{pop pop pop pop pop pop}ifelse}_d
/_e{exec}_d
/FontName /Cmmi10 def
/PaintType 0 def
/FontMatrix[.001 0 0 .001 0 0]def
/FontBBox[-34 -250 1048 750]def
/FontType 3 def
/Encoding [ /g /i /p /K ] def
/FontInfo 10 dict dup begin
/FamilyName (cmmi10) def
/FullName (cmmi10) def
/Notice (Copyright (C) 1994, Basil K. Malyshev. All Rights Reserved.012BaKoMa Fonts Collection, Level-B. ) def
/Weight (Regular) def
/Version (1.1/12-Nov-94) def
/ItalicAngle 0.0 def
/isFixedPitch false def
/UnderlinePosition -133 def
/UnderlineThickness 20 def
end readonly def
/CharStrings 4 dict dup begin
/g{{477 0 14 -204 476 442 _sc
14 -142 _m
14 -126 19 -111 31 -99 _c
42 -87 56 -81 72 -81 _c
82 -81 91 -84 99 -91 _c
106 -97 110 -106 110 -117 _c
110 -129 106 -139 99 -149 _c
92 -159 83 -166 73 -170 _c
91 -175 119 -178 157 -178 _c
187 -178 215 -166 241 -142 _c
266 -118 283 -91 291 -61 _c
320 55 _l
284 18 246 0 207 0 _c
178 0 153 7 133 22 _c
113 36 97 56 87 80 _c
}_e{76 104 71 130 71 158 _c
71 188 77 220 89 254 _c
101 288 119 319 142 348 _c
164 376 190 399 220 416 _c
249 433 280 442 313 442 _c
332 442 349 436 365 426 _c
381 415 393 401 403 383 _c
409 409 424 422 446 422 _c
454 422 461 419 467 414 _c
473 409 476 402 476 394 _c
476 392 476 390 476 389 _c
476 388 475 387 475 386 _c
361 -67 _l
355 -87 346 -106 332 -124 _c
}_e{318 -141 301 -155 282 -167 _c
263 -179 242 -188 220 -194 _c
198 -200 176 -204 156 -204 _c
118 -204 84 -200 56 -193 _c
28 -185 14 -168 14 -142 _c
209 26 _m
251 26 293 55 335 114 _c
390 332 _l
385 355 376 375 362 391 _c
348 407 331 416 311 416 _c
289 416 268 407 248 389 _c
228 371 212 349 199 324 _c
187 300 175 265 163 220 _c
151 175 146 140 146 114 _c
146 91 151 71 161 53 _c
}_e{171 35 187 26 209 26 _c
_cl}_e}_d
/i{{344 0 27 -10 296 661 _sc
78 72 _m
78 84 80 97 86 111 _c
167 326 _l
175 350 180 370 180 386 _c
180 406 172 416 158 416 _c
132 416 110 402 93 375 _c
75 347 63 317 55 284 _c
53 280 51 278 47 278 _c
35 278 _l
29 278 27 281 27 287 _c
27 290 _l
37 330 54 365 76 396 _c
98 426 126 442 160 442 _c
184 442 204 434 220 418 _c
236 402 245 383 245 359 _c
}_e{245 346 242 333 237 320 _c
156 105 _l
146 83 142 63 142 45 _c
142 25 149 15 165 15 _c
191 15 212 29 230 57 _c
247 85 259 115 267 147 _c
268 151 271 153 275 153 _c
287 153 _l
289 153 291 152 293 150 _c
295 148 296 146 296 144 _c
296 143 295 142 295 141 _c
285 103 269 68 247 37 _c
224 5 196 -10 163 -10 _c
139 -10 119 -2 103 13 _c
86 29 78 48 78 72 _c
}_e{191 606 _m
191 620 196 632 208 644 _c
220 655 233 661 247 661 _c
258 661 267 657 275 650 _c
282 643 286 634 286 624 _c
286 609 280 596 268 585 _c
256 573 243 568 229 568 _c
218 568 209 571 202 579 _c
194 586 191 595 191 606 _c
_cl}_e}_d
/p{{503 0 -33 -193 491 442 _sc
-24 -193 _m
-30 -193 -33 -188 -33 -180 _c
-31 -165 -26 -158 -20 -158 _c
0 -158 14 -156 22 -152 _c
30 -148 37 -139 42 -124 _c
155 325 _l
159 337 162 353 162 373 _c
162 401 152 416 133 416 _c
112 416 96 403 86 378 _c
76 353 66 322 57 284 _c
57 280 54 278 49 278 _c
37 278 _l
35 278 34 279 32 281 _c
30 283 29 286 29 288 _c
}_e{36 317 43 342 50 362 _c
56 382 67 400 81 417 _c
95 433 112 442 134 442 _c
156 442 176 435 194 422 _c
211 409 222 392 227 370 _c
245 391 265 408 287 422 _c
309 435 332 442 356 442 _c
384 442 408 434 429 419 _c
449 404 465 384 475 360 _c
485 336 491 310 491 282 _c
491 239 480 195 458 149 _c
436 103 406 65 369 35 _c
331 5 291 -10 248 -10 _c
}_e{228 -10 211 -4 195 6 _c
179 16 166 31 158 49 _c
113 -128 _l
111 -138 110 -143 110 -145 _c
110 -153 132 -158 176 -158 _c
182 -158 186 -162 186 -171 _c
184 -179 182 -185 180 -188 _c
178 -191 175 -193 169 -193 _c
-24 -193 _l
249 15 _m
272 15 293 24 313 43 _c
333 62 349 84 362 108 _c
370 126 379 147 387 173 _c
395 199 402 226 408 256 _c
414 285 417 308 417 326 _c
}_e{417 341 415 355 411 369 _c
407 382 400 393 391 402 _c
381 411 369 416 354 416 _c
329 416 306 407 284 390 _c
262 372 243 351 226 325 _c
226 322 _l
171 101 _l
175 77 184 56 197 40 _c
210 23 227 15 249 15 _c
_cl}_e}_d
/K{{849 0 37 0 890 683 _sc
47 0 _m
40 0 37 4 37 13 _c
37 15 38 18 39 22 _c
40 26 41 29 43 31 _c
45 33 47 35 50 35 _c
90 35 119 37 135 42 _c
143 44 150 53 154 69 _c
291 618 _l
292 624 293 629 293 632 _c
293 639 289 643 281 644 _c
268 646 244 648 209 648 _c
202 648 199 652 199 661 _c
201 669 203 675 205 678 _c
206 681 210 683 216 683 _c
}_e{485 683 _l
491 683 495 678 495 670 _c
495 668 494 665 493 661 _c
492 657 491 654 489 652 _c
487 649 485 648 482 648 _c
441 648 413 645 397 641 _c
388 637 382 628 378 614 _c
297 290 _l
689 593 _l
689 594 693 598 701 606 _c
709 614 713 621 713 629 _c
713 641 701 648 679 648 _c
672 648 669 652 669 661 _c
670 666 671 670 672 673 _c
672 676 674 678 676 680 _c
}_e{678 682 682 683 686 683 _c
880 683 _l
883 683 885 681 887 679 _c
889 676 890 673 890 670 _c
890 668 889 665 888 661 _c
886 657 885 653 883 651 _c
881 649 879 648 876 648 _c
827 648 774 625 716 580 _c
715 580 714 579 714 579 _c
713 579 712 579 712 579 _c
711 579 711 578 711 578 _c
505 418 _l
655 67 _l
663 52 673 43 684 40 _c
694 36 710 35 732 35 _c
}_e{738 35 742 30 742 22 _c
740 14 738 8 736 5 _c
734 1 730 0 725 0 _c
493 0 _l
487 0 484 4 484 13 _c
484 19 485 25 487 29 _c
488 33 491 35 497 35 _c
513 35 528 36 540 40 _c
552 43 558 51 558 64 _c
558 68 557 72 557 74 _c
433 363 _l
287 250 _l
241 65 _l
239 57 239 52 239 51 _c
239 44 243 40 251 39 _c
263 36 287 35 323 35 _c
}_e{329 35 333 30 333 22 _c
331 12 329 6 328 4 _c
326 1 322 0 316 0 _c
47 0 _l
_cl}_e}_d
end readonly def

/BuildGlyph
 {exch begin
 CharStrings exch
 2 copy known not{pop /.notdef}if
 true 3 1 roll get exec
 end}_d

/BuildChar {
 1 index /Encoding get exch get
 1 index /BuildGlyph get exec
}_d

FontName currentdict end definefont pop
%!PS-Adobe-3.0 Resource-Font
%%Title: cmr10
%%Copyright: Copyright (C) 1994, Basil K. Malyshev. All Rights Reserved.012BaKoMa Fonts Collection, Level-B.
%%Creator: Converted from TrueType to type 3 by PPR
25 dict begin
/_d{bind def}bind def
/_m{moveto}_d
/_l{lineto}_d
/_cl{closepath eofill}_d
/_c{curveto}_d
/_sc{7 -1 roll{setcachedevice}{pop pop pop pop pop pop}ifelse}_d
/_e{exec}_d
/FontName /Cmr10 def
/PaintType 0 def
/FontMatrix[.001 0 0 .001 0 0]def
/FontBBox[-44 -250 1009 750]def
/FontType 3 def
/Encoding [ /zero /parenright /one /parenleft ] def
/FontInfo 10 dict dup begin
/FamilyName (cmr10) def
/FullName (cmr10) def
/Notice (Copyright (C) 1994, Basil K. Malyshev. All Rights Reserved.012BaKoMa Fonts Collection, Level-B. ) def
/Weight (Regular) def
/Version (1.1/12-Nov-94) def
/ItalicAngle 0.0 def
/isFixedPitch false def
/UnderlinePosition -133 def
/UnderlineThickness 20 def
end readonly def
/CharStrings 4 dict dup begin
/zero{{500 0 39 -21 460 666 _sc
250 -21 _m
168 -21 112 12 83 79 _c
53 146 39 226 39 319 _c
39 377 44 431 55 482 _c
65 533 86 576 118 612 _c
149 648 193 666 250 666 _c
294 666 330 655 358 634 _c
386 612 407 585 422 551 _c
436 517 446 480 452 441 _c
457 402 460 361 460 319 _c
460 261 454 208 444 158 _c
433 108 412 65 381 31 _c
350 -3 306 -21 250 -21 _c
250 4 _m
}_e{287 4 315 23 333 61 _c
351 99 362 141 366 187 _c
370 233 373 283 373 335 _c
373 385 370 431 366 473 _c
362 515 351 554 333 588 _c
315 622 287 640 250 640 _c
212 640 184 622 166 588 _c
148 554 136 515 132 473 _c
128 431 126 385 126 335 _c
126 297 126 262 128 230 _c
130 197 135 163 143 128 _c
151 93 163 64 181 40 _c
198 16 221 4 250 4 _c
_cl}_e}_d
/parenright{{388 0 56 -249 291 750 _sc
65 -249 _m
59 -249 56 -246 56 -240 _c
56 -237 56 -235 58 -234 _c
172 -122 229 38 229 250 _c
229 462 172 623 60 733 _c
57 734 56 737 56 741 _c
56 743 57 745 59 747 _c
61 749 63 750 65 750 _c
74 750 _l
76 750 77 749 79 748 _c
127 710 167 664 199 610 _c
231 556 254 498 269 437 _c
283 376 291 314 291 250 _c
291 202 287 156 279 110 _c
}_e{271 64 258 20 241 -24 _c
223 -68 201 -108 175 -146 _c
148 -184 116 -217 79 -247 _c
77 -248 76 -249 74 -249 _c
65 -249 _l
_cl}_e}_d
/one{500 0 87 0 421 666 _sc
93 0 _m
93 35 _l
176 35 218 45 218 67 _c
218 592 _l
183 575 139 567 87 567 _c
87 602 _l
168 602 230 623 272 666 _c
286 666 _l
288 666 291 665 293 663 _c
295 661 296 659 296 657 _c
296 67 _l
296 45 337 35 421 35 _c
421 0 _l
93 0 _l
_cl}_d
/parenleft{{388 0 97 -249 332 750 _sc
310 -247 _m
272 -217 240 -184 214 -146 _c
187 -108 165 -67 148 -25 _c
131 17 118 62 110 109 _c
101 155 97 202 97 250 _c
97 298 101 345 110 392 _c
118 438 131 483 149 527 _c
166 570 188 611 215 649 _c
242 687 274 720 310 748 _c
310 749 311 750 315 750 _c
324 750 _l
326 750 327 749 329 747 _c
331 745 332 743 332 741 _c
332 738 331 736 330 735 _c
}_e{297 703 270 668 248 632 _c
226 596 209 557 196 516 _c
183 474 174 432 168 388 _c
162 344 159 298 159 250 _c
159 38 215 -122 329 -232 _c
331 -234 332 -236 332 -240 _c
332 -242 331 -244 329 -246 _c
327 -248 326 -249 324 -249 _c
315 -249 _l
311 -249 310 -248 310 -247 _c
_cl}_e}_d
end readonly def

/BuildGlyph
 {exch begin
 CharStrings exch
 2 copy known not{pop /.notdef}if
 true 3 1 roll get exec
 end}_d

/BuildChar {
 1 index /Encoding get exch get
 1 index /BuildGlyph get exec
}_d

FontName currentdict end definefont pop
%!PS-Adobe-3.0 Resource-Font
%%Title: Bitstream Vera Sans
%%Copyright: Copyright (c) 2003 by Bitstream, Inc. All Rights Reserved.
%%Creator: Converted from TrueType to type 3 by PPR
25 dict begin
/_d{bind def}bind def
/_m{moveto}_d
/_l{lineto}_d
/_cl{closepath eofill}_d
/_c{curveto}_d
/_sc{7 -1 roll{setcachedevice}{pop pop pop pop pop pop}ifelse}_d
/_e{exec}_d
/FontName /BitstreamVeraSans-Roman def
/PaintType 0 def
/FontMatrix[.001 0 0 .001 0 0]def
/FontBBox[-183 -236 1287 928]def
/FontType 3 def
/Encoding [ /space /hyphen /period /zero /one /two /three /four /five /six /seven /eight /C /G /H /I /S /V /b /e /l /r /u /y ] def
/FontInfo 10 dict dup begin
/FamilyName (Bitstream Vera Sans) def
/FullName (Bitstream Vera Sans) def
/Notice (Copyright (c) 2003 by Bitstream, Inc. All Rights Reserved. Bitstream Vera is a trademark of Bitstream, Inc.) def
/Weight (Roman) def
/Version (Release 1.10) def
/ItalicAngle 0.0 def
/isFixedPitch false def
/UnderlinePosition -213 def
/UnderlineThickness 143 def
end readonly def
/CharStrings 24 dict dup begin
/space{318 0 0 0 0 0 _sc
}_d
/hyphen{361 0 49 234 312 314 _sc
49 314 _m
312 314 _l
312 234 _l
49 234 _l
49 314 _l
_cl}_d
/period{318 0 107 0 210 124 _sc
107 124 _m
210 124 _l
210 0 _l
107 0 _l
107 124 _l
_cl}_d
/zero{636 0 66 -13 570 742 _sc
318 664 _m
267 664 229 639 203 589 _c
177 539 165 464 165 364 _c
165 264 177 189 203 139 _c
229 89 267 64 318 64 _c
369 64 407 89 433 139 _c
458 189 471 264 471 364 _c
471 464 458 539 433 589 _c
407 639 369 664 318 664 _c
318 742 _m
399 742 461 709 505 645 _c
548 580 570 486 570 364 _c
570 241 548 147 505 83 _c
461 19 399 -13 318 -13 _c
236 -13 173 19 130 83 _c
87 147 66 241 66 364 _c
66 486 87 580 130 645 _c
173 709 236 742 318 742 _c
_cl}_d
/one{636 0 110 0 544 729 _sc
124 83 _m
285 83 _l
285 639 _l
110 604 _l
110 694 _l
284 729 _l
383 729 _l
383 83 _l
544 83 _l
544 0 _l
124 0 _l
124 83 _l
_cl}_d
/two{{636 0 73 0 536 742 _sc
192 83 _m
536 83 _l
536 0 _l
73 0 _l
73 83 _l
110 121 161 173 226 239 _c
290 304 331 346 348 365 _c
380 400 402 430 414 455 _c
426 479 433 504 433 528 _c
433 566 419 598 392 622 _c
365 646 330 659 286 659 _c
255 659 222 653 188 643 _c
154 632 117 616 78 594 _c
78 694 _l
118 710 155 722 189 730 _c
223 738 255 742 284 742 _c
}_e{359 742 419 723 464 685 _c
509 647 532 597 532 534 _c
532 504 526 475 515 449 _c
504 422 484 390 454 354 _c
446 344 420 317 376 272 _c
332 227 271 164 192 83 _c
_cl}_e}_d
/three{{636 0 76 -13 556 742 _sc
406 393 _m
453 383 490 362 516 330 _c
542 298 556 258 556 212 _c
556 140 531 84 482 45 _c
432 6 362 -13 271 -13 _c
240 -13 208 -10 176 -4 _c
144 1 110 10 76 22 _c
76 117 _l
103 101 133 89 166 81 _c
198 73 232 69 268 69 _c
330 69 377 81 409 105 _c
441 129 458 165 458 212 _c
458 254 443 288 413 312 _c
383 336 341 349 287 349 _c
}_e{202 349 _l
202 430 _l
291 430 _l
339 430 376 439 402 459 _c
428 478 441 506 441 543 _c
441 580 427 609 401 629 _c
374 649 336 659 287 659 _c
260 659 231 656 200 650 _c
169 644 135 635 98 623 _c
98 711 _l
135 721 170 729 203 734 _c
235 739 266 742 296 742 _c
370 742 429 725 473 691 _c
517 657 539 611 539 553 _c
539 513 527 479 504 451 _c
481 423 448 403 406 393 _c
_cl}_e}_d
/four{636 0 49 0 580 729 _sc
378 643 _m
129 254 _l
378 254 _l
378 643 _l
352 729 _m
476 729 _l
476 254 _l
580 254 _l
580 172 _l
476 172 _l
476 0 _l
378 0 _l
378 172 _l
49 172 _l
49 267 _l
352 729 _l
_cl}_d
/five{{636 0 77 -13 549 729 _sc
108 729 _m
495 729 _l
495 646 _l
198 646 _l
198 467 _l
212 472 227 476 241 478 _c
255 480 270 482 284 482 _c
365 482 429 459 477 415 _c
525 370 549 310 549 234 _c
549 155 524 94 475 51 _c
426 8 357 -13 269 -13 _c
238 -13 207 -10 175 -6 _c
143 -1 111 6 77 17 _c
77 116 _l
106 100 136 88 168 80 _c
199 72 232 69 267 69 _c
}_e{323 69 368 83 401 113 _c
433 143 450 183 450 234 _c
450 284 433 324 401 354 _c
368 384 323 399 267 399 _c
241 399 214 396 188 390 _c
162 384 135 375 108 363 _c
108 729 _l
_cl}_e}_d
/six{{636 0 70 -13 573 742 _sc
330 404 _m
286 404 251 388 225 358 _c
199 328 186 286 186 234 _c
186 181 199 139 225 109 _c
251 79 286 64 330 64 _c
374 64 409 79 435 109 _c
461 139 474 181 474 234 _c
474 286 461 328 435 358 _c
409 388 374 404 330 404 _c
526 713 _m
526 623 _l
501 635 476 644 451 650 _c
425 656 400 659 376 659 _c
310 659 260 637 226 593 _c
}_e{192 549 172 482 168 394 _c
187 422 211 444 240 459 _c
269 474 301 482 336 482 _c
409 482 467 459 509 415 _c
551 371 573 310 573 234 _c
573 159 550 99 506 54 _c
462 9 403 -13 330 -13 _c
246 -13 181 19 137 83 _c
92 147 70 241 70 364 _c
70 479 97 571 152 639 _c
206 707 280 742 372 742 _c
396 742 421 739 447 735 _c
472 730 498 723 526 713 _c
_cl}_e}_d
/seven{636 0 82 0 551 729 _sc
82 729 _m
551 729 _l
551 687 _l
286 0 _l
183 0 _l
432 646 _l
82 646 _l
82 729 _l
_cl}_d
/eight{{636 0 68 -13 568 742 _sc
318 346 _m
271 346 234 333 207 308 _c
180 283 167 249 167 205 _c
167 161 180 126 207 101 _c
234 76 271 64 318 64 _c
364 64 401 76 428 102 _c
455 127 469 161 469 205 _c
469 249 455 283 429 308 _c
402 333 365 346 318 346 _c
219 388 _m
177 398 144 418 120 447 _c
96 476 85 511 85 553 _c
85 611 105 657 147 691 _c
188 725 245 742 318 742 _c
}_e{390 742 447 725 489 691 _c
530 657 551 611 551 553 _c
551 511 539 476 515 447 _c
491 418 459 398 417 388 _c
464 377 501 355 528 323 _c
554 291 568 251 568 205 _c
568 134 546 80 503 43 _c
459 5 398 -13 318 -13 _c
237 -13 175 5 132 43 _c
89 80 68 134 68 205 _c
68 251 81 291 108 323 _c
134 355 171 377 219 388 _c
183 544 _m
183 506 194 476 218 455 _c
}_e{242 434 275 424 318 424 _c
360 424 393 434 417 455 _c
441 476 453 506 453 544 _c
453 582 441 611 417 632 _c
393 653 360 664 318 664 _c
275 664 242 653 218 632 _c
194 611 183 582 183 544 _c
_cl}_e}_d
/C{{698 0 56 -13 644 742 _sc
644 673 _m
644 569 _l
610 599 575 622 537 638 _c
499 653 460 661 418 661 _c
334 661 270 635 226 584 _c
182 533 160 460 160 364 _c
160 268 182 194 226 143 _c
270 92 334 67 418 67 _c
460 67 499 74 537 90 _c
575 105 610 128 644 159 _c
644 56 _l
609 32 572 15 534 4 _c
496 -7 455 -13 412 -13 _c
302 -13 215 20 151 87 _c
}_e{87 154 56 246 56 364 _c
56 481 87 573 151 641 _c
215 708 302 742 412 742 _c
456 742 497 736 535 725 _c
573 713 610 696 644 673 _c
_cl}_e}_d
/G{{775 0 56 -13 693 742 _sc
595 104 _m
595 300 _l
434 300 _l
434 381 _l
693 381 _l
693 68 _l
655 40 613 20 567 7 _c
521 -6 472 -13 420 -13 _c
306 -13 216 20 152 86 _c
88 152 56 245 56 364 _c
56 482 88 575 152 642 _c
216 708 306 742 420 742 _c
467 742 512 736 555 724 _c
598 712 638 695 674 673 _c
674 568 _l
637 598 598 621 557 637 _c
516 653 473 661 428 661 _c
}_e{338 661 271 636 227 586 _c
182 536 160 462 160 364 _c
160 265 182 191 227 141 _c
271 91 338 67 428 67 _c
462 67 493 70 521 76 _c
549 82 573 91 595 104 _c
_cl}_e}_d
/H{752 0 98 0 654 729 _sc
98 729 _m
197 729 _l
197 430 _l
555 430 _l
555 729 _l
654 729 _l
654 0 _l
555 0 _l
555 347 _l
197 347 _l
197 0 _l
98 0 _l
98 729 _l
_cl}_d
/I{295 0 98 0 197 729 _sc
98 729 _m
197 729 _l
197 0 _l
98 0 _l
98 729 _l
_cl}_d
/S{{635 0 66 -13 579 742 _sc
535 705 _m
535 609 _l
497 627 462 640 429 649 _c
395 657 363 662 333 662 _c
279 662 237 651 208 631 _c
179 610 165 580 165 542 _c
165 510 174 485 194 469 _c
213 452 250 439 304 429 _c
364 417 _l
437 403 491 378 526 343 _c
561 307 579 260 579 201 _c
579 130 555 77 508 41 _c
460 5 391 -13 300 -13 _c
265 -13 228 -9 189 -2 _c
}_e{150 5 110 16 69 32 _c
69 134 _l
109 111 148 94 186 83 _c
224 71 262 66 300 66 _c
356 66 399 77 430 99 _c
460 121 476 152 476 194 _c
476 230 465 258 443 278 _c
421 298 385 313 335 323 _c
275 335 _l
201 349 148 372 115 404 _c
82 435 66 478 66 534 _c
66 598 88 649 134 686 _c
179 723 242 742 322 742 _c
356 742 390 739 426 733 _c
461 727 497 717 535 705 _c
}_e{_cl}_e}_d
/V{684 0 8 0 676 729 _sc
286 0 _m
8 729 _l
111 729 _l
342 115 _l
573 729 _l
676 729 _l
398 0 _l
286 0 _l
_cl}_d
/b{{635 0 91 -13 580 760 _sc
487 273 _m
487 339 473 390 446 428 _c
418 466 381 485 334 485 _c
286 485 249 466 222 428 _c
194 390 181 339 181 273 _c
181 207 194 155 222 117 _c
249 79 286 61 334 61 _c
381 61 418 79 446 117 _c
473 155 487 207 487 273 _c
181 464 _m
199 496 223 520 252 536 _c
281 552 316 560 356 560 _c
422 560 476 533 518 481 _c
559 428 580 359 580 273 _c
}_e{580 187 559 117 518 65 _c
476 13 422 -13 356 -13 _c
316 -13 281 -5 252 10 _c
223 25 199 49 181 82 _c
181 0 _l
91 0 _l
91 760 _l
181 760 _l
181 464 _l
_cl}_e}_d
/e{{615 0 55 -13 562 560 _sc
562 296 _m
562 252 _l
149 252 _l
153 190 171 142 205 110 _c
238 78 284 62 344 62 _c
378 62 412 66 444 74 _c
476 82 509 95 541 113 _c
541 28 _l
509 14 476 3 442 -3 _c
408 -9 373 -13 339 -13 _c
251 -13 182 12 131 62 _c
80 112 55 181 55 268 _c
55 357 79 428 127 481 _c
175 533 241 560 323 560 _c
397 560 455 536 498 489 _c
}_e{540 441 562 377 562 296 _c
472 322 _m
471 371 457 410 431 440 _c
404 469 368 484 324 484 _c
274 484 234 469 204 441 _c
174 413 156 373 152 322 _c
472 322 _l
_cl}_e}_d
/l{278 0 94 0 184 760 _sc
94 760 _m
184 760 _l
184 0 _l
94 0 _l
94 760 _l
_cl}_d
/r{411 0 91 0 411 560 _sc
411 463 _m
401 469 390 473 378 476 _c
366 478 353 480 339 480 _c
288 480 249 463 222 430 _c
194 397 181 350 181 288 _c
181 0 _l
91 0 _l
91 547 _l
181 547 _l
181 462 _l
199 495 224 520 254 536 _c
284 552 321 560 365 560 _c
371 560 378 559 386 559 _c
393 558 401 557 411 555 _c
411 463 _l
_cl}_d
/u{634 0 85 -13 543 547 _sc
85 216 _m
85 547 _l
175 547 _l
175 219 _l
175 167 185 129 205 103 _c
225 77 255 64 296 64 _c
344 64 383 79 411 110 _c
439 141 453 183 453 237 _c
453 547 _l
543 547 _l
543 0 _l
453 0 _l
453 84 _l
431 50 405 26 377 10 _c
348 -5 315 -13 277 -13 _c
214 -13 166 6 134 45 _c
101 83 85 140 85 216 _c
_cl}_d
/y{592 0 30 -207 562 547 _sc
322 -50 _m
296 -114 271 -157 247 -177 _c
223 -197 191 -207 151 -207 _c
79 -207 _l
79 -132 _l
132 -132 _l
156 -132 175 -126 189 -114 _c
203 -102 218 -75 235 -31 _c
251 9 _l
30 547 _l
125 547 _l
296 119 _l
467 547 _l
562 547 _l
322 -50 _l
_cl}_d
end readonly def

/BuildGlyph
 {exch begin
 CharStrings exch
 2 copy known not{pop /.notdef}if
 true 3 1 roll get exec
 end}_d

/BuildChar {
 1 index /Encoding get exch get
 1 index /BuildGlyph get exec
}_d

FontName currentdict end definefont pop
end
%%EndProlog
mpldict begin
90 180 translate
432 432 0 0 clipbox
gsave
0 0 m
432 0 l
432 432 l
0 432 l
cl
1.000 setgray
fill
grestore
gsave
54 43.2 m
388.8 43.2 l
388.8 388.8 l
54 388.8 l
cl
1.000 setgray
fill
grestore
0.500 setlinewidth
1 setlinejoin
2 setlinecap
[] 0 setdash
0.000 setgray
gsave
334.8 345.6 54 43.2 clipbox
246.979 357.005 m
249.657 358.733 l
249.657 357.178 l
256.353 357.178 l
256.353 356.832 l
249.657 356.832 l
249.657 355.277 l
246.979 357.005 l
cl
gsave
fill
grestore
stroke
grestore
gsave
334.8 345.6 54 43.2 clipbox
256.353 343.181 m
255.014 346.637 l
256.286 346.637 l
256.286 357.005 l
256.42 357.005 l
256.42 346.637 l
257.692 346.637 l
256.353 343.181 l
cl
gsave
fill
grestore
stroke
grestore
/p0_0 {
newpath
translate
197.562 200.794 m
207.204 200.794 l
} bind def
/p0_1 {
newpath
translate
177.608 191.117 m
193.411 191.117 l
} bind def
/p0_2 {
newpath
translate
223.811 246.413 m
236.935 246.413 l
} bind def
/p0_3 {
newpath
translate
177.34 196.646 m
189.125 196.646 l
} bind def
/p0_4 {
newpath
translate
243.229 274.061 m
255.014 274.061 l
} bind def
1.000 setlinewidth
0 setlinecap
gsave
334.8 345.6 54 43.2 clipbox
0 0 p0_0
stroke
grestore
gsave
334.8 345.6 54 43.2 clipbox
0 0 p0_1
stroke
grestore
gsave
334.8 345.6 54 43.2 clipbox
0 0 p0_2
stroke
grestore
gsave
334.8 345.6 54 43.2 clipbox
0 0 p0_3
stroke
grestore
gsave
334.8 345.6 54 43.2 clipbox
0 0 p0_4
stroke
grestore
/p1_0 {
newpath
translate
202.383 186.624 m
202.383 214.963 l
} bind def
/p1_1 {
newpath
translate
185.509 176.947 m
185.509 205.286 l
} bind def
/p1_2 {
newpath
translate
230.373 232.243 m
230.373 260.582 l
} bind def
/p1_3 {
newpath
translate
183.233 179.712 m
183.233 213.581 l
} bind def
/p1_4 {
newpath
translate
249.121 257.126 m
249.121 290.995 l
} bind def
gsave
334.8 345.6 54 43.2 clipbox
0 0 p1_0
stroke
grestore
gsave
334.8 345.6 54 43.2 clipbox
0 0 p1_1
stroke
grestore
gsave
334.8 345.6 54 43.2 clipbox
0 0 p1_2
stroke
grestore
gsave
334.8 345.6 54 43.2 clipbox
0 0 p1_3
stroke
grestore
gsave
334.8 345.6 54 43.2 clipbox
0 0 p1_4
stroke
grestore
1.300 setlinewidth
2 setlinecap
1.000 0.647 0.000 setrgbcolor
gsave
334.8 345.6 54 43.2 clipbox
141.316 141.35 m
149.083 151.718 l
158.859 163.814 l
170.778 179.021 l
175.465 183.514 l
185.376 193.882 l
188.59 196.646 l
191.938 200.102 l
195.553 203.558 l
202.116 210.47 l
207.204 214.963 l
211.758 219.456 l
214.168 221.184 l
218.856 228.442 l
220.596 230.17 l
220.329 228.096 l
221.534 228.096 l
225.284 233.626 l
227.694 235.699 l
228.9 237.082 l
234.524 242.611 l
237.203 245.03 l
242.961 250.56 l
244.434 251.597 l
245.64 252.979 l
246.711 254.016 l
248.452 255.398 l
249.389 256.435 l
250.461 257.126 l
252.469 258.854 l
254.478 260.928 l
255.55 261.619 l
256.353 262.656 l
261.174 266.803 l
262.112 267.84 l
263.317 268.531 l
264.12 269.222 l
266.397 270.95 l
267.87 272.333 l
269.343 273.37 l
270.147 274.406 l
270.415 274.406 l
274.031 277.171 l
274.164 277.862 l
275.236 278.554 l
275.37 278.899 l
276.709 279.936 l
277.111 280.627 l
278.852 281.664 l
279.387 282.701 l
281.396 284.083 l
281.396 284.083 l
283.137 285.466 l
283.137 285.811 l
282.735 283.046 l
283.137 282.701 l
283.807 283.046 l
284.744 284.083 l
285.682 285.12 l
286.887 285.811 l
289.565 288.23 l
289.833 288.576 l
290.369 288.922 l
290.771 288.922 l
292.244 289.958 l
292.779 290.65 l
293.315 290.995 l
294.119 291.341 l
295.458 292.723 l
295.86 292.723 l
296.529 293.76 l
297.467 294.451 l
298.672 295.142 l
298.538 295.142 l
299.877 296.179 l
300.815 296.87 l
301.216 297.562 l
301.484 297.562 l
304.832 300.326 l
304.966 300.326 l
305.368 300.672 l
305.502 301.018 l
306.841 302.054 l
306.573 302.054 l
307.778 303.782 l
309.118 304.819 l
309.921 305.165 l
309.252 305.165 l
310.591 305.856 l
310.859 306.202 l
310.725 306.547 l
311.394 307.238 l
313.269 308.966 l
313.135 309.312 l
313.403 309.658 l
314.876 310.003 l
314.742 310.349 l
314.876 310.349 l
315.412 311.04 l
316.349 311.386 l
316.885 311.386 l
316.751 311.386 l
316.617 311.731 l
317.153 312.077 l
317.153 312.768 l
317.822 313.114 l
318.358 311.731 l
318.492 312.077 l
319.028 312.422 l
319.831 312.768 l
319.296 312.768 l
319.697 313.114 l
320.367 313.114 l
320.233 313.114 l
321.17 313.805 l
320.903 313.805 l
321.706 314.15 l
321.974 314.496 l
321.706 314.496 l
322.644 315.187 l
322.376 315.187 l
322.644 315.533 l
323.313 315.533 l
323.447 315.878 l
324.251 316.224 l
323.715 316.224 l
323.849 316.224 l
324.117 316.57 l
323.715 316.57 l
323.715 316.57 l
323.849 316.915 l
322.777 316.57 l
324.518 317.606 l
323.983 317.261 l
324.117 317.606 l
324.384 317.952 l
324.92 317.952 l
324.652 317.952 l
325.188 318.298 l
325.456 318.643 l
325.188 318.643 l
326.393 319.334 l
326.527 319.68 l
326.661 319.68 l
328.134 321.062 l
328.804 321.754 l
329.473 322.099 l
329.206 322.099 l
330.009 323.482 l
330.277 323.482 l
329.741 323.136 l
330.947 324.518 l
330.411 324.864 l
330.947 325.21 l
332.152 325.21 l
332.688 325.901 l
332.554 325.901 l
332.152 326.246 l
333.491 326.592 l
333.223 326.592 l
334.295 326.938 l
332.688 326.938 l
333.893 327.283 l
335.232 328.666 l
335.768 328.666 l
335.634 329.011 l
335.5 328.666 l
335.634 328.666 l
335.902 329.357 l
338.312 330.048 l
336.705 330.048 l
338.044 330.394 l
337.107 330.394 l
337.375 330.394 l
337.91 331.085 l
338.446 331.085 l
338.58 331.43 l
339.25 332.122 l
338.848 332.122 l
339.384 332.467 l
341.526 333.158 l
340.589 333.158 l
341.928 333.85 l
340.857 333.504 l
341.124 333.85 l
341.66 334.195 l
342.464 334.195 l
341.794 334.886 l
341.392 334.886 l
343.401 335.232 l
344.339 335.578 l
343.267 335.578 l
344.472 335.923 l
344.205 335.923 l
343.133 336.269 l
343.401 336.269 l
345.812 337.306 l
344.071 336.96 l
346.213 337.651 l
345.678 337.651 l
345.946 337.997 l
346.08 338.688 l
346.347 338.342 l
346.749 339.034 l
347.687 339.034 l
347.954 339.379 l
347.954 339.379 l
347.285 339.379 l
348.624 340.07 l
347.82 339.725 l
348.892 340.416 l
348.49 340.416 l
349.829 341.107 l
349.561 341.107 l
349.963 341.453 l
349.294 341.453 l
350.231 341.798 l
350.767 342.144 l
350.499 342.144 l
350.767 342.49 l
350.097 342.144 l
350.097 342.144 l
350.097 342.144 l
351.302 342.835 l
351.302 342.835 l
350.633 342.835 l
351.972 343.181 l
351.035 343.181 l
353.043 344.218 l
351.838 344.218 l
352.909 344.563 l
353.043 344.909 l
354.115 345.254 l
353.981 345.6 l
353.981 345.6 l
stroke
grestore
0.000 0.502 0.000 setrgbcolor
gsave
334.8 345.6 54 43.2 clipbox
136.629 136.166 m
148.146 152.755 l
159.797 166.925 l
166.761 174.528 l
170.243 176.947 l
175.064 181.44 l
183.768 190.08 l
190.331 197.683 l
192.205 198.029 l
194.616 200.448 l
197.16 202.522 l
201.982 208.742 l
202.116 207.706 l
204.258 209.779 l
206.937 212.198 l
210.285 216.691 l
213.365 219.456 l
213.499 218.074 l
217.115 223.258 l
218.588 224.986 l
221.802 227.75 l
223.811 230.17 l
229.033 235.008 l
231.98 238.118 l
234.122 239.846 l
235.997 241.574 l
237.203 242.611 l
239.479 245.03 l
242.559 247.45 l
242.292 247.104 l
245.372 249.869 l
246.175 250.56 l
247.648 251.597 l
248.854 252.979 l
251.532 255.053 l
252.469 256.09 l
253.809 256.781 l
254.612 257.818 l
256.085 259.2 l
258.898 261.274 l
260.237 262.656 l
261.04 263.002 l
261.978 263.693 l
261.844 264.038 l
262.647 264.73 l
264.656 266.112 l
266.397 267.84 l
267.602 268.877 l
268.406 269.222 l
270.013 270.95 l
271.62 272.333 l
272.156 273.024 l
272.691 273.37 l
274.432 275.443 l
274.968 275.789 l
273.227 271.296 l
274.566 272.333 l
275.236 273.024 l
276.575 273.715 l
277.111 274.406 l
277.78 274.752 l
279.253 276.134 l
280.191 276.826 l
281.664 278.208 l
282.468 278.554 l
282.869 278.899 l
283.405 279.59 l
283.941 279.936 l
284.61 280.627 l
284.878 280.627 l
285.414 281.318 l
286.753 282.01 l
287.69 283.046 l
288.896 284.083 l
288.36 284.083 l
288.896 284.429 l
289.164 284.774 l
290.101 285.466 l
290.637 286.157 l
291.038 286.157 l
291.574 286.848 l
291.842 286.848 l
292.244 287.539 l
293.449 288.23 l
293.717 288.23 l
294.654 290.304 l
295.324 290.995 l
296.529 290.995 l
298.002 292.378 l
298.538 293.414 l
299.074 293.414 l
299.341 293.76 l
300.279 294.451 l
300.547 294.451 l
300.815 295.142 l
301.216 295.488 l
301.886 295.834 l
302.288 296.179 l
302.823 296.87 l
303.091 296.87 l
303.761 297.562 l
305.502 298.253 l
303.761 298.253 l
306.573 297.907 l
307.778 298.944 l
307.912 299.29 l
308.046 298.944 l
308.448 299.635 l
308.582 299.635 l
309.118 299.981 l
309.519 300.672 l
309.519 299.981 l
309.787 299.981 l
309.921 300.326 l
311.26 302.054 l
311.528 302.054 l
311.662 302.4 l
311.796 302.4 l
313.269 304.128 l
314.207 304.474 l
313.805 304.474 l
314.474 304.819 l
313.939 304.474 l
314.876 305.165 l
315.814 305.51 l
315.278 305.51 l
315.412 305.51 l
315.546 305.856 l
315.814 306.202 l
315.814 305.856 l
316.081 306.202 l
316.751 306.547 l
316.349 306.547 l
316.483 306.547 l
315.68 306.893 l
317.421 307.584 l
316.215 307.584 l
316.885 308.275 l
316.617 307.93 l
318.358 308.621 l
317.153 308.621 l
318.358 308.966 l
319.296 310.003 l
319.028 310.003 l
320.501 311.04 l
322.51 312.768 l
322.51 312.422 l
322.777 313.114 l
323.313 313.114 l
325.054 315.187 l
325.322 315.187 l
325.858 315.878 l
326.125 315.878 l
326.929 316.224 l
327.197 316.57 l
326.661 316.57 l
327.197 317.261 l
328 317.261 l
328.268 317.606 l
327.866 317.606 l
327.465 317.952 l
329.206 318.643 l
328.67 318.643 l
330.411 319.334 l
330.143 319.68 l
330.545 320.026 l
331.08 320.026 l
330.947 320.371 l
329.741 320.371 l
331.75 321.062 l
331.616 321.062 l
332.554 321.754 l
332.286 321.408 l
333.089 322.099 l
332.286 321.754 l
333.223 322.445 l
333.491 322.445 l
333.223 322.79 l
334.161 323.136 l
334.027 323.136 l
334.696 323.482 l
334.964 323.827 l
334.696 323.827 l
334.696 323.827 l
334.696 323.827 l
335.098 323.827 l
335.768 324.518 l
335.634 324.518 l
336.437 325.21 l
336.571 325.555 l
336.973 325.901 l
337.107 325.901 l
337.643 326.592 l
337.643 326.246 l
337.91 326.938 l
338.312 327.283 l
338.446 327.283 l
339.384 328.32 l
339.517 328.32 l
339.651 328.666 l
339.785 328.666 l
340.455 329.357 l
340.589 329.357 l
340.723 329.702 l
340.857 329.702 l
341.794 330.048 l
341.928 330.394 l
342.062 330.394 l
342.062 330.394 l
342.062 330.394 l
341.526 330.394 l
341.794 330.739 l
342.464 330.739 l
342.062 331.085 l
342.865 331.085 l
342.33 331.43 l
342.464 331.43 l
343.267 331.776 l
343.669 332.122 l
343.669 332.122 l
stroke
grestore
0 setlinecap
[1 3] 0 setdash
1.000 0.000 0.000 setrgbcolor
gsave
334.8 345.6 54 43.2 clipbox
126.049 122.342 m
137.968 137.549 l
146.271 146.88 l
155.244 157.594 l
157.654 158.976 l
170.644 171.418 l
176.403 178.33 l
181.894 183.514 l
182.697 183.514 l
185.509 185.933 l
187.518 188.006 l
191.938 192.154 l
194.348 194.227 l
195.955 195.955 l
197.964 197.683 l
199.839 199.757 l
203.856 204.941 l
205.464 206.669 l
208.678 209.779 l
210.285 211.507 l
214.57 215.654 l
215.909 217.037 l
217.382 218.074 l
218.856 219.802 l
221.534 222.221 l
221.936 222.912 l
224.212 224.64 l
225.418 226.022 l
228.096 228.096 l
227.828 227.75 l
228.632 228.787 l
229.167 229.133 l
231.176 231.206 l
233.185 232.934 l
240.283 239.155 l
241.488 239.846 l
242.425 240.883 l
243.363 241.574 l
244.836 242.957 l
246.577 244.339 l
247.247 245.03 l
248.318 245.722 l
248.318 246.067 l
249.523 246.758 l
251.8 248.832 l
251.8 248.832 l
253.809 250.214 l
253.005 248.141 l
254.076 249.178 l
254.21 249.523 l
254.88 249.869 l
255.55 250.56 l
256.755 251.597 l
256.487 251.597 l
257.157 251.942 l
258.094 252.288 l
258.63 252.979 l
259.165 253.325 l
259.433 253.67 l
259.969 254.016 l
260.505 254.707 l
261.174 255.053 l
261.576 255.744 l
262.38 256.435 l
263.049 256.781 l
263.451 256.781 l
264.656 258.163 l
265.326 258.509 l
265.861 259.2 l
268.004 260.237 l
268.406 260.582 l
268.808 261.274 l
270.013 261.965 l
270.281 262.31 l
270.549 262.31 l
270.95 262.656 l
271.888 263.693 l
272.29 264.038 l
272.557 264.038 l
273.227 264.73 l
273.227 264.73 l
274.298 265.075 l
274.834 265.766 l
275.504 266.112 l
275.504 266.458 l
277.512 268.531 l
278.584 269.222 l
279.655 270.605 l
279.923 270.605 l
280.86 271.642 l
281.128 271.642 l
281.53 271.987 l
282.468 272.333 l
282.066 272.333 l
283.003 272.678 l
283.673 273.37 l
284.61 274.061 l
285.548 274.752 l
286.083 275.443 l
286.351 275.443 l
285.28 275.098 l
285.949 275.098 l
286.351 275.443 l
286.485 275.789 l
286.753 275.789 l
287.155 276.134 l
288.36 277.517 l
288.494 277.171 l
288.628 277.517 l
289.03 277.862 l
289.03 277.517 l
289.164 277.517 l
289.699 278.208 l
290.503 278.554 l
290.771 278.899 l
291.038 278.899 l
291.708 279.59 l
290.101 279.245 l
289.431 278.208 l
288.896 277.862 l
289.431 278.554 l
289.833 278.554 l
289.03 278.208 l
293.851 280.973 l
293.717 280.973 l
294.52 281.318 l
294.922 281.664 l
294.922 281.664 l
294.119 281.664 l
296.127 283.392 l
296.931 283.738 l
298.002 284.774 l
299.208 285.12 l
299.074 285.466 l
300.145 285.466 l
299.208 285.466 l
300.815 286.502 l
300.279 286.502 l
300.413 286.502 l
300.279 286.848 l
301.618 287.194 l
301.886 286.848 l
300.547 286.848 l
300.145 286.502 l
299.341 286.502 l
300.815 287.194 l
300.011 285.811 l
300.145 285.811 l
300.413 286.157 l
300.681 286.848 l
300.815 286.502 l
301.35 286.848 l
301.216 287.194 l
302.556 288.23 l
302.689 288.23 l
304.029 289.958 l
304.43 289.958 l
304.698 290.65 l
305.368 290.995 l
305.234 290.995 l
305.77 291.341 l
305.77 291.341 l
305.77 291.686 l
306.573 292.378 l
307.243 292.723 l
306.975 292.723 l
306.841 292.378 l
307.243 293.069 l
308.582 293.414 l
307.778 293.76 l
309.252 294.106 l
309.519 294.451 l
310.189 294.797 l
310.457 295.142 l
310.055 295.142 l
310.055 295.142 l
310.055 295.142 l
310.725 295.142 l
310.992 295.834 l
311.126 295.834 l
311.126 296.179 l
311.528 296.179 l
311.93 296.525 l
312.466 296.87 l
312.6 297.216 l
313.135 297.216 l
312.733 297.216 l
313.269 297.907 l
314.742 298.944 l
315.412 299.635 l
315.546 299.635 l
316.081 299.981 l
316.081 300.326 l
316.349 300.326 l
317.019 301.018 l
317.153 301.018 l
317.287 301.363 l
317.688 301.709 l
317.688 301.709 l
318.76 302.054 l
318.76 302.4 l
318.76 302.4 l
318.76 302.4 l
318.76 302.054 l
319.429 303.091 l
320.233 303.091 l
320.367 303.437 l
318.626 303.091 l
319.965 303.437 l
320.099 303.782 l
320.501 303.782 l
320.635 304.128 l
321.304 304.474 l
320.903 304.474 l
320.903 304.819 l
321.17 305.165 l
322.376 305.165 l
322.242 305.51 l
322.108 305.51 l
323.313 306.202 l
323.179 306.202 l
323.581 306.547 l
323.581 306.893 l
323.849 306.893 l
323.983 307.238 l
323.983 307.238 l
stroke
grestore
[6 6] 0 setdash
1.000 0.843 0.000 setrgbcolor
gsave
334.8 345.6 54 43.2 clipbox
110.514 97.8048 m
121.764 112.666 l
133.281 126.835 l
139.709 134.093 l
142.387 136.512 l
148.146 142.042 l
153.235 147.571 l
158.859 154.138 l
160.466 155.174 l
163.279 157.939 l
166.895 161.741 l
171.85 166.579 l
180.42 174.874 l
182.028 176.602 l
184.17 178.675 l
185.509 179.712 l
188.322 183.514 l
192.072 187.661 l
194.214 189.734 l
196.759 192.499 l
199.973 195.955 l
202.249 198.029 l
203.455 199.411 l
208.142 203.904 l
211.758 207.36 l
212.829 208.397 l
214.168 209.434 l
215.374 210.816 l
216.445 211.853 l
217.65 212.544 l
218.588 213.581 l
219.793 214.618 l
220.73 215.654 l
221.132 216.346 l
223.677 218.419 l
224.614 219.11 l
225.685 220.147 l
227.159 221.875 l
228.632 223.258 l
230.373 224.986 l
231.712 226.022 l
232.381 226.368 l
234.256 228.442 l
234.792 228.787 l
235.863 229.824 l
236.399 229.824 l
237.47 230.861 l
238.944 231.898 l
239.077 232.243 l
240.551 232.934 l
241.22 233.626 l
241.622 233.971 l
240.952 231.898 l
241.622 232.589 l
242.024 232.243 l
242.559 233.28 l
243.765 233.971 l
244.434 235.008 l
247.113 236.736 l
248.72 238.464 l
252.068 242.611 l
253.273 243.994 l
254.478 245.376 l
255.416 246.067 l
259.567 250.214 l
261.174 251.251 l
262.246 252.288 l
261.308 251.251 l
261.71 251.597 l
261.978 251.597 l
262.647 251.942 l
262.647 252.288 l
262.915 252.634 l
263.451 252.634 l
264.79 253.67 l
265.058 253.67 l
266.263 254.362 l
266.665 255.053 l
267.067 255.398 l
266.933 255.398 l
267.335 255.398 l
268.674 256.435 l
269.076 256.435 l
269.076 256.435 l
269.343 256.781 l
269.343 256.435 l
268.808 256.435 l
268.406 256.09 l
267.335 255.744 l
268.138 256.09 l
268.54 256.781 l
269.343 257.126 l
269.611 257.472 l
269.879 257.126 l
271.084 258.509 l
271.486 258.509 l
276.441 263.693 l
277.379 264.038 l
281.932 267.84 l
282.2 268.531 l
282.601 268.531 l
283.271 269.222 l
283.137 268.877 l
283.539 269.222 l
283.807 269.222 l
284.61 269.914 l
284.744 270.259 l
285.816 270.95 l
287.958 273.024 l
288.762 273.37 l
289.565 274.061 l
289.967 274.061 l
283.539 269.222 l
284.075 269.568 l
284.342 270.259 l
284.476 269.568 l
285.414 269.914 l
285.414 270.259 l
285.548 269.914 l
285.548 269.914 l
285.548 269.568 l
285.012 268.186 l
282.066 266.458 l
282.2 266.803 l
282.066 266.803 l
282.066 266.803 l
282.066 266.803 l
282.601 266.803 l
282.735 267.494 l
283.941 268.531 l
285.414 269.568 l
285.816 270.605 l
287.289 272.678 l
294.788 278.554 l
297.734 281.318 l
299.475 285.12 l
299.877 285.811 l
298.672 282.701 l
299.341 283.392 l
299.341 283.738 l
301.35 285.466 l
301.752 285.811 l
301.886 286.157 l
302.957 286.848 l
303.359 287.194 l
304.564 288.23 l
304.698 288.576 l
305.77 289.958 l
306.305 290.304 l
306.573 290.304 l
307.243 290.995 l
307.377 291.341 l
307.644 291.686 l
307.644 291.341 l
308.314 292.032 l
302.823 290.304 l
301.35 288.576 l
301.082 287.885 l
301.618 287.885 l
301.484 287.539 l
301.35 287.539 l
301.618 287.194 l
301.484 287.194 l
302.154 287.885 l
302.556 287.885 l
302.689 288.23 l
302.823 288.23 l
303.359 288.576 l
303.493 288.922 l
303.359 288.922 l
303.359 288.922 l
303.359 288.922 l
303.627 288.922 l
303.895 289.267 l
304.564 289.613 l
304.296 289.613 l
304.296 289.613 l
304.296 289.613 l
304.832 289.613 l
305.368 289.958 l
305.1 290.304 l
305.368 290.304 l
305.234 289.958 l
306.037 290.304 l
306.975 290.995 l
307.243 291.686 l
307.511 291.341 l
307.644 291.686 l
308.18 292.032 l
308.85 292.723 l
309.252 292.723 l
309.519 293.069 l
309.385 293.069 l
309.921 293.069 l
310.859 294.106 l
310.992 294.106 l
311.93 295.142 l
312.733 295.834 l
313.269 296.525 l
306.707 288.576 l
307.377 289.267 l
stroke
grestore
[3 5 1 5] 0 setdash
0.502 0.000 0.502 setrgbcolor
gsave
334.8 345.6 54 43.2 clipbox
89.221 61.8624 m
103.283 80.8704 l
114.934 95.7312 l
120.826 102.298 l
126.317 108.864 l
139.307 123.725 l
142.521 127.526 l
146.003 131.328 l
150.556 136.858 l
155.11 141.696 l
157.252 143.77 l
164.618 152.064 l
173.055 161.05 l
174.528 162.432 l
178.01 166.579 l
179.617 167.962 l
183.902 172.8 l
185.376 174.182 l
186.849 175.91 l
188.054 176.947 l
196.625 185.933 l
197.696 186.624 l
199.035 188.006 l
203.99 194.227 l
206.133 196.646 l
207.338 197.683 l
207.874 198.374 l
209.079 199.411 l
214.838 205.632 l
216.847 207.36 l
218.454 209.434 l
219.123 209.779 l
219.525 210.47 l
222.605 213.581 l
223.141 213.926 l
223.944 214.963 l
224.48 215.309 l
226.221 217.382 l
226.891 218.074 l
227.159 218.074 l
227.828 218.765 l
228.498 219.802 l
229.033 220.147 l
228.498 218.765 l
229.033 219.456 l
229.837 220.147 l
230.373 220.838 l
230.908 221.184 l
232.114 222.566 l
232.917 223.258 l
233.988 224.294 l
234.926 224.986 l
236.667 226.714 l
237.47 227.059 l
238.274 227.75 l
238.81 228.442 l
239.613 229.133 l
240.684 229.824 l
240.952 230.861 l
240.818 230.17 l
240.818 230.17 l
240.551 229.478 l
241.22 230.515 l
241.22 230.17 l
241.22 229.824 l
241.086 229.824 l
240.952 229.478 l
240.952 229.133 l
241.086 229.133 l
241.086 229.133 l
241.22 228.787 l
242.292 231.206 l
242.024 230.515 l
242.292 230.515 l
242.292 230.515 l
242.425 230.17 l
242.693 230.17 l
242.292 229.133 l
242.292 229.478 l
242.158 228.787 l
242.158 228.787 l
242.292 228.787 l
242.292 228.442 l
242.425 228.442 l
240.684 224.986 l
240.818 224.986 l
240.818 224.64 l
240.952 224.986 l
244.434 228.787 l
245.64 229.824 l
246.175 230.861 l
247.38 231.898 l
248.318 232.934 l
248.854 233.28 l
249.657 234.317 l
251.666 236.39 l
252.603 237.427 l
253.407 238.118 l
255.817 240.883 l
256.353 241.574 l
259.433 244.685 l
260.371 245.722 l
261.308 246.413 l
260.505 246.067 l
261.174 246.413 l
261.71 247.104 l
262.246 247.45 l
262.915 248.141 l
263.049 248.486 l
262.915 248.486 l
262.781 248.832 l
262.647 248.832 l
263.049 249.178 l
264.522 250.214 l
263.719 249.178 l
262.647 248.832 l
261.71 247.45 l
261.844 247.104 l
261.576 246.413 l
260.906 245.376 l
254.478 239.846 l
254.478 239.846 l
254.21 239.501 l
254.612 239.501 l
254.612 239.846 l
255.282 240.538 l
263.317 247.45 l
264.12 247.795 l
265.728 249.178 l
266.263 249.178 l
259.299 241.92 l
259.567 242.266 l
259.567 241.92 l
259.433 241.92 l
259.567 242.266 l
259.433 242.266 l
259.433 242.266 l
259.433 242.266 l
259.567 242.266 l
259.835 242.611 l
261.04 244.685 l
260.906 244.339 l
261.442 245.03 l
261.308 245.03 l
261.442 245.376 l
261.71 245.376 l
261.71 245.722 l
261.978 245.722 l
262.112 246.067 l
262.246 246.758 l
262.647 247.45 l
263.451 246.413 l
263.585 246.758 l
263.853 246.758 l
263.987 247.104 l
264.12 247.104 l
264.656 247.45 l
264.522 247.45 l
264.79 247.795 l
264.924 247.45 l
264.924 247.795 l
265.058 247.795 l
265.46 248.141 l
265.594 248.141 l
265.728 248.486 l
265.861 248.141 l
265.861 248.486 l
265.995 248.486 l
265.995 248.486 l
266.397 248.832 l
266.933 248.832 l
266.933 248.832 l
267.468 249.523 l
267.468 249.523 l
267.736 249.523 l
267.87 249.869 l
267.87 249.523 l
267.87 249.523 l
267.87 249.523 l
267.87 249.869 l
268.272 249.869 l
268.272 250.214 l
268.674 250.56 l
268.54 250.214 l
268.674 250.214 l
268.674 250.56 l
268.942 250.56 l
269.076 250.906 l
269.076 250.906 l
269.611 251.597 l
270.013 251.597 l
270.013 251.942 l
270.549 251.942 l
270.683 252.288 l
271.084 252.288 l
271.486 252.634 l
271.888 252.634 l
272.29 253.325 l
272.959 253.325 l
273.093 253.67 l
273.227 253.67 l
273.897 254.362 l
274.164 254.707 l
274.298 254.362 l
274.834 255.053 l
275.236 255.053 l
275.37 255.398 l
275.638 255.744 l
275.638 255.744 l
stroke
grestore
0.500 setlinewidth
[] 0 setdash
0.000 setgray
gsave
334.8 345.6 54 43.2 clipbox
/o {
gsave
newpath
translate
0.5 setlinewidth
1 setlinejoin
0 setlinecap
0 -3 m
0 3 l
gsave
0.000 setgray
fill
grestore
stroke
grestore
} bind def
197.562 200.794 o
177.608 191.117 o
223.811 246.413 o
177.34 196.646 o
243.229 274.061 o
grestore
gsave
334.8 345.6 54 43.2 clipbox
/o {
gsave
newpath
translate
0.5 setlinewidth
1 setlinejoin
0 setlinecap
0 -3 m
0 3 l
gsave
0.000 setgray
fill
grestore
stroke
grestore
} bind def
207.204 200.794 o
193.411 191.117 o
236.935 246.413 o
189.125 196.646 o
255.014 274.061 o
grestore
gsave
334.8 345.6 54 43.2 clipbox
/o {
gsave
newpath
translate
0.5 setlinewidth
1 setlinejoin
0 setlinecap
3 -1.83697e-16 m
-3 1.83697e-16 l
gsave
0.000 setgray
fill
grestore
stroke
grestore
} bind def
202.383 186.624 o
185.509 176.947 o
230.373 232.243 o
183.233 179.712 o
249.121 257.126 o
grestore
gsave
334.8 345.6 54 43.2 clipbox
/o {
gsave
newpath
translate
0.5 setlinewidth
1 setlinejoin
0 setlinecap
3 -1.83697e-16 m
-3 1.83697e-16 l
gsave
0.000 setgray
fill
grestore
stroke
grestore
} bind def
202.383 214.963 o
185.509 205.286 o
230.373 260.582 o
183.233 213.581 o
249.121 290.995 o
grestore
gsave
334.8 345.6 54 43.2 clipbox
/o {
gsave
newpath
translate
0.5 setlinewidth
1 setlinejoin
0 setlinecap
0 -1.25 m
0.331504 -1.25 0.649475 -1.11829 0.883883 -0.883883 c
1.11829 -0.649475 1.25 -0.331504 1.25 0 c
1.25 0.331504 1.11829 0.649475 0.883883 0.883883 c
0.649475 1.11829 0.331504 1.25 0 1.25 c
-0.331504 1.25 -0.649475 1.11829 -0.883883 0.883883 c
-1.11829 0.649475 -1.25 0.331504 -1.25 0 c
-1.25 -0.331504 -1.11829 -0.649475 -0.883883 -0.883883 c
-0.649475 -1.11829 -0.331504 -1.25 0 -1.25 c
cl
gsave
0.000 setgray
fill
grestore
stroke
grestore
} bind def
202.383 200.794 o
185.509 191.117 o
230.373 246.413 o
183.233 196.646 o
249.121 274.061 o
grestore
gsave
334.8 345.6 54 43.2 clipbox
/o {
gsave
newpath
translate
0.5 setlinewidth
1 setlinejoin
0 setlinecap
0 -1.25 m
0.331504 -1.25 0.649475 -1.11829 0.883883 -0.883883 c
1.11829 -0.649475 1.25 -0.331504 1.25 0 c
1.25 0.331504 1.11829 0.649475 0.883883 0.883883 c
0.649475 1.11829 0.331504 1.25 0 1.25 c
-0.331504 1.25 -0.649475 1.11829 -0.883883 0.883883 c
-1.11829 0.649475 -1.25 0.331504 -1.25 0 c
-1.25 -0.331504 -1.11829 -0.649475 -0.883883 -0.883883 c
-0.649475 -1.11829 -0.331504 -1.25 0 -1.25 c
cl
gsave
0.000 setgray
fill
grestore
stroke
grestore
} bind def
256.353 357.005 o
grestore
0 setlinejoin
gsave
334.8 345.6 54 43.2 clipbox
/o {
gsave
newpath
translate
0.5 setlinewidth
0 setlinejoin
0 setlinecap
-2.5 -2.5 m
2.5 -2.5 l
2.5 2.5 l
-2.5 2.5 l
cl
gsave
0.000 setgray
fill
grestore
stroke
grestore
} bind def
209.615 143.77 o
grestore
2.300 setlinewidth
1 setlinejoin
gsave
/o {
gsave
newpath
translate
2.3 setlinewidth
1 setlinejoin
0 setlinecap
0 0 m
0 5.5 l
gsave
0.000 setgray
fill
grestore
stroke
grestore
} bind def
54 43.2 o
grestore
gsave
/o {
gsave
newpath
translate
2.3 setlinewidth
1 setlinejoin
0 setlinecap
0 0 m
0 -5.5 l
gsave
0.000 setgray
fill
grestore
stroke
grestore
} bind def
54 388.8 o
grestore
/BitstreamVeraSans-Roman findfont
15.000 scalefont
setfont
gsave
43.554688 28.043750 translate
0.000000 rotate
0.000000 0.218750 m /one glyphshow
9.543457 0.218750 m /period glyphshow
14.311523 0.218750 m /five glyphshow
grestore
gsave
/o {
gsave
newpath
translate
2.3 setlinewidth
1 setlinejoin
0 setlinecap
0 0 m
0 5.5 l
gsave
0.000 setgray
fill
grestore
stroke
grestore
} bind def
120.96 43.2 o
grestore
gsave
/o {
gsave
newpath
translate
2.3 setlinewidth
1 setlinejoin
0 setlinecap
0 0 m
0 -5.5 l
gsave
0.000 setgray
fill
grestore
stroke
grestore
} bind def
120.96 388.8 o
grestore
gsave
110.077188 27.840625 translate
0.000000 rotate
0.000000 0.218750 m /two glyphshow
9.543457 0.218750 m /period glyphshow
14.311523 0.218750 m /zero glyphshow
grestore
gsave
/o {
gsave
newpath
translate
2.3 setlinewidth
1 setlinejoin
0 setlinecap
0 0 m
0 5.5 l
gsave
0.000 setgray
fill
grestore
stroke
grestore
} bind def
187.92 43.2 o
grestore
gsave
/o {
gsave
newpath
translate
2.3 setlinewidth
1 setlinejoin
0 setlinecap
0 0 m
0 -5.5 l
gsave
0.000 setgray
fill
grestore
stroke
grestore
} bind def
187.92 388.8 o
grestore
gsave
177.193438 27.840625 translate
0.000000 rotate
0.000000 0.218750 m /two glyphshow
9.543457 0.218750 m /period glyphshow
14.311523 0.218750 m /five glyphshow
grestore
gsave
/o {
gsave
newpath
translate
2.3 setlinewidth
1 setlinejoin
0 setlinecap
0 0 m
0 5.5 l
gsave
0.000 setgray
fill
grestore
stroke
grestore
} bind def
254.88 43.2 o
grestore
gsave
/o {
gsave
newpath
translate
2.3 setlinewidth
1 setlinejoin
0 setlinecap
0 0 m
0 -5.5 l
gsave
0.000 setgray
fill
grestore
stroke
grestore
} bind def
254.88 388.8 o
grestore
gsave
244.020625 27.840625 translate
0.000000 rotate
0.000000 0.218750 m /three glyphshow
9.543457 0.218750 m /period glyphshow
14.311523 0.218750 m /zero glyphshow
grestore
gsave
/o {
gsave
newpath
translate
2.3 setlinewidth
1 setlinejoin
0 setlinecap
0 0 m
0 5.5 l
gsave
0.000 setgray
fill
grestore
stroke
grestore
} bind def
321.84 43.2 o
grestore
gsave
/o {
gsave
newpath
translate
2.3 setlinewidth
1 setlinejoin
0 setlinecap
0 0 m
0 -5.5 l
gsave
0.000 setgray
fill
grestore
stroke
grestore
} bind def
321.84 388.8 o
grestore
gsave
311.136875 27.840625 translate
0.000000 rotate
0.000000 0.218750 m /three glyphshow
9.543457 0.218750 m /period glyphshow
14.311523 0.218750 m /five glyphshow
grestore
gsave
/o {
gsave
newpath
translate
2.3 setlinewidth
1 setlinejoin
0 setlinecap
0 0 m
0 5.5 l
gsave
0.000 setgray
fill
grestore
stroke
grestore
} bind def
388.8 43.2 o
grestore
gsave
/o {
gsave
newpath
translate
2.3 setlinewidth
1 setlinejoin
0 setlinecap
0 0 m
0 -5.5 l
gsave
0.000 setgray
fill
grestore
stroke
grestore
} bind def
388.8 388.8 o
grestore
gsave
377.737500 27.840625 translate
0.000000 rotate
0.000000 0.218750 m /four glyphshow
9.543457 0.218750 m /period glyphshow
14.311523 0.218750 m /zero glyphshow
grestore
1.700 setlinewidth
gsave
/o {
gsave
newpath
translate
1.7 setlinewidth
1 setlinejoin
0 setlinecap
0 0 m
0 3.5 l
gsave
0.000 setgray
fill
grestore
stroke
grestore
} bind def
67.392 43.2 o
grestore
gsave
/o {
gsave
newpath
translate
1.7 setlinewidth
1 setlinejoin
0 setlinecap
0 0 m
0 -3.5 l
gsave
0.000 setgray
fill
grestore
stroke
grestore
} bind def
67.392 388.8 o
grestore
gsave
/o {
gsave
newpath
translate
1.7 setlinewidth
1 setlinejoin
0 setlinecap
0 0 m
0 3.5 l
gsave
0.000 setgray
fill
grestore
stroke
grestore
} bind def
80.784 43.2 o
grestore
gsave
/o {
gsave
newpath
translate
1.7 setlinewidth
1 setlinejoin
0 setlinecap
0 0 m
0 -3.5 l
gsave
0.000 setgray
fill
grestore
stroke
grestore
} bind def
80.784 388.8 o
grestore
gsave
/o {
gsave
newpath
translate
1.7 setlinewidth
1 setlinejoin
0 setlinecap
0 0 m
0 3.5 l
gsave
0.000 setgray
fill
grestore
stroke
grestore
} bind def
94.176 43.2 o
grestore
gsave
/o {
gsave
newpath
translate
1.7 setlinewidth
1 setlinejoin
0 setlinecap
0 0 m
0 -3.5 l
gsave
0.000 setgray
fill
grestore
stroke
grestore
} bind def
94.176 388.8 o
grestore
gsave
/o {
gsave
newpath
translate
1.7 setlinewidth
1 setlinejoin
0 setlinecap
0 0 m
0 3.5 l
gsave
0.000 setgray
fill
grestore
stroke
grestore
} bind def
107.568 43.2 o
grestore
gsave
/o {
gsave
newpath
translate
1.7 setlinewidth
1 setlinejoin
0 setlinecap
0 0 m
0 -3.5 l
gsave
0.000 setgray
fill
grestore
stroke
grestore
} bind def
107.568 388.8 o
grestore
gsave
/o {
gsave
newpath
translate
1.7 setlinewidth
1 setlinejoin
0 setlinecap
0 0 m
0 3.5 l
gsave
0.000 setgray
fill
grestore
stroke
grestore
} bind def
120.96 43.2 o
grestore
gsave
/o {
gsave
newpath
translate
1.7 setlinewidth
1 setlinejoin
0 setlinecap
0 0 m
0 -3.5 l
gsave
0.000 setgray
fill
grestore
stroke
grestore
} bind def
120.96 388.8 o
grestore
gsave
/o {
gsave
newpath
translate
1.7 setlinewidth
1 setlinejoin
0 setlinecap
0 0 m
0 3.5 l
gsave
0.000 setgray
fill
grestore
stroke
grestore
} bind def
134.352 43.2 o
grestore
gsave
/o {
gsave
newpath
translate
1.7 setlinewidth
1 setlinejoin
0 setlinecap
0 0 m
0 -3.5 l
gsave
0.000 setgray
fill
grestore
stroke
grestore
} bind def
134.352 388.8 o
grestore
gsave
/o {
gsave
newpath
translate
1.7 setlinewidth
1 setlinejoin
0 setlinecap
0 0 m
0 3.5 l
gsave
0.000 setgray
fill
grestore
stroke
grestore
} bind def
147.744 43.2 o
grestore
gsave
/o {
gsave
newpath
translate
1.7 setlinewidth
1 setlinejoin
0 setlinecap
0 0 m
0 -3.5 l
gsave
0.000 setgray
fill
grestore
stroke
grestore
} bind def
147.744 388.8 o
grestore
gsave
/o {
gsave
newpath
translate
1.7 setlinewidth
1 setlinejoin
0 setlinecap
0 0 m
0 3.5 l
gsave
0.000 setgray
fill
grestore
stroke
grestore
} bind def
161.136 43.2 o
grestore
gsave
/o {
gsave
newpath
translate
1.7 setlinewidth
1 setlinejoin
0 setlinecap
0 0 m
0 -3.5 l
gsave
0.000 setgray
fill
grestore
stroke
grestore
} bind def
161.136 388.8 o
grestore
gsave
/o {
gsave
newpath
translate
1.7 setlinewidth
1 setlinejoin
0 setlinecap
0 0 m
0 3.5 l
gsave
0.000 setgray
fill
grestore
stroke
grestore
} bind def
174.528 43.2 o
grestore
gsave
/o {
gsave
newpath
translate
1.7 setlinewidth
1 setlinejoin
0 setlinecap
0 0 m
0 -3.5 l
gsave
0.000 setgray
fill
grestore
stroke
grestore
} bind def
174.528 388.8 o
grestore
gsave
/o {
gsave
newpath
translate
1.7 setlinewidth
1 setlinejoin
0 setlinecap
0 0 m
0 3.5 l
gsave
0.000 setgray
fill
grestore
stroke
grestore
} bind def
187.92 43.2 o
grestore
gsave
/o {
gsave
newpath
translate
1.7 setlinewidth
1 setlinejoin
0 setlinecap
0 0 m
0 -3.5 l
gsave
0.000 setgray
fill
grestore
stroke
grestore
} bind def
187.92 388.8 o
grestore
gsave
/o {
gsave
newpath
translate
1.7 setlinewidth
1 setlinejoin
0 setlinecap
0 0 m
0 3.5 l
gsave
0.000 setgray
fill
grestore
stroke
grestore
} bind def
201.312 43.2 o
grestore
gsave
/o {
gsave
newpath
translate
1.7 setlinewidth
1 setlinejoin
0 setlinecap
0 0 m
0 -3.5 l
gsave
0.000 setgray
fill
grestore
stroke
grestore
} bind def
201.312 388.8 o
grestore
gsave
/o {
gsave
newpath
translate
1.7 setlinewidth
1 setlinejoin
0 setlinecap
0 0 m
0 3.5 l
gsave
0.000 setgray
fill
grestore
stroke
grestore
} bind def
214.704 43.2 o
grestore
gsave
/o {
gsave
newpath
translate
1.7 setlinewidth
1 setlinejoin
0 setlinecap
0 0 m
0 -3.5 l
gsave
0.000 setgray
fill
grestore
stroke
grestore
} bind def
214.704 388.8 o
grestore
gsave
/o {
gsave
newpath
translate
1.7 setlinewidth
1 setlinejoin
0 setlinecap
0 0 m
0 3.5 l
gsave
0.000 setgray
fill
grestore
stroke
grestore
} bind def
228.096 43.2 o
grestore
gsave
/o {
gsave
newpath
translate
1.7 setlinewidth
1 setlinejoin
0 setlinecap
0 0 m
0 -3.5 l
gsave
0.000 setgray
fill
grestore
stroke
grestore
} bind def
228.096 388.8 o
grestore
gsave
/o {
gsave
newpath
translate
1.7 setlinewidth
1 setlinejoin
0 setlinecap
0 0 m
0 3.5 l
gsave
0.000 setgray
fill
grestore
stroke
grestore
} bind def
241.488 43.2 o
grestore
gsave
/o {
gsave
newpath
translate
1.7 setlinewidth
1 setlinejoin
0 setlinecap
0 0 m
0 -3.5 l
gsave
0.000 setgray
fill
grestore
stroke
grestore
} bind def
241.488 388.8 o
grestore
gsave
/o {
gsave
newpath
translate
1.7 setlinewidth
1 setlinejoin
0 setlinecap
0 0 m
0 3.5 l
gsave
0.000 setgray
fill
grestore
stroke
grestore
} bind def
254.88 43.2 o
grestore
gsave
/o {
gsave
newpath
translate
1.7 setlinewidth
1 setlinejoin
0 setlinecap
0 0 m
0 -3.5 l
gsave
0.000 setgray
fill
grestore
stroke
grestore
} bind def
254.88 388.8 o
grestore
gsave
/o {
gsave
newpath
translate
1.7 setlinewidth
1 setlinejoin
0 setlinecap
0 0 m
0 3.5 l
gsave
0.000 setgray
fill
grestore
stroke
grestore
} bind def
268.272 43.2 o
grestore
gsave
/o {
gsave
newpath
translate
1.7 setlinewidth
1 setlinejoin
0 setlinecap
0 0 m
0 -3.5 l
gsave
0.000 setgray
fill
grestore
stroke
grestore
} bind def
268.272 388.8 o
grestore
gsave
/o {
gsave
newpath
translate
1.7 setlinewidth
1 setlinejoin
0 setlinecap
0 0 m
0 3.5 l
gsave
0.000 setgray
fill
grestore
stroke
grestore
} bind def
281.664 43.2 o
grestore
gsave
/o {
gsave
newpath
translate
1.7 setlinewidth
1 setlinejoin
0 setlinecap
0 0 m
0 -3.5 l
gsave
0.000 setgray
fill
grestore
stroke
grestore
} bind def
281.664 388.8 o
grestore
gsave
/o {
gsave
newpath
translate
1.7 setlinewidth
1 setlinejoin
0 setlinecap
0 0 m
0 3.5 l
gsave
0.000 setgray
fill
grestore
stroke
grestore
} bind def
295.056 43.2 o
grestore
gsave
/o {
gsave
newpath
translate
1.7 setlinewidth
1 setlinejoin
0 setlinecap
0 0 m
0 -3.5 l
gsave
0.000 setgray
fill
grestore
stroke
grestore
} bind def
295.056 388.8 o
grestore
gsave
/o {
gsave
newpath
translate
1.7 setlinewidth
1 setlinejoin
0 setlinecap
0 0 m
0 3.5 l
gsave
0.000 setgray
fill
grestore
stroke
grestore
} bind def
308.448 43.2 o
grestore
gsave
/o {
gsave
newpath
translate
1.7 setlinewidth
1 setlinejoin
0 setlinecap
0 0 m
0 -3.5 l
gsave
0.000 setgray
fill
grestore
stroke
grestore
} bind def
308.448 388.8 o
grestore
gsave
/o {
gsave
newpath
translate
1.7 setlinewidth
1 setlinejoin
0 setlinecap
0 0 m
0 3.5 l
gsave
0.000 setgray
fill
grestore
stroke
grestore
} bind def
321.84 43.2 o
grestore
gsave
/o {
gsave
newpath
translate
1.7 setlinewidth
1 setlinejoin
0 setlinecap
0 0 m
0 -3.5 l
gsave
0.000 setgray
fill
grestore
stroke
grestore
} bind def
321.84 388.8 o
grestore
gsave
/o {
gsave
newpath
translate
1.7 setlinewidth
1 setlinejoin
0 setlinecap
0 0 m
0 3.5 l
gsave
0.000 setgray
fill
grestore
stroke
grestore
} bind def
335.232 43.2 o
grestore
gsave
/o {
gsave
newpath
translate
1.7 setlinewidth
1 setlinejoin
0 setlinecap
0 0 m
0 -3.5 l
gsave
0.000 setgray
fill
grestore
stroke
grestore
} bind def
335.232 388.8 o
grestore
gsave
/o {
gsave
newpath
translate
1.7 setlinewidth
1 setlinejoin
0 setlinecap
0 0 m
0 3.5 l
gsave
0.000 setgray
fill
grestore
stroke
grestore
} bind def
348.624 43.2 o
grestore
gsave
/o {
gsave
newpath
translate
1.7 setlinewidth
1 setlinejoin
0 setlinecap
0 0 m
0 -3.5 l
gsave
0.000 setgray
fill
grestore
stroke
grestore
} bind def
348.624 388.8 o
grestore
gsave
/o {
gsave
newpath
translate
1.7 setlinewidth
1 setlinejoin
0 setlinecap
0 0 m
0 3.5 l
gsave
0.000 setgray
fill
grestore
stroke
grestore
} bind def
362.016 43.2 o
grestore
gsave
/o {
gsave
newpath
translate
1.7 setlinewidth
1 setlinejoin
0 setlinecap
0 0 m
0 -3.5 l
gsave
0.000 setgray
fill
grestore
stroke
grestore
} bind def
362.016 388.8 o
grestore
gsave
/o {
gsave
newpath
translate
1.7 setlinewidth
1 setlinejoin
0 setlinecap
0 0 m
0 3.5 l
gsave
0.000 setgray
fill
grestore
stroke
grestore
} bind def
375.408 43.2 o
grestore
gsave
/o {
gsave
newpath
translate
1.7 setlinewidth
1 setlinejoin
0 setlinecap
0 0 m
0 -3.5 l
gsave
0.000 setgray
fill
grestore
stroke
grestore
} bind def
375.408 388.8 o
grestore
gsave
/o {
gsave
newpath
translate
1.7 setlinewidth
1 setlinejoin
0 setlinecap
0 0 m
0 3.5 l
gsave
0.000 setgray
fill
grestore
stroke
grestore
} bind def
388.8 43.2 o
grestore
gsave
/o {
gsave
newpath
translate
1.7 setlinewidth
1 setlinejoin
0 setlinecap
0 0 m
0 -3.5 l
gsave
0.000 setgray
fill
grestore
stroke
grestore
} bind def
388.8 388.8 o
grestore
gsave
197.400000 8.840625 translate
0.000000 rotate
/Cmr10 findfont
12.0 scalefont
setfont
0.000000 5.000000 moveto
/parenleft glyphshow

/Cmmi10 findfont
12.0 scalefont
setfont
4.658203 5.000000 moveto
/g glyphshow

/Cmmi10 findfont
8.4 scalefont
setfont
10.382812 1.938875 moveto
/p glyphshow

/Cmr10 findfont
8.4 scalefont
setfont
14.607422 1.938875 moveto
/one glyphshow

/Cmsy10 findfont
12.0 scalefont
setfont
18.807422 5.000000 moveto
/minus glyphshow

/Cmmi10 findfont
12.0 scalefont
setfont
28.129687 5.000000 moveto
/K glyphshow

/Cmr10 findfont
12.0 scalefont
setfont
38.319141 5.000000 moveto
/parenright glyphshow

/Cmr10 findfont
8.4 scalefont
setfont
42.977344 1.938875 moveto
/zero glyphshow


grestore
2.300 setlinewidth
gsave
/o {
gsave
newpath
translate
2.3 setlinewidth
1 setlinejoin
0 setlinecap
0 0 m
5.5 0 l
gsave
0.000 setgray
fill
grestore
stroke
grestore
} bind def
54 77.76 o
grestore
gsave
/o {
gsave
newpath
translate
2.3 setlinewidth
1 setlinejoin
0 setlinecap
0 0 m
-5.5 0 l
gsave
0.000 setgray
fill
grestore
stroke
grestore
} bind def
388.8 77.76 o
grestore
gsave
27.968750 72.080312 translate
0.000000 rotate
0.000000 0.218750 m /zero glyphshow
9.543457 0.218750 m /period glyphshow
14.311523 0.218750 m /four glyphshow
grestore
gsave
/o {
gsave
newpath
translate
2.3 setlinewidth
1 setlinejoin
0 setlinecap
0 0 m
5.5 0 l
gsave
0.000 setgray
fill
grestore
stroke
grestore
} bind def
54 146.88 o
grestore
gsave
/o {
gsave
newpath
translate
2.3 setlinewidth
1 setlinejoin
0 setlinecap
0 0 m
-5.5 0 l
gsave
0.000 setgray
fill
grestore
stroke
grestore
} bind def
388.8 146.88 o
grestore
gsave
28.078125 141.200313 translate
0.000000 rotate
0.000000 0.218750 m /zero glyphshow
9.543457 0.218750 m /period glyphshow
14.311523 0.218750 m /six glyphshow
grestore
gsave
/o {
gsave
newpath
translate
2.3 setlinewidth
1 setlinejoin
0 setlinecap
0 0 m
5.5 0 l
gsave
0.000 setgray
fill
grestore
stroke
grestore
} bind def
54 216 o
grestore
gsave
/o {
gsave
newpath
translate
2.3 setlinewidth
1 setlinejoin
0 setlinecap
0 0 m
-5.5 0 l
gsave
0.000 setgray
fill
grestore
stroke
grestore
} bind def
388.8 216 o
grestore
gsave
28.156250 210.320312 translate
0.000000 rotate
0.000000 0.218750 m /zero glyphshow
9.543457 0.218750 m /period glyphshow
14.311523 0.218750 m /eight glyphshow
grestore
gsave
/o {
gsave
newpath
translate
2.3 setlinewidth
1 setlinejoin
0 setlinecap
0 0 m
5.5 0 l
gsave
0.000 setgray
fill
grestore
stroke
grestore
} bind def
54 285.12 o
grestore
gsave
/o {
gsave
newpath
translate
2.3 setlinewidth
1 setlinejoin
0 setlinecap
0 0 m
-5.5 0 l
gsave
0.000 setgray
fill
grestore
stroke
grestore
} bind def
388.8 285.12 o
grestore
gsave
28.796875 279.440313 translate
0.000000 rotate
0.000000 0.218750 m /one glyphshow
9.543457 0.218750 m /period glyphshow
14.311523 0.218750 m /zero glyphshow
grestore
gsave
/o {
gsave
newpath
translate
2.3 setlinewidth
1 setlinejoin
0 setlinecap
0 0 m
5.5 0 l
gsave
0.000 setgray
fill
grestore
stroke
grestore
} bind def
54 354.24 o
grestore
gsave
/o {
gsave
newpath
translate
2.3 setlinewidth
1 setlinejoin
0 setlinecap
0 0 m
-5.5 0 l
gsave
0.000 setgray
fill
grestore
stroke
grestore
} bind def
388.8 354.24 o
grestore
gsave
29.296875 348.669688 translate
0.000000 rotate
0.000000 0.000000 m /one glyphshow
9.543457 0.000000 m /period glyphshow
14.311523 0.000000 m /two glyphshow
grestore
1.700 setlinewidth
gsave
/o {
gsave
newpath
translate
1.7 setlinewidth
1 setlinejoin
0 setlinecap
0 0 m
3.5 0 l
gsave
0.000 setgray
fill
grestore
stroke
grestore
} bind def
54 50.112 o
grestore
gsave
/o {
gsave
newpath
translate
1.7 setlinewidth
1 setlinejoin
0 setlinecap
0 0 m
-3.5 0 l
gsave
0.000 setgray
fill
grestore
stroke
grestore
} bind def
388.8 50.112 o
grestore
gsave
/o {
gsave
newpath
translate
1.7 setlinewidth
1 setlinejoin
0 setlinecap
0 0 m
3.5 0 l
gsave
0.000 setgray
fill
grestore
stroke
grestore
} bind def
54 63.936 o
grestore
gsave
/o {
gsave
newpath
translate
1.7 setlinewidth
1 setlinejoin
0 setlinecap
0 0 m
-3.5 0 l
gsave
0.000 setgray
fill
grestore
stroke
grestore
} bind def
388.8 63.936 o
grestore
gsave
/o {
gsave
newpath
translate
1.7 setlinewidth
1 setlinejoin
0 setlinecap
0 0 m
3.5 0 l
gsave
0.000 setgray
fill
grestore
stroke
grestore
} bind def
54 77.76 o
grestore
gsave
/o {
gsave
newpath
translate
1.7 setlinewidth
1 setlinejoin
0 setlinecap
0 0 m
-3.5 0 l
gsave
0.000 setgray
fill
grestore
stroke
grestore
} bind def
388.8 77.76 o
grestore
gsave
/o {
gsave
newpath
translate
1.7 setlinewidth
1 setlinejoin
0 setlinecap
0 0 m
3.5 0 l
gsave
0.000 setgray
fill
grestore
stroke
grestore
} bind def
54 91.584 o
grestore
gsave
/o {
gsave
newpath
translate
1.7 setlinewidth
1 setlinejoin
0 setlinecap
0 0 m
-3.5 0 l
gsave
0.000 setgray
fill
grestore
stroke
grestore
} bind def
388.8 91.584 o
grestore
gsave
/o {
gsave
newpath
translate
1.7 setlinewidth
1 setlinejoin
0 setlinecap
0 0 m
3.5 0 l
gsave
0.000 setgray
fill
grestore
stroke
grestore
} bind def
54 105.408 o
grestore
gsave
/o {
gsave
newpath
translate
1.7 setlinewidth
1 setlinejoin
0 setlinecap
0 0 m
-3.5 0 l
gsave
0.000 setgray
fill
grestore
stroke
grestore
} bind def
388.8 105.408 o
grestore
gsave
/o {
gsave
newpath
translate
1.7 setlinewidth
1 setlinejoin
0 setlinecap
0 0 m
3.5 0 l
gsave
0.000 setgray
fill
grestore
stroke
grestore
} bind def
54 119.232 o
grestore
gsave
/o {
gsave
newpath
translate
1.7 setlinewidth
1 setlinejoin
0 setlinecap
0 0 m
-3.5 0 l
gsave
0.000 setgray
fill
grestore
stroke
grestore
} bind def
388.8 119.232 o
grestore
gsave
/o {
gsave
newpath
translate
1.7 setlinewidth
1 setlinejoin
0 setlinecap
0 0 m
3.5 0 l
gsave
0.000 setgray
fill
grestore
stroke
grestore
} bind def
54 133.056 o
grestore
gsave
/o {
gsave
newpath
translate
1.7 setlinewidth
1 setlinejoin
0 setlinecap
0 0 m
-3.5 0 l
gsave
0.000 setgray
fill
grestore
stroke
grestore
} bind def
388.8 133.056 o
grestore
gsave
/o {
gsave
newpath
translate
1.7 setlinewidth
1 setlinejoin
0 setlinecap
0 0 m
3.5 0 l
gsave
0.000 setgray
fill
grestore
stroke
grestore
} bind def
54 146.88 o
grestore
gsave
/o {
gsave
newpath
translate
1.7 setlinewidth
1 setlinejoin
0 setlinecap
0 0 m
-3.5 0 l
gsave
0.000 setgray
fill
grestore
stroke
grestore
} bind def
388.8 146.88 o
grestore
gsave
/o {
gsave
newpath
translate
1.7 setlinewidth
1 setlinejoin
0 setlinecap
0 0 m
3.5 0 l
gsave
0.000 setgray
fill
grestore
stroke
grestore
} bind def
54 160.704 o
grestore
gsave
/o {
gsave
newpath
translate
1.7 setlinewidth
1 setlinejoin
0 setlinecap
0 0 m
-3.5 0 l
gsave
0.000 setgray
fill
grestore
stroke
grestore
} bind def
388.8 160.704 o
grestore
gsave
/o {
gsave
newpath
translate
1.7 setlinewidth
1 setlinejoin
0 setlinecap
0 0 m
3.5 0 l
gsave
0.000 setgray
fill
grestore
stroke
grestore
} bind def
54 174.528 o
grestore
gsave
/o {
gsave
newpath
translate
1.7 setlinewidth
1 setlinejoin
0 setlinecap
0 0 m
-3.5 0 l
gsave
0.000 setgray
fill
grestore
stroke
grestore
} bind def
388.8 174.528 o
grestore
gsave
/o {
gsave
newpath
translate
1.7 setlinewidth
1 setlinejoin
0 setlinecap
0 0 m
3.5 0 l
gsave
0.000 setgray
fill
grestore
stroke
grestore
} bind def
54 188.352 o
grestore
gsave
/o {
gsave
newpath
translate
1.7 setlinewidth
1 setlinejoin
0 setlinecap
0 0 m
-3.5 0 l
gsave
0.000 setgray
fill
grestore
stroke
grestore
} bind def
388.8 188.352 o
grestore
gsave
/o {
gsave
newpath
translate
1.7 setlinewidth
1 setlinejoin
0 setlinecap
0 0 m
3.5 0 l
gsave
0.000 setgray
fill
grestore
stroke
grestore
} bind def
54 202.176 o
grestore
gsave
/o {
gsave
newpath
translate
1.7 setlinewidth
1 setlinejoin
0 setlinecap
0 0 m
-3.5 0 l
gsave
0.000 setgray
fill
grestore
stroke
grestore
} bind def
388.8 202.176 o
grestore
gsave
/o {
gsave
newpath
translate
1.7 setlinewidth
1 setlinejoin
0 setlinecap
0 0 m
3.5 0 l
gsave
0.000 setgray
fill
grestore
stroke
grestore
} bind def
54 216 o
grestore
gsave
/o {
gsave
newpath
translate
1.7 setlinewidth
1 setlinejoin
0 setlinecap
0 0 m
-3.5 0 l
gsave
0.000 setgray
fill
grestore
stroke
grestore
} bind def
388.8 216 o
grestore
gsave
/o {
gsave
newpath
translate
1.7 setlinewidth
1 setlinejoin
0 setlinecap
0 0 m
3.5 0 l
gsave
0.000 setgray
fill
grestore
stroke
grestore
} bind def
54 229.824 o
grestore
gsave
/o {
gsave
newpath
translate
1.7 setlinewidth
1 setlinejoin
0 setlinecap
0 0 m
-3.5 0 l
gsave
0.000 setgray
fill
grestore
stroke
grestore
} bind def
388.8 229.824 o
grestore
gsave
/o {
gsave
newpath
translate
1.7 setlinewidth
1 setlinejoin
0 setlinecap
0 0 m
3.5 0 l
gsave
0.000 setgray
fill
grestore
stroke
grestore
} bind def
54 243.648 o
grestore
gsave
/o {
gsave
newpath
translate
1.7 setlinewidth
1 setlinejoin
0 setlinecap
0 0 m
-3.5 0 l
gsave
0.000 setgray
fill
grestore
stroke
grestore
} bind def
388.8 243.648 o
grestore
gsave
/o {
gsave
newpath
translate
1.7 setlinewidth
1 setlinejoin
0 setlinecap
0 0 m
3.5 0 l
gsave
0.000 setgray
fill
grestore
stroke
grestore
} bind def
54 257.472 o
grestore
gsave
/o {
gsave
newpath
translate
1.7 setlinewidth
1 setlinejoin
0 setlinecap
0 0 m
-3.5 0 l
gsave
0.000 setgray
fill
grestore
stroke
grestore
} bind def
388.8 257.472 o
grestore
gsave
/o {
gsave
newpath
translate
1.7 setlinewidth
1 setlinejoin
0 setlinecap
0 0 m
3.5 0 l
gsave
0.000 setgray
fill
grestore
stroke
grestore
} bind def
54 271.296 o
grestore
gsave
/o {
gsave
newpath
translate
1.7 setlinewidth
1 setlinejoin
0 setlinecap
0 0 m
-3.5 0 l
gsave
0.000 setgray
fill
grestore
stroke
grestore
} bind def
388.8 271.296 o
grestore
gsave
/o {
gsave
newpath
translate
1.7 setlinewidth
1 setlinejoin
0 setlinecap
0 0 m
3.5 0 l
gsave
0.000 setgray
fill
grestore
stroke
grestore
} bind def
54 285.12 o
grestore
gsave
/o {
gsave
newpath
translate
1.7 setlinewidth
1 setlinejoin
0 setlinecap
0 0 m
-3.5 0 l
gsave
0.000 setgray
fill
grestore
stroke
grestore
} bind def
388.8 285.12 o
grestore
gsave
/o {
gsave
newpath
translate
1.7 setlinewidth
1 setlinejoin
0 setlinecap
0 0 m
3.5 0 l
gsave
0.000 setgray
fill
grestore
stroke
grestore
} bind def
54 298.944 o
grestore
gsave
/o {
gsave
newpath
translate
1.7 setlinewidth
1 setlinejoin
0 setlinecap
0 0 m
-3.5 0 l
gsave
0.000 setgray
fill
grestore
stroke
grestore
} bind def
388.8 298.944 o
grestore
gsave
/o {
gsave
newpath
translate
1.7 setlinewidth
1 setlinejoin
0 setlinecap
0 0 m
3.5 0 l
gsave
0.000 setgray
fill
grestore
stroke
grestore
} bind def
54 312.768 o
grestore
gsave
/o {
gsave
newpath
translate
1.7 setlinewidth
1 setlinejoin
0 setlinecap
0 0 m
-3.5 0 l
gsave
0.000 setgray
fill
grestore
stroke
grestore
} bind def
388.8 312.768 o
grestore
gsave
/o {
gsave
newpath
translate
1.7 setlinewidth
1 setlinejoin
0 setlinecap
0 0 m
3.5 0 l
gsave
0.000 setgray
fill
grestore
stroke
grestore
} bind def
54 326.592 o
grestore
gsave
/o {
gsave
newpath
translate
1.7 setlinewidth
1 setlinejoin
0 setlinecap
0 0 m
-3.5 0 l
gsave
0.000 setgray
fill
grestore
stroke
grestore
} bind def
388.8 326.592 o
grestore
gsave
/o {
gsave
newpath
translate
1.7 setlinewidth
1 setlinejoin
0 setlinecap
0 0 m
3.5 0 l
gsave
0.000 setgray
fill
grestore
stroke
grestore
} bind def
54 340.416 o
grestore
gsave
/o {
gsave
newpath
translate
1.7 setlinewidth
1 setlinejoin
0 setlinecap
0 0 m
-3.5 0 l
gsave
0.000 setgray
fill
grestore
stroke
grestore
} bind def
388.8 340.416 o
grestore
gsave
/o {
gsave
newpath
translate
1.7 setlinewidth
1 setlinejoin
0 setlinecap
0 0 m
3.5 0 l
gsave
0.000 setgray
fill
grestore
stroke
grestore
} bind def
54 354.24 o
grestore
gsave
/o {
gsave
newpath
translate
1.7 setlinewidth
1 setlinejoin
0 setlinecap
0 0 m
-3.5 0 l
gsave
0.000 setgray
fill
grestore
stroke
grestore
} bind def
388.8 354.24 o
grestore
gsave
/o {
gsave
newpath
translate
1.7 setlinewidth
1 setlinejoin
0 setlinecap
0 0 m
3.5 0 l
gsave
0.000 setgray
fill
grestore
stroke
grestore
} bind def
54 368.064 o
grestore
gsave
/o {
gsave
newpath
translate
1.7 setlinewidth
1 setlinejoin
0 setlinecap
0 0 m
-3.5 0 l
gsave
0.000 setgray
fill
grestore
stroke
grestore
} bind def
388.8 368.064 o
grestore
gsave
/o {
gsave
newpath
translate
1.7 setlinewidth
1 setlinejoin
0 setlinecap
0 0 m
3.5 0 l
gsave
0.000 setgray
fill
grestore
stroke
grestore
} bind def
54 381.888 o
grestore
gsave
/o {
gsave
newpath
translate
1.7 setlinewidth
1 setlinejoin
0 setlinecap
0 0 m
-3.5 0 l
gsave
0.000 setgray
fill
grestore
stroke
grestore
} bind def
388.8 381.888 o
grestore
gsave
22.968750 191.000000 translate
90.000000 rotate
/Cmr10 findfont
12.0 scalefont
setfont
0.000000 5.000000 moveto
/parenleft glyphshow

/Cmmi10 findfont
12.0 scalefont
setfont
4.658203 5.000000 moveto
/g glyphshow

/Cmmi10 findfont
8.4 scalefont
setfont
10.382812 1.938875 moveto
/p glyphshow

/Cmr10 findfont
8.4 scalefont
setfont
14.607422 1.938875 moveto
/one glyphshow

/Cmsy10 findfont
12.0 scalefont
setfont
18.807422 5.000000 moveto
/minus glyphshow

/Cmmi10 findfont
12.0 scalefont
setfont
28.129687 5.000000 moveto
/i glyphshow

/Cmmi10 findfont
8.4 scalefont
setfont
32.260547 1.938875 moveto
/p glyphshow

/Cmr10 findfont
8.4 scalefont
setfont
36.485156 1.938875 moveto
/one glyphshow

/Cmr10 findfont
12.0 scalefont
setfont
40.685156 5.000000 moveto
/parenright glyphshow

/Cmr10 findfont
8.4 scalefont
setfont
45.343359 1.938875 moveto
/zero glyphshow


grestore
1.000 setlinewidth
2 setlinecap
gsave
54 388.8 m
388.8 388.8 l
stroke
grestore
gsave
388.8 43.2 m
388.8 388.8 l
stroke
grestore
gsave
54 43.2 m
388.8 43.2 l
stroke
grestore
gsave
54 43.2 m
54 388.8 l
stroke
grestore
/BitstreamVeraSans-Roman findfont
8.000 scalefont
setfont
gsave
260.370720 348.255425 translate
0.000000 rotate
0.000000 0.109375 m /S glyphshow
5.078125 0.109375 m /C glyphshow
10.664062 0.109375 m /two glyphshow
grestore
gsave
253.139040 265.311425 translate
0.000000 rotate
0.000000 0.109375 m /S glyphshow
5.078125 0.109375 m /C glyphshow
10.664062 0.109375 m /seven glyphshow
grestore
gsave
234.390240 237.663425 translate
0.000000 rotate
0.000000 0.109375 m /S glyphshow
5.078125 0.109375 m /C glyphshow
10.664062 0.109375 m /four glyphshow
grestore
gsave
206.400960 192.044225 translate
0.000000 rotate
0.000000 0.109375 m /H glyphshow
6.015625 0.109375 m /u glyphshow
11.085938 0.109375 m /b glyphshow
16.164062 0.109375 m /b glyphshow
21.242188 0.109375 m /l glyphshow
23.464844 0.109375 m /e glyphshow
28.386719 0.109375 m /hyphen glyphshow
30.773438 0.109375 m /V glyphshow
36.246094 0.109375 m /I glyphshow
38.605469 0.109375 m /I glyphshow
grestore
gsave
189.527040 179.602625 translate
0.000000 rotate
0.000000 0.109375 m /S glyphshow
5.078125 0.109375 m /C glyphshow
10.664062 0.109375 m /three glyphshow
grestore
gsave
213.632640 143.660225 translate
0.000000 rotate
0.000000 0.109375 m /S glyphshow
5.078125 0.109375 m /C glyphshow
10.664062 0.109375 m /five glyphshow
grestore
gsave
159.127200 193.081025 translate
0.000000 rotate
0.000000 0.109375 m /S glyphshow
5.078125 0.109375 m /C glyphshow
10.664062 0.109375 m /six glyphshow
grestore
0.000 0.000 1.000 setrgbcolor
/BitstreamVeraSans-Roman findfont
7.000 scalefont
setfont
gsave
126.316800 166.831050 translate
0.000000 rotate
0.000000 0.093750 m /hyphen glyphshow
2.525879 0.093750 m /one glyphshow
6.979492 0.093750 m /period glyphshow
9.204590 0.093750 m /seven glyphshow
13.658203 0.093750 m /zero glyphshow
18.111816 0.093750 m /four glyphshow
grestore
gsave
141.583680 181.346250 translate
0.000000 rotate
0.000000 0.093750 m /hyphen glyphshow
2.525879 0.093750 m /one glyphshow
6.979492 0.093750 m /period glyphshow
9.204590 0.093750 m /four glyphshow
13.658203 0.093750 m /zero glyphshow
18.111816 0.093750 m /three glyphshow
grestore
gsave
161.136000 200.354250 translate
0.000000 rotate
0.000000 0.093750 m /hyphen glyphshow
2.525879 0.093750 m /one glyphshow
6.979492 0.093750 m /period glyphshow
9.204590 0.093750 m /one glyphshow
13.658203 0.093750 m /four glyphshow
18.111816 0.093750 m /zero glyphshow
grestore
gsave
205.329600 244.245450 translate
0.000000 rotate
0.000000 0.093750 m /hyphen glyphshow
2.525879 0.093750 m /zero glyphshow
6.979492 0.093750 m /period glyphshow
9.204590 0.093750 m /six glyphshow
13.658203 0.093750 m /two glyphshow
18.111816 0.093750 m /five glyphshow
grestore
gsave
253.272960 281.915850 translate
0.000000 rotate
0.000000 0.093750 m /hyphen glyphshow
2.525879 0.093750 m /zero glyphshow
6.979492 0.093750 m /period glyphshow
9.204590 0.093750 m /one glyphshow
13.658203 0.093750 m /seven glyphshow
18.111816 0.093750 m /seven glyphshow
grestore
gsave
287.422560 311.291850 translate
0.000000 rotate
0.000000 0.093750 m /zero glyphshow
4.453613 0.093750 m /period glyphshow
6.678711 0.093750 m /one glyphshow
11.132324 0.093750 m /two glyphshow
15.585938 0.093750 m /one glyphshow
20.039551 0.093750 m /three glyphshow
grestore
1.300 setlinewidth
1.000 0.647 0.000 setrgbcolor
gsave
303.963 131.2 m
327.963 131.2 l
stroke
grestore
0.000 setgray
/BitstreamVeraSans-Roman findfont
12.000 scalefont
setfont
gsave
337.562500 124.500000 translate
0.000000 rotate
0.000000 2.500000 m /one glyphshow
7.634766 2.500000 m /two glyphshow
15.269531 2.500000 m /space glyphshow
19.083984 2.500000 m /G glyphshow
28.382812 2.500000 m /y glyphshow
35.484375 2.500000 m /r glyphshow
grestore
0.000 0.502 0.000 setrgbcolor
gsave
303.963 113.575 m
327.963 113.575 l
stroke
grestore
0.000 setgray
gsave
337.562500 106.875000 translate
0.000000 rotate
0.000000 2.500000 m /one glyphshow
7.634766 2.500000 m /zero glyphshow
15.269531 2.500000 m /space glyphshow
19.083984 2.500000 m /G glyphshow
28.382812 2.500000 m /y glyphshow
35.484375 2.500000 m /r glyphshow
grestore
0 setlinecap
[1 3] 0 setdash
1.000 0.000 0.000 setrgbcolor
gsave
303.963 95.95 m
327.963 95.95 l
stroke
grestore
0.000 setgray
gsave
337.562500 89.250000 translate
0.000000 rotate
0.000000 2.500000 m /seven glyphshow
7.634766 2.500000 m /space glyphshow
11.449219 2.500000 m /G glyphshow
20.748047 2.500000 m /y glyphshow
27.849609 2.500000 m /r glyphshow
grestore
[6 6] 0 setdash
1.000 0.843 0.000 setrgbcolor
gsave
303.963 78.325 m
327.963 78.325 l
stroke
grestore
0.000 setgray
gsave
337.562500 71.625000 translate
0.000000 rotate
0.000000 2.500000 m /five glyphshow
7.634766 2.500000 m /space glyphshow
11.449219 2.500000 m /G glyphshow
20.748047 2.500000 m /y glyphshow
27.849609 2.500000 m /r glyphshow
grestore
[3 5 1 5] 0 setdash
0.502 0.000 0.502 setrgbcolor
gsave
303.963 60.7 m
327.963 60.7 l
stroke
grestore
0.000 setgray
gsave
337.562500 54.000000 translate
0.000000 rotate
0.000000 2.500000 m /three glyphshow
7.634766 2.500000 m /space glyphshow
11.449219 2.500000 m /G glyphshow
20.748047 2.500000 m /y glyphshow
27.849609 2.500000 m /r glyphshow
grestore

end
showpage
