%!PS-Adobe-3.0 EPSF-3.0
%%Title: NGC3115indexcolour.eps
%%Creator: matplotlib version 1.0.1, http://matplotlib.sourceforge.net/
%%CreationDate: Sun Jun  3 17:14:09 2012
%%Orientation: portrait
%%BoundingBox: 90 189 522 603
%%EndComments
%%BeginProlog
/mpldict 8 dict def
mpldict begin
/m { moveto } bind def
/l { lineto } bind def
/r { rlineto } bind def
/c { curveto } bind def
/cl { closepath } bind def
/box {
m
1 index 0 r
0 exch r
neg 0 r
cl
} bind def
/clipbox {
box
clip
newpath
} bind def
%!PS-Adobe-3.0 Resource-Font
%%Title: Bitstream Vera Sans
%%Copyright: Copyright (c) 2003 by Bitstream, Inc. All Rights Reserved.
%%Creator: Converted from TrueType to type 3 by PPR
25 dict begin
/_d{bind def}bind def
/_m{moveto}_d
/_l{lineto}_d
/_cl{closepath eofill}_d
/_c{curveto}_d
/_sc{7 -1 roll{setcachedevice}{pop pop pop pop pop pop}ifelse}_d
/_e{exec}_d
/FontName /BitstreamVeraSans-Roman def
/PaintType 0 def
/FontMatrix[.001 0 0 .001 0 0]def
/FontBBox[-182 -235 1287 928]def
/FontType 3 def
/Encoding [ /space /parenleft /parenright /hyphen /period /zero /one /two /three /four /five /six /seven /eight /nine /C /T /a /g /i /Aring ] def
/FontInfo 10 dict dup begin
/FamilyName (Bitstream Vera Sans) def
/FullName (Bitstream Vera Sans) def
/Notice (Copyright (c) 2003 by Bitstream, Inc. All Rights Reserved. Bitstream Vera is a trademark of Bitstream, Inc.) def
/Weight (Roman) def
/Version (Release 1.10) def
/ItalicAngle 0.0 def
/isFixedPitch false def
/UnderlinePosition -213 def
/UnderlineThickness 143 def
end readonly def
/CharStrings 21 dict dup begin
/space{318 0 0 0 0 0 _sc
}_d
/parenleft{390 0 86 -131 310 759 _sc
310 759 _m
266 683 234 609 213 536 _c
191 463 181 389 181 314 _c
181 238 191 164 213 91 _c
234 17 266 -56 310 -131 _c
232 -131 _l
183 -54 146 20 122 94 _c
98 168 86 241 86 314 _c
86 386 98 459 122 533 _c
146 607 182 682 232 759 _c
310 759 _l
_cl}_d
/parenright{390 0 80 -131 304 759 _sc
80 759 _m
158 759 _l
206 682 243 607 267 533 _c
291 459 304 386 304 314 _c
304 241 291 168 267 94 _c
243 20 206 -54 158 -131 _c
80 -131 _l
123 -56 155 17 177 91 _c
198 164 209 238 209 314 _c
209 389 198 463 177 536 _c
155 609 123 683 80 759 _c
_cl}_d
/hyphen{361 0 49 234 312 314 _sc
49 314 _m
312 314 _l
312 234 _l
49 234 _l
49 314 _l
_cl}_d
/period{318 0 107 0 210 124 _sc
107 124 _m
210 124 _l
210 0 _l
107 0 _l
107 124 _l
_cl}_d
/zero{636 0 66 -13 570 742 _sc
318 664 _m
267 664 229 639 203 589 _c
177 539 165 464 165 364 _c
165 264 177 189 203 139 _c
229 89 267 64 318 64 _c
369 64 407 89 433 139 _c
458 189 471 264 471 364 _c
471 464 458 539 433 589 _c
407 639 369 664 318 664 _c
318 742 _m
399 742 461 709 505 645 _c
548 580 570 486 570 364 _c
570 241 548 147 505 83 _c
461 19 399 -13 318 -13 _c
236 -13 173 19 130 83 _c
87 147 66 241 66 364 _c
66 486 87 580 130 645 _c
173 709 236 742 318 742 _c
_cl}_d
/one{636 0 110 0 544 729 _sc
124 83 _m
285 83 _l
285 639 _l
110 604 _l
110 694 _l
284 729 _l
383 729 _l
383 83 _l
544 83 _l
544 0 _l
124 0 _l
124 83 _l
_cl}_d
/two{{636 0 73 0 536 742 _sc
192 83 _m
536 83 _l
536 0 _l
73 0 _l
73 83 _l
110 121 161 173 226 239 _c
290 304 331 346 348 365 _c
380 400 402 430 414 455 _c
426 479 433 504 433 528 _c
433 566 419 598 392 622 _c
365 646 330 659 286 659 _c
255 659 222 653 188 643 _c
154 632 117 616 78 594 _c
78 694 _l
118 710 155 722 189 730 _c
223 738 255 742 284 742 _c
359 742 419 723 464 685 _c
509 647 532 597 532 534 _c
532 504 526 475 515 449 _c
504 422 484 390 454 354 _c
446 344 420 317 376 272 _c
332 227 271 164 192 83 _c
_cl}_e}_d
/three{{636 0 76 -13 556 742 _sc
406 393 _m
453 383 490 362 516 330 _c
542 298 556 258 556 212 _c
556 140 531 84 482 45 _c
432 6 362 -13 271 -13 _c
240 -13 208 -10 176 -4 _c
144 1 110 10 76 22 _c
76 117 _l
103 101 133 89 166 81 _c
198 73 232 69 268 69 _c
330 69 377 81 409 105 _c
441 129 458 165 458 212 _c
458 254 443 288 413 312 _c
383 336 341 349 287 349 _c
202 349 _l
202 430 _l
291 430 _l
339 430 376 439 402 459 _c
428 478 441 506 441 543 _c
441 580 427 609 401 629 _c
374 649 336 659 287 659 _c
260 659 231 656 200 650 _c
169 644 135 635 98 623 _c
98 711 _l
135 721 170 729 203 734 _c
235 739 266 742 296 742 _c
}_e{370 742 429 725 473 691 _c
517 657 539 611 539 553 _c
539 513 527 479 504 451 _c
481 423 448 403 406 393 _c
_cl}_e}_d
/four{636 0 49 0 580 729 _sc
378 643 _m
129 254 _l
378 254 _l
378 643 _l
352 729 _m
476 729 _l
476 254 _l
580 254 _l
580 172 _l
476 172 _l
476 0 _l
378 0 _l
378 172 _l
49 172 _l
49 267 _l
352 729 _l
_cl}_d
/five{{636 0 77 -13 549 729 _sc
108 729 _m
495 729 _l
495 646 _l
198 646 _l
198 467 _l
212 472 227 476 241 478 _c
255 480 270 482 284 482 _c
365 482 429 459 477 415 _c
525 370 549 310 549 234 _c
549 155 524 94 475 51 _c
426 8 357 -13 269 -13 _c
238 -13 207 -10 175 -6 _c
143 -1 111 6 77 17 _c
77 116 _l
106 100 136 88 168 80 _c
199 72 232 69 267 69 _c
323 69 368 83 401 113 _c
433 143 450 183 450 234 _c
450 284 433 324 401 354 _c
368 384 323 399 267 399 _c
241 399 214 396 188 390 _c
162 384 135 375 108 363 _c
108 729 _l
_cl}_e}_d
/six{{636 0 70 -13 573 742 _sc
330 404 _m
286 404 251 388 225 358 _c
199 328 186 286 186 234 _c
186 181 199 139 225 109 _c
251 79 286 64 330 64 _c
374 64 409 79 435 109 _c
461 139 474 181 474 234 _c
474 286 461 328 435 358 _c
409 388 374 404 330 404 _c
526 713 _m
526 623 _l
501 635 476 644 451 650 _c
425 656 400 659 376 659 _c
310 659 260 637 226 593 _c
192 549 172 482 168 394 _c
187 422 211 444 240 459 _c
269 474 301 482 336 482 _c
409 482 467 459 509 415 _c
551 371 573 310 573 234 _c
573 159 550 99 506 54 _c
462 9 403 -13 330 -13 _c
246 -13 181 19 137 83 _c
92 147 70 241 70 364 _c
70 479 97 571 152 639 _c
206 707 280 742 372 742 _c
}_e{396 742 421 739 447 735 _c
472 730 498 723 526 713 _c
_cl}_e}_d
/seven{636 0 82 0 551 729 _sc
82 729 _m
551 729 _l
551 687 _l
286 0 _l
183 0 _l
432 646 _l
82 646 _l
82 729 _l
_cl}_d
/eight{{636 0 68 -13 568 742 _sc
318 346 _m
271 346 234 333 207 308 _c
180 283 167 249 167 205 _c
167 161 180 126 207 101 _c
234 76 271 64 318 64 _c
364 64 401 76 428 102 _c
455 127 469 161 469 205 _c
469 249 455 283 429 308 _c
402 333 365 346 318 346 _c
219 388 _m
177 398 144 418 120 447 _c
96 476 85 511 85 553 _c
85 611 105 657 147 691 _c
188 725 245 742 318 742 _c
390 742 447 725 489 691 _c
530 657 551 611 551 553 _c
551 511 539 476 515 447 _c
491 418 459 398 417 388 _c
464 377 501 355 528 323 _c
554 291 568 251 568 205 _c
568 134 546 80 503 43 _c
459 5 398 -13 318 -13 _c
237 -13 175 5 132 43 _c
89 80 68 134 68 205 _c
68 251 81 291 108 323 _c
134 355 171 377 219 388 _c
}_e{183 544 _m
183 506 194 476 218 455 _c
242 434 275 424 318 424 _c
360 424 393 434 417 455 _c
441 476 453 506 453 544 _c
453 582 441 611 417 632 _c
393 653 360 664 318 664 _c
275 664 242 653 218 632 _c
194 611 183 582 183 544 _c
_cl}_e}_d
/nine{{636 0 63 -13 566 742 _sc
110 15 _m
110 105 _l
134 93 159 84 185 78 _c
210 72 235 69 260 69 _c
324 69 374 90 408 134 _c
442 178 462 244 468 334 _c
448 306 424 284 396 269 _c
367 254 335 247 300 247 _c
226 247 168 269 126 313 _c
84 357 63 417 63 494 _c
63 568 85 628 129 674 _c
173 719 232 742 306 742 _c
390 742 455 709 499 645 _c
543 580 566 486 566 364 _c
566 248 538 157 484 89 _c
429 21 356 -13 264 -13 _c
239 -13 214 -10 189 -6 _c
163 -2 137 5 110 15 _c
306 324 _m
350 324 385 339 411 369 _c
437 399 450 441 450 494 _c
450 546 437 588 411 618 _c
385 648 350 664 306 664 _c
262 664 227 648 201 618 _c
175 588 162 546 162 494 _c
}_e{162 441 175 399 201 369 _c
227 339 262 324 306 324 _c
_cl}_e}_d
/C{{698 0 56 -13 644 742 _sc
644 673 _m
644 569 _l
610 599 575 622 537 638 _c
499 653 460 661 418 661 _c
334 661 270 635 226 584 _c
182 533 160 460 160 364 _c
160 268 182 194 226 143 _c
270 92 334 67 418 67 _c
460 67 499 74 537 90 _c
575 105 610 128 644 159 _c
644 56 _l
609 32 572 15 534 4 _c
496 -7 455 -13 412 -13 _c
302 -13 215 20 151 87 _c
87 154 56 246 56 364 _c
56 481 87 573 151 641 _c
215 708 302 742 412 742 _c
456 742 497 736 535 725 _c
573 713 610 696 644 673 _c
_cl}_e}_d
/T{611 0 -2 0 614 729 _sc
-2 729 _m
614 729 _l
614 646 _l
355 646 _l
355 0 _l
256 0 _l
256 646 _l
-2 646 _l
-2 729 _l
_cl}_d
/a{{613 0 60 -13 522 560 _sc
343 275 _m
270 275 220 266 192 250 _c
164 233 150 205 150 165 _c
150 133 160 107 181 89 _c
202 70 231 61 267 61 _c
317 61 357 78 387 114 _c
417 149 432 196 432 255 _c
432 275 _l
343 275 _l
522 312 _m
522 0 _l
432 0 _l
432 83 _l
411 49 385 25 355 10 _c
325 -5 287 -13 243 -13 _c
187 -13 142 2 109 33 _c
76 64 60 106 60 159 _c
60 220 80 266 122 298 _c
163 329 224 345 306 345 _c
432 345 _l
432 354 _l
432 395 418 427 391 450 _c
364 472 326 484 277 484 _c
245 484 215 480 185 472 _c
155 464 127 453 100 439 _c
100 522 _l
}_e{132 534 164 544 195 550 _c
226 556 256 560 286 560 _c
365 560 424 539 463 498 _c
502 457 522 395 522 312 _c
_cl}_e}_d
/g{{635 0 55 -207 544 560 _sc
454 280 _m
454 344 440 395 414 431 _c
387 467 349 485 301 485 _c
253 485 215 467 188 431 _c
161 395 148 344 148 280 _c
148 215 161 165 188 129 _c
215 93 253 75 301 75 _c
349 75 387 93 414 129 _c
440 165 454 215 454 280 _c
544 68 _m
544 -24 523 -93 482 -139 _c
440 -184 377 -207 292 -207 _c
260 -207 231 -204 203 -200 _c
175 -195 147 -188 121 -178 _c
121 -91 _l
147 -105 173 -115 199 -122 _c
225 -129 251 -133 278 -133 _c
336 -133 380 -117 410 -87 _c
439 -56 454 -10 454 52 _c
454 96 _l
435 64 411 40 382 24 _c
353 8 319 0 279 0 _c
211 0 157 25 116 76 _c
75 127 55 195 55 280 _c
55 364 75 432 116 483 _c
157 534 211 560 279 560 _c
}_e{319 560 353 552 382 536 _c
411 520 435 496 454 464 _c
454 547 _l
544 547 _l
544 68 _l
_cl}_e}_d
/i{278 0 94 0 184 760 _sc
94 547 _m
184 547 _l
184 0 _l
94 0 _l
94 547 _l
94 760 _m
184 760 _l
184 646 _l
94 646 _l
94 760 _l
_cl}_d
/Aring{{684 0 8 0 676 928 _sc
416 794 _m
416 814 408 832 394 846 _c
380 860 362 868 342 868 _c
321 868 303 861 289 847 _c
275 833 268 815 268 794 _c
268 773 275 755 289 741 _c
303 727 321 720 342 720 _c
362 720 380 727 394 741 _c
408 755 416 773 416 794 _c
268 682 _m
248 695 233 711 223 730 _c
213 748 208 770 208 794 _c
208 831 221 863 247 889 _c
273 915 304 928 342 928 _c
378 928 410 915 436 889 _c
462 863 476 831 476 794 _c
476 771 470 750 460 731 _c
450 711 435 695 416 682 _c
676 0 _l
573 0 _l
507 187 _l
178 187 _l
112 0 _l
8 0 _l
268 682 _l
342 632 _m
209 269 _l
475 269 _l
}_e{342 632 _l
_cl}_e}_d
end readonly def

/BuildGlyph
 {exch begin
 CharStrings exch
 2 copy known not{pop /.notdef}if
 true 3 1 roll get exec
 end}_d

/BuildChar {
 1 index /Encoding get exch get
 1 index /BuildGlyph get exec
}_d

FontName currentdict end definefont pop
end
%%EndProlog
mpldict begin
90 189 translate
432 414 0 0 clipbox
1.000 setlinewidth
1 setlinejoin
2 setlinecap
[] 0 setdash
1.000 setgray
gsave
0 0 m
432 0 l
432 414 l
0 414 l
cl
gsave
fill
grestore
stroke
grestore
gsave
50.4 32.4 m
330.174 32.4 l
330.174 312.174 l
50.4 312.174 l
cl
fill
grestore
/p0_0 {
newpath
translate
85.1827 130.248 m
95.7688 130.248 l
} bind def
/p0_1 {
newpath
translate
233.387 209.094 m
238.68 209.094 l
} bind def
/p0_2 {
newpath
translate
119.587 124.035 m
124.88 124.035 l
} bind def
/p0_3 {
newpath
translate
121.1 112.154 m
127.905 112.154 l
} bind def
/p0_4 {
newpath
translate
240.193 235.109 m
244.73 235.109 l
} bind def
/p0_5 {
newpath
translate
127.905 161.532 m
134.71 161.532 l
} bind def
/p0_6 {
newpath
translate
232.253 236.49 m
238.302 236.49 l
} bind def
/p0_7 {
newpath
translate
218.264 208.113 m
228.094 208.113 l
} bind def
/p0_8 {
newpath
translate
262.877 235.509 m
281.025 235.509 l
} bind def
/p0_9 {
newpath
translate
211.459 217.85 m
222.045 217.85 l
} bind def
/p0_a {
newpath
translate
209.569 216.215 m
222.423 216.215 l
} bind def
/p0_b {
newpath
translate
234.522 252.44 m
244.351 252.44 l
} bind def
/p0_c {
newpath
translate
272.329 222.065 m
288.208 222.065 l
} bind def
/p0_d {
newpath
translate
218.264 201.463 m
230.363 201.463 l
} bind def
/p0_e {
newpath
translate
146.809 128.795 m
159.663 128.795 l
} bind def
/p0_f {
newpath
translate
228.094 233.619 m
235.656 233.619 l
} bind def
/p0_10 {
newpath
translate
111.27 141.403 m
120.344 141.403 l
} bind def
/p0_11 {
newpath
translate
140.381 141.512 m
150.211 141.512 l
} bind def
/p0_12 {
newpath
translate
226.96 254.475 m
236.79 254.475 l
} bind def
/p0_13 {
newpath
translate
173.274 259.489 m
261.743 259.489 l
} bind def
/p0_14 {
newpath
translate
246.998 262.432 m
259.096 262.432 l
} bind def
/p0_15 {
newpath
translate
221.289 204.152 m
231.119 204.152 l
} bind def
/p0_16 {
newpath
translate
109.001 122.473 m
121.1 122.473 l
} bind def
/p0_17 {
newpath
translate
133.954 119.239 m
140.759 119.239 l
} bind def
/p0_18 {
newpath
translate
202.007 233.292 m
211.837 233.292 l
} bind def
/p0_19 {
newpath
translate
128.661 135.553 m
137.735 135.553 l
} bind def
/p0_1a {
newpath
translate
75.7309 63.0298 m
86.3169 63.0298 l
} bind def
/p0_1b {
newpath
translate
284.427 234.6 m
298.038 234.6 l
} bind def
/p0_1c {
newpath
translate
227.716 196.74 m
233.009 196.74 l
} bind def
/p0_1d {
newpath
translate
144.54 143.583 m
151.345 143.583 l
} bind def
/p0_1e {
newpath
translate
237.168 238.125 m
247.754 238.125 l
} bind def
/p0_1f {
newpath
translate
231.119 194.814 m
246.998 194.814 l
} bind def
/p0_20 {
newpath
translate
258.718 250.842 m
267.792 250.842 l
} bind def
/p0_21 {
newpath
translate
197.47 280.709 m
297.282 280.709 l
} bind def
/p0_22 {
newpath
translate
260.609 257.709 m
270.438 257.709 l
} bind def
/p0_23 {
newpath
translate
242.839 259.053 m
256.45 259.053 l
} bind def
/p0_24 {
newpath
translate
130.551 145.327 m
136.601 145.327 l
} bind def
/p0_25 {
newpath
translate
161.932 153.03 m
166.468 153.03 l
} bind def
/p0_26 {
newpath
translate
222.423 205.133 m
232.253 205.133 l
} bind def
/p0_27 {
newpath
translate
89.3415 148.452 m
98.4153 148.452 l
} bind def
/p0_28 {
newpath
translate
136.601 154.774 m
144.918 154.774 l
} bind def
/p0_29 {
newpath
translate
118.453 131.266 m
128.283 131.266 l
} bind def
/p0_2a {
newpath
translate
237.924 241.104 m
246.998 241.104 l
} bind def
/p0_2b {
newpath
translate
146.809 117.495 m
153.614 117.495 l
} bind def
/p0_2c {
newpath
translate
149.077 169.816 m
152.102 169.816 l
} bind def
/p0_2d {
newpath
translate
99.1714 89.0815 m
107.489 89.0815 l
} bind def
/p0_2e {
newpath
translate
130.93 157.027 m
136.223 157.027 l
} bind def
/p0_2f {
newpath
translate
77.2432 62.0488 m
89.3415 62.0488 l
} bind def
/p0_30 {
newpath
translate
240.193 217.596 m
247.754 217.596 l
} bind def
/p0_31 {
newpath
translate
182.347 194.596 m
189.153 194.596 l
} bind def
/p0_32 {
newpath
translate
241.705 220.503 m
251.535 220.503 l
} bind def
/p0_33 {
newpath
translate
235.656 229.114 m
240.949 229.114 l
} bind def
/p0_34 {
newpath
translate
254.559 229.404 m
263.633 229.404 l
} bind def
/p0_35 {
newpath
translate
239.058 240.85 m
247.376 240.85 l
} bind def
/p0_36 {
newpath
translate
225.448 240.741 m
236.034 240.741 l
} bind def
/p0_37 {
newpath
translate
154.748 192.525 m
164.578 192.525 l
} bind def
/p0_38 {
newpath
translate
212.215 219.086 m
221.289 219.086 l
} bind def
/p0_39 {
newpath
translate
141.894 171.924 m
154.748 171.924 l
} bind def
/p0_3a {
newpath
translate
150.589 198.956 m
160.419 198.956 l
} bind def
/p0_3b {
newpath
translate
110.514 111.027 m
118.831 111.027 l
} bind def
/p0_3c {
newpath
translate
143.784 123.999 m
152.858 123.999 l
} bind def
/p0_3d {
newpath
translate
137.735 169.489 m
146.052 169.489 l
} bind def
/p0_3e {
newpath
translate
256.828 212.327 m
269.682 212.327 l
} bind def
/p0_3f {
newpath
translate
253.425 221.629 m
261.743 221.629 l
} bind def
/p0_40 {
newpath
translate
105.599 96.639 m
115.429 96.639 l
} bind def
/p0_41 {
newpath
translate
240.949 198.302 m
250.023 198.302 l
} bind def
/p0_42 {
newpath
translate
136.601 163.494 m
141.894 163.494 l
} bind def
/p0_43 {
newpath
translate
134.71 146.78 m
146.052 146.78 l
} bind def
/p0_44 {
newpath
translate
113.916 103.034 m
125.258 103.034 l
} bind def
/p0_45 {
newpath
translate
282.537 256.328 m
294.635 256.328 l
} bind def
/p0_46 {
newpath
translate
104.464 136.171 m
116.563 136.171 l
} bind def
0.400 setlinewidth
0 setlinecap
0.000 setgray
gsave
279.8 279.8 50.4 32.4 clipbox
0 0 p0_0
stroke
grestore
gsave
279.8 279.8 50.4 32.4 clipbox
0 0 p0_1
stroke
grestore
gsave
279.8 279.8 50.4 32.4 clipbox
0 0 p0_2
stroke
grestore
gsave
279.8 279.8 50.4 32.4 clipbox
0 0 p0_3
stroke
grestore
gsave
279.8 279.8 50.4 32.4 clipbox
0 0 p0_4
stroke
grestore
gsave
279.8 279.8 50.4 32.4 clipbox
0 0 p0_5
stroke
grestore
gsave
279.8 279.8 50.4 32.4 clipbox
0 0 p0_6
stroke
grestore
gsave
279.8 279.8 50.4 32.4 clipbox
0 0 p0_7
stroke
grestore
gsave
279.8 279.8 50.4 32.4 clipbox
0 0 p0_8
stroke
grestore
gsave
279.8 279.8 50.4 32.4 clipbox
0 0 p0_9
stroke
grestore
gsave
279.8 279.8 50.4 32.4 clipbox
0 0 p0_a
stroke
grestore
gsave
279.8 279.8 50.4 32.4 clipbox
0 0 p0_b
stroke
grestore
gsave
279.8 279.8 50.4 32.4 clipbox
0 0 p0_c
stroke
grestore
gsave
279.8 279.8 50.4 32.4 clipbox
0 0 p0_d
stroke
grestore
gsave
279.8 279.8 50.4 32.4 clipbox
0 0 p0_e
stroke
grestore
gsave
279.8 279.8 50.4 32.4 clipbox
0 0 p0_f
stroke
grestore
gsave
279.8 279.8 50.4 32.4 clipbox
0 0 p0_10
stroke
grestore
gsave
279.8 279.8 50.4 32.4 clipbox
0 0 p0_11
stroke
grestore
gsave
279.8 279.8 50.4 32.4 clipbox
0 0 p0_12
stroke
grestore
gsave
279.8 279.8 50.4 32.4 clipbox
0 0 p0_13
stroke
grestore
gsave
279.8 279.8 50.4 32.4 clipbox
0 0 p0_14
stroke
grestore
gsave
279.8 279.8 50.4 32.4 clipbox
0 0 p0_15
stroke
grestore
gsave
279.8 279.8 50.4 32.4 clipbox
0 0 p0_16
stroke
grestore
gsave
279.8 279.8 50.4 32.4 clipbox
0 0 p0_17
stroke
grestore
gsave
279.8 279.8 50.4 32.4 clipbox
0 0 p0_18
stroke
grestore
gsave
279.8 279.8 50.4 32.4 clipbox
0 0 p0_19
stroke
grestore
gsave
279.8 279.8 50.4 32.4 clipbox
0 0 p0_1a
stroke
grestore
gsave
279.8 279.8 50.4 32.4 clipbox
0 0 p0_1b
stroke
grestore
gsave
279.8 279.8 50.4 32.4 clipbox
0 0 p0_1c
stroke
grestore
gsave
279.8 279.8 50.4 32.4 clipbox
0 0 p0_1d
stroke
grestore
gsave
279.8 279.8 50.4 32.4 clipbox
0 0 p0_1e
stroke
grestore
gsave
279.8 279.8 50.4 32.4 clipbox
0 0 p0_1f
stroke
grestore
gsave
279.8 279.8 50.4 32.4 clipbox
0 0 p0_20
stroke
grestore
gsave
279.8 279.8 50.4 32.4 clipbox
0 0 p0_21
stroke
grestore
gsave
279.8 279.8 50.4 32.4 clipbox
0 0 p0_22
stroke
grestore
gsave
279.8 279.8 50.4 32.4 clipbox
0 0 p0_23
stroke
grestore
gsave
279.8 279.8 50.4 32.4 clipbox
0 0 p0_24
stroke
grestore
gsave
279.8 279.8 50.4 32.4 clipbox
0 0 p0_25
stroke
grestore
gsave
279.8 279.8 50.4 32.4 clipbox
0 0 p0_26
stroke
grestore
gsave
279.8 279.8 50.4 32.4 clipbox
0 0 p0_27
stroke
grestore
gsave
279.8 279.8 50.4 32.4 clipbox
0 0 p0_28
stroke
grestore
gsave
279.8 279.8 50.4 32.4 clipbox
0 0 p0_29
stroke
grestore
gsave
279.8 279.8 50.4 32.4 clipbox
0 0 p0_2a
stroke
grestore
gsave
279.8 279.8 50.4 32.4 clipbox
0 0 p0_2b
stroke
grestore
gsave
279.8 279.8 50.4 32.4 clipbox
0 0 p0_2c
stroke
grestore
gsave
279.8 279.8 50.4 32.4 clipbox
0 0 p0_2d
stroke
grestore
gsave
279.8 279.8 50.4 32.4 clipbox
0 0 p0_2e
stroke
grestore
gsave
279.8 279.8 50.4 32.4 clipbox
0 0 p0_2f
stroke
grestore
gsave
279.8 279.8 50.4 32.4 clipbox
0 0 p0_30
stroke
grestore
gsave
279.8 279.8 50.4 32.4 clipbox
0 0 p0_31
stroke
grestore
gsave
279.8 279.8 50.4 32.4 clipbox
0 0 p0_32
stroke
grestore
gsave
279.8 279.8 50.4 32.4 clipbox
0 0 p0_33
stroke
grestore
gsave
279.8 279.8 50.4 32.4 clipbox
0 0 p0_34
stroke
grestore
gsave
279.8 279.8 50.4 32.4 clipbox
0 0 p0_35
stroke
grestore
gsave
279.8 279.8 50.4 32.4 clipbox
0 0 p0_36
stroke
grestore
gsave
279.8 279.8 50.4 32.4 clipbox
0 0 p0_37
stroke
grestore
gsave
279.8 279.8 50.4 32.4 clipbox
0 0 p0_38
stroke
grestore
gsave
279.8 279.8 50.4 32.4 clipbox
0 0 p0_39
stroke
grestore
gsave
279.8 279.8 50.4 32.4 clipbox
0 0 p0_3a
stroke
grestore
gsave
279.8 279.8 50.4 32.4 clipbox
0 0 p0_3b
stroke
grestore
gsave
279.8 279.8 50.4 32.4 clipbox
0 0 p0_3c
stroke
grestore
gsave
279.8 279.8 50.4 32.4 clipbox
0 0 p0_3d
stroke
grestore
gsave
279.8 279.8 50.4 32.4 clipbox
0 0 p0_3e
stroke
grestore
gsave
279.8 279.8 50.4 32.4 clipbox
0 0 p0_3f
stroke
grestore
gsave
279.8 279.8 50.4 32.4 clipbox
0 0 p0_40
stroke
grestore
gsave
279.8 279.8 50.4 32.4 clipbox
0 0 p0_41
stroke
grestore
gsave
279.8 279.8 50.4 32.4 clipbox
0 0 p0_42
stroke
grestore
gsave
279.8 279.8 50.4 32.4 clipbox
0 0 p0_43
stroke
grestore
gsave
279.8 279.8 50.4 32.4 clipbox
0 0 p0_44
stroke
grestore
gsave
279.8 279.8 50.4 32.4 clipbox
0 0 p0_45
stroke
grestore
gsave
279.8 279.8 50.4 32.4 clipbox
0 0 p0_46
stroke
grestore
/p1_0 {
newpath
translate
90.4757 117.35 m
90.4757 147.471 l
} bind def
/p1_1 {
newpath
translate
236.034 198.266 m
236.034 222.101 l
} bind def
/p1_2 {
newpath
translate
122.234 113.498 m
122.234 135.807 l
} bind def
/p1_3 {
newpath
translate
124.502 100.817 m
124.502 135.226 l
} bind def
/p1_4 {
newpath
translate
242.461 225.953 m
242.461 242.303 l
} bind def
/p1_5 {
newpath
translate
131.308 150.268 m
131.308 173.958 l
} bind def
/p1_6 {
newpath
translate
235.278 212.109 m
235.278 258.218 l
} bind def
/p1_7 {
newpath
translate
223.179 190.854 m
223.179 225.444 l
} bind def
/p1_8 {
newpath
translate
271.951 205.678 m
271.951 252.186 l
} bind def
/p1_9 {
newpath
translate
216.752 200.591 m
216.752 237.289 l
} bind def
/p1_a {
newpath
translate
215.996 196.522 m
215.996 237.18 l
} bind def
/p1_b {
newpath
translate
239.436 232.239 m
239.436 268.5 l
} bind def
/p1_c {
newpath
translate
280.268 195.468 m
280.268 244.411 l
} bind def
/p1_d {
newpath
translate
224.314 183.151 m
224.314 221.702 l
} bind def
/p1_e {
newpath
translate
153.236 114.043 m
153.236 150.959 l
} bind def
/p1_f {
newpath
translate
231.875 217.923 m
231.875 244.084 l
} bind def
/p1_10 {
newpath
translate
115.807 126.36 m
115.807 156.3 l
} bind def
/p1_11 {
newpath
translate
145.296 128.504 m
145.296 164.366 l
} bind def
/p1_12 {
newpath
translate
231.875 242.739 m
231.875 265.375 l
} bind def
/p1_13 {
newpath
translate
217.508 235.799 m
217.508 282.453 l
} bind def
/p1_14 {
newpath
translate
253.047 229.404 m
253.047 276.276 l
} bind def
/p1_15 {
newpath
translate
226.204 183.987 m
226.204 224.754 l
} bind def
/p1_16 {
newpath
translate
115.05 113.207 m
115.05 145.945 l
} bind def
/p1_17 {
newpath
translate
137.357 106.74 m
137.357 133.555 l
} bind def
/p1_18 {
newpath
translate
206.922 210.547 m
206.922 253.494 l
} bind def
/p1_19 {
newpath
translate
133.198 122.327 m
133.198 156.518 l
} bind def
/p1_1a {
newpath
translate
81.0239 51.0395 m
81.0239 83.595 l
} bind def
/p1_1b {
newpath
translate
291.232 217.596 m
291.232 247.063 l
} bind def
/p1_1c {
newpath
translate
230.363 185.658 m
230.363 210.838 l
} bind def
/p1_1d {
newpath
translate
147.943 132.319 m
147.943 161.278 l
} bind def
/p1_1e {
newpath
translate
242.461 226.534 m
242.461 254.293 l
} bind def
/p1_1f {
newpath
translate
239.058 176.574 m
239.058 222.719 l
} bind def
/p1_20 {
newpath
translate
263.255 233.438 m
263.255 264.612 l
} bind def
/p1_21 {
newpath
translate
247.376 263.086 m
247.376 299.057 l
} bind def
/p1_22 {
newpath
translate
265.524 238.052 m
265.524 276.639 l
} bind def
/p1_23 {
newpath
translate
249.644 234.128 m
249.644 286.667 l
} bind def
/p1_24 {
newpath
translate
133.576 135.48 m
133.576 159.824 l
} bind def
/p1_25 {
newpath
translate
164.2 142.675 m
164.2 164.402 l
} bind def
/p1_26 {
newpath
translate
227.338 195.941 m
227.338 218.214 l
} bind def
/p1_27 {
newpath
translate
93.8784 130.83 m
93.8784 163.058 l
} bind def
/p1_28 {
newpath
translate
140.759 145.182 m
140.759 167.455 l
} bind def
/p1_29 {
newpath
translate
123.368 121.056 m
123.368 154.883 l
} bind def
/p1_2a {
newpath
translate
242.461 222.247 m
242.461 255.711 l
} bind def
/p1_2b {
newpath
translate
150.211 94.4953 m
150.211 135.226 l
} bind def
/p1_2c {
newpath
translate
150.589 160.224 m
150.589 179.699 l
} bind def
/p1_2d {
newpath
translate
103.33 78.2175 m
103.33 104.306 l
} bind def
/p1_2e {
newpath
translate
133.576 148.088 m
133.576 167.6 l
} bind def
/p1_2f {
newpath
translate
83.2923 52.5655 m
83.2923 84.249 l
} bind def
/p1_30 {
newpath
translate
243.973 207.858 m
243.973 236.163 l
} bind def
/p1_31 {
newpath
translate
185.75 181.116 m
185.75 210.62 l
} bind def
/p1_32 {
newpath
translate
246.62 201.391 m
246.62 236.889 l
} bind def
/p1_33 {
newpath
translate
238.302 217.124 m
238.302 240.523 l
} bind def
/p1_34 {
newpath
translate
259.096 211.528 m
259.096 242.63 l
} bind def
/p1_35 {
newpath
translate
243.217 223.918 m
243.217 267.737 l
} bind def
/p1_36 {
newpath
translate
230.741 231.294 m
230.741 251.968 l
} bind def
/p1_37 {
newpath
translate
159.663 176.175 m
159.663 213.89 l
} bind def
/p1_38 {
newpath
translate
216.752 197.031 m
216.752 247.644 l
} bind def
/p1_39 {
newpath
translate
148.321 153.975 m
148.321 204.806 l
} bind def
/p1_3a {
newpath
translate
155.504 179.009 m
155.504 219.74 l
} bind def
/p1_3b {
newpath
translate
114.672 98.3104 m
114.672 129.449 l
} bind def
/p1_3c {
newpath
translate
148.321 112.989 m
148.321 144.382 l
} bind def
/p1_3d {
newpath
translate
141.894 154.556 m
141.894 182.097 l
} bind def
/p1_3e {
newpath
translate
263.255 196.595 m
263.255 244.701 l
} bind def
/p1_3f {
newpath
translate
257.584 204.443 m
257.584 233.874 l
} bind def
/p1_40 {
newpath
translate
110.514 82.505 m
110.514 121.637 l
} bind def
/p1_41 {
newpath
translate
245.486 185.985 m
245.486 212.909 l
} bind def
/p1_42 {
newpath
translate
139.247 152.376 m
139.247 176.756 l
} bind def
/p1_43 {
newpath
translate
140.381 134.245 m
140.381 180.281 l
} bind def
/p1_44 {
newpath
translate
119.587 88.1731 m
119.587 122.691 l
} bind def
/p1_45 {
newpath
translate
288.586 237.398 m
288.586 269.481 l
} bind def
/p1_46 {
newpath
translate
110.514 125.634 m
110.514 159.897 l
} bind def
gsave
279.8 279.8 50.4 32.4 clipbox
0 0 p1_0
stroke
grestore
gsave
279.8 279.8 50.4 32.4 clipbox
0 0 p1_1
stroke
grestore
gsave
279.8 279.8 50.4 32.4 clipbox
0 0 p1_2
stroke
grestore
gsave
279.8 279.8 50.4 32.4 clipbox
0 0 p1_3
stroke
grestore
gsave
279.8 279.8 50.4 32.4 clipbox
0 0 p1_4
stroke
grestore
gsave
279.8 279.8 50.4 32.4 clipbox
0 0 p1_5
stroke
grestore
gsave
279.8 279.8 50.4 32.4 clipbox
0 0 p1_6
stroke
grestore
gsave
279.8 279.8 50.4 32.4 clipbox
0 0 p1_7
stroke
grestore
gsave
279.8 279.8 50.4 32.4 clipbox
0 0 p1_8
stroke
grestore
gsave
279.8 279.8 50.4 32.4 clipbox
0 0 p1_9
stroke
grestore
gsave
279.8 279.8 50.4 32.4 clipbox
0 0 p1_a
stroke
grestore
gsave
279.8 279.8 50.4 32.4 clipbox
0 0 p1_b
stroke
grestore
gsave
279.8 279.8 50.4 32.4 clipbox
0 0 p1_c
stroke
grestore
gsave
279.8 279.8 50.4 32.4 clipbox
0 0 p1_d
stroke
grestore
gsave
279.8 279.8 50.4 32.4 clipbox
0 0 p1_e
stroke
grestore
gsave
279.8 279.8 50.4 32.4 clipbox
0 0 p1_f
stroke
grestore
gsave
279.8 279.8 50.4 32.4 clipbox
0 0 p1_10
stroke
grestore
gsave
279.8 279.8 50.4 32.4 clipbox
0 0 p1_11
stroke
grestore
gsave
279.8 279.8 50.4 32.4 clipbox
0 0 p1_12
stroke
grestore
gsave
279.8 279.8 50.4 32.4 clipbox
0 0 p1_13
stroke
grestore
gsave
279.8 279.8 50.4 32.4 clipbox
0 0 p1_14
stroke
grestore
gsave
279.8 279.8 50.4 32.4 clipbox
0 0 p1_15
stroke
grestore
gsave
279.8 279.8 50.4 32.4 clipbox
0 0 p1_16
stroke
grestore
gsave
279.8 279.8 50.4 32.4 clipbox
0 0 p1_17
stroke
grestore
gsave
279.8 279.8 50.4 32.4 clipbox
0 0 p1_18
stroke
grestore
gsave
279.8 279.8 50.4 32.4 clipbox
0 0 p1_19
stroke
grestore
gsave
279.8 279.8 50.4 32.4 clipbox
0 0 p1_1a
stroke
grestore
gsave
279.8 279.8 50.4 32.4 clipbox
0 0 p1_1b
stroke
grestore
gsave
279.8 279.8 50.4 32.4 clipbox
0 0 p1_1c
stroke
grestore
gsave
279.8 279.8 50.4 32.4 clipbox
0 0 p1_1d
stroke
grestore
gsave
279.8 279.8 50.4 32.4 clipbox
0 0 p1_1e
stroke
grestore
gsave
279.8 279.8 50.4 32.4 clipbox
0 0 p1_1f
stroke
grestore
gsave
279.8 279.8 50.4 32.4 clipbox
0 0 p1_20
stroke
grestore
gsave
279.8 279.8 50.4 32.4 clipbox
0 0 p1_21
stroke
grestore
gsave
279.8 279.8 50.4 32.4 clipbox
0 0 p1_22
stroke
grestore
gsave
279.8 279.8 50.4 32.4 clipbox
0 0 p1_23
stroke
grestore
gsave
279.8 279.8 50.4 32.4 clipbox
0 0 p1_24
stroke
grestore
gsave
279.8 279.8 50.4 32.4 clipbox
0 0 p1_25
stroke
grestore
gsave
279.8 279.8 50.4 32.4 clipbox
0 0 p1_26
stroke
grestore
gsave
279.8 279.8 50.4 32.4 clipbox
0 0 p1_27
stroke
grestore
gsave
279.8 279.8 50.4 32.4 clipbox
0 0 p1_28
stroke
grestore
gsave
279.8 279.8 50.4 32.4 clipbox
0 0 p1_29
stroke
grestore
gsave
279.8 279.8 50.4 32.4 clipbox
0 0 p1_2a
stroke
grestore
gsave
279.8 279.8 50.4 32.4 clipbox
0 0 p1_2b
stroke
grestore
gsave
279.8 279.8 50.4 32.4 clipbox
0 0 p1_2c
stroke
grestore
gsave
279.8 279.8 50.4 32.4 clipbox
0 0 p1_2d
stroke
grestore
gsave
279.8 279.8 50.4 32.4 clipbox
0 0 p1_2e
stroke
grestore
gsave
279.8 279.8 50.4 32.4 clipbox
0 0 p1_2f
stroke
grestore
gsave
279.8 279.8 50.4 32.4 clipbox
0 0 p1_30
stroke
grestore
gsave
279.8 279.8 50.4 32.4 clipbox
0 0 p1_31
stroke
grestore
gsave
279.8 279.8 50.4 32.4 clipbox
0 0 p1_32
stroke
grestore
gsave
279.8 279.8 50.4 32.4 clipbox
0 0 p1_33
stroke
grestore
gsave
279.8 279.8 50.4 32.4 clipbox
0 0 p1_34
stroke
grestore
gsave
279.8 279.8 50.4 32.4 clipbox
0 0 p1_35
stroke
grestore
gsave
279.8 279.8 50.4 32.4 clipbox
0 0 p1_36
stroke
grestore
gsave
279.8 279.8 50.4 32.4 clipbox
0 0 p1_37
stroke
grestore
gsave
279.8 279.8 50.4 32.4 clipbox
0 0 p1_38
stroke
grestore
gsave
279.8 279.8 50.4 32.4 clipbox
0 0 p1_39
stroke
grestore
gsave
279.8 279.8 50.4 32.4 clipbox
0 0 p1_3a
stroke
grestore
gsave
279.8 279.8 50.4 32.4 clipbox
0 0 p1_3b
stroke
grestore
gsave
279.8 279.8 50.4 32.4 clipbox
0 0 p1_3c
stroke
grestore
gsave
279.8 279.8 50.4 32.4 clipbox
0 0 p1_3d
stroke
grestore
gsave
279.8 279.8 50.4 32.4 clipbox
0 0 p1_3e
stroke
grestore
gsave
279.8 279.8 50.4 32.4 clipbox
0 0 p1_3f
stroke
grestore
gsave
279.8 279.8 50.4 32.4 clipbox
0 0 p1_40
stroke
grestore
gsave
279.8 279.8 50.4 32.4 clipbox
0 0 p1_41
stroke
grestore
gsave
279.8 279.8 50.4 32.4 clipbox
0 0 p1_42
stroke
grestore
gsave
279.8 279.8 50.4 32.4 clipbox
0 0 p1_43
stroke
grestore
gsave
279.8 279.8 50.4 32.4 clipbox
0 0 p1_44
stroke
grestore
gsave
279.8 279.8 50.4 32.4 clipbox
0 0 p1_45
stroke
grestore
gsave
279.8 279.8 50.4 32.4 clipbox
0 0 p1_46
stroke
grestore
0.500 setlinewidth
gsave
279.8 279.8 50.4 32.4 clipbox
/o {
gsave
newpath
translate
0 -2.25 m
0.596707 -2.25 1.16905 -2.01293 1.59099 -1.59099 c
2.01293 -1.16905 2.25 -0.596707 2.25 0 c
2.25 0.596707 2.01293 1.16905 1.59099 1.59099 c
1.16905 2.01293 0.596707 2.25 0 2.25 c
-0.596707 2.25 -1.16905 2.01293 -1.59099 1.59099 c
-2.01293 1.16905 -2.25 0.596707 -2.25 0 c
-2.25 -0.596707 -2.01293 -1.16905 -1.59099 -1.59099 c
-1.16905 -2.01293 -0.596707 -2.25 0 -2.25 c
cl
gsave
0.000 setgray
fill
grestore
stroke
grestore
} bind def
90.4757 130.248 o
236.034 209.094 o
122.234 124.035 o
124.502 112.154 o
242.461 235.109 o
131.308 161.532 o
235.278 236.49 o
223.179 208.113 o
271.951 235.509 o
216.752 217.85 o
215.996 216.215 o
239.436 252.44 o
280.268 222.065 o
224.314 201.463 o
153.236 128.795 o
231.875 233.619 o
115.807 141.403 o
145.296 141.512 o
231.875 254.475 o
217.508 259.489 o
253.047 262.432 o
226.204 204.152 o
115.05 122.473 o
137.357 119.239 o
206.922 233.292 o
133.198 135.553 o
81.0239 63.0298 o
291.232 234.6 o
230.363 196.74 o
147.943 143.583 o
242.461 238.125 o
239.058 194.814 o
263.255 250.842 o
247.376 280.709 o
265.524 257.709 o
249.644 259.053 o
133.576 145.327 o
164.2 153.03 o
227.338 205.133 o
93.8784 148.452 o
140.759 154.774 o
123.368 131.266 o
242.461 241.104 o
150.211 117.495 o
150.589 169.816 o
103.33 89.0815 o
133.576 157.027 o
83.2923 62.0488 o
243.973 217.596 o
185.75 194.596 o
246.62 220.503 o
238.302 229.114 o
259.096 229.404 o
243.217 240.85 o
230.741 240.741 o
159.663 192.525 o
216.752 219.086 o
148.321 171.924 o
155.504 198.956 o
114.672 111.027 o
148.321 123.999 o
141.894 169.489 o
263.255 212.327 o
257.584 221.629 o
110.514 96.639 o
245.486 198.302 o
139.247 163.494 o
140.381 146.78 o
119.587 103.034 o
288.586 256.328 o
110.514 136.171 o
grestore
gsave
/o {
gsave
newpath
translate
0 0 m
0 4 l
stroke
grestore
} bind def
57.9615 32.4 o
grestore
gsave
/o {
gsave
newpath
translate
0 0 m
0 -4 l
stroke
grestore
} bind def
57.9615 312.174 o
grestore
/BitstreamVeraSans-Roman findfont
12.000 scalefont
setfont
gsave
49.195834 19.321875 translate
0.000000 rotate
0.000000 0.171875 m /zero glyphshow
7.634766 0.171875 m /period glyphshow
11.449219 0.171875 m /six glyphshow
grestore
gsave
/o {
gsave
newpath
translate
0 0 m
0 4 l
stroke
grestore
} bind def
95.7688 32.4 o
grestore
gsave
/o {
gsave
newpath
translate
0 0 m
0 -4 l
stroke
grestore
} bind def
95.7688 312.174 o
grestore
gsave
87.135944 19.321875 translate
0.000000 rotate
0.000000 0.171875 m /zero glyphshow
7.634766 0.171875 m /period glyphshow
11.449219 0.171875 m /seven glyphshow
grestore
gsave
/o {
gsave
newpath
translate
0 0 m
0 4 l
stroke
grestore
} bind def
133.576 32.4 o
grestore
gsave
/o {
gsave
newpath
translate
0 0 m
0 -4 l
stroke
grestore
} bind def
133.576 312.174 o
grestore
gsave
124.841679 19.321875 translate
0.000000 rotate
0.000000 0.171875 m /zero glyphshow
7.634766 0.171875 m /period glyphshow
11.449219 0.171875 m /eight glyphshow
grestore
gsave
/o {
gsave
newpath
translate
0 0 m
0 4 l
stroke
grestore
} bind def
171.383 32.4 o
grestore
gsave
/o {
gsave
newpath
translate
0 0 m
0 -4 l
stroke
grestore
} bind def
171.383 312.174 o
grestore
gsave
162.656789 19.321875 translate
0.000000 rotate
0.000000 0.171875 m /zero glyphshow
7.634766 0.171875 m /period glyphshow
11.449219 0.171875 m /nine glyphshow
grestore
gsave
/o {
gsave
newpath
translate
0 0 m
0 4 l
stroke
grestore
} bind def
209.191 32.4 o
grestore
gsave
/o {
gsave
newpath
translate
0 0 m
0 -4 l
stroke
grestore
} bind def
209.191 312.174 o
grestore
gsave
200.698461 19.321875 translate
0.000000 rotate
0.000000 0.171875 m /one glyphshow
7.634766 0.171875 m /period glyphshow
11.449219 0.171875 m /zero glyphshow
grestore
gsave
/o {
gsave
newpath
translate
0 0 m
0 4 l
stroke
grestore
} bind def
246.998 32.4 o
grestore
gsave
/o {
gsave
newpath
translate
0 0 m
0 -4 l
stroke
grestore
} bind def
246.998 312.174 o
grestore
gsave
238.662008 19.650000 translate
0.000000 rotate
0.000000 0.000000 m /one glyphshow
7.634766 0.000000 m /period glyphshow
11.449219 0.000000 m /one glyphshow
grestore
gsave
/o {
gsave
newpath
translate
0 0 m
0 4 l
stroke
grestore
} bind def
284.805 32.4 o
grestore
gsave
/o {
gsave
newpath
translate
0 0 m
0 -4 l
stroke
grestore
} bind def
284.805 312.174 o
grestore
gsave
276.516181 19.493750 translate
0.000000 rotate
0.000000 0.000000 m /one glyphshow
7.634766 0.000000 m /period glyphshow
11.449219 0.000000 m /two glyphshow
grestore
gsave
/o {
gsave
newpath
translate
0 0 m
0 4 l
stroke
grestore
} bind def
322.613 32.4 o
grestore
gsave
/o {
gsave
newpath
translate
0 0 m
0 -4 l
stroke
grestore
} bind def
322.613 312.174 o
grestore
gsave
314.206291 19.321875 translate
0.000000 rotate
0.000000 0.171875 m /one glyphshow
7.634766 0.171875 m /period glyphshow
11.449219 0.171875 m /three glyphshow
grestore
gsave
/o {
gsave
newpath
translate
0 0 m
0 2 l
stroke
grestore
} bind def
50.4 32.4 o
grestore
gsave
/o {
gsave
newpath
translate
0 0 m
0 -2 l
stroke
grestore
} bind def
50.4 312.174 o
grestore
gsave
/o {
gsave
newpath
translate
0 0 m
0 2 l
stroke
grestore
} bind def
57.9615 32.4 o
grestore
gsave
/o {
gsave
newpath
translate
0 0 m
0 -2 l
stroke
grestore
} bind def
57.9615 312.174 o
grestore
gsave
/o {
gsave
newpath
translate
0 0 m
0 2 l
stroke
grestore
} bind def
65.5229 32.4 o
grestore
gsave
/o {
gsave
newpath
translate
0 0 m
0 -2 l
stroke
grestore
} bind def
65.5229 312.174 o
grestore
gsave
/o {
gsave
newpath
translate
0 0 m
0 2 l
stroke
grestore
} bind def
73.0844 32.4 o
grestore
gsave
/o {
gsave
newpath
translate
0 0 m
0 -2 l
stroke
grestore
} bind def
73.0844 312.174 o
grestore
gsave
/o {
gsave
newpath
translate
0 0 m
0 2 l
stroke
grestore
} bind def
80.6458 32.4 o
grestore
gsave
/o {
gsave
newpath
translate
0 0 m
0 -2 l
stroke
grestore
} bind def
80.6458 312.174 o
grestore
gsave
/o {
gsave
newpath
translate
0 0 m
0 2 l
stroke
grestore
} bind def
88.2073 32.4 o
grestore
gsave
/o {
gsave
newpath
translate
0 0 m
0 -2 l
stroke
grestore
} bind def
88.2073 312.174 o
grestore
gsave
/o {
gsave
newpath
translate
0 0 m
0 2 l
stroke
grestore
} bind def
95.7688 32.4 o
grestore
gsave
/o {
gsave
newpath
translate
0 0 m
0 -2 l
stroke
grestore
} bind def
95.7688 312.174 o
grestore
gsave
/o {
gsave
newpath
translate
0 0 m
0 2 l
stroke
grestore
} bind def
103.33 32.4 o
grestore
gsave
/o {
gsave
newpath
translate
0 0 m
0 -2 l
stroke
grestore
} bind def
103.33 312.174 o
grestore
gsave
/o {
gsave
newpath
translate
0 0 m
0 2 l
stroke
grestore
} bind def
110.892 32.4 o
grestore
gsave
/o {
gsave
newpath
translate
0 0 m
0 -2 l
stroke
grestore
} bind def
110.892 312.174 o
grestore
gsave
/o {
gsave
newpath
translate
0 0 m
0 2 l
stroke
grestore
} bind def
118.453 32.4 o
grestore
gsave
/o {
gsave
newpath
translate
0 0 m
0 -2 l
stroke
grestore
} bind def
118.453 312.174 o
grestore
gsave
/o {
gsave
newpath
translate
0 0 m
0 2 l
stroke
grestore
} bind def
126.015 32.4 o
grestore
gsave
/o {
gsave
newpath
translate
0 0 m
0 -2 l
stroke
grestore
} bind def
126.015 312.174 o
grestore
gsave
/o {
gsave
newpath
translate
0 0 m
0 2 l
stroke
grestore
} bind def
133.576 32.4 o
grestore
gsave
/o {
gsave
newpath
translate
0 0 m
0 -2 l
stroke
grestore
} bind def
133.576 312.174 o
grestore
gsave
/o {
gsave
newpath
translate
0 0 m
0 2 l
stroke
grestore
} bind def
141.138 32.4 o
grestore
gsave
/o {
gsave
newpath
translate
0 0 m
0 -2 l
stroke
grestore
} bind def
141.138 312.174 o
grestore
gsave
/o {
gsave
newpath
translate
0 0 m
0 2 l
stroke
grestore
} bind def
148.699 32.4 o
grestore
gsave
/o {
gsave
newpath
translate
0 0 m
0 -2 l
stroke
grestore
} bind def
148.699 312.174 o
grestore
gsave
/o {
gsave
newpath
translate
0 0 m
0 2 l
stroke
grestore
} bind def
156.26 32.4 o
grestore
gsave
/o {
gsave
newpath
translate
0 0 m
0 -2 l
stroke
grestore
} bind def
156.26 312.174 o
grestore
gsave
/o {
gsave
newpath
translate
0 0 m
0 2 l
stroke
grestore
} bind def
163.822 32.4 o
grestore
gsave
/o {
gsave
newpath
translate
0 0 m
0 -2 l
stroke
grestore
} bind def
163.822 312.174 o
grestore
gsave
/o {
gsave
newpath
translate
0 0 m
0 2 l
stroke
grestore
} bind def
171.383 32.4 o
grestore
gsave
/o {
gsave
newpath
translate
0 0 m
0 -2 l
stroke
grestore
} bind def
171.383 312.174 o
grestore
gsave
/o {
gsave
newpath
translate
0 0 m
0 2 l
stroke
grestore
} bind def
178.945 32.4 o
grestore
gsave
/o {
gsave
newpath
translate
0 0 m
0 -2 l
stroke
grestore
} bind def
178.945 312.174 o
grestore
gsave
/o {
gsave
newpath
translate
0 0 m
0 2 l
stroke
grestore
} bind def
186.506 32.4 o
grestore
gsave
/o {
gsave
newpath
translate
0 0 m
0 -2 l
stroke
grestore
} bind def
186.506 312.174 o
grestore
gsave
/o {
gsave
newpath
translate
0 0 m
0 2 l
stroke
grestore
} bind def
194.068 32.4 o
grestore
gsave
/o {
gsave
newpath
translate
0 0 m
0 -2 l
stroke
grestore
} bind def
194.068 312.174 o
grestore
gsave
/o {
gsave
newpath
translate
0 0 m
0 2 l
stroke
grestore
} bind def
201.629 32.4 o
grestore
gsave
/o {
gsave
newpath
translate
0 0 m
0 -2 l
stroke
grestore
} bind def
201.629 312.174 o
grestore
gsave
/o {
gsave
newpath
translate
0 0 m
0 2 l
stroke
grestore
} bind def
209.191 32.4 o
grestore
gsave
/o {
gsave
newpath
translate
0 0 m
0 -2 l
stroke
grestore
} bind def
209.191 312.174 o
grestore
gsave
/o {
gsave
newpath
translate
0 0 m
0 2 l
stroke
grestore
} bind def
216.752 32.4 o
grestore
gsave
/o {
gsave
newpath
translate
0 0 m
0 -2 l
stroke
grestore
} bind def
216.752 312.174 o
grestore
gsave
/o {
gsave
newpath
translate
0 0 m
0 2 l
stroke
grestore
} bind def
224.314 32.4 o
grestore
gsave
/o {
gsave
newpath
translate
0 0 m
0 -2 l
stroke
grestore
} bind def
224.314 312.174 o
grestore
gsave
/o {
gsave
newpath
translate
0 0 m
0 2 l
stroke
grestore
} bind def
231.875 32.4 o
grestore
gsave
/o {
gsave
newpath
translate
0 0 m
0 -2 l
stroke
grestore
} bind def
231.875 312.174 o
grestore
gsave
/o {
gsave
newpath
translate
0 0 m
0 2 l
stroke
grestore
} bind def
239.436 32.4 o
grestore
gsave
/o {
gsave
newpath
translate
0 0 m
0 -2 l
stroke
grestore
} bind def
239.436 312.174 o
grestore
gsave
/o {
gsave
newpath
translate
0 0 m
0 2 l
stroke
grestore
} bind def
246.998 32.4 o
grestore
gsave
/o {
gsave
newpath
translate
0 0 m
0 -2 l
stroke
grestore
} bind def
246.998 312.174 o
grestore
gsave
/o {
gsave
newpath
translate
0 0 m
0 2 l
stroke
grestore
} bind def
254.559 32.4 o
grestore
gsave
/o {
gsave
newpath
translate
0 0 m
0 -2 l
stroke
grestore
} bind def
254.559 312.174 o
grestore
gsave
/o {
gsave
newpath
translate
0 0 m
0 2 l
stroke
grestore
} bind def
262.121 32.4 o
grestore
gsave
/o {
gsave
newpath
translate
0 0 m
0 -2 l
stroke
grestore
} bind def
262.121 312.174 o
grestore
gsave
/o {
gsave
newpath
translate
0 0 m
0 2 l
stroke
grestore
} bind def
269.682 32.4 o
grestore
gsave
/o {
gsave
newpath
translate
0 0 m
0 -2 l
stroke
grestore
} bind def
269.682 312.174 o
grestore
gsave
/o {
gsave
newpath
translate
0 0 m
0 2 l
stroke
grestore
} bind def
277.244 32.4 o
grestore
gsave
/o {
gsave
newpath
translate
0 0 m
0 -2 l
stroke
grestore
} bind def
277.244 312.174 o
grestore
gsave
/o {
gsave
newpath
translate
0 0 m
0 2 l
stroke
grestore
} bind def
284.805 32.4 o
grestore
gsave
/o {
gsave
newpath
translate
0 0 m
0 -2 l
stroke
grestore
} bind def
284.805 312.174 o
grestore
gsave
/o {
gsave
newpath
translate
0 0 m
0 2 l
stroke
grestore
} bind def
292.367 32.4 o
grestore
gsave
/o {
gsave
newpath
translate
0 0 m
0 -2 l
stroke
grestore
} bind def
292.367 312.174 o
grestore
gsave
/o {
gsave
newpath
translate
0 0 m
0 2 l
stroke
grestore
} bind def
299.928 32.4 o
grestore
gsave
/o {
gsave
newpath
translate
0 0 m
0 -2 l
stroke
grestore
} bind def
299.928 312.174 o
grestore
gsave
/o {
gsave
newpath
translate
0 0 m
0 2 l
stroke
grestore
} bind def
307.49 32.4 o
grestore
gsave
/o {
gsave
newpath
translate
0 0 m
0 -2 l
stroke
grestore
} bind def
307.49 312.174 o
grestore
gsave
/o {
gsave
newpath
translate
0 0 m
0 2 l
stroke
grestore
} bind def
315.051 32.4 o
grestore
gsave
/o {
gsave
newpath
translate
0 0 m
0 -2 l
stroke
grestore
} bind def
315.051 312.174 o
grestore
gsave
/o {
gsave
newpath
translate
0 0 m
0 2 l
stroke
grestore
} bind def
322.613 32.4 o
grestore
gsave
/o {
gsave
newpath
translate
0 0 m
0 -2 l
stroke
grestore
} bind def
322.613 312.174 o
grestore
gsave
/o {
gsave
newpath
translate
0 0 m
0 2 l
stroke
grestore
} bind def
330.174 32.4 o
grestore
gsave
/o {
gsave
newpath
translate
0 0 m
0 -2 l
stroke
grestore
} bind def
330.174 312.174 o
grestore
gsave
171.287000 0.321875 translate
0.000000 rotate
/BitstreamVeraSans-Roman findfont
12.0 scalefont
setfont
0.000000 4.875000 moveto
/parenleft glyphshow

4.681641 4.875000 moveto
/g glyphshow

12.298828 4.875000 moveto
/space glyphshow

16.113281 4.875000 moveto
/hyphen glyphshow

20.443359 4.875000 moveto
/space glyphshow

24.257812 4.875000 moveto
/i glyphshow

27.591797 4.875000 moveto
/parenright glyphshow

/BitstreamVeraSans-Roman findfont
8.4 scalefont
setfont
32.273438 1.813875 moveto
/zero glyphshow


grestore
gsave
/o {
gsave
newpath
translate
0 0 m
4 0 l
stroke
grestore
} bind def
50.4 50.5671 o
grestore
gsave
/o {
gsave
newpath
translate
0 0 m
-4 0 l
stroke
grestore
} bind def
330.174 50.5671 o
grestore
gsave
40.650000 46.028080 translate
0.000000 rotate
0.000000 0.171875 m /three glyphshow
grestore
gsave
/o {
gsave
newpath
translate
0 0 m
4 0 l
stroke
grestore
} bind def
50.4 86.9014 o
grestore
gsave
/o {
gsave
newpath
translate
0 0 m
-4 0 l
stroke
grestore
} bind def
330.174 86.9014 o
grestore
gsave
40.025000 82.526429 translate
0.000000 rotate
0.000000 0.000000 m /four glyphshow
grestore
gsave
/o {
gsave
newpath
translate
0 0 m
4 0 l
stroke
grestore
} bind def
50.4 123.236 o
grestore
gsave
/o {
gsave
newpath
translate
0 0 m
-4 0 l
stroke
grestore
} bind def
330.174 123.236 o
grestore
gsave
40.728125 118.774777 translate
0.000000 rotate
0.000000 0.171875 m /five glyphshow
grestore
gsave
/o {
gsave
newpath
translate
0 0 m
4 0 l
stroke
grestore
} bind def
50.4 159.57 o
grestore
gsave
/o {
gsave
newpath
translate
0 0 m
-4 0 l
stroke
grestore
} bind def
330.174 159.57 o
grestore
gsave
40.368750 155.030937 translate
0.000000 rotate
0.000000 0.171875 m /six glyphshow
grestore
gsave
/o {
gsave
newpath
translate
0 0 m
4 0 l
stroke
grestore
} bind def
50.4 195.904 o
grestore
gsave
/o {
gsave
newpath
translate
0 0 m
-4 0 l
stroke
grestore
} bind def
330.174 195.904 o
grestore
gsave
40.775000 191.529286 translate
0.000000 rotate
0.000000 0.000000 m /seven glyphshow
grestore
gsave
/o {
gsave
newpath
translate
0 0 m
4 0 l
stroke
grestore
} bind def
50.4 232.239 o
grestore
gsave
/o {
gsave
newpath
translate
0 0 m
-4 0 l
stroke
grestore
} bind def
330.174 232.239 o
grestore
gsave
40.400000 227.699509 translate
0.000000 rotate
0.000000 0.171875 m /eight glyphshow
grestore
gsave
/o {
gsave
newpath
translate
0 0 m
4 0 l
stroke
grestore
} bind def
50.4 268.573 o
grestore
gsave
/o {
gsave
newpath
translate
0 0 m
-4 0 l
stroke
grestore
} bind def
330.174 268.573 o
grestore
gsave
40.353125 264.033795 translate
0.000000 rotate
0.000000 0.171875 m /nine glyphshow
grestore
gsave
/o {
gsave
newpath
translate
0 0 m
4 0 l
stroke
grestore
} bind def
50.4 304.907 o
grestore
gsave
/o {
gsave
newpath
translate
0 0 m
-4 0 l
stroke
grestore
} bind def
330.174 304.907 o
grestore
gsave
33.228125 300.368080 translate
0.000000 rotate
0.000000 0.171875 m /one glyphshow
7.634766 0.171875 m /zero glyphshow
grestore
gsave
/o {
gsave
newpath
translate
0 0 m
2 0 l
stroke
grestore
} bind def
50.4 36.0334 o
grestore
gsave
/o {
gsave
newpath
translate
0 0 m
-2 0 l
stroke
grestore
} bind def
330.174 36.0334 o
grestore
gsave
/o {
gsave
newpath
translate
0 0 m
2 0 l
stroke
grestore
} bind def
50.4 43.3003 o
grestore
gsave
/o {
gsave
newpath
translate
0 0 m
-2 0 l
stroke
grestore
} bind def
330.174 43.3003 o
grestore
gsave
/o {
gsave
newpath
translate
0 0 m
2 0 l
stroke
grestore
} bind def
50.4 50.5671 o
grestore
gsave
/o {
gsave
newpath
translate
0 0 m
-2 0 l
stroke
grestore
} bind def
330.174 50.5671 o
grestore
gsave
/o {
gsave
newpath
translate
0 0 m
2 0 l
stroke
grestore
} bind def
50.4 57.834 o
grestore
gsave
/o {
gsave
newpath
translate
0 0 m
-2 0 l
stroke
grestore
} bind def
330.174 57.834 o
grestore
gsave
/o {
gsave
newpath
translate
0 0 m
2 0 l
stroke
grestore
} bind def
50.4 65.1009 o
grestore
gsave
/o {
gsave
newpath
translate
0 0 m
-2 0 l
stroke
grestore
} bind def
330.174 65.1009 o
grestore
gsave
/o {
gsave
newpath
translate
0 0 m
2 0 l
stroke
grestore
} bind def
50.4 72.3677 o
grestore
gsave
/o {
gsave
newpath
translate
0 0 m
-2 0 l
stroke
grestore
} bind def
330.174 72.3677 o
grestore
gsave
/o {
gsave
newpath
translate
0 0 m
2 0 l
stroke
grestore
} bind def
50.4 79.6346 o
grestore
gsave
/o {
gsave
newpath
translate
0 0 m
-2 0 l
stroke
grestore
} bind def
330.174 79.6346 o
grestore
gsave
/o {
gsave
newpath
translate
0 0 m
2 0 l
stroke
grestore
} bind def
50.4 86.9014 o
grestore
gsave
/o {
gsave
newpath
translate
0 0 m
-2 0 l
stroke
grestore
} bind def
330.174 86.9014 o
grestore
gsave
/o {
gsave
newpath
translate
0 0 m
2 0 l
stroke
grestore
} bind def
50.4 94.1683 o
grestore
gsave
/o {
gsave
newpath
translate
0 0 m
-2 0 l
stroke
grestore
} bind def
330.174 94.1683 o
grestore
gsave
/o {
gsave
newpath
translate
0 0 m
2 0 l
stroke
grestore
} bind def
50.4 101.435 o
grestore
gsave
/o {
gsave
newpath
translate
0 0 m
-2 0 l
stroke
grestore
} bind def
330.174 101.435 o
grestore
gsave
/o {
gsave
newpath
translate
0 0 m
2 0 l
stroke
grestore
} bind def
50.4 108.702 o
grestore
gsave
/o {
gsave
newpath
translate
0 0 m
-2 0 l
stroke
grestore
} bind def
330.174 108.702 o
grestore
gsave
/o {
gsave
newpath
translate
0 0 m
2 0 l
stroke
grestore
} bind def
50.4 115.969 o
grestore
gsave
/o {
gsave
newpath
translate
0 0 m
-2 0 l
stroke
grestore
} bind def
330.174 115.969 o
grestore
gsave
/o {
gsave
newpath
translate
0 0 m
2 0 l
stroke
grestore
} bind def
50.4 123.236 o
grestore
gsave
/o {
gsave
newpath
translate
0 0 m
-2 0 l
stroke
grestore
} bind def
330.174 123.236 o
grestore
gsave
/o {
gsave
newpath
translate
0 0 m
2 0 l
stroke
grestore
} bind def
50.4 130.503 o
grestore
gsave
/o {
gsave
newpath
translate
0 0 m
-2 0 l
stroke
grestore
} bind def
330.174 130.503 o
grestore
gsave
/o {
gsave
newpath
translate
0 0 m
2 0 l
stroke
grestore
} bind def
50.4 137.769 o
grestore
gsave
/o {
gsave
newpath
translate
0 0 m
-2 0 l
stroke
grestore
} bind def
330.174 137.769 o
grestore
gsave
/o {
gsave
newpath
translate
0 0 m
2 0 l
stroke
grestore
} bind def
50.4 145.036 o
grestore
gsave
/o {
gsave
newpath
translate
0 0 m
-2 0 l
stroke
grestore
} bind def
330.174 145.036 o
grestore
gsave
/o {
gsave
newpath
translate
0 0 m
2 0 l
stroke
grestore
} bind def
50.4 152.303 o
grestore
gsave
/o {
gsave
newpath
translate
0 0 m
-2 0 l
stroke
grestore
} bind def
330.174 152.303 o
grestore
gsave
/o {
gsave
newpath
translate
0 0 m
2 0 l
stroke
grestore
} bind def
50.4 159.57 o
grestore
gsave
/o {
gsave
newpath
translate
0 0 m
-2 0 l
stroke
grestore
} bind def
330.174 159.57 o
grestore
gsave
/o {
gsave
newpath
translate
0 0 m
2 0 l
stroke
grestore
} bind def
50.4 166.837 o
grestore
gsave
/o {
gsave
newpath
translate
0 0 m
-2 0 l
stroke
grestore
} bind def
330.174 166.837 o
grestore
gsave
/o {
gsave
newpath
translate
0 0 m
2 0 l
stroke
grestore
} bind def
50.4 174.104 o
grestore
gsave
/o {
gsave
newpath
translate
0 0 m
-2 0 l
stroke
grestore
} bind def
330.174 174.104 o
grestore
gsave
/o {
gsave
newpath
translate
0 0 m
2 0 l
stroke
grestore
} bind def
50.4 181.371 o
grestore
gsave
/o {
gsave
newpath
translate
0 0 m
-2 0 l
stroke
grestore
} bind def
330.174 181.371 o
grestore
gsave
/o {
gsave
newpath
translate
0 0 m
2 0 l
stroke
grestore
} bind def
50.4 188.637 o
grestore
gsave
/o {
gsave
newpath
translate
0 0 m
-2 0 l
stroke
grestore
} bind def
330.174 188.637 o
grestore
gsave
/o {
gsave
newpath
translate
0 0 m
2 0 l
stroke
grestore
} bind def
50.4 195.904 o
grestore
gsave
/o {
gsave
newpath
translate
0 0 m
-2 0 l
stroke
grestore
} bind def
330.174 195.904 o
grestore
gsave
/o {
gsave
newpath
translate
0 0 m
2 0 l
stroke
grestore
} bind def
50.4 203.171 o
grestore
gsave
/o {
gsave
newpath
translate
0 0 m
-2 0 l
stroke
grestore
} bind def
330.174 203.171 o
grestore
gsave
/o {
gsave
newpath
translate
0 0 m
2 0 l
stroke
grestore
} bind def
50.4 210.438 o
grestore
gsave
/o {
gsave
newpath
translate
0 0 m
-2 0 l
stroke
grestore
} bind def
330.174 210.438 o
grestore
gsave
/o {
gsave
newpath
translate
0 0 m
2 0 l
stroke
grestore
} bind def
50.4 217.705 o
grestore
gsave
/o {
gsave
newpath
translate
0 0 m
-2 0 l
stroke
grestore
} bind def
330.174 217.705 o
grestore
gsave
/o {
gsave
newpath
translate
0 0 m
2 0 l
stroke
grestore
} bind def
50.4 224.972 o
grestore
gsave
/o {
gsave
newpath
translate
0 0 m
-2 0 l
stroke
grestore
} bind def
330.174 224.972 o
grestore
gsave
/o {
gsave
newpath
translate
0 0 m
2 0 l
stroke
grestore
} bind def
50.4 232.239 o
grestore
gsave
/o {
gsave
newpath
translate
0 0 m
-2 0 l
stroke
grestore
} bind def
330.174 232.239 o
grestore
gsave
/o {
gsave
newpath
translate
0 0 m
2 0 l
stroke
grestore
} bind def
50.4 239.505 o
grestore
gsave
/o {
gsave
newpath
translate
0 0 m
-2 0 l
stroke
grestore
} bind def
330.174 239.505 o
grestore
gsave
/o {
gsave
newpath
translate
0 0 m
2 0 l
stroke
grestore
} bind def
50.4 246.772 o
grestore
gsave
/o {
gsave
newpath
translate
0 0 m
-2 0 l
stroke
grestore
} bind def
330.174 246.772 o
grestore
gsave
/o {
gsave
newpath
translate
0 0 m
2 0 l
stroke
grestore
} bind def
50.4 254.039 o
grestore
gsave
/o {
gsave
newpath
translate
0 0 m
-2 0 l
stroke
grestore
} bind def
330.174 254.039 o
grestore
gsave
/o {
gsave
newpath
translate
0 0 m
2 0 l
stroke
grestore
} bind def
50.4 261.306 o
grestore
gsave
/o {
gsave
newpath
translate
0 0 m
-2 0 l
stroke
grestore
} bind def
330.174 261.306 o
grestore
gsave
/o {
gsave
newpath
translate
0 0 m
2 0 l
stroke
grestore
} bind def
50.4 268.573 o
grestore
gsave
/o {
gsave
newpath
translate
0 0 m
-2 0 l
stroke
grestore
} bind def
330.174 268.573 o
grestore
gsave
/o {
gsave
newpath
translate
0 0 m
2 0 l
stroke
grestore
} bind def
50.4 275.84 o
grestore
gsave
/o {
gsave
newpath
translate
0 0 m
-2 0 l
stroke
grestore
} bind def
330.174 275.84 o
grestore
gsave
/o {
gsave
newpath
translate
0 0 m
2 0 l
stroke
grestore
} bind def
50.4 283.107 o
grestore
gsave
/o {
gsave
newpath
translate
0 0 m
-2 0 l
stroke
grestore
} bind def
330.174 283.107 o
grestore
gsave
/o {
gsave
newpath
translate
0 0 m
2 0 l
stroke
grestore
} bind def
50.4 290.373 o
grestore
gsave
/o {
gsave
newpath
translate
0 0 m
-2 0 l
stroke
grestore
} bind def
330.174 290.373 o
grestore
gsave
/o {
gsave
newpath
translate
0 0 m
2 0 l
stroke
grestore
} bind def
50.4 297.64 o
grestore
gsave
/o {
gsave
newpath
translate
0 0 m
-2 0 l
stroke
grestore
} bind def
330.174 297.64 o
grestore
gsave
/o {
gsave
newpath
translate
0 0 m
2 0 l
stroke
grestore
} bind def
50.4 304.907 o
grestore
gsave
/o {
gsave
newpath
translate
0 0 m
-2 0 l
stroke
grestore
} bind def
330.174 304.907 o
grestore
gsave
28.228125 150.576063 translate
90.000000 rotate
0.000000 1.578125 m /C glyphshow
8.378906 1.578125 m /a glyphshow
15.732422 1.578125 m /T glyphshow
23.062500 1.578125 m /space glyphshow
26.876953 1.578125 m /parenleft glyphshow
31.558594 1.578125 m /Aring glyphshow
39.767578 1.578125 m /parenright glyphshow
grestore
1.000 setlinewidth
2 setlinecap
gsave
50.4 312.174 m
330.174 312.174 l
stroke
grestore
gsave
330.174 32.4 m
330.174 312.174 l
stroke
grestore
gsave
50.4 32.4 m
330.174 32.4 l
stroke
grestore
gsave
50.4 32.4 m
50.4 312.174 l
stroke
grestore
gsave
50.4 322.974 m
330.174 322.974 l
330.174 399.6 l
50.4 399.6 l
cl
1.000 setgray
fill
grestore
gsave
279.8 76.63 50.4 323 clipbox
50.4 322.974 m
50.4 322.974 l
69.0516 322.974 l
69.0516 326.805 l
87.7032 326.805 l
87.7032 328.721 l
106.355 328.721 l
106.355 340.215 l
125.006 340.215 l
125.006 340.215 l
143.658 340.215 l
143.658 340.215 l
162.31 340.215 l
162.31 324.89 l
180.961 324.89 l
180.961 324.89 l
199.613 324.89 l
199.613 332.552 l
218.264 332.552 l
218.264 342.131 l
236.916 342.131 l
236.916 347.877 l
255.568 347.877 l
255.568 334.468 l
274.219 334.468 l
274.219 328.721 l
292.871 328.721 l
292.871 322.974 l
311.522 322.974 l
311.522 322.974 l
330.174 322.974 l
330.174 322.974 l
stroke
grestore
[1 3] 0 setdash
1.000 0.000 0.000 setrgbcolor
gsave
279.8 76.63 50.4 323 clipbox
50.4 322.974 m
50.4 322.974 l
69.0516 322.974 l
69.0516 332.552 l
87.7032 332.552 l
87.7032 372.781 l
106.355 372.781 l
106.355 388.106 l
125.006 388.106 l
125.006 370.865 l
143.658 370.865 l
143.658 368.95 l
162.31 368.95 l
162.31 347.877 l
180.961 347.877 l
180.961 338.299 l
199.613 338.299 l
199.613 370.865 l
218.264 370.865 l
218.264 376.612 l
236.916 376.612 l
236.916 382.359 l
255.568 382.359 l
255.568 368.95 l
274.219 368.95 l
274.219 334.468 l
292.871 334.468 l
292.871 330.637 l
311.522 330.637 l
311.522 322.974 l
330.174 322.974 l
330.174 322.974 l
stroke
grestore
0 setlinecap
[6 6] 0 setdash
0.000 setgray
gsave
279.8 76.63 50.4 323 clipbox
20.1542 322.974 m
23.9349 322.974 l
27.7156 322.975 l
31.4964 322.976 l
35.2771 322.977 l
39.0578 322.981 l
42.8385 322.987 l
46.6193 322.998 l
50.4 323.017 l
54.1807 323.051 l
57.9615 323.106 l
61.7422 323.196 l
65.5229 323.335 l
69.3036 323.547 l
73.0844 323.858 l
76.8651 324.299 l
80.6458 324.908 l
84.4266 325.718 l
88.2073 326.762 l
91.988 328.059 l
95.7688 329.613 l
99.5495 331.404 l
103.33 333.385 l
107.111 335.48 l
110.892 337.585 l
114.672 339.577 l
118.453 341.323 l
122.234 342.697 l
126.015 343.593 l
129.795 343.94 l
133.576 343.708 l
137.357 342.917 l
141.138 341.631 l
144.918 339.95 l
148.699 337.997 l
152.48 335.904 l
156.26 333.798 l
160.041 331.787 l
163.822 329.953 l
167.603 328.349 l
171.383 327 l
175.164 325.908 l
178.945 325.053 l
182.726 324.407 l
186.506 323.934 l
190.287 323.6 l
194.068 323.371 l
197.848 323.219 l
201.629 323.121 l
205.41 323.06 l
209.191 323.023 l
212.971 323.001 l
216.752 322.988 l
220.533 322.982 l
224.314 322.978 l
228.094 322.976 l
231.875 322.975 l
235.656 322.974 l
239.436 322.974 l
243.217 322.974 l
246.998 322.974 l
250.779 322.974 l
254.559 322.974 l
258.34 322.974 l
262.121 322.974 l
265.902 322.974 l
269.682 322.974 l
273.463 322.974 l
277.244 322.974 l
281.025 322.974 l
284.805 322.974 l
288.586 322.974 l
292.367 322.974 l
296.147 322.974 l
299.928 322.974 l
303.709 322.974 l
307.49 322.974 l
311.27 322.974 l
315.051 322.974 l
318.832 322.974 l
322.613 322.974 l
326.393 322.974 l
330.174 322.974 l
333.955 322.974 l
337.735 322.974 l
341.516 322.974 l
345.297 322.974 l
349.078 322.974 l
352.858 322.974 l
356.639 322.974 l
stroke
grestore
gsave
279.8 76.63 50.4 323 clipbox
20.1542 322.974 m
23.9349 322.974 l
27.7156 322.974 l
31.4964 322.974 l
35.2771 322.974 l
39.0578 322.974 l
42.8385 322.974 l
46.6193 322.974 l
50.4 322.974 l
54.1807 322.974 l
57.9615 322.974 l
61.7422 322.974 l
65.5229 322.974 l
69.3036 322.974 l
73.0844 322.974 l
76.8651 322.974 l
80.6458 322.974 l
84.4266 322.974 l
88.2073 322.974 l
91.988 322.974 l
95.7688 322.974 l
99.5495 322.974 l
103.33 322.974 l
107.111 322.974 l
110.892 322.974 l
114.672 322.974 l
118.453 322.974 l
122.234 322.974 l
126.015 322.974 l
129.795 322.974 l
133.576 322.974 l
137.357 322.974 l
141.138 322.975 l
144.918 322.976 l
148.699 322.978 l
152.48 322.981 l
156.26 322.988 l
160.041 323.001 l
163.822 323.023 l
167.603 323.06 l
171.383 323.123 l
175.164 323.224 l
178.945 323.381 l
182.726 323.62 l
186.506 323.97 l
190.287 324.469 l
194.068 325.155 l
197.848 326.069 l
201.629 327.245 l
205.41 328.708 l
209.191 330.46 l
212.971 332.48 l
216.752 334.714 l
220.533 337.077 l
224.314 339.45 l
228.094 341.696 l
231.875 343.665 l
235.656 345.215 l
239.436 346.226 l
243.217 346.616 l
246.998 346.355 l
250.779 345.463 l
254.559 344.013 l
258.34 342.117 l
262.121 339.914 l
265.902 337.555 l
269.682 335.18 l
273.463 332.912 l
277.244 330.844 l
281.025 329.035 l
284.805 327.514 l
288.586 326.282 l
292.367 325.318 l
296.147 324.59 l
299.928 324.057 l
303.709 323.68 l
307.49 323.422 l
311.27 323.25 l
315.051 323.14 l
318.832 323.071 l
322.613 323.029 l
326.393 323.004 l
330.174 322.99 l
333.955 322.982 l
337.735 322.978 l
341.516 322.976 l
345.297 322.975 l
349.078 322.974 l
352.858 322.974 l
356.639 322.974 l
stroke
grestore
0.500 setlinewidth
[] 0 setdash
gsave
/o {
gsave
newpath
translate
0 0 m
0 4 l
stroke
grestore
} bind def
57.9615 322.974 o
grestore
gsave
/o {
gsave
newpath
translate
0 0 m
0 -4 l
stroke
grestore
} bind def
57.9615 399.6 o
grestore
gsave
/o {
gsave
newpath
translate
0 0 m
0 4 l
stroke
grestore
} bind def
95.7688 322.974 o
grestore
gsave
/o {
gsave
newpath
translate
0 0 m
0 -4 l
stroke
grestore
} bind def
95.7688 399.6 o
grestore
gsave
/o {
gsave
newpath
translate
0 0 m
0 4 l
stroke
grestore
} bind def
133.576 322.974 o
grestore
gsave
/o {
gsave
newpath
translate
0 0 m
0 -4 l
stroke
grestore
} bind def
133.576 399.6 o
grestore
gsave
/o {
gsave
newpath
translate
0 0 m
0 4 l
stroke
grestore
} bind def
171.383 322.974 o
grestore
gsave
/o {
gsave
newpath
translate
0 0 m
0 -4 l
stroke
grestore
} bind def
171.383 399.6 o
grestore
gsave
/o {
gsave
newpath
translate
0 0 m
0 4 l
stroke
grestore
} bind def
209.191 322.974 o
grestore
gsave
/o {
gsave
newpath
translate
0 0 m
0 -4 l
stroke
grestore
} bind def
209.191 399.6 o
grestore
gsave
/o {
gsave
newpath
translate
0 0 m
0 4 l
stroke
grestore
} bind def
246.998 322.974 o
grestore
gsave
/o {
gsave
newpath
translate
0 0 m
0 -4 l
stroke
grestore
} bind def
246.998 399.6 o
grestore
gsave
/o {
gsave
newpath
translate
0 0 m
0 4 l
stroke
grestore
} bind def
284.805 322.974 o
grestore
gsave
/o {
gsave
newpath
translate
0 0 m
0 -4 l
stroke
grestore
} bind def
284.805 399.6 o
grestore
gsave
/o {
gsave
newpath
translate
0 0 m
0 4 l
stroke
grestore
} bind def
322.613 322.974 o
grestore
gsave
/o {
gsave
newpath
translate
0 0 m
0 -4 l
stroke
grestore
} bind def
322.613 399.6 o
grestore
gsave
/o {
gsave
newpath
translate
0 0 m
0 2 l
stroke
grestore
} bind def
50.4 322.974 o
grestore
gsave
/o {
gsave
newpath
translate
0 0 m
0 -2 l
stroke
grestore
} bind def
50.4 399.6 o
grestore
gsave
/o {
gsave
newpath
translate
0 0 m
0 2 l
stroke
grestore
} bind def
57.9615 322.974 o
grestore
gsave
/o {
gsave
newpath
translate
0 0 m
0 -2 l
stroke
grestore
} bind def
57.9615 399.6 o
grestore
gsave
/o {
gsave
newpath
translate
0 0 m
0 2 l
stroke
grestore
} bind def
65.5229 322.974 o
grestore
gsave
/o {
gsave
newpath
translate
0 0 m
0 -2 l
stroke
grestore
} bind def
65.5229 399.6 o
grestore
gsave
/o {
gsave
newpath
translate
0 0 m
0 2 l
stroke
grestore
} bind def
73.0844 322.974 o
grestore
gsave
/o {
gsave
newpath
translate
0 0 m
0 -2 l
stroke
grestore
} bind def
73.0844 399.6 o
grestore
gsave
/o {
gsave
newpath
translate
0 0 m
0 2 l
stroke
grestore
} bind def
80.6458 322.974 o
grestore
gsave
/o {
gsave
newpath
translate
0 0 m
0 -2 l
stroke
grestore
} bind def
80.6458 399.6 o
grestore
gsave
/o {
gsave
newpath
translate
0 0 m
0 2 l
stroke
grestore
} bind def
88.2073 322.974 o
grestore
gsave
/o {
gsave
newpath
translate
0 0 m
0 -2 l
stroke
grestore
} bind def
88.2073 399.6 o
grestore
gsave
/o {
gsave
newpath
translate
0 0 m
0 2 l
stroke
grestore
} bind def
95.7688 322.974 o
grestore
gsave
/o {
gsave
newpath
translate
0 0 m
0 -2 l
stroke
grestore
} bind def
95.7688 399.6 o
grestore
gsave
/o {
gsave
newpath
translate
0 0 m
0 2 l
stroke
grestore
} bind def
103.33 322.974 o
grestore
gsave
/o {
gsave
newpath
translate
0 0 m
0 -2 l
stroke
grestore
} bind def
103.33 399.6 o
grestore
gsave
/o {
gsave
newpath
translate
0 0 m
0 2 l
stroke
grestore
} bind def
110.892 322.974 o
grestore
gsave
/o {
gsave
newpath
translate
0 0 m
0 -2 l
stroke
grestore
} bind def
110.892 399.6 o
grestore
gsave
/o {
gsave
newpath
translate
0 0 m
0 2 l
stroke
grestore
} bind def
118.453 322.974 o
grestore
gsave
/o {
gsave
newpath
translate
0 0 m
0 -2 l
stroke
grestore
} bind def
118.453 399.6 o
grestore
gsave
/o {
gsave
newpath
translate
0 0 m
0 2 l
stroke
grestore
} bind def
126.015 322.974 o
grestore
gsave
/o {
gsave
newpath
translate
0 0 m
0 -2 l
stroke
grestore
} bind def
126.015 399.6 o
grestore
gsave
/o {
gsave
newpath
translate
0 0 m
0 2 l
stroke
grestore
} bind def
133.576 322.974 o
grestore
gsave
/o {
gsave
newpath
translate
0 0 m
0 -2 l
stroke
grestore
} bind def
133.576 399.6 o
grestore
gsave
/o {
gsave
newpath
translate
0 0 m
0 2 l
stroke
grestore
} bind def
141.138 322.974 o
grestore
gsave
/o {
gsave
newpath
translate
0 0 m
0 -2 l
stroke
grestore
} bind def
141.138 399.6 o
grestore
gsave
/o {
gsave
newpath
translate
0 0 m
0 2 l
stroke
grestore
} bind def
148.699 322.974 o
grestore
gsave
/o {
gsave
newpath
translate
0 0 m
0 -2 l
stroke
grestore
} bind def
148.699 399.6 o
grestore
gsave
/o {
gsave
newpath
translate
0 0 m
0 2 l
stroke
grestore
} bind def
156.26 322.974 o
grestore
gsave
/o {
gsave
newpath
translate
0 0 m
0 -2 l
stroke
grestore
} bind def
156.26 399.6 o
grestore
gsave
/o {
gsave
newpath
translate
0 0 m
0 2 l
stroke
grestore
} bind def
163.822 322.974 o
grestore
gsave
/o {
gsave
newpath
translate
0 0 m
0 -2 l
stroke
grestore
} bind def
163.822 399.6 o
grestore
gsave
/o {
gsave
newpath
translate
0 0 m
0 2 l
stroke
grestore
} bind def
171.383 322.974 o
grestore
gsave
/o {
gsave
newpath
translate
0 0 m
0 -2 l
stroke
grestore
} bind def
171.383 399.6 o
grestore
gsave
/o {
gsave
newpath
translate
0 0 m
0 2 l
stroke
grestore
} bind def
178.945 322.974 o
grestore
gsave
/o {
gsave
newpath
translate
0 0 m
0 -2 l
stroke
grestore
} bind def
178.945 399.6 o
grestore
gsave
/o {
gsave
newpath
translate
0 0 m
0 2 l
stroke
grestore
} bind def
186.506 322.974 o
grestore
gsave
/o {
gsave
newpath
translate
0 0 m
0 -2 l
stroke
grestore
} bind def
186.506 399.6 o
grestore
gsave
/o {
gsave
newpath
translate
0 0 m
0 2 l
stroke
grestore
} bind def
194.068 322.974 o
grestore
gsave
/o {
gsave
newpath
translate
0 0 m
0 -2 l
stroke
grestore
} bind def
194.068 399.6 o
grestore
gsave
/o {
gsave
newpath
translate
0 0 m
0 2 l
stroke
grestore
} bind def
201.629 322.974 o
grestore
gsave
/o {
gsave
newpath
translate
0 0 m
0 -2 l
stroke
grestore
} bind def
201.629 399.6 o
grestore
gsave
/o {
gsave
newpath
translate
0 0 m
0 2 l
stroke
grestore
} bind def
209.191 322.974 o
grestore
gsave
/o {
gsave
newpath
translate
0 0 m
0 -2 l
stroke
grestore
} bind def
209.191 399.6 o
grestore
gsave
/o {
gsave
newpath
translate
0 0 m
0 2 l
stroke
grestore
} bind def
216.752 322.974 o
grestore
gsave
/o {
gsave
newpath
translate
0 0 m
0 -2 l
stroke
grestore
} bind def
216.752 399.6 o
grestore
gsave
/o {
gsave
newpath
translate
0 0 m
0 2 l
stroke
grestore
} bind def
224.314 322.974 o
grestore
gsave
/o {
gsave
newpath
translate
0 0 m
0 -2 l
stroke
grestore
} bind def
224.314 399.6 o
grestore
gsave
/o {
gsave
newpath
translate
0 0 m
0 2 l
stroke
grestore
} bind def
231.875 322.974 o
grestore
gsave
/o {
gsave
newpath
translate
0 0 m
0 -2 l
stroke
grestore
} bind def
231.875 399.6 o
grestore
gsave
/o {
gsave
newpath
translate
0 0 m
0 2 l
stroke
grestore
} bind def
239.436 322.974 o
grestore
gsave
/o {
gsave
newpath
translate
0 0 m
0 -2 l
stroke
grestore
} bind def
239.436 399.6 o
grestore
gsave
/o {
gsave
newpath
translate
0 0 m
0 2 l
stroke
grestore
} bind def
246.998 322.974 o
grestore
gsave
/o {
gsave
newpath
translate
0 0 m
0 -2 l
stroke
grestore
} bind def
246.998 399.6 o
grestore
gsave
/o {
gsave
newpath
translate
0 0 m
0 2 l
stroke
grestore
} bind def
254.559 322.974 o
grestore
gsave
/o {
gsave
newpath
translate
0 0 m
0 -2 l
stroke
grestore
} bind def
254.559 399.6 o
grestore
gsave
/o {
gsave
newpath
translate
0 0 m
0 2 l
stroke
grestore
} bind def
262.121 322.974 o
grestore
gsave
/o {
gsave
newpath
translate
0 0 m
0 -2 l
stroke
grestore
} bind def
262.121 399.6 o
grestore
gsave
/o {
gsave
newpath
translate
0 0 m
0 2 l
stroke
grestore
} bind def
269.682 322.974 o
grestore
gsave
/o {
gsave
newpath
translate
0 0 m
0 -2 l
stroke
grestore
} bind def
269.682 399.6 o
grestore
gsave
/o {
gsave
newpath
translate
0 0 m
0 2 l
stroke
grestore
} bind def
277.244 322.974 o
grestore
gsave
/o {
gsave
newpath
translate
0 0 m
0 -2 l
stroke
grestore
} bind def
277.244 399.6 o
grestore
gsave
/o {
gsave
newpath
translate
0 0 m
0 2 l
stroke
grestore
} bind def
284.805 322.974 o
grestore
gsave
/o {
gsave
newpath
translate
0 0 m
0 -2 l
stroke
grestore
} bind def
284.805 399.6 o
grestore
gsave
/o {
gsave
newpath
translate
0 0 m
0 2 l
stroke
grestore
} bind def
292.367 322.974 o
grestore
gsave
/o {
gsave
newpath
translate
0 0 m
0 -2 l
stroke
grestore
} bind def
292.367 399.6 o
grestore
gsave
/o {
gsave
newpath
translate
0 0 m
0 2 l
stroke
grestore
} bind def
299.928 322.974 o
grestore
gsave
/o {
gsave
newpath
translate
0 0 m
0 -2 l
stroke
grestore
} bind def
299.928 399.6 o
grestore
gsave
/o {
gsave
newpath
translate
0 0 m
0 2 l
stroke
grestore
} bind def
307.49 322.974 o
grestore
gsave
/o {
gsave
newpath
translate
0 0 m
0 -2 l
stroke
grestore
} bind def
307.49 399.6 o
grestore
gsave
/o {
gsave
newpath
translate
0 0 m
0 2 l
stroke
grestore
} bind def
315.051 322.974 o
grestore
gsave
/o {
gsave
newpath
translate
0 0 m
0 -2 l
stroke
grestore
} bind def
315.051 399.6 o
grestore
gsave
/o {
gsave
newpath
translate
0 0 m
0 2 l
stroke
grestore
} bind def
322.613 322.974 o
grestore
gsave
/o {
gsave
newpath
translate
0 0 m
0 -2 l
stroke
grestore
} bind def
322.613 399.6 o
grestore
gsave
/o {
gsave
newpath
translate
0 0 m
0 2 l
stroke
grestore
} bind def
330.174 322.974 o
grestore
gsave
/o {
gsave
newpath
translate
0 0 m
0 -2 l
stroke
grestore
} bind def
330.174 399.6 o
grestore
gsave
/o {
gsave
newpath
translate
0 0 m
4 0 l
stroke
grestore
} bind def
50.4 322.974 o
grestore
gsave
/o {
gsave
newpath
translate
0 0 m
-4 0 l
stroke
grestore
} bind def
330.174 322.974 o
grestore
gsave
40.353125 318.434938 translate
0.000000 rotate
0.000000 0.171875 m /zero glyphshow
grestore
gsave
/o {
gsave
newpath
translate
0 0 m
4 0 l
stroke
grestore
} bind def
50.4 342.131 o
grestore
gsave
/o {
gsave
newpath
translate
0 0 m
-4 0 l
stroke
grestore
} bind def
330.174 342.131 o
grestore
gsave
33.228125 337.591438 translate
0.000000 rotate
0.000000 0.171875 m /one glyphshow
7.634766 0.171875 m /zero glyphshow
grestore
gsave
/o {
gsave
newpath
translate
0 0 m
4 0 l
stroke
grestore
} bind def
50.4 361.287 o
grestore
gsave
/o {
gsave
newpath
translate
0 0 m
-4 0 l
stroke
grestore
} bind def
330.174 361.287 o
grestore
gsave
32.790625 356.747938 translate
0.000000 rotate
0.000000 0.171875 m /two glyphshow
7.634766 0.171875 m /zero glyphshow
grestore
gsave
/o {
gsave
newpath
translate
0 0 m
4 0 l
stroke
grestore
} bind def
50.4 380.444 o
grestore
gsave
/o {
gsave
newpath
translate
0 0 m
-4 0 l
stroke
grestore
} bind def
330.174 380.444 o
grestore
gsave
32.837500 375.904438 translate
0.000000 rotate
0.000000 0.171875 m /three glyphshow
7.634766 0.171875 m /zero glyphshow
grestore
gsave
/o {
gsave
newpath
translate
0 0 m
4 0 l
stroke
grestore
} bind def
50.4 399.6 o
grestore
gsave
/o {
gsave
newpath
translate
0 0 m
-4 0 l
stroke
grestore
} bind def
330.174 399.6 o
grestore
gsave
32.509375 395.060938 translate
0.000000 rotate
0.000000 0.171875 m /four glyphshow
7.634766 0.171875 m /zero glyphshow
grestore
1.000 setlinewidth
2 setlinecap
gsave
50.4 399.6 m
330.174 399.6 l
stroke
grestore
gsave
330.174 322.974 m
330.174 399.6 l
stroke
grestore
gsave
50.4 322.974 m
330.174 322.974 l
stroke
grestore
gsave
50.4 322.974 m
50.4 399.6 l
stroke
grestore
gsave
340.974 32.4 m
417.6 32.4 l
417.6 312.174 l
340.974 312.174 l
cl
1.000 setgray
fill
grestore
gsave
76.63 279.8 341 32.4 clipbox
340.974 32.4 m
340.974 32.4 l
340.974 51.0516 l
350.552 51.0516 l
350.552 69.7032 l
340.974 69.7032 l
340.974 88.3548 l
355.341 88.3548 l
355.341 107.006 l
374.498 107.006 l
374.498 125.658 l
379.287 125.658 l
379.287 144.31 l
374.498 144.31 l
374.498 162.961 l
360.131 162.961 l
360.131 181.613 l
369.709 181.613 l
369.709 200.264 l
384.076 200.264 l
384.076 218.916 l
398.444 218.916 l
398.444 237.568 l
374.498 237.568 l
374.498 256.219 l
364.92 256.219 l
364.92 274.871 l
345.763 274.871 l
345.763 293.522 l
340.974 293.522 l
340.974 312.174 l
340.974 312.174 l
stroke
grestore
0 setlinecap
[6 6] 0 setdash
gsave
76.63 279.8 341 32.4 clipbox
340.977 -1 m
341.099 29.1609 l
341.36 40.2052 l
341.773 48.094 l
342.342 54.4051 l
342.968 59.1383 l
343.813 63.8716 l
344.721 67.816 l
345.84 71.7604 l
347.194 75.7048 l
348.8 79.6492 l
350.666 83.5936 l
352.788 87.538 l
355.148 91.4824 l
358.244 96.2157 l
362.664 102.527 l
368.743 111.204 l
371.265 115.149 l
373.078 118.304 l
374.655 121.46 l
375.953 124.615 l
376.72 126.982 l
377.297 129.349 l
377.672 131.715 l
377.84 134.082 l
377.798 136.448 l
377.546 138.815 l
377.09 141.182 l
376.436 143.548 l
375.595 145.915 l
374.209 149.071 l
372.556 152.226 l
370.185 156.17 l
367.023 160.904 l
355.049 178.259 l
352.698 182.203 l
350.587 186.148 l
348.731 190.092 l
347.135 194.037 l
345.791 197.981 l
344.68 201.925 l
343.781 205.87 l
342.943 210.603 l
342.325 215.336 l
341.819 220.859 l
341.416 227.958 l
341.16 236.636 l
341.016 250.047 l
340.975 281.602 l
340.974 315.524 l
340.974 315.524 l
stroke
grestore
gsave
76.63 279.8 341 32.4 clipbox
340.974 -1 m
341.082 147.493 l
341.323 155.382 l
341.714 160.904 l
342.194 164.848 l
342.755 168.004 l
343.525 171.159 l
344.558 174.315 l
345.54 176.681 l
346.73 179.048 l
348.151 181.415 l
349.826 183.781 l
351.774 186.148 l
354.009 188.515 l
356.537 190.881 l
359.354 193.248 l
363.535 196.403 l
368.137 199.559 l
374.316 203.503 l
386.867 211.392 l
391.393 214.548 l
394.397 216.914 l
396.968 219.281 l
398.404 220.859 l
399.593 222.436 l
400.519 224.014 l
401.169 225.592 l
401.533 227.17 l
401.606 228.747 l
401.387 230.325 l
400.879 231.903 l
400.09 233.481 l
399.031 235.058 l
397.716 236.636 l
396.164 238.214 l
393.439 240.581 l
390.31 242.947 l
385.666 246.103 l
378.138 250.836 l
369.342 256.358 l
364.649 259.514 l
360.355 262.669 l
357.444 265.036 l
354.819 267.402 l
352.487 269.769 l
350.444 272.136 l
348.68 274.502 l
347.177 276.869 l
345.913 279.236 l
344.864 281.602 l
343.756 284.758 l
342.926 287.913 l
342.317 291.069 l
341.793 295.013 l
341.409 299.746 l
341.149 306.058 l
341.013 315.524 l
341.013 315.524 l
stroke
grestore
0.500 setlinewidth
[] 0 setdash
gsave
/o {
gsave
newpath
translate
0 0 m
0 4 l
stroke
grestore
} bind def
340.974 32.4 o
grestore
gsave
/o {
gsave
newpath
translate
0 0 m
0 -4 l
stroke
grestore
} bind def
340.974 312.174 o
grestore
gsave
337.950563 19.321875 translate
0.000000 rotate
0.000000 0.171875 m /zero glyphshow
grestore
gsave
/o {
gsave
newpath
translate
0 0 m
0 4 l
stroke
grestore
} bind def
360.131 32.4 o
grestore
gsave
/o {
gsave
newpath
translate
0 0 m
0 -4 l
stroke
grestore
} bind def
360.131 312.174 o
grestore
gsave
356.943000 19.650000 translate
0.000000 rotate
0.000000 0.000000 m /four glyphshow
grestore
gsave
/o {
gsave
newpath
translate
0 0 m
0 4 l
stroke
grestore
} bind def
379.287 32.4 o
grestore
gsave
/o {
gsave
newpath
translate
0 0 m
0 -4 l
stroke
grestore
} bind def
379.287 312.174 o
grestore
gsave
376.287000 19.321875 translate
0.000000 rotate
0.000000 0.171875 m /eight glyphshow
grestore
gsave
/o {
gsave
newpath
translate
0 0 m
0 4 l
stroke
grestore
} bind def
398.444 32.4 o
grestore
gsave
/o {
gsave
newpath
translate
0 0 m
0 -4 l
stroke
grestore
} bind def
398.444 312.174 o
grestore
gsave
392.060688 19.493750 translate
0.000000 rotate
0.000000 0.000000 m /one glyphshow
7.634766 0.000000 m /two glyphshow
grestore
gsave
/o {
gsave
newpath
translate
0 0 m
0 4 l
stroke
grestore
} bind def
417.6 32.4 o
grestore
gsave
/o {
gsave
newpath
translate
0 0 m
0 -4 l
stroke
grestore
} bind def
417.6 312.174 o
grestore
gsave
410.998438 19.321875 translate
0.000000 rotate
0.000000 0.171875 m /one glyphshow
7.634766 0.171875 m /six glyphshow
grestore
gsave
/o {
gsave
newpath
translate
0 0 m
4 0 l
stroke
grestore
} bind def
340.974 50.5671 o
grestore
gsave
/o {
gsave
newpath
translate
0 0 m
-4 0 l
stroke
grestore
} bind def
417.6 50.5671 o
grestore
gsave
/o {
gsave
newpath
translate
0 0 m
4 0 l
stroke
grestore
} bind def
340.974 86.9014 o
grestore
gsave
/o {
gsave
newpath
translate
0 0 m
-4 0 l
stroke
grestore
} bind def
417.6 86.9014 o
grestore
gsave
/o {
gsave
newpath
translate
0 0 m
4 0 l
stroke
grestore
} bind def
340.974 123.236 o
grestore
gsave
/o {
gsave
newpath
translate
0 0 m
-4 0 l
stroke
grestore
} bind def
417.6 123.236 o
grestore
gsave
/o {
gsave
newpath
translate
0 0 m
4 0 l
stroke
grestore
} bind def
340.974 159.57 o
grestore
gsave
/o {
gsave
newpath
translate
0 0 m
-4 0 l
stroke
grestore
} bind def
417.6 159.57 o
grestore
gsave
/o {
gsave
newpath
translate
0 0 m
4 0 l
stroke
grestore
} bind def
340.974 195.904 o
grestore
gsave
/o {
gsave
newpath
translate
0 0 m
-4 0 l
stroke
grestore
} bind def
417.6 195.904 o
grestore
gsave
/o {
gsave
newpath
translate
0 0 m
4 0 l
stroke
grestore
} bind def
340.974 232.239 o
grestore
gsave
/o {
gsave
newpath
translate
0 0 m
-4 0 l
stroke
grestore
} bind def
417.6 232.239 o
grestore
gsave
/o {
gsave
newpath
translate
0 0 m
4 0 l
stroke
grestore
} bind def
340.974 268.573 o
grestore
gsave
/o {
gsave
newpath
translate
0 0 m
-4 0 l
stroke
grestore
} bind def
417.6 268.573 o
grestore
gsave
/o {
gsave
newpath
translate
0 0 m
4 0 l
stroke
grestore
} bind def
340.974 304.907 o
grestore
gsave
/o {
gsave
newpath
translate
0 0 m
-4 0 l
stroke
grestore
} bind def
417.6 304.907 o
grestore
gsave
/o {
gsave
newpath
translate
0 0 m
2 0 l
stroke
grestore
} bind def
340.974 36.0334 o
grestore
gsave
/o {
gsave
newpath
translate
0 0 m
-2 0 l
stroke
grestore
} bind def
417.6 36.0334 o
grestore
gsave
/o {
gsave
newpath
translate
0 0 m
2 0 l
stroke
grestore
} bind def
340.974 43.3003 o
grestore
gsave
/o {
gsave
newpath
translate
0 0 m
-2 0 l
stroke
grestore
} bind def
417.6 43.3003 o
grestore
gsave
/o {
gsave
newpath
translate
0 0 m
2 0 l
stroke
grestore
} bind def
340.974 50.5671 o
grestore
gsave
/o {
gsave
newpath
translate
0 0 m
-2 0 l
stroke
grestore
} bind def
417.6 50.5671 o
grestore
gsave
/o {
gsave
newpath
translate
0 0 m
2 0 l
stroke
grestore
} bind def
340.974 57.834 o
grestore
gsave
/o {
gsave
newpath
translate
0 0 m
-2 0 l
stroke
grestore
} bind def
417.6 57.834 o
grestore
gsave
/o {
gsave
newpath
translate
0 0 m
2 0 l
stroke
grestore
} bind def
340.974 65.1009 o
grestore
gsave
/o {
gsave
newpath
translate
0 0 m
-2 0 l
stroke
grestore
} bind def
417.6 65.1009 o
grestore
gsave
/o {
gsave
newpath
translate
0 0 m
2 0 l
stroke
grestore
} bind def
340.974 72.3677 o
grestore
gsave
/o {
gsave
newpath
translate
0 0 m
-2 0 l
stroke
grestore
} bind def
417.6 72.3677 o
grestore
gsave
/o {
gsave
newpath
translate
0 0 m
2 0 l
stroke
grestore
} bind def
340.974 79.6346 o
grestore
gsave
/o {
gsave
newpath
translate
0 0 m
-2 0 l
stroke
grestore
} bind def
417.6 79.6346 o
grestore
gsave
/o {
gsave
newpath
translate
0 0 m
2 0 l
stroke
grestore
} bind def
340.974 86.9014 o
grestore
gsave
/o {
gsave
newpath
translate
0 0 m
-2 0 l
stroke
grestore
} bind def
417.6 86.9014 o
grestore
gsave
/o {
gsave
newpath
translate
0 0 m
2 0 l
stroke
grestore
} bind def
340.974 94.1683 o
grestore
gsave
/o {
gsave
newpath
translate
0 0 m
-2 0 l
stroke
grestore
} bind def
417.6 94.1683 o
grestore
gsave
/o {
gsave
newpath
translate
0 0 m
2 0 l
stroke
grestore
} bind def
340.974 101.435 o
grestore
gsave
/o {
gsave
newpath
translate
0 0 m
-2 0 l
stroke
grestore
} bind def
417.6 101.435 o
grestore
gsave
/o {
gsave
newpath
translate
0 0 m
2 0 l
stroke
grestore
} bind def
340.974 108.702 o
grestore
gsave
/o {
gsave
newpath
translate
0 0 m
-2 0 l
stroke
grestore
} bind def
417.6 108.702 o
grestore
gsave
/o {
gsave
newpath
translate
0 0 m
2 0 l
stroke
grestore
} bind def
340.974 115.969 o
grestore
gsave
/o {
gsave
newpath
translate
0 0 m
-2 0 l
stroke
grestore
} bind def
417.6 115.969 o
grestore
gsave
/o {
gsave
newpath
translate
0 0 m
2 0 l
stroke
grestore
} bind def
340.974 123.236 o
grestore
gsave
/o {
gsave
newpath
translate
0 0 m
-2 0 l
stroke
grestore
} bind def
417.6 123.236 o
grestore
gsave
/o {
gsave
newpath
translate
0 0 m
2 0 l
stroke
grestore
} bind def
340.974 130.503 o
grestore
gsave
/o {
gsave
newpath
translate
0 0 m
-2 0 l
stroke
grestore
} bind def
417.6 130.503 o
grestore
gsave
/o {
gsave
newpath
translate
0 0 m
2 0 l
stroke
grestore
} bind def
340.974 137.769 o
grestore
gsave
/o {
gsave
newpath
translate
0 0 m
-2 0 l
stroke
grestore
} bind def
417.6 137.769 o
grestore
gsave
/o {
gsave
newpath
translate
0 0 m
2 0 l
stroke
grestore
} bind def
340.974 145.036 o
grestore
gsave
/o {
gsave
newpath
translate
0 0 m
-2 0 l
stroke
grestore
} bind def
417.6 145.036 o
grestore
gsave
/o {
gsave
newpath
translate
0 0 m
2 0 l
stroke
grestore
} bind def
340.974 152.303 o
grestore
gsave
/o {
gsave
newpath
translate
0 0 m
-2 0 l
stroke
grestore
} bind def
417.6 152.303 o
grestore
gsave
/o {
gsave
newpath
translate
0 0 m
2 0 l
stroke
grestore
} bind def
340.974 159.57 o
grestore
gsave
/o {
gsave
newpath
translate
0 0 m
-2 0 l
stroke
grestore
} bind def
417.6 159.57 o
grestore
gsave
/o {
gsave
newpath
translate
0 0 m
2 0 l
stroke
grestore
} bind def
340.974 166.837 o
grestore
gsave
/o {
gsave
newpath
translate
0 0 m
-2 0 l
stroke
grestore
} bind def
417.6 166.837 o
grestore
gsave
/o {
gsave
newpath
translate
0 0 m
2 0 l
stroke
grestore
} bind def
340.974 174.104 o
grestore
gsave
/o {
gsave
newpath
translate
0 0 m
-2 0 l
stroke
grestore
} bind def
417.6 174.104 o
grestore
gsave
/o {
gsave
newpath
translate
0 0 m
2 0 l
stroke
grestore
} bind def
340.974 181.371 o
grestore
gsave
/o {
gsave
newpath
translate
0 0 m
-2 0 l
stroke
grestore
} bind def
417.6 181.371 o
grestore
gsave
/o {
gsave
newpath
translate
0 0 m
2 0 l
stroke
grestore
} bind def
340.974 188.637 o
grestore
gsave
/o {
gsave
newpath
translate
0 0 m
-2 0 l
stroke
grestore
} bind def
417.6 188.637 o
grestore
gsave
/o {
gsave
newpath
translate
0 0 m
2 0 l
stroke
grestore
} bind def
340.974 195.904 o
grestore
gsave
/o {
gsave
newpath
translate
0 0 m
-2 0 l
stroke
grestore
} bind def
417.6 195.904 o
grestore
gsave
/o {
gsave
newpath
translate
0 0 m
2 0 l
stroke
grestore
} bind def
340.974 203.171 o
grestore
gsave
/o {
gsave
newpath
translate
0 0 m
-2 0 l
stroke
grestore
} bind def
417.6 203.171 o
grestore
gsave
/o {
gsave
newpath
translate
0 0 m
2 0 l
stroke
grestore
} bind def
340.974 210.438 o
grestore
gsave
/o {
gsave
newpath
translate
0 0 m
-2 0 l
stroke
grestore
} bind def
417.6 210.438 o
grestore
gsave
/o {
gsave
newpath
translate
0 0 m
2 0 l
stroke
grestore
} bind def
340.974 217.705 o
grestore
gsave
/o {
gsave
newpath
translate
0 0 m
-2 0 l
stroke
grestore
} bind def
417.6 217.705 o
grestore
gsave
/o {
gsave
newpath
translate
0 0 m
2 0 l
stroke
grestore
} bind def
340.974 224.972 o
grestore
gsave
/o {
gsave
newpath
translate
0 0 m
-2 0 l
stroke
grestore
} bind def
417.6 224.972 o
grestore
gsave
/o {
gsave
newpath
translate
0 0 m
2 0 l
stroke
grestore
} bind def
340.974 232.239 o
grestore
gsave
/o {
gsave
newpath
translate
0 0 m
-2 0 l
stroke
grestore
} bind def
417.6 232.239 o
grestore
gsave
/o {
gsave
newpath
translate
0 0 m
2 0 l
stroke
grestore
} bind def
340.974 239.505 o
grestore
gsave
/o {
gsave
newpath
translate
0 0 m
-2 0 l
stroke
grestore
} bind def
417.6 239.505 o
grestore
gsave
/o {
gsave
newpath
translate
0 0 m
2 0 l
stroke
grestore
} bind def
340.974 246.772 o
grestore
gsave
/o {
gsave
newpath
translate
0 0 m
-2 0 l
stroke
grestore
} bind def
417.6 246.772 o
grestore
gsave
/o {
gsave
newpath
translate
0 0 m
2 0 l
stroke
grestore
} bind def
340.974 254.039 o
grestore
gsave
/o {
gsave
newpath
translate
0 0 m
-2 0 l
stroke
grestore
} bind def
417.6 254.039 o
grestore
gsave
/o {
gsave
newpath
translate
0 0 m
2 0 l
stroke
grestore
} bind def
340.974 261.306 o
grestore
gsave
/o {
gsave
newpath
translate
0 0 m
-2 0 l
stroke
grestore
} bind def
417.6 261.306 o
grestore
gsave
/o {
gsave
newpath
translate
0 0 m
2 0 l
stroke
grestore
} bind def
340.974 268.573 o
grestore
gsave
/o {
gsave
newpath
translate
0 0 m
-2 0 l
stroke
grestore
} bind def
417.6 268.573 o
grestore
gsave
/o {
gsave
newpath
translate
0 0 m
2 0 l
stroke
grestore
} bind def
340.974 275.84 o
grestore
gsave
/o {
gsave
newpath
translate
0 0 m
-2 0 l
stroke
grestore
} bind def
417.6 275.84 o
grestore
gsave
/o {
gsave
newpath
translate
0 0 m
2 0 l
stroke
grestore
} bind def
340.974 283.107 o
grestore
gsave
/o {
gsave
newpath
translate
0 0 m
-2 0 l
stroke
grestore
} bind def
417.6 283.107 o
grestore
gsave
/o {
gsave
newpath
translate
0 0 m
2 0 l
stroke
grestore
} bind def
340.974 290.373 o
grestore
gsave
/o {
gsave
newpath
translate
0 0 m
-2 0 l
stroke
grestore
} bind def
417.6 290.373 o
grestore
gsave
/o {
gsave
newpath
translate
0 0 m
2 0 l
stroke
grestore
} bind def
340.974 297.64 o
grestore
gsave
/o {
gsave
newpath
translate
0 0 m
-2 0 l
stroke
grestore
} bind def
417.6 297.64 o
grestore
gsave
/o {
gsave
newpath
translate
0 0 m
2 0 l
stroke
grestore
} bind def
340.974 304.907 o
grestore
gsave
/o {
gsave
newpath
translate
0 0 m
-2 0 l
stroke
grestore
} bind def
417.6 304.907 o
grestore
1.000 setlinewidth
2 setlinecap
gsave
340.974 312.174 m
417.6 312.174 l
stroke
grestore
gsave
417.6 32.4 m
417.6 312.174 l
stroke
grestore
gsave
340.974 32.4 m
417.6 32.4 l
stroke
grestore
gsave
340.974 32.4 m
340.974 312.174 l
stroke
grestore

end
showpage
