%!PS-Adobe-3.0 EPSF-3.0
%%Creator: SM
%%BoundingBox: 18 144 592 718
%%DocumentNeededResources: font Helvetica
%%LanguageLevel: 1
%%Pages: 1
%%EndComments
%%Page: 1 1
 20 dict begin
72 300 div dup scale
1 setlinejoin 0 setlinecap
/Helvetica findfont 55 scalefont setfont 
/B {CS newpath moveto} def
/F {moveto 0 setlinecap} def
/C {CS M 1 1 3 {pop 3 1 roll 255 div} for SET_COLOUR} def
/CS {currentpoint stroke} def
/CF {currentpoint eofill} def
/L {lineto} def /l {rlineto} def /M {moveto} def /m {rmoveto} def
/P {gsave 0 1 rlineto stroke grestore} def
/T {currentlinecap exch 1 setlinecap show setlinecap} def
errordict /nocurrentpoint {pop 0 0 M currentpoint} put
/SET_COLOUR statusdict begin /processcolors where
  {pop processcolors 1 gt} {false} ifelse
  {(setrgbcolor)} {(pop pop pop)} ifelse cvx end def
 80 600 translate
gsave
CS [] 0 setdash M
CS M 2 100 mul 72 div dup setlinewidth
/P [ /gsave cvx 0 5 -1 roll .05 add dup -2 div 0 exch /rmoveto cvx /rlineto cvx /stroke cvx /grestore cvx ] cvx def
 0 0 0 C
CS M 2 100 mul 72 div dup setlinewidth
/P [ /gsave cvx 0 5 -1 roll .05 add dup -2 div 0 exch /rmoveto cvx /rlineto cvx /stroke cvx /grestore cvx ] cvx def
CS [] 0 setdash M
511 1678 M 1677 0 l
0 656 l
511 2334 L
0 -656 l
1677 0 l
511 1678 M 1677 0 l
560 1678 M 0 54 l
99 -54 m 0 27 l
98 -27 m 0 27 l
99 -27 m 0 27 l
99 -27 m 0 27 l
98 -27 m 0 54 l
99 -54 m 0 27 l
99 -27 m 0 27 l
98 -27 m 0 27 l
99 -27 m 0 27 l
99 -27 m 0 54 l
98 -54 m 0 27 l
99 -27 m 0 27 l
99 -27 m 0 27 l
98 -27 m 0 27 l
99 -27 m 0 54 l
99 -54 m 0 27 l
511 2334 M 1677 0 l
560 2334 M 0 -55 l
99 55 m 0 -27 l
98 27 m 0 -27 l
99 27 m 0 -27 l
99 27 m 0 -27 l
98 27 m 0 -55 l
99 55 m 0 -27 l
99 27 m 0 -27 l
98 27 m 0 -27 l
99 27 m 0 -27 l
99 27 m 0 -55 l
98 55 m 0 -27 l
99 27 m 0 -27 l
99 27 m 0 -27 l
98 27 m 0 -27 l
99 27 m 0 -55 l
99 55 m 0 -27 l
511 1678 M 0 656 l
0 -656 m 27 0 l
-27 56 m 54 0 l
-152 -27 m 23 54 m -8 -2 l
-5 -8 l
-3 -13 l
0 -8 l
3 -13 l
5 -7 l
8 -3 l
5 0 l
7 3 l
6 7 l
2 13 l
0 8 l
-2 13 l
-6 8 l
-7 2 l
-5 0 l
-6 -2 l
-2 -3 l
-3 -5 l
-2 -13 l
0 -8 l
2 -13 l
3 -5 l
2 -2 l
6 -3 l
5 0 m 5 3 l
2 2 l
3 5 l
3 13 l
0 8 l
-3 13 l
-3 5 l
-2 3 l
-5 2 l
70 30 m 27 0 l
-27 56 m 27 0 l
-27 57 m 27 0 l
-27 56 m 54 0 l
-152 -26 m 10 43 m 2 -2 l
-2 -3 l
-3 3 l
0 2 l
3 5 l
2 3 l
8 2 l
10 0 l
8 -2 l
3 -3 l
2 -5 l
0 -5 l
-2 -5 l
-8 -5 l
-13 -5 l
-5 -3 l
-5 -5 l
-3 -8 l
0 -7 l
23 53 m 5 -2 l
3 -3 l
3 -5 l
0 -5 l
-3 -5 l
-8 -5 l
-10 -5 l
-13 -18 m 3 2 l
5 0 l
13 -5 l
7 0 l
6 3 l
2 2 l
-28 0 m 13 -7 l
10 0 l
3 2 l
2 5 l
0 5 l
55 71 m 27 0 l
-27 57 m 27 0 l
-27 56 m 27 0 l
-27 57 m 54 0 l
-152 -27 m 30 49 m 0 -49 l
3 54 m 0 -54 l
0 54 m -28 -39 l
41 0 l
-23 -15 m 18 0 l
57 83 m 27 0 l
-27 57 m 27 0 l
1650 -622 m 0 656 l
0 -656 m -27 0 l
27 56 m -55 0 l
55 57 m -27 0 l
27 56 m -27 0 l
27 57 m -27 0 l
27 56 m -55 0 l
55 57 m -27 0 l
27 57 m -27 0 l
27 56 m -27 0 l
27 57 m -55 0 l
55 56 m -27 0 l
27 57 m -27 0 l
CS [] 0 setdash M
2163 2227 M 5 -12 m 7 7 l
0 10 l
-7 7 l
-10 0 l
-7 -7 l
0 -10 l
7 -7 l
10 0 l
-98 -4 m 5 -12 m 7 7 l
0 10 l
-7 7 l
-10 0 l
-7 -7 l
0 -10 l
7 -7 l
10 0 l
-16 37 m 5 -13 m 7 8 l
0 10 l
-7 7 l
-10 0 l
-7 -7 l
0 -10 l
7 -8 l
10 0 l
-22 -29 m 5 -12 m 7 7 l
0 10 l
-7 7 l
-10 0 l
-7 -7 l
0 -10 l
7 -7 l
10 0 l
-23 31 m 5 -12 m 7 7 l
0 10 l
-7 7 l
-10 0 l
-7 -7 l
0 -10 l
7 -7 l
10 0 l
-49 44 m 5 -12 m 7 7 l
0 10 l
-7 7 l
-10 0 l
-7 -7 l
0 -10 l
7 -7 l
10 0 l
-32 -17 m 5 -12 m 7 7 l
0 10 l
-7 7 l
-10 0 l
-7 -7 l
0 -10 l
7 -7 l
10 0 l
-10 -1 m 5 -12 m 7 7 l
0 10 l
-7 7 l
-10 0 l
-7 -7 l
0 -10 l
7 -7 l
10 0 l
-6 9 m 5 -12 m 7 7 l
0 10 l
-7 7 l
-10 0 l
-7 -7 l
0 -10 l
7 -7 l
10 0 l
-20 3 m 5 -12 m 8 7 l
0 10 l
-8 8 l
-10 0 l
-7 -8 l
0 -10 l
7 -7 l
10 0 l
-14 -52 m 5 -12 m 7 7 l
0 10 l
-7 7 l
-10 0 l
-7 -7 l
0 -10 l
7 -7 l
10 0 l
-16 51 m 5 -12 m 7 7 l
0 10 l
-7 7 l
-10 0 l
-7 -7 l
0 -10 l
7 -7 l
10 0 l
-6 42 m 5 -12 m 7 7 l
0 10 l
-7 7 l
-10 0 l
-7 -7 l
0 -10 l
7 -7 l
10 0 l
-7 -1 m 5 -12 m 7 7 l
0 10 l
-7 7 l
-10 0 l
-7 -7 l
0 -10 l
7 -7 l
10 0 l
-29 -46 m 5 -12 m 7 7 l
0 10 l
-7 7 l
-10 0 l
-7 -7 l
0 -10 l
7 -7 l
10 0 l
-9 15 m 5 -12 m 7 7 l
0 10 l
-7 7 l
-10 0 l
-7 -7 l
0 -10 l
7 -7 l
10 0 l
-16 33 m 5 -12 m 7 7 l
0 10 l
-7 7 l
-10 0 l
-7 -7 l
0 -10 l
7 -7 l
10 0 l
-6 84 m 5 -12 m 7 7 l
0 10 l
-7 7 l
-10 0 l
-7 -7 l
0 -10 l
7 -7 l
10 0 l
-17 -63 m 5 -12 m 7 7 l
0 10 l
-7 7 l
-10 0 l
-7 -7 l
0 -10 l
7 -7 l
10 0 l
-16 16 m 5 -12 m 7 7 l
0 10 l
-7 7 l
-10 0 l
-7 -7 l
CS M
0 -10 l
7 -7 l
10 0 l
-15 -1 m 5 -12 m 7 7 l
0 10 l
-7 7 l
-10 0 l
-7 -7 l
0 -10 l
7 -7 l
10 0 l
-13 44 m 5 -12 m 7 7 l
0 10 l
-7 7 l
-10 0 l
-7 -7 l
0 -10 l
7 -7 l
10 0 l
-18 54 m 5 -12 m 7 7 l
0 10 l
-7 7 l
-10 0 l
-7 -7 l
0 -10 l
7 -7 l
10 0 l
-8 -34 m 5 -12 m 7 7 l
0 10 l
-7 7 l
-10 0 l
-7 -7 l
0 -10 l
7 -7 l
10 0 l
-17 9 m 5 -12 m 7 7 l
0 10 l
-7 7 l
-10 0 l
-7 -7 l
0 -10 l
7 -7 l
10 0 l
-11 12 m 5 -12 m 7 7 l
0 10 l
-7 7 l
-10 0 l
-7 -7 l
0 -10 l
7 -7 l
10 0 l
-14 17 m 5 -12 m 8 7 l
0 10 l
-8 7 l
-10 0 l
-7 -7 l
0 -10 l
7 -7 l
10 0 l
-9 -31 m 4 -12 m 8 7 l
0 10 l
-8 7 l
-9 0 l
-8 -7 l
0 -10 l
8 -7 l
9 0 l
-17 57 m 5 -12 m 7 7 l
0 10 l
-7 7 l
-10 0 l
-7 -7 l
0 -10 l
7 -7 l
10 0 l
-10 -15 m 5 -12 m 7 7 l
0 10 l
-7 7 l
-10 0 l
-7 -7 l
0 -10 l
7 -7 l
10 0 l
-6 70 m 5 -12 m 7 7 l
0 10 l
-7 7 l
-10 0 l
-7 -7 l
0 -10 l
7 -7 l
10 0 l
-5 27 m 5 -12 m 7 7 l
0 10 l
-7 7 l
-10 0 l
-7 -7 l
0 -10 l
7 -7 l
10 0 l
-12 -40 m 5 -13 m 7 7 l
0 10 l
-7 8 l
-10 0 l
-7 -8 l
0 -10 l
7 -7 l
10 0 l
-14 -28 m 5 -12 m 7 7 l
0 10 l
-7 7 l
-10 0 l
-7 -7 l
0 -10 l
7 -7 l
10 0 l
-9 43 m 5 -12 m 7 7 l
0 10 l
-7 7 l
-10 0 l
-7 -7 l
0 -10 l
7 -7 l
10 0 l
-12 -16 m 5 -12 m 7 7 l
0 10 l
-7 7 l
-10 0 l
-7 -7 l
0 -10 l
7 -7 l
10 0 l
-11 -29 m 5 -12 m 7 7 l
0 10 l
-7 7 l
-10 0 l
-7 -7 l
0 -10 l
7 -7 l
10 0 l
-8 73 m 5 -12 m 7 7 l
0 10 l
-7 7 l
-10 0 l
-7 -7 l
0 -10 l
7 -7 l
10 0 l
-24 -7 m 5 -12 m 7 7 l
0 10 l
-7 7 l
-10 0 l
-7 -7 l
0 -10 l
7 -7 l
10 0 l
-10 -3 m 5 -13 m 7 7 l
0 10 l
-7 8 l
-10 0 l
-7 -8 l
0 -10 l
7 -7 l
10 0 l
-9 -21 m 5 -12 m 7 7 l
0 10 l
-7 7 l
-10 0 l
-7 -7 l
0 -10 l
7 -7 l
10 0 l
-7 66 m 5 -12 m 7 7 l
0 10 l
-7 7 l
-10 0 l
-7 -7 l
0 -10 l
7 -7 l
10 0 l
-10 -32 m 5 -13 m 7 7 l
0 10 l
-7 8 l
-10 0 l
-7 -8 l
0 -10 l
7 -7 l
10 0 l
-23 75 m 5 -12 m 8 7 l
0 10 l
-8 7 l
-10 0 l
-7 -7 l
0 -10 l
7 -7 l
10 0 l
-21 -13 m 5 -12 m 7 7 l
0 10 l
-7 7 l
-10 0 l
-7 -7 l
0 -10 l
7 -7 l
10 0 l
-9 -14 m 5 -12 m 7 7 l
0 10 l
-7 7 l
-10 0 l
-7 -7 l
0 -10 l
7 -7 l
10 0 l
-9 59 m 5 -12 m 7 7 l
0 10 l
-7 7 l
-10 0 l
-7 -7 l
0 -10 l
7 -7 l
10 0 l
-15 42 m 5 -12 m 7 7 l
0 10 l
-7 7 l
-10 0 l
-7 -7 l
0 -10 l
7 -7 l
10 0 l
-9 -53 m 5 -12 m 8 7 l
0 10 l
-8 7 l
-10 0 l
-7 -7 l
0 -10 l
7 -7 l
10 0 l
-16 37 m 5 -12 m 7 7 l
0 10 l
-7 7 l
-10 0 l
-7 -7 l
0 -10 l
7 -7 l
10 0 l
-16 21 m 5 -12 m 7 7 l
0 10 l
-7 7 l
-10 0 l
-7 -7 l
0 -10 l
7 -7 l
10 0 l
-18 30 m 5 -12 m 7 7 l
0 10 l
-7 7 l
-10 0 l
-7 -7 l
0 -10 l
7 -7 l
10 0 l
-6 0 m 5 -12 m 7 7 l
0 10 l
-7 7 l
-10 0 l
-7 -7 l
0 -10 l
7 -7 l
10 0 l
-9 -9 m 5 -12 m 7 7 l
0 10 l
-7 7 l
-10 0 l
-7 -7 l
0 -10 l
7 -7 l
10 0 l
-9 -60 m 5 -12 m 7 7 l
0 10 l
-7 8 l
-10 0 l
-7 -8 l
0 -10 l
7 -7 l
10 0 l
-14 52 m 5 -12 m 7 7 l
0 10 l
-7 7 l
-10 0 l
-7 -7 l
0 -10 l
7 -7 l
10 0 l
-5 -67 m 5 -13 m 7 8 l
0 10 l
-7 7 l
-10 0 l
-7 -7 l
0 -10 l
7 -8 l
10 0 l
-7 48 m 5 -12 m 7 7 l
CS M
0 10 l
-7 7 l
-10 0 l
-7 -7 l
0 -10 l
7 -7 l
10 0 l
-9 52 m 5 -12 m 7 7 l
0 10 l
-7 7 l
-10 0 l
-7 -7 l
0 -10 l
7 -7 l
10 0 l
-15 23 m 5 -12 m 7 7 l
0 10 l
-7 7 l
-10 0 l
-7 -7 l
0 -10 l
7 -7 l
10 0 l
-7 -78 m 5 -12 m 7 7 l
0 10 l
-7 7 l
-10 0 l
-7 -7 l
0 -10 l
7 -7 l
10 0 l
-15 133 m 5 -12 m 7 7 l
0 10 l
-7 7 l
-10 0 l
-7 -7 l
0 -10 l
7 -7 l
10 0 l
-6 -60 m 5 -12 m 7 7 l
0 10 l
-7 7 l
-10 0 l
-7 -7 l
0 -10 l
7 -7 l
10 0 l
-19 -74 m 5 -12 m 7 7 l
0 10 l
-7 7 l
-10 0 l
-7 -7 l
0 -10 l
7 -7 l
10 0 l
-9 122 m 5 -12 m 7 7 l
0 10 l
-7 7 l
-10 0 l
-7 -7 l
0 -10 l
7 -7 l
10 0 l
-7 103 m 5 -12 m 7 7 l
0 10 l
-7 7 l
-10 0 l
-7 -7 l
0 -10 l
7 -7 l
10 0 l
-6 -88 m 5 -12 m 7 7 l
0 10 l
-7 7 l
-10 0 l
-7 -7 l
0 -10 l
7 -7 l
10 0 l
-7 -37 m 5 -13 m 7 8 l
0 10 l
-7 7 l
-10 0 l
-7 -7 l
0 -10 l
7 -8 l
10 0 l
-6 71 m 5 -13 m 7 7 l
0 10 l
-7 8 l
-10 0 l
-7 -8 l
0 -10 l
7 -7 l
10 0 l
-5 2 m 5 -12 m 7 7 l
0 10 l
-7 7 l
-10 0 l
-7 -7 l
0 -10 l
7 -7 l
10 0 l
-8 -50 m 5 -12 m 7 7 l
0 10 l
-7 7 l
-10 0 l
-7 -7 l
0 -10 l
7 -7 l
10 0 l
-16 159 m 5 -12 m 7 7 l
0 10 l
-7 7 l
-10 0 l
-7 -7 l
0 -10 l
7 -7 l
10 0 l
-18 -75 m 5 -12 m 7 7 l
0 10 l
-7 7 l
-10 0 l
-7 -7 l
0 -10 l
7 -7 l
10 0 l
-11 -25 m 5 -13 m 7 8 l
0 10 l
-7 7 l
-10 0 l
-7 -7 l
0 -10 l
7 -8 l
10 0 l
-8 24 m 5 -12 m 7 7 l
0 10 l
-7 7 l
-10 0 l
-7 -7 l
0 -10 l
7 -7 l
10 0 l
-10 1 m 5 -13 m 7 8 l
0 10 l
-7 7 l
-10 0 l
-7 -7 l
0 -10 l
7 -8 l
10 0 l
-10 59 m 4 -12 m 8 7 l
0 10 l
-8 7 l
-10 0 l
-7 -7 l
0 -10 l
7 -7 l
10 0 l
-4 -70 m 4 -12 m 8 7 l
0 10 l
-8 7 l
-10 0 l
-7 -7 l
0 -10 l
7 -7 l
10 0 l
-10 97 m 5 -12 m 7 7 l
0 10 l
-7 7 l
-10 0 l
-7 -7 l
0 -10 l
7 -7 l
10 0 l
-15 4 m 5 -12 m 7 7 l
0 10 l
-7 7 l
-10 0 l
-7 -7 l
0 -10 l
7 -7 l
10 0 l
-8 -32 m 5 -12 m 7 7 l
0 10 l
-7 7 l
-10 0 l
-7 -7 l
0 -10 l
7 -7 l
10 0 l
-8 -15 m 5 -12 m 7 7 l
0 10 l
-7 7 l
-10 0 l
-7 -7 l
0 -10 l
7 -7 l
10 0 l
-11 116 m 5 -12 m 7 7 l
0 10 l
-7 7 l
-10 0 l
-7 -7 l
0 -10 l
7 -7 l
10 0 l
-5 -70 m 5 -13 m 7 8 l
0 10 l
-7 7 l
-10 0 l
-7 -7 l
0 -10 l
7 -8 l
10 0 l
-5 45 m 5 -12 m 7 7 l
0 10 l
-7 7 l
-10 0 l
-7 -7 l
0 -10 l
7 -7 l
10 0 l
-10 18 m 5 -12 m 7 7 l
0 10 l
-7 7 l
-10 0 l
-7 -7 l
0 -10 l
7 -7 l
10 0 l
-6 23 m 5 -12 m 8 7 l
0 10 l
-8 7 l
-10 0 l
-7 -7 l
0 -10 l
7 -7 l
10 0 l
-15 -38 m 5 -13 m 7 8 l
0 10 l
-7 7 l
-10 0 l
-7 -7 l
0 -10 l
7 -8 l
10 0 l
-13 -10 m 5 -12 m 7 7 l
0 10 l
-7 8 l
-10 0 l
-7 -8 l
0 -10 l
7 -7 l
10 0 l
-9 33 m 5 -13 m 7 8 l
0 9 l
-7 8 l
-10 0 l
-7 -8 l
0 -9 l
7 -8 l
10 0 l
-17 -35 m 5 -12 m 7 7 l
0 10 l
-7 7 l
-10 0 l
-7 -7 l
0 -10 l
7 -7 l
10 0 l
-10 105 m 5 -12 m 7 7 l
0 10 l
-7 7 l
-10 0 l
-7 -7 l
0 -10 l
7 -7 l
10 0 l
-9 -49 m 5 -12 m 7 7 l
0 10 l
-7 7 l
-10 0 l
-7 -7 l
0 -10 l
7 -7 l
10 0 l
-7 51 m 5 -12 m 7 7 l
0 10 l
-7 7 l
-10 0 l
-7 -7 l
0 -10 l
7 -7 l
10 0 l
-10 3 m 5 -13 m 7 8 l
0 9 l
-7 8 l
-10 0 l
-7 -8 l
CS M
0 -9 l
7 -8 l
10 0 l
-13 -16 m 5 -12 m 7 7 l
0 10 l
-7 7 l
-10 0 l
-7 -7 l
0 -10 l
7 -7 l
10 0 l
-5 41 m 5 -13 m 7 8 l
0 9 l
-7 8 l
-10 0 l
-7 -8 l
0 -9 l
7 -8 l
10 0 l
-6 43 m 5 -13 m 7 8 l
0 10 l
-7 7 l
-10 0 l
-7 -7 l
0 -10 l
7 -8 l
10 0 l
-19 -33 m 5 -12 m 8 7 l
0 10 l
-8 7 l
-10 0 l
-7 -7 l
0 -10 l
7 -7 l
10 0 l
-5 -9 m 5 -12 m 8 7 l
0 10 l
-8 7 l
-10 0 l
-7 -7 l
0 -10 l
7 -7 l
10 0 l
-5 97 m 5 -12 m 7 7 l
0 10 l
-7 7 l
-10 0 l
-7 -7 l
0 -10 l
7 -7 l
10 0 l
-5 -19 m 5 -12 m 7 7 l
0 10 l
-7 7 l
-10 0 l
-7 -7 l
0 -10 l
7 -7 l
10 0 l
-9 -22 m 4 -12 m 8 7 l
0 10 l
-8 7 l
-10 0 l
-7 -7 l
0 -10 l
7 -7 l
10 0 l
-13 18 m 5 -13 m 7 8 l
0 10 l
-7 7 l
-10 0 l
-7 -7 l
0 -10 l
7 -8 l
10 0 l
-32 11 m 5 -12 m 7 7 l
0 10 l
-7 7 l
-10 0 l
-7 -7 l
0 -10 l
7 -7 l
10 0 l
-8 -17 m 5 -12 m 7 7 l
0 10 l
-7 7 l
-10 0 l
-7 -7 l
0 -10 l
7 -7 l
10 0 l
-26 14 m 5 -12 m 7 7 l
0 10 l
-7 7 l
-10 0 l
-7 -7 l
0 -10 l
7 -7 l
10 0 l
-24 -62 m 5 -12 m 7 7 l
0 10 l
-7 7 l
-10 0 l
-7 -7 l
0 -10 l
7 -7 l
10 0 l
-13 60 m 5 -12 m 7 7 l
0 10 l
-7 7 l
-10 0 l
-7 -7 l
0 -10 l
7 -7 l
10 0 l
-10 36 m 5 -13 m 7 8 l
0 10 l
-7 7 l
-10 0 l
-7 -7 l
0 -10 l
7 -8 l
10 0 l
-22 7 m 5 -12 m 7 7 l
0 10 l
-7 7 l
-10 0 l
-7 -7 l
0 -10 l
7 -7 l
10 0 l
-16 4 m 5 -13 m 7 7 l
0 10 l
-7 8 l
-10 0 l
-7 -8 l
0 -10 l
7 -7 l
10 0 l
-7 -79 m 5 -12 m 7 7 l
0 10 l
-7 7 l
-10 0 l
-7 -7 l
0 -10 l
7 -7 l
10 0 l
-12 108 m 5 -12 m 7 7 l
0 10 l
-7 7 l
-10 0 l
-7 -7 l
0 -10 l
7 -7 l
10 0 l
-11 26 m 5 -12 m 7 7 l
0 10 l
-7 7 l
-10 0 l
-7 -7 l
0 -10 l
7 -7 l
10 0 l
-6 20 m 5 -12 m 7 7 l
0 10 l
-7 7 l
-10 0 l
-7 -7 l
0 -10 l
7 -7 l
10 0 l
-37 -2 m 5 -12 m 7 7 l
0 10 l
-7 7 l
-10 0 l
-7 -7 l
0 -10 l
7 -7 l
10 0 l
-16 0 m 5 -13 m 7 7 l
0 10 l
-7 8 l
-10 0 l
-7 -8 l
0 -10 l
7 -7 l
10 0 l
-30 6 m 5 -12 m 7 7 l
0 10 l
-7 7 l
-10 0 l
-7 -7 l
0 -10 l
7 -7 l
10 0 l
-35 -31 m 5 -12 m 7 7 l
0 10 l
-7 7 l
-10 0 l
-8 -7 l
0 -10 l
8 -7 l
10 0 l
-6 22 m 5 -12 m 7 7 l
0 10 l
-7 7 l
-10 0 l
-7 -7 l
0 -10 l
7 -7 l
10 0 l
-27 11 m 5 -13 m 7 8 l
0 10 l
-7 7 l
-10 0 l
-7 -7 l
0 -10 l
7 -8 l
10 0 l
-7 -7 m 5 -12 m 7 7 l
0 10 l
-7 7 l
-10 0 l
-7 -7 l
0 -10 l
7 -7 l
10 0 l
-42 29 m 5 -12 m 8 7 l
0 10 l
-8 7 l
-10 0 l
-7 -7 l
0 -10 l
7 -7 l
10 0 l
-22 54 m 5 -12 m 7 7 l
0 10 l
-7 7 l
-10 0 l
-7 -7 l
0 -10 l
7 -7 l
10 0 l
-20 -86 m 5 -12 m 7 7 l
0 10 l
-7 7 l
-10 0 l
-7 -7 l
0 -10 l
7 -7 l
10 0 l
-16 8 m 5 -12 m 7 7 l
0 10 l
-7 7 l
-10 0 l
-8 -7 l
0 -10 l
8 -7 l
10 0 l
-13 1 m 5 -13 m 7 8 l
0 10 l
-7 7 l
-10 0 l
-7 -7 l
0 -10 l
7 -8 l
10 0 l
-8 53 m 5 -12 m 7 7 l
0 10 l
-7 7 l
-10 0 l
-7 -7 l
0 -10 l
7 -7 l
10 0 l
-8 -33 m 5 -12 m 7 7 l
0 10 l
-7 7 l
-10 0 l
-7 -7 l
0 -10 l
7 -7 l
10 0 l
-13 22 m 5 -12 m 7 7 l
0 10 l
-7 7 l
-10 0 l
-7 -7 l
0 -10 l
7 -7 l
10 0 l
-26 56 m 5 -12 m 7 7 l
0 10 l
-7 7 l
-10 0 l
-7 -7 l
0 -10 l
7 -7 l
10 0 l
-9 -30 m 5 -12 m 7 7 l
CS M
0 10 l
-7 7 l
-10 0 l
-7 -7 l
0 -10 l
7 -7 l
10 0 l
-7 71 m 5 -12 m 7 7 l
0 10 l
-7 7 l
-10 0 l
-7 -7 l
0 -10 l
7 -7 l
10 0 l
-14 8 m 5 -12 m 7 7 l
0 10 l
-7 7 l
-10 0 l
-7 -7 l
0 -10 l
7 -7 l
10 0 l
-6 -16 m 5 -12 m 7 7 l
0 10 l
-7 7 l
-10 0 l
-7 -7 l
0 -10 l
7 -7 l
10 0 l
-35 -39 m 5 -12 m 7 7 l
0 10 l
-7 7 l
-10 0 l
-7 -7 l
0 -10 l
7 -7 l
10 0 l
-13 133 m 5 -12 m 7 7 l
0 10 l
-7 7 l
-10 0 l
-7 -7 l
0 -10 l
7 -7 l
10 0 l
-9 -25 m 5 -12 m 7 7 l
0 10 l
-7 8 l
-10 0 l
-7 -8 l
0 -10 l
7 -7 l
10 0 l
-10 -34 m 5 -12 m 7 7 l
0 10 l
-7 7 l
-10 0 l
-7 -7 l
0 -10 l
7 -7 l
10 0 l
-8 -6 m 5 -12 m 8 7 l
0 10 l
-8 7 l
-10 0 l
-7 -7 l
0 -10 l
7 -7 l
10 0 l
-16 32 m 5 -12 m 7 7 l
0 10 l
-7 7 l
-10 0 l
-7 -7 l
0 -10 l
7 -7 l
10 0 l
-10 -37 m 5 -12 m 7 7 l
0 10 l
-7 7 l
-10 0 l
-7 -7 l
0 -10 l
7 -7 l
10 0 l
-16 15 m 5 -12 m 7 7 l
0 10 l
-7 7 l
-10 0 l
-7 -7 l
0 -10 l
7 -7 l
10 0 l
-20 13 m 5 -12 m 7 7 l
0 10 l
-7 7 l
-10 0 l
-8 -7 l
0 -10 l
8 -7 l
10 0 l
-8 49 m 5 -12 m 7 7 l
0 10 l
-7 7 l
-10 0 l
-7 -7 l
0 -10 l
7 -7 l
10 0 l
-10 47 m 5 -12 m 7 7 l
0 10 l
-7 7 l
-10 0 l
-7 -7 l
0 -10 l
7 -7 l
10 0 l
-38 -13 m 5 -12 m 7 7 l
0 10 l
-7 7 l
-10 0 l
-7 -7 l
0 -10 l
7 -7 l
10 0 l
-6 13 m 5 -12 m 7 7 l
0 10 l
-7 7 l
-10 0 l
-7 -7 l
0 -10 l
7 -7 l
10 0 l
-56 7 m 5 -12 m 7 7 l
0 10 l
-7 7 l
-10 0 l
-7 -7 l
0 -10 l
7 -7 l
10 0 l
-21 -29 m 5 -12 m 7 7 l
0 10 l
-7 7 l
-10 0 l
-8 -7 l
0 -10 l
8 -7 l
10 0 l
-6 1 m 4 -13 m 8 8 l
0 10 l
-8 7 l
-10 0 l
-7 -7 l
0 -10 l
7 -8 l
10 0 l
-9 101 m 5 -12 m 7 7 l
0 10 l
-7 7 l
-10 0 l
-7 -7 l
0 -10 l
7 -7 l
10 0 l
-5 -82 m 5 -12 m 7 7 l
0 10 l
-7 7 l
-10 0 l
-7 -7 l
0 -10 l
7 -7 l
10 0 l
-23 46 m 5 -12 m 7 7 l
0 10 l
-7 7 l
-10 0 l
-7 -7 l
0 -10 l
7 -7 l
10 0 l
-39 -2 m 5 -12 m 7 7 l
0 10 l
-7 7 l
-10 0 l
-7 -7 l
0 -10 l
7 -7 l
10 0 l
-98 -32 m 5 -12 m 7 7 l
0 10 l
-7 7 l
-10 0 l
-7 -7 l
0 -10 l
7 -7 l
10 0 l
-19 34 m 5 -12 m 7 7 l
0 10 l
-7 7 l
-10 0 l
-7 -7 l
0 -10 l
7 -7 l
10 0 l
861 398 m 5 -12 m 7 7 l
0 10 l
-7 7 l
-10 0 l
-7 -7 l
0 -10 l
7 -7 l
10 0 l
-4 -29 m 5 -12 m 7 7 l
0 10 l
-7 7 l
-10 0 l
-7 -7 l
0 -10 l
7 -7 l
10 0 l
-429 -392 m 5 -13 m 7 8 l
0 10 l
-7 7 l
-10 0 l
-7 -7 l
0 -10 l
7 -8 l
10 0 l
-43 44 m 5 -12 m 7 7 l
0 10 l
-7 7 l
-10 0 l
-7 -7 l
0 -10 l
7 -7 l
10 0 l
1145 437 m 0 10 l
0 0 l
-93 -26 m 0 13 l
0 0 l
-11 12 m 0 19 l
0 0 l
-17 -61 m 0 4 l
0 0 l
-18 15 m 0 10 l
0 0 l
-44 22 m 0 11 l
0 0 l
-27 -40 m 0 11 l
0 0 l
-5 -24 m 0 11 l
0 0 l
-1 -14 m 0 11 l
0 0 l
-15 -20 m 0 9 l
1 0 m -1 0 l
-9 -73 m 0 8 l
-1 0 l
-10 31 m 0 13 l
0 0 l
-1 17 m 0 11 l
0 0 l
-2 -24 m 0 12 l
0 -1 l
-24 -69 m 0 8 l
0 0 l
-4 -5 m 0 17 l
0 0 l
-11 4 m 0 22 l
0 0 l
-1 50 m 0 5 l
0 -1 l
-12 -79 m 0 10 l
0 0 l
-11 -6 m 0 9 l
0 0 l
-10 -22 m 0 4 l
0 0 l
-8 28 m 0 6 l
0 0 l
-13 36 m 0 6 l
0 0 l
-3 -52 m 0 2 l
0 0 l
-12 -5 m 0 5 l
0 0 l
-6 -5 m 0 11 l
0 0 l
-9 -6 m 0 4 l
1 0 m -1 0 l
-4 -47 m 0 4 l
-1 0 l
-12 41 m 0 13 l
0 0 l
-5 -40 m 0 6 l
0 -1 l
-1 53 m 0 3 l
CS M
0 0 l
0 12 m 0 12 l
0 0 l
-7 -64 m 0 10 l
0 0 l
-9 -51 m 0 12 l
0 0 l
-4 19 m 0 3 l
0 0 l
-7 -31 m 0 5 l
0 0 l
-6 -46 m 0 9 l
0 0 l
-3 52 m 0 11 l
0 0 l
-19 -30 m 0 6 l
0 0 l
-5 -21 m 0 15 l
-1 0 l
-3 -49 m 0 26 l
-1 0 l
-1 28 m 0 9 l
-1 0 l
-4 -53 m 0 10 l
0 0 l
-18 52 m 0 12 l
1 0 m -1 -1 l
-16 -36 m 0 5 l
0 0 l
-4 -31 m 0 2 l
0 0 l
-4 45 m 0 12 l
0 0 l
-10 18 m 0 13 l
0 0 l
-4 -78 m 0 15 l
1 0 m -1 0 l
-11 10 m 0 13 l
0 -1 l
-11 -3 m 0 2 l
0 -1 l
-13 17 m 0 1 l
1 0 m -1 0 l
-1 -13 m 0 2 l
0 0 l
-4 -23 m 0 14 l
0 0 l
-4 -86 m 0 15 l
0 0 l
-9 25 m 0 13 l
0 0 l
0 -92 m 0 6 l
0 0 l
-2 29 m 0 13 l
0 0 l
-4 27 m 0 7 l
0 0 l
-10 4 m 0 14 l
0 0 l
-2 -104 m 0 13 l
0 0 l
-10 108 m 0 11 l
0 0 l
-1 -83 m 0 18 l
-1 0 l
-13 -104 m 0 18 l
0 -1 l
-4 93 m 0 10 l
0 -1 l
-2 82 m 0 2 l
0 0 l
-1 -102 m 0 9 l
0 -1 l
-2 -57 m 0 3 l
0 0 l
-1 55 m 0 10 l
0 0 l
0 -21 m 0 7 l
0 0 l
-3 -69 m 0 15 l
0 0 l
-11 132 m 0 3 l
0 -1 l
-13 -89 m 0 13 l
0 -1 l
-6 -49 m 0 14 l
0 0 l
-3 -3 m 0 3 l
0 0 l
-5 -14 m 0 17 l
0 0 l
-5 29 m 0 17 l
-1 0 l
1 -99 m 0 13 l
-1 0 l
-5 72 m 0 19 l
-1 0 l
-9 -27 m 0 19 l
0 0 l
-3 -63 m 0 18 l
0 0 l
-3 -45 m 0 6 l
0 0 l
-6 98 m 0 16 l
0 0 l
0 -98 m 0 5 l
0 0 l
0 27 m 0 8 l
0 0 l
-5 -2 m 0 16 l
0 0 l
-1 -5 m 0 12 l
1 0 m -1 0 l
-10 -62 m 0 5 l
-1 0 l
-7 -28 m 0 6 l
0 0 l
-4 15 m 0 11 l
0 0 l
-12 -59 m 0 12 l
0 0 l
-5 81 m 0 8 l
1 0 m -1 0 l
-4 -69 m 0 14 l
0 0 l
-2 25 m 0 14 l
0 0 l
-5 -23 m 0 16 l
0 0 l
-8 -45 m 0 15 l
0 0 l
0 14 m 0 5 l
0 0 l
-1 25 m 0 11 l
0 0 l
-14 -57 m 0 3 l
1 0 m -1 0 l
0 -24 m 0 4 l
1 0 m -1 0 l
0 81 m 0 14 l
0 0 l
0 -45 m 0 7 l
0 0 l
-4 -41 m 0 3 l
-1 0 l
-8 3 m 0 15 l
0 0 l
-27 -17 m 0 4 l
0 0 l
-3 -33 m 0 9 l
0 0 l
-21 -7 m 0 5 l
0 0 l
-19 -79 m 0 23 l
0 0 l
-8 25 m 0 13 l
-1 0 l
-4 11 m 0 6 l
0 0 l
-17 -12 m 0 4 l
0 0 l
-11 -12 m 0 34 l
0 -1 l
-2 -125 m 0 14 l
0 0 l
-7 82 m 0 22 l
0 0 l
-6 -8 m 0 14 l
0 0 l
-1 -6 m 0 16 l
0 -1 l
-32 -29 m 0 6 l
0 0 l
-11 -18 m 0 4 l
0 0 l
-25 -11 m 0 11 l
0 0 l
-30 -54 m 0 8 l
-1 0 l
0 2 m 0 8 l
0 0 l
-22 -9 m 0 6 l
0 0 l
-2 -26 m 0 11 l
1 0 m -1 0 l
-37 6 m 0 7 l
1 0 m -1 0 l
-17 35 m 0 14 l
0 0 l
-15 -112 m 0 19 l
0 0 l
-11 -23 m 0 15 l
-1 0 l
-7 -26 m 0 14 l
0 0 l
-3 26 m 0 10 l
0 0 l
-3 -55 m 0 15 l
0 0 l
-8 -5 m 0 13 l
0 0 l
-21 31 m 0 13 l
-1 0 l
-3 -55 m 0 15 l
0 -1 l
-2 45 m 0 14 l
0 0 l
-9 -18 m 0 8 l
0 0 l
-1 -36 m 0 12 l
0 0 l
-30 -63 m 0 36 l
0 0 l
-8 85 m 0 7 l
0 0 l
-4 -44 m 0 7 l
0 0 l
-5 -53 m 0 11 l
0 0 l
-3 -29 m 0 13 l
1 0 m -1 0 l
-11 7 m 0 11 l
0 0 l
-5 -60 m 0 19 l
0 0 l
-11 -16 m 0 25 l
0 0 l
-15 -24 m 0 20 l
-1 0 l
-2 17 m 0 14 l
0 0 l
-5 21 m 0 9 l
0 0 l
-33 -34 m 0 12 l
0 0 l
-1 -11 m 0 12 l
0 0 l
-51 -17 m 0 16 l
0 0 l
-16 -57 m 0 19 l
-1 0 l
0 -30 m 0 23 l
-1 0 l
-4 65 m 0 8 l
0 0 l
0 -102 m 0 22 l
0 0 l
-18 12 m 0 17 l
0 -1 l
-34 -30 m 0 12 l
0 0 l
-93 -56 m 0 31 l
0 0 l
-14 -9 m 0 12 l
0 0 l
866 374 m 0 11 l
0 0 l
1 -52 m 0 11 l
-1 0 l
-337 -508 m 0 182 l
0 0 l
-422 -182 m 0 56 l
0 0 l
336 37 m 0 42 l
0 0 l
-38 -11 m 0 65 l
0 0 l
1150 360 m 0 -11 l
0 0 l
-93 -5 m 0 -12 l
0 0 l
-11 37 m 0 -20 l
0 0 l
-17 -22 m 0 -4 l
0 0 l
-18 23 m 0 -11 l
0 0 l
-44 43 m 0 -11 l
0 0 l
-27 -18 m 0 -12 l
0 0 l
-5 -1 m 0 -11 l
0 0 l
-1 8 m 0 -11 l
0 0 l
-15 2 m 0 -8 l
1 0 m -1 0 l
-9 -56 m 0 -8 l
-1 0 l
-10 47 m 0 -14 l
0 0 l
-1 44 m 0 -11 l
0 0 l
-2 -2 m 0 -12 l
0 0 l
-24 -46 m 0 -8 l
0 0 l
-4 11 m 0 -18 l
0 0 l
-11 39 m 0 -22 l
CS M
0 0 l
-1 94 m 0 -5 l
0 0 l
-12 -70 m 0 -10 l
0 0 l
-11 14 m 0 -10 l
0 0 l
-10 -3 m 0 -4 l
0 0 l
-8 36 m 0 -5 l
0 0 l
-13 47 m 0 -5 l
0 0 l
-3 -41 m 0 -2 l
0 0 l
-12 -1 m 0 -6 l
0 0 l
-6 6 m 0 -11 l
0 0 l
-9 16 m 0 -4 l
1 0 m -1 0 l
-4 -39 m 0 -3 l
-1 0 l
-12 48 m 0 -12 l
0 0 l
-5 -15 m 0 -6 l
0 0 l
-1 64 m 0 -3 l
0 0 l
0 18 m 0 -11 l
0 0 l
-7 -41 m 0 -11 l
0 0 l
-9 -30 m 0 -12 l
0 0 l
-4 43 m 0 -3 l
0 0 l
-7 -25 m 0 -5 l
0 0 l
-6 -36 m 0 -9 l
0 0 l
-3 70 m 0 -12 l
0 0 l
-19 -7 m 0 -6 l
0 0 l
-5 -9 m 0 -16 l
-1 0 l
-3 -18 m 0 -26 l
-1 0 l
-1 80 m 0 -8 l
-1 0 l
-4 -36 m 0 -11 l
0 0 l
-18 73 m 0 -11 l
1 0 m -1 0 l
-16 -14 m 0 -5 l
0 0 l
-4 -21 m 0 -3 l
0 0 l
-4 50 m 0 -12 l
0 0 l
-10 42 m 0 -14 l
0 0 l
-4 -51 m 0 -15 l
1 0 m -1 0 l
-11 40 m 0 -12 l
0 0 l
-11 21 m 0 -1 l
0 0 l
-13 19 m 0 -2 l
1 0 m -1 0 l
-1 -10 m 0 -1 l
0 0 l
-4 -20 m 0 -13 l
0 -1 l
-4 -58 m 0 -14 l
0 0 l
-9 54 m 0 -14 l
0 0 l
0 -65 m 0 -7 l
0 0 l
-2 42 m 0 -12 l
0 0 l
-4 52 m 0 -6 l
0 0 l
-10 17 m 0 -13 l
0 -1 l
-2 -76 m 0 -13 l
0 0 l
-10 134 m 0 -12 l
0 0 l
-1 -60 m 0 -18 l
-1 0 l
-13 -68 m 0 -18 l
0 0 l
-4 128 m 0 -9 l
0 0 l
-2 100 m 0 -3 l
0 0 l
-1 -97 m 0 -8 l
0 0 l
-2 -41 m 0 -4 l
0 0 l
-1 62 m 0 -11 l
0 0 l
0 -7 l
0 0 l
-3 -55 m 0 -14 l
0 0 l
-11 161 m 0 -3 l
0 0 l
-13 -84 m 0 -13 l
0 0 l
-6 -24 m 0 -15 l
0 0 l
-3 26 m 0 -3 l
0 -1 l
-5 -7 m 0 -18 l
0 0 l
-5 64 m 0 -16 l
-1 0 l
1 -66 m 0 -13 l
-1 0 l
-5 98 m 0 -19 l
-1 0 l
-9 11 m 0 -18 l
0 0 l
-3 -26 m 0 -18 l
0 0 l
-3 -9 m 0 -5 l
0 0 l
-6 109 m 0 -15 l
0 0 l
0 -67 m 0 -6 l
0 0 l
0 38 m 0 -9 l
0 0 l
-5 15 m 0 -15 l
0 0 l
-1 26 m 0 -12 l
1 0 m -1 0 l
-10 -38 m 0 -6 l
-1 0 l
-7 -17 m 0 -5 l
0 0 l
-4 26 m 0 -12 l
0 0 l
-12 -36 m 0 -12 l
0 0 l
-5 105 m 0 -8 l
1 0 m -1 0 l
-4 -53 m 0 -14 l
0 0 l
-2 53 m 0 -14 l
0 0 l
-5 5 m 0 -17 l
0 0 l
-8 -12 m 0 -15 l
0 0 l
0 44 m 0 -6 l
0 0 l
-1 36 m 0 -12 l
0 0 l
-14 -34 m 0 -3 l
1 0 m -1 0 l
0 -18 m 0 -4 l
1 0 m -1 0 l
0 89 m 0 -14 l
0 0 l
0 -17 m 0 -7 l
0 0 l
-4 -27 m 0 -2 l
-1 0 l
-8 8 m 0 -16 l
0 0 l
-27 14 m 0 -3 l
0 0 l
-3 -26 m 0 -8 l
0 0 l
-21 10 m 0 -4 l
0 -1 l
-19 -69 m 0 -23 l
0 0 l
-8 71 m 0 -13 l
-1 0 l
-4 37 m 0 -7 l
0 0 l
-17 1 m 0 -3 l
0 -1 l
-11 -4 m 0 -34 l
0 0 l
-2 -58 m 0 -13 l
0 0 l
-7 109 m 0 -22 l
0 0 l
-6 36 m 0 -15 l
0 0 l
-1 23 m 0 -15 l
0 0 l
-32 1 m 0 -7 l
0 0 l
-11 -5 m 0 -5 l
0 0 l
-25 -2 m 0 -10 l
0 0 l
-30 -33 m 0 -9 l
-1 0 l
0 19 m 0 -7 l
0 0 l
-22 6 m 0 -7 l
0 0 l
-2 -13 m 0 -10 l
1 0 m -1 0 l
-37 27 m 0 -7 l
1 0 m -1 0 l
-17 49 m 0 -14 l
0 0 l
-15 -84 m 0 -19 l
0 -1 l
-11 16 m 0 -14 l
-1 0 l
-7 3 m 0 -15 l
0 0 l
-3 55 m 0 -10 l
0 0 l
-3 -35 m 0 -15 l
0 0 l
-8 25 m 0 -13 l
0 -1 l
-21 58 m 0 -13 l
-1 -1 l
-3 -28 m 0 -14 l
0 0 l
-2 73 m 0 -14 l
0 0 l
-9 10 m 0 -8 l
0 0 l
-1 -20 m 0 -13 l
0 0 l
-30 -38 m 0 -36 l
0 0 l
-8 157 m 0 -7 l
0 0 l
-4 -30 m 0 -7 l
0 0 l
-5 -39 m 0 -11 l
0 0 l
-3 -7 m 0 -14 l
1 0 m -1 0 l
-11 34 m 0 -11 l
0 0 l
-5 -38 m 0 -19 l
0 0 l
-11 22 m 0 -24 l
0 0 l
-15 25 m 0 -20 l
-1 0 l
-2 57 m 0 -14 l
0 0 l
-5 49 m 0 -8 l
0 0 l
-33 -17 m 0 -12 l
0 0 l
-1 13 m 0 -11 l
0 0 l
-51 6 m 0 -16 l
0 0 l
-16 -25 m 0 -19 l
-1 0 l
0 8 m 0 -24 l
-1 0 l
-4 112 m 0 -8 l
0 0 l
0 -86 m 0 -23 l
0 0 l
-18 57 m 0 -17 l
0 0 l
-34 3 m 0 -12 l
0 0 l
-93 -32 m 0 -31 l
0 0 l
-14 53 m 0 -13 l
0 0 l
866 399 m 0 -11 l
0 0 l
1 -30 m 0 -12 l
-1 0 l
-423 -392 m 0 -43 l
0 0 l
-38 74 m 0 -65 l
0 0 l
1150 490 m 25 0 l
-118 -16 m 14 0 l
0 0 l
-25 25 m 22 0 l
0 -1 l
-39 -41 m 32 0 l
0 0 l
-50 19 m 14 0 l
0 0 l
CS M
-58 32 m 33 0 l
0 0 l
-60 -29 m 14 0 l
0 0 l
-19 -13 m 47 0 l
0 0 l
-48 -3 m 15 0 l
0 0 l
-30 -9 m 15 0 l
0 1 m 0 -1 l
-24 -64 m 14 0 l
0 0 l
-25 39 m 15 0 l
-1 -1 l
-15 31 m 15 0 l
0 0 l
-17 -13 m 15 0 l
0 0 l
-39 -58 m 14 0 l
0 0 l
-18 3 m 15 0 l
0 -1 l
-26 22 m 15 0 l
0 0 l
-16 72 m 15 0 l
0 0 l
-27 -75 m 14 0 l
0 0 l
-25 4 m 13 0 l
0 0 l
-23 -13 m 13 0 l
0 0 l
-21 32 m 2 0 l
0 0 l
-15 42 m 20 0 l
0 0 l
-23 -46 m 11 0 l
0 0 l
-23 -3 m 5 0 l
0 0 l
-11 0 m 57 0 l
-1 0 l
-65 5 m 15 0 l
0 0 l
-19 -43 m 6 0 l
0 0 l
-19 45 m 26 0 l
0 0 l
-31 -27 m 7 0 l
0 0 l
-8 58 m 4 0 l
0 0 l
-4 15 m 22 0 l
0 1 m 0 -1 l
-29 -52 m 15 0 l
0 -1 l
-24 -40 m 15 0 l
0 0 l
-19 31 m 14 0 l
0 0 l
-21 -28 m 10 0 l
0 0 l
-16 -41 m 18 0 l
0 0 l
-21 61 m 14 0 l
0 0 l
-33 -19 m 18 0 l
0 0 l
-23 -15 m 12 0 l
0 -1 l
-16 -33 m 21 0 l
0 0 l
-23 54 m 6 0 l
0 1 m 0 -1 l
-11 -44 m 15 0 l
-1 -1 l
-32 63 m 20 0 l
0 0 l
-36 -25 m 27 0 l
0 0 l
-31 -26 m 14 0 l
0 0 l
-18 47 m 7 0 l
0 0 l
-17 30 m 21 0 l
0 -1 l
-25 -64 m 28 0 l
0 0 l
-39 25 m 40 0 l
0 0 l
-51 9 m 13 0 l
0 0 l
-26 18 m 27 0 l
0 0 l
-28 -12 m 25 0 l
0 0 l
-29 -21 m 15 0 l
0 0 l
-19 -72 m 24 0 l
0 1 m 0 -1 l
-33 40 m 23 0 l
0 0 l
-23 -79 m 11 0 l
0 -1 l
-13 36 m 17 0 l
-1 0 l
-20 40 m 13 0 l
0 1 m 0 -1 l
-23 11 m 36 0 l
0 0 l
-38 -90 m 14 0 l
0 -1 l
-24 122 m 33 0 l
0 0 l
-34 -72 m 6 0 l
0 0 l
-20 -86 m 18 0 l
-1 0 l
-21 110 m 16 0 l
0 0 l
-18 91 m 18 0 l
0 0 l
-19 -100 m 7 0 l
0 0 l
-9 -49 m 19 0 l
0 -1 l
-20 59 m 4 0 l
0 -1 l
-4 -10 m 22 0 l
0 0 l
-25 -62 m 18 0 l
0 1 m 0 -1 l
-29 147 m 26 0 l
0 0 l
-39 -87 m 32 0 l
0 0 l
-38 -37 m 15 0 l
0 -1 l
-18 12 m 61 0 l
-1 0 l
-65 -11 m 24 0 l
0 -1 l
-29 47 m 14 0 l
0 0 l
-14 -82 m 13 0 l
0 0 l
-19 85 m 13 0 l
0 0 l
-23 -8 m 14 0 l
0 0 l
-17 -44 m 14 0 l
0 0 l
-17 -27 m 15 0 l
0 1 m 0 -1 l
-21 104 m 26 0 l
0 1 m -1 -1 l
-25 -82 m 12 0 l
0 -1 l
-12 33 m 4 0 l
0 0 l
-9 6 m 15 0 l
0 0 l
-16 11 m 20 0 l
0 0 l
-30 -50 m 10 0 l
0 -1 l
-18 -22 m 38 0 l
0 1 m 0 -1 l
-42 21 m 7 0 l
0 -1 l
-19 -47 m 29 0 l
-1 0 l
-33 93 m 32 0 l
0 0 l
-36 -61 m 1 0 l
-1 0 l
-2 39 m 29 0 l
0 0 l
-34 -9 m 19 0 l
0 -1 l
-27 -28 m 11 0 l
0 0 l
-11 29 m 20 0 l
0 -1 l
-21 31 m 14 0 l
0 -1 l
-28 -45 m 20 0 l
0 0 l
-20 -21 m 18 0 l
0 1 m 0 -1 l
-18 85 m 24 0 l
0 0 l
-24 -31 m 19 0 l
0 0 l
-23 -34 m 0 0 l
0 0 l
-9 6 m 4 0 l
0 -1 l
-31 -1 m 8 0 l
0 0 l
-11 -29 m 16 0 l
0 0 l
-37 2 m 15 0 l
0 0 l
-34 -74 m 30 0 l
0 0 l
-38 48 m 8 0 l
0 0 l
-13 24 m 7 0 l
0 -1 l
-24 -5 m 5 0 l
0 0 l
-16 -8 m 14 0 l
0 -1 l
-16 -91 m 11 0 l
0 0 l
-18 96 m 17 0 l
0 0 l
-23 14 m 8 0 l
0 0 l
-9 8 m 4 0 l
0 0 l
-36 -14 m 6 0 l
0 0 l
-17 -12 m 23 0 l
-1 -1 l
-47 -6 m 7 0 l
0 0 l
-37 -43 m 8 0 l
-1 -1 l
-8 11 m 8 0 l
-1 0 l
-29 -1 m 6 0 l
0 -1 l
-8 -19 m 7 0 l
0 0 l
-44 17 m 8 0 l
0 0 l
-25 42 m 19 0 l
0 0 l
-34 -98 m 15 0 l
0 0 l
-26 -4 m 28 0 l
0 0 l
-36 -11 m 16 0 l
0 -1 l
-19 41 m 7 0 l
-1 0 l
-9 -45 m 6 0 l
0 0 l
-14 10 m 14 0 l
0 0 l
-35 44 m 7 0 l
-1 0 l
-10 -42 m 6 0 l
0 0 l
-8 59 m 60 0 l
0 0 l
-69 -4 m 16 0 l
0 0 l
-17 -28 m 6 0 l
0 0 l
-36 -51 m 8 0 l
0 0 l
-16 121 m 92 0 l
0 0 l
-96 -37 m 22 0 l
0 1 m 0 -1 l
-27 -46 m 7 0 l
0 0 l
-10 -18 m 10 0 l
0 0 l
-21 20 m 7 0 l
0 0 l
-12 -49 m 9 0 l
0 0 l
-20 3 m 10 0 l
0 0 l
-25 1 m 19 0 l
0 0 l
-22 37 m 7 0 l
0 0 l
-12 35 m 9 0 l
-1 0 l
-41 -25 m 10 0 l
0 0 l
-11 1 m 21 0 l
0 0 l
-72 -5 m 22 0 l
0 0 l
-38 -41 m 7 0 l
0 0 l
-8 -11 m 25 0 l
0 -1 l
-30 89 m 7 0 l
0 0 l
-7 -94 m 14 0 l
0 0 l
-32 34 m 9 0 l
0 0 l
CS M
-43 -14 m 9 0 l
0 0 l
-102 -44 m 7 0 l
0 0 l
-21 22 m 28 0 l
0 0 l
838 386 m 30 0 l
0 0 l
-29 -41 m 25 0 l
0 -1 l
-449 -403 m 18 0 l
0 -1 l
-56 32 m 9 0 l
0 0 l
1141 425 m -67 0 l
0 -1 l
-26 -15 m -14 0 l
0 0 l
3 25 m -21 0 l
-1 -1 l
5 -41 m -32 0 l
0 0 l
14 19 m -15 0 l
0 0 l
-29 32 m -33 0 l
0 0 l
6 -29 m -15 0 l
0 0 l
10 -13 m -47 0 l
0 0 l
46 -3 m -14 0 l
0 0 l
-1 -9 m -14 0 l
0 1 m 0 -1 l
5 -64 m -15 0 l
0 0 l
4 39 m -14 0 l
0 -1 l
13 31 m -15 0 l
0 0 l
13 -13 m -14 0 l
0 0 l
-10 -58 m -14 0 l
0 0 l
10 3 m -15 0 l
0 -1 l
4 22 m -14 0 l
0 0 l
13 72 m -15 0 l
0 0 l
3 -75 m -14 0 l
0 0 l
3 4 m -13 0 l
0 0 l
3 -13 m -14 0 l
0 0 l
6 32 m -3 0 l
0 0 l
-10 42 m -20 0 l
0 0 l
17 -46 m -11 0 l
0 0 l
-1 -3 m -5 0 l
0 0 l
-1 0 m -56 0 l
0 0 l
47 5 m -14 0 l
0 0 l
10 -43 m -7 0 l
0 0 l
-6 45 m -25 0 l
-1 0 l
21 -27 m -8 0 l
0 0 l
7 58 m -3 0 l
0 0 l
3 15 m -23 0 l
0 1 m 0 -1 l
16 -52 m -14 0 l
0 -1 l
5 -40 m -15 0 l
0 0 l
11 31 m -14 0 l
0 0 l
7 -28 m -10 0 l
0 0 l
4 -41 m -19 0 l
0 0 l
16 61 m -15 0 l
0 0 l
-4 -19 m -18 0 l
0 0 l
13 -15 m -13 0 l
0 -1 l
9 -33 m -22 0 l
0 0 l
20 54 m -6 0 l
0 1 m 0 -1 l
1 -44 m -15 0 l
0 -1 l
-3 63 m -19 0 l
0 0 l
3 -25 m -28 0 l
0 0 l
24 -26 m -15 0 l
0 0 l
11 47 m -7 0 l
0 0 l
-3 30 m -20 0 l
0 -1 l
16 -64 m -27 0 l
0 0 l
16 25 m -40 0 l
0 0 l
29 9 m -13 0 l
0 0 l
0 18 m -26 0 l
0 0 l
25 -12 m -25 0 l
0 0 l
21 -21 m -15 0 l
0 0 l
11 -72 m -24 0 l
0 1 m 0 -1 l
15 40 m -23 0 l
0 0 l
23 -79 m -12 0 l
0 -1 l
10 36 m -17 0 l
0 0 l
13 40 m -14 0 l
0 1 m 0 -1 l
4 11 m -36 0 l
0 0 l
34 -90 m -14 0 l
0 -1 l
4 122 m -33 0 l
0 0 l
32 -72 m -7 0 l
0 0 l
-7 -86 m -18 0 l
0 0 l
14 110 m -16 0 l
0 0 l
14 91 m -18 0 l
0 0 l
17 -100 m -8 0 l
0 0 l
6 -49 m -19 0 l
0 -1 l
18 59 m -4 0 l
0 -1 l
4 -10 m -21 0 l
0 0 l
18 -62 m -17 0 l
0 1 m 0 -1 l
6 147 m -26 0 l
0 0 l
13 -87 m -33 0 l
0 0 l
27 -37 m -15 0 l
0 -1 l
12 12 m -60 0 l
0 0 l
55 -11 m -24 0 l
0 -1 l
19 47 m -15 0 l
0 0 l
15 -82 m -14 0 l
0 0 l
8 85 m -14 0 l
0 0 l
4 -8 m -14 0 l
0 0 l
11 -44 m -14 0 l
0 0 l
11 -27 m -15 0 l
0 1 m 0 -1 l
9 104 m -25 0 l
0 1 m 0 -1 l
25 -82 m -11 0 l
0 -1 l
11 33 m -4 0 l
0 0 l
-1 6 m -14 0 l
0 0 l
13 11 m -19 0 l
0 0 l
9 -50 m -11 0 l
0 -1 l
3 -22 m -37 0 l
0 1 m 0 -1 l
33 21 m -7 0 l
0 -1 l
-5 -47 m -29 0 l
0 0 l
24 93 m -31 0 l
0 0 l
27 -61 m 0 0 l
-1 0 l
-1 39 m -29 0 l
0 0 l
24 -9 m -19 0 l
0 -1 l
11 -28 m -11 0 l
0 0 l
11 29 m -21 0 l
0 -1 l
20 31 m -15 0 l
0 -1 l
1 -45 m -19 0 l
0 0 l
19 -21 m -17 0 l
0 1 m 0 -1 l
17 85 m -24 0 l
0 0 l
24 -31 m -19 0 l
0 0 l
15 -34 m -2 0 l
0 0 l
-7 6 m -4 0 l
0 -1 l
-23 -1 m -8 0 l
0 0 l
5 -29 m -16 0 l
0 0 l
-5 2 m -15 0 l
0 0 l
-4 -74 m -30 0 l
0 0 l
22 48 m -8 0 l
0 0 l
3 24 m -7 0 l
0 -1 l
-10 -5 m -4 0 l
0 0 l
-7 -8 m -14 0 l
0 -1 l
12 -91 m -11 0 l
0 0 l
4 96 m -18 0 l
0 0 l
12 14 m -9 0 l
0 0 l
8 8 m -3 0 l
0 0 l
-29 -14 m -6 0 l
0 0 l
-5 -12 m -23 0 l
0 -1 l
-2 -6 m -8 0 l
0 0 l
-22 -43 m -8 0 l
0 -1 l
7 11 m -7 0 l
0 0 l
-15 -1 m -7 0 l
0 -1 l
5 -19 m -6 0 l
-1 0 l
-30 17 m -7 0 l
0 0 l
-10 42 m -20 0 l
0 0 l
5 -98 m -15 0 l
0 0 l
4 -4 m -29 0 l
0 0 l
21 -11 m -16 0 l
0 -1 l
13 41 m -7 0 l
0 0 l
4 -45 m -7 0 l
0 0 l
-1 10 m -14 0 l
-1 0 l
-6 44 m -7 0 l
0 0 l
3 -42 m -5 0 l
0 0 l
3 59 m -60 0 l
0 0 l
51 -4 m -16 0 l
0 0 l
15 -28 m -7 0 l
0 0 l
-23 -51 m -8 0 l
0 0 l
0 121 m -92 0 l
0 0 l
88 -37 m -22 0 l
0 1 m 0 -1 l
17 -46 m -7 0 l
0 0 l
4 -18 m -9 0 l
0 0 l
-2 20 m -7 0 l
0 0 l
2 -49 m -9 0 l
0 0 l
CS M
-2 3 m -9 0 l
0 0 l
-6 1 m -20 0 l
0 0 l
17 37 m -7 0 l
0 0 l
2 35 m -8 0 l
0 0 l
-25 -25 m -10 0 l
0 0 l
9 1 m -22 0 l
0 0 l
-29 -5 m -21 0 l
0 0 l
5 -41 m -8 0 l
0 0 l
7 -11 m -26 0 l
0 -1 l
21 89 m -7 0 l
0 0 l
7 -94 m -14 0 l
0 0 l
-4 34 m -9 0 l
0 0 l
-25 -14 m -10 0 l
0 0 l
-83 -44 m -7 0 l
0 0 l
-7 22 m -28 0 l
0 0 l
894 386 m -30 0 l
0 0 l
31 -41 m -26 0 l
0 -1 l
-398 -403 m -18 0 l
-1 -1 l
-19 32 m -8 0 l
0 0 l
-346 385 m CS [] 0 setdash M
670 2234 M 0 -47 l
2 47 m 0 -47 l
13 33 m 0 -18 l
-22 32 m 36 0 l
0 -14 l
-2 14 l
-25 -23 m 13 0 l
-22 -24 m 36 0 l
0 13 l
-2 -13 l
20 0 m -2 2 l
2 2 l
2 -2 l
0 -4 l
-2 -5 l
-2 -2 l
47 56 m 0 -47 l
2 47 m 0 -47 l
-2 24 m -5 5 l
-4 2 l
-5 0 l
-7 -2 l
-4 -5 l
-2 -6 l
0 -5 l
2 -6 l
4 -5 l
7 -2 l
5 0 l
4 2 l
5 5 l
-14 24 m -4 -2 l
-5 -5 l
-2 -6 l
0 -5 l
2 -6 l
5 -5 l
4 -2 l
7 47 m 9 0 l
-2 -47 m 9 0 l
15 47 m 0 -47 l
3 47 m 0 -47 l
13 33 m 0 -18 l
-22 32 m 36 0 l
0 -14 l
-3 14 l
-24 -23 m 13 0 l
-22 -24 m 36 0 l
0 13 l
-3 -13 l
9 0 m 1 0 m CS [] 0 setdash M
511 1771 M 1677 496 l
CS [] 0 setdash M
511 1021 M 1677 0 l
0 657 l
511 1678 L
0 -657 l
1677 0 l
511 1021 M 1677 0 l
560 1021 M 0 55 l
99 -55 m 0 27 l
98 -27 m 0 27 l
99 -27 m 0 27 l
99 -27 m 0 27 l
98 -27 m 0 55 l
99 -55 m 0 27 l
99 -27 m 0 27 l
98 -27 m 0 27 l
99 -27 m 0 27 l
99 -27 m 0 55 l
98 -55 m 0 27 l
99 -27 m 0 27 l
99 -27 m 0 27 l
98 -27 m 0 27 l
99 -27 m 0 55 l
99 -55 m 0 27 l
511 1678 M 1677 0 l
560 1678 M 0 -55 l
99 55 m 0 -28 l
98 28 m 0 -28 l
99 28 m 0 -28 l
99 28 m 0 -28 l
98 28 m 0 -55 l
99 55 m 0 -28 l
99 28 m 0 -28 l
98 28 m 0 -28 l
99 28 m 0 -28 l
99 28 m 0 -55 l
98 55 m 0 -28 l
99 28 m 0 -28 l
99 28 m 0 -28 l
98 28 m 0 -28 l
99 28 m 0 -55 l
99 55 m 0 -28 l
511 1021 M 0 657 l
0 -657 m 27 0 l
-27 57 m 54 0 l
-152 -27 m 23 54 m -8 -3 l
-5 -8 l
-3 -12 l
0 -8 l
3 -13 l
5 -8 l
8 -2 l
5 0 l
7 2 l
6 8 l
2 13 l
0 8 l
-2 12 l
-6 8 l
-7 3 l
-5 0 l
-6 -3 l
-2 -3 l
-3 -5 l
-2 -12 l
0 -8 l
2 -13 l
3 -5 l
2 -3 l
6 -2 l
5 0 m 5 2 l
2 3 l
3 5 l
3 13 l
0 8 l
-3 12 l
-3 5 l
-2 3 l
-5 3 l
70 29 m 27 0 l
-27 57 m 27 0 l
-27 56 m 27 0 l
-27 57 m 54 0 l
-152 -27 m 10 44 m 2 -3 l
-2 -2 l
-3 2 l
0 3 l
3 5 l
2 2 l
8 3 l
10 0 l
8 -3 l
3 -2 l
2 -5 l
0 -5 l
-2 -6 l
-8 -5 l
-13 -5 l
-5 -2 l
-5 -5 l
-3 -8 l
0 -8 l
23 54 m 5 -3 l
3 -2 l
3 -5 l
0 -5 l
-3 -6 l
-8 -5 l
-10 -5 l
-13 -18 m 3 3 l
5 0 l
13 -5 l
7 0 l
6 2 l
2 3 l
-28 0 m 13 -8 l
10 0 l
3 3 l
2 5 l
0 5 l
55 71 m 27 0 l
-27 56 m 27 0 l
-27 57 m 27 0 l
-27 56 m 54 0 l
-152 -27 m 30 49 m 0 -49 l
3 54 m 0 -54 l
0 54 m -28 -38 l
41 0 l
-23 -16 m 18 0 l
57 84 m 27 0 l
-27 57 m 27 0 l
1650 -623 m 0 657 l
0 -657 m -27 0 l
27 57 m -55 0 l
55 56 m -27 0 l
27 57 m -27 0 l
27 56 m -27 0 l
27 57 m -55 0 l
55 57 m -27 0 l
27 56 m -27 0 l
27 57 m -27 0 l
27 56 m -55 0 l
55 57 m -27 0 l
27 57 m -27 0 l
CS [] 0 setdash M
CS [] 0 setdash M
341 1189 M -54 13 m 54 0 l
-54 2 m 54 0 l
-54 -10 m 0 10 l
54 -10 m 0 18 l
-36 28 m 3 -7 l
5 -6 l
8 -2 l
5 0 l
8 2 l
5 6 l
2 7 l
0 5 l
-2 8 l
-5 5 l
-8 3 l
-5 0 l
-8 -3 l
-5 -5 l
-3 -8 l
0 -5 l
3 -5 l
5 -5 l
8 -3 l
5 0 l
8 3 l
5 5 l
2 5 l
0 5 m -2 6 l
-5 5 l
-8 2 l
-5 0 l
-8 -2 l
-5 -5 l
-3 -6 l
0 44 m 3 -5 l
2 -3 l
6 -2 l
5 0 l
5 2 l
2 3 l
3 5 l
0 5 l
-3 5 l
-2 3 l
-5 2 l
-5 0 l
-6 -2 l
-2 -3 l
-3 -5 l
0 -5 l
3 -5 m 5 -3 l
10 0 l
5 3 l
0 15 m -5 3 l
-10 0 l
-5 -3 l
2 3 m -2 2 l
-3 6 l
3 0 l
0 -6 l
18 -23 m 2 -2 l
6 -3 l
2 0 l
5 3 l
3 7 l
0 13 l
2 8 l
3 3 l
CS M
-13 -34 m 3 3 l
2 7 l
0 13 l
3 8 l
5 3 l
2 0 l
6 -3 l
2 -8 l
0 -15 l
-2 -8 l
-6 -2 l
-2 0 l
-5 2 l
-3 8 l
-54 87 m 54 0 l
-54 3 m 49 30 l
-44 -30 m 49 30 l
-54 0 m 54 0 l
-54 -41 m 0 11 l
0 23 m 0 15 l
54 -49 m 0 16 l
-3 64 m 5 2 l
-9 0 l
4 -2 l
-3 -3 l
-1 -4 l
0 -3 l
1 -5 l
3 -3 l
3 -2 l
5 -1 l
8 0 l
4 1 l
3 2 l
3 3 l
2 5 l
0 3 l
-2 4 l
-3 3 l
-27 -10 m 1 -3 l
3 -3 l
3 -2 l
5 -2 l
8 0 l
4 2 l
3 2 l
3 3 l
2 3 l
-12 10 m 12 0 l
-12 2 m 12 0 l
-12 -6 m 0 11 l
-16 29 m 5 1 l
-9 0 l
4 -1 l
-3 -3 l
-1 -5 l
0 -3 l
1 -5 l
3 -3 l
3 -1 l
5 -2 l
8 0 l
4 2 l
3 1 l
3 3 l
2 5 l
0 3 l
-2 5 l
-3 3 l
-3 1 l
-24 -12 m 1 -3 l
3 -3 l
3 -2 l
5 -1 l
8 0 l
4 1 l
3 2 l
3 3 l
2 3 l
CS [] 0 setdash M
1768 1441 M 5 -12 m 7 7 l
0 10 l
-7 7 l
-10 0 l
-7 -7 l
0 -10 l
7 -7 l
10 0 l
-46 -12 m 5 -12 m 7 7 l
0 10 l
-7 7 l
-10 0 l
-7 -7 l
0 -10 l
7 -7 l
10 0 l
-94 -58 m 5 -12 m 7 7 l
0 10 l
-7 7 l
-10 0 l
-7 -7 l
0 -10 l
7 -7 l
10 0 l
-22 141 m 5 -12 m 7 7 l
0 10 l
-7 7 l
-10 0 l
-7 -7 l
0 -10 l
7 -7 l
10 0 l
-17 -42 m 5 -12 m 7 7 l
0 10 l
-7 7 l
-10 0 l
-7 -7 l
0 -10 l
7 -7 l
10 0 l
-40 56 m 5 -12 m 7 7 l
0 10 l
-7 7 l
-10 0 l
-7 -7 l
0 -10 l
7 -7 l
10 0 l
-42 -62 m 5 -12 m 7 7 l
0 10 l
-7 7 l
-10 0 l
-7 -7 l
0 -10 l
7 -7 l
10 0 l
-15 7 m 5 -12 m 7 7 l
0 10 l
-7 7 l
-10 0 l
-7 -7 l
0 -10 l
7 -7 l
10 0 l
-12 42 m 5 -12 m 7 7 l
0 10 l
-7 7 l
-10 0 l
-7 -7 l
0 -10 l
7 -7 l
10 0 l
-7 65 m 4 -12 m 8 7 l
0 10 l
-8 8 l
-10 0 l
-7 -8 l
0 -10 l
7 -7 l
10 0 l
-26 -186 m 5 -12 m 7 7 l
0 10 l
-7 7 l
-10 0 l
-7 -7 l
0 -10 l
7 -7 l
10 0 l
-6 133 m 5 -12 m 7 7 l
0 10 l
-7 7 l
-10 0 l
-7 -7 l
0 -10 l
7 -7 l
10 0 l
-17 -6 m 4 -12 m 8 7 l
0 10 l
-8 7 l
-10 0 l
-7 -7 l
0 -10 l
7 -7 l
10 0 l
-49 33 m 5 -12 m 7 7 l
0 10 l
-7 7 l
-10 0 l
-7 -7 l
0 -10 l
7 -7 l
10 0 l
-5 -12 m 5 -12 m 7 7 l
0 10 l
-7 7 l
-10 0 l
-8 -7 l
0 -10 l
8 -7 l
10 0 l
-35 -27 m 5 -12 m 7 7 l
0 10 l
-7 7 l
-10 0 l
-7 -7 l
0 -10 l
7 -7 l
10 0 l
-8 21 m 5 -12 m 7 7 l
0 10 l
-7 7 l
-10 0 l
-7 -7 l
0 -10 l
7 -7 l
10 0 l
-15 41 m 5 -12 m 7 7 l
0 10 l
-7 7 l
-10 0 l
-7 -7 l
0 -10 l
7 -7 l
10 0 l
-11 9 m 5 -12 m 7 7 l
0 10 l
-7 7 l
-10 0 l
-7 -7 l
0 -10 l
7 -7 l
10 0 l
-14 9 m 5 -12 m 7 7 l
0 10 l
-7 7 l
-10 0 l
-7 -7 l
0 -10 l
7 -7 l
10 0 l
-6 29 m 5 -12 m 7 7 l
0 10 l
-7 7 l
-10 0 l
-7 -7 l
0 -10 l
7 -7 l
10 0 l
-22 -61 m 5 -12 m 7 7 l
0 10 l
-7 7 l
-10 0 l
-7 -7 l
0 -10 l
7 -7 l
10 0 l
-7 48 m 5 -12 m 7 7 l
0 10 l
-7 7 l
-10 0 l
-7 -7 l
0 -10 l
7 -7 l
10 0 l
-26 5 m 5 -12 m 7 7 l
0 10 l
-7 7 l
-10 0 l
-7 -7 l
0 -10 l
7 -7 l
10 0 l
-10 11 m 4 -12 m 8 7 l
0 10 l
-8 7 l
-10 0 l
-7 -7 l
0 -10 l
7 -7 l
10 0 l
-10 -5 m 5 -12 m 7 7 l
0 10 l
-7 7 l
-10 0 l
-7 -7 l
0 -10 l
7 -7 l
10 0 l
-13 80 m 5 -12 m 7 7 l
0 10 l
-7 7 l
-10 0 l
-7 -7 l
0 -10 l
7 -7 l
10 0 l
-19 -44 m 5 -12 m 7 7 l
0 10 l
-7 7 l
-10 0 l
-7 -7 l
CS M
0 -10 l
7 -7 l
10 0 l
-25 -40 m 5 -12 m 7 7 l
0 10 l
-7 8 l
-10 0 l
-7 -8 l
0 -10 l
7 -7 l
10 0 l
-73 198 m 5 -12 m 7 7 l
0 10 l
-7 7 l
-10 0 l
-7 -7 l
0 -10 l
7 -7 l
10 0 l
-12 -175 m 5 -12 m 7 7 l
0 10 l
-7 7 l
-10 0 l
-7 -7 l
0 -10 l
7 -7 l
10 0 l
-9 1 m 5 -12 m 7 7 l
0 10 l
-7 7 l
-10 0 l
-7 -7 l
0 -10 l
7 -7 l
10 0 l
-5 76 m 5 -13 m 7 8 l
0 9 l
-7 8 l
-10 0 l
-7 -8 l
0 -9 l
7 -8 l
10 0 l
-10 -6 m 5 -12 m 7 7 l
0 10 l
-7 7 l
-10 0 l
-7 -7 l
0 -10 l
7 -7 l
10 0 l
-22 -14 m 5 -12 m 7 7 l
0 10 l
-7 7 l
-10 0 l
-7 -7 l
0 -10 l
7 -7 l
10 0 l
-7 36 m 5 -12 m 7 7 l
0 10 l
-7 7 l
-10 0 l
-7 -7 l
0 -10 l
7 -7 l
10 0 l
-20 -12 m 5 -12 m 7 7 l
0 10 l
-7 7 l
-10 0 l
-7 -7 l
0 -10 l
7 -7 l
10 0 l
-13 13 m 5 -12 m 7 7 l
0 10 l
-7 7 l
-10 0 l
-7 -7 l
0 -10 l
7 -7 l
10 0 l
-9 2 m 5 -12 m 7 7 l
0 10 l
-7 7 l
-10 0 l
-7 -7 l
0 -10 l
7 -7 l
10 0 l
-10 -23 m 5 -12 m 7 7 l
0 10 l
-7 7 l
-10 0 l
-7 -7 l
0 -10 l
7 -7 l
10 0 l
-8 73 m 5 -12 m 7 7 l
0 10 l
-7 7 l
-10 0 l
-7 -7 l
0 -10 l
7 -7 l
10 0 l
-22 3 m 5 -12 m 7 7 l
0 10 l
-7 7 l
-10 0 l
-7 -7 l
0 -10 l
7 -7 l
10 0 l
-11 27 m 5 -12 m 7 7 l
0 10 l
-7 7 l
-10 0 l
-7 -7 l
0 -10 l
7 -7 l
10 0 l
-5 -9 m 5 -12 m 7 7 l
0 10 l
-7 7 l
-10 0 l
-7 -7 l
0 -10 l
7 -7 l
10 0 l
-5 -16 m 5 -12 m 7 7 l
0 10 l
-7 7 l
-10 0 l
-7 -7 l
0 -10 l
7 -7 l
10 0 l
-8 78 m 5 -12 m 7 7 l
0 10 l
-7 7 l
-10 0 l
-7 -7 l
0 -10 l
7 -7 l
10 0 l
-7 -20 m 5 -12 m 7 7 l
0 10 l
-7 7 l
-10 0 l
-7 -7 l
0 -10 l
7 -7 l
10 0 l
-5 -13 m 5 -12 m 7 7 l
0 10 l
-7 7 l
-10 0 l
-7 -7 l
0 -10 l
7 -7 l
10 0 l
-15 53 m 5 -12 m 7 7 l
0 10 l
-7 7 l
-10 0 l
-7 -7 l
0 -10 l
7 -7 l
10 0 l
-10 27 m 5 -12 m 7 7 l
0 10 l
-7 7 l
-10 0 l
-7 -7 l
0 -10 l
7 -7 l
10 0 l
-10 -10 m 5 -12 m 7 7 l
0 10 l
-7 7 l
-10 0 l
-7 -7 l
0 -10 l
7 -7 l
10 0 l
-20 -34 m 5 -12 m 7 7 l
0 10 l
-7 7 l
-10 0 l
-7 -7 l
0 -10 l
7 -7 l
10 0 l
-12 -21 m 5 -12 m 7 7 l
0 10 l
-7 7 l
-10 0 l
-7 -7 l
0 -10 l
7 -7 l
10 0 l
-11 84 m 5 -13 m 7 7 l
0 10 l
-7 8 l
-10 0 l
-7 -8 l
0 -10 l
7 -7 l
10 0 l
-23 -111 m 5 -12 m 7 7 l
0 10 l
-7 7 l
-10 0 l
-7 -7 l
0 -10 l
7 -7 l
10 0 l
-15 94 m 5 -12 m 7 7 l
0 10 l
-7 7 l
-10 0 l
-7 -7 l
0 -10 l
7 -7 l
10 0 l
-13 4 m 5 -12 m 7 7 l
0 10 l
-7 7 l
-10 0 l
-7 -7 l
0 -10 l
7 -7 l
10 0 l
-24 -62 m 5 -12 m 7 7 l
0 10 l
-7 7 l
-10 0 l
-7 -7 l
0 -10 l
7 -7 l
10 0 l
-5 56 m 5 -12 m 7 7 l
0 10 l
-7 7 l
-10 0 l
-7 -7 l
0 -10 l
7 -7 l
10 0 l
-13 9 m 5 -12 m 7 7 l
0 10 l
-7 7 l
-10 0 l
-7 -7 l
0 -10 l
7 -7 l
10 0 l
-5 -6 m 5 -13 m 7 7 l
0 10 l
-7 8 l
-10 0 l
-7 -8 l
0 -10 l
7 -7 l
10 0 l
-7 96 m 5 -12 m 7 7 l
0 10 l
-7 7 l
-10 0 l
-7 -7 l
0 -10 l
7 -7 l
10 0 l
-8 19 m 5 -12 m 7 7 l
0 10 l
-7 7 l
-10 0 l
-7 -7 l
0 -10 l
7 -7 l
10 0 l
-13 4 m 4 -12 m 8 7 l
0 10 l
-8 7 l
-10 0 l
-7 -7 l
0 -10 l
7 -7 l
10 0 l
-16 28 m 5 -12 m 7 7 l
0 10 l
-7 7 l
-10 0 l
-7 -7 l
0 -10 l
7 -7 l
10 0 l
-5 -50 m 5 -12 m 7 7 l
CS M
0 10 l
-7 7 l
-10 0 l
-7 -7 l
0 -10 l
7 -7 l
10 0 l
-21 16 m 5 -12 m 7 7 l
0 10 l
-7 7 l
-10 0 l
-7 -7 l
0 -10 l
7 -7 l
10 0 l
-12 -4 m 5 -12 m 7 7 l
0 10 l
-7 7 l
-10 0 l
-7 -7 l
0 -10 l
7 -7 l
10 0 l
-21 85 m 5 -12 m 7 7 l
0 10 l
-7 7 l
-10 0 l
-7 -7 l
0 -10 l
7 -7 l
10 0 l
-25 -26 m 5 -12 m 7 7 l
0 10 l
-7 7 l
-10 0 l
-7 -7 l
0 -10 l
7 -7 l
10 0 l
-45 -26 m 5 -12 m 7 7 l
0 10 l
-7 7 l
-10 0 l
-7 -7 l
0 -10 l
7 -7 l
10 0 l
-257 -1 m 5 -12 m 7 7 l
0 10 l
-7 7 l
-10 0 l
-7 -7 l
0 -10 l
7 -7 l
10 0 l
1130 249 m 0 12 l
0 0 l
-41 -36 m 0 20 l
0 0 l
-89 -90 m 0 5 l
1 0 m -1 0 l
-17 124 m 0 13 l
0 0 l
-12 -67 m 0 8 l
0 0 l
-35 36 m 0 13 l
0 0 l
-37 -87 m 0 14 l
0 0 l
-10 -19 m 0 13 l
0 0 l
-7 17 m 0 20 l
0 0 l
-2 33 m 0 14 l
-1 0 l
-21 -212 m 0 8 l
0 0 l
-1 113 m 0 7 l
0 0 l
-12 -25 m 0 10 l
-1 0 l
-44 11 m 0 13 l
0 0 l
0 -37 m 0 20 l
-1 0 l
-29 -59 m 0 4 l
0 0 l
-3 5 m 0 6 l
0 0 l
-10 23 m 0 13 l
0 0 l
-6 -16 m 0 9 l
0 0 l
-9 -12 m 0 10 l
0 0 l
-1 7 m 0 3 l
0 0 l
-17 -76 m 0 5 l
0 0 l
-2 31 m 0 15 l
0 0 l
-21 -22 m 0 9 l
0 0 l
-5 -10 m 0 13 l
-1 0 l
-5 -30 m 0 8 l
0 0 l
-8 60 m 0 6 l
0 0 l
-14 -62 m 0 8 l
0 0 l
-20 -60 m 0 10 l
0 0 l
-68 176 m 0 12 l
0 0 l
-7 -199 m 0 7 l
0 0 l
-4 -18 m 0 14 l
0 0 l
0 50 m 0 4 l
0 0 l
-5 -23 m 0 11 l
0 0 l
-17 -37 m 0 9 l
0 0 l
-2 15 m 0 10 l
0 -1 l
-15 -33 m 0 15 l
0 0 l
-8 -14 m 0 6 l
0 0 l
-4 -16 m 0 7 l
0 0 l
-5 -42 m 0 15 l
1 0 m -1 0 l
-3 46 m 0 13 l
0 0 l
-17 -22 m 0 13 l
0 0 l
-6 2 m 0 5 l
0 0 l
0 -26 m 0 18 l
0 0 l
0 -46 m 0 9 l
0 0 l
-3 57 m 0 13 l
0 0 l
-2 -45 m 0 10 l
0 0 l
0 -35 m 0 12 l
0 0 l
-10 29 m 0 6 l
0 0 l
-5 9 m 0 14 l
0 -1 l
-5 -35 m 0 20 l
0 0 l
-15 -66 m 0 13 l
0 0 l
-7 -46 m 0 15 l
1 0 m -1 0 l
-6 57 m 0 14 l
0 0 l
-18 -138 m 0 23 l
0 -1 l
-10 60 m 0 17 l
0 0 l
-8 -25 m 0 10 l
0 0 l
-19 -84 m 0 31 l
0 0 l
0 13 m 0 15 l
0 0 l
-8 -18 m 0 13 l
0 0 l
0 -31 m 0 18 l
0 0 l
-2 65 m 0 14 l
0 0 l
-3 -7 m 0 16 l
0 -1 l
-8 -23 m 0 15 l
-1 -1 l
-11 2 m 0 5 l
0 0 l
0 -67 m 0 18 l
0 -1 l
-16 -13 m 0 16 l
0 0 l
-7 -32 m 0 13 l
0 0 l
-16 60 m 0 13 l
0 0 l
-20 -51 m 0 17 l
0 0 l
-40 -55 m 0 15 l
0 0 l
-252 -28 m 0 16 l
0 0 l
1135 221 m 0 -12 l
0 0 l
-41 -12 m 0 -20 l
0 0 l
-89 -50 m 0 -5 l
1 0 m -1 0 l
-17 134 m 0 -13 l
0 0 l
-12 -41 m 0 -7 l
0 0 l
-35 51 m 0 -13 l
0 0 l
-37 -61 m 0 -14 l
0 0 l
-10 9 m 0 -13 l
0 0 l
-7 43 m 0 -20 l
0 0 l
-2 73 m 0 -13 l
-1 0 l
-21 -185 m 0 -7 l
0 0 l
-1 128 m 0 -7 l
0 0 l
-12 -11 m 0 -10 l
-1 0 l
-44 31 m 0 -13 l
0 0 l
0 -11 m 0 -20 l
-1 0 l
-29 -19 m 0 -5 l
0 0 l
-3 14 m 0 -6 l
0 0 l
-10 35 m 0 -13 l
0 0 l
-6 10 m 0 -8 l
0 0 l
-9 5 m 0 -10 l
0 0 l
-1 27 m 0 -3 l
0 0 l
-17 -70 m 0 -5 l
0 0 l
-2 41 m 0 -15 l
0 0 l
-21 8 m 0 -9 l
0 0 l
-5 8 m 0 -13 l
-1 0 l
-5 -4 m 0 -7 l
0 0 l
-8 75 m 0 -7 l
0 0 l
-14 -49 m 0 -7 l
0 0 l
-20 -45 m 0 -9 l
0 0 l
-68 195 m 0 -12 l
0 -1 l
-7 -174 m 0 -7 l
0 0 l
-4 -4 m 0 -14 l
0 0 l
0 78 m 0 -5 l
0 0 l
-5 -14 m 0 -11 l
0 0 l
-17 -15 m 0 -9 l
0 0 l
-2 33 m 0 -9 l
0 0 l
-15 -15 m 0 -15 l
0 0 l
-8 16 m 0 -6 l
0 -1 l
-4 -3 m 0 -7 l
0 -1 l
-5 -27 m 0 -14 l
1 0 m -1 -1 l
-3 76 m 0 -13 l
0 0 l
-17 4 m 0 -13 l
0 0 l
-6 28 m 0 -4 l
0 0 l
0 -17 m 0 -17 l
0 -1 l
0 -10 m 0 -8 l
0 0 l
-3 74 m 0 -13 l
0 0 l
-2 -19 m 0 -10 l
0 0 l
0 -15 m 0 -12 l
0 0 l
-10 53 m 0 -6 l
0 0 l
-5 21 m 0 -14 l
0 0 l
-5 -8 m 0 -20 l
CS M
0 0 l
-15 -26 m 0 -13 l
0 -1 l
-7 -19 m 0 -15 l
1 0 m -1 0 l
-6 87 m 0 -15 l
0 0 l
-18 -109 m 0 -22 l
0 0 l
-10 104 m 0 -17 l
0 0 l
-8 9 m 0 -10 l
0 0 l
-19 -64 m 0 -30 l
0 0 l
0 74 m 0 -15 l
0 0 l
-8 12 m 0 -13 l
0 0 l
0 -5 m 0 -19 l
0 0 l
-2 102 m 0 -14 l
0 0 l
-3 21 m 0 -15 l
0 0 l
-8 7 m 0 -14 l
-1 0 l
-11 30 m 0 -6 l
0 0 l
0 -56 m 0 -18 l
0 0 l
-16 22 m 0 -15 l
0 0 l
-7 -1 m 0 -13 l
0 0 l
-16 86 m 0 -13 l
0 0 l
-20 -25 m 0 -17 l
0 0 l
-40 -21 m 0 -15 l
0 0 l
-252 2 m 0 -16 l
0 0 l
1135 253 m 15 0 l
-1 0 l
-55 -24 m 3 0 l
0 0 l
-92 -70 m 22 0 l
0 0 l
-39 129 m 11 0 l
0 0 l
-23 -54 m 6 0 l
0 0 l
-41 44 m 22 0 l
0 0 l
-59 -74 m 21 0 l
0 0 l
-31 -5 m 17 0 l
0 0 l
-24 30 m 1 0 l
0 0 l
-3 53 m 32 0 l
0 1 m 0 -1 l
-54 -198 m 15 0 l
0 0 l
-16 121 m 11 0 l
0 0 l
-23 -18 m 19 0 l
0 0 l
-64 21 m 15 0 l
0 0 l
-15 -24 m 32 0 l
0 0 l
-62 -39 m 7 0 l
0 -1 l
-10 10 m 7 0 l
0 0 l
-17 29 m 47 0 l
0 0 l
-53 -3 m 12 0 l
0 0 l
-21 -3 m 7 0 l
0 0 l
-8 17 m 15 0 l
0 0 l
-32 -73 m 9 0 l
0 -1 l
-11 37 m 29 0 l
0 0 l
-50 -7 m 6 0 l
0 0 l
-11 -1 m 10 0 l
0 0 l
-16 -17 m 7 0 l
-1 0 l
-14 68 m 9 0 l
-1 0 l
-22 -56 m 7 0 l
0 0 l
-27 -52 m 7 0 l
0 1 m 0 -1 l
-75 186 m 17 0 l
0 0 l
-24 -187 m 6 0 l
0 0 l
-10 -11 m 15 0 l
0 0 l
-15 64 m 19 0 l
0 -1 l
-24 -18 m 13 0 l
0 0 l
-30 -26 m 7 0 l
0 0 l
-9 24 m 8 0 l
0 0 l
-23 -24 m 20 0 l
0 0 l
-28 1 m 7 0 l
0 0 l
-11 -10 m 7 0 l
0 0 l
-12 -35 m 18 0 l
0 0 l
-21 61 m 5 0 l
0 0 l
-22 -9 m 7 0 l
0 0 l
-13 15 m 1 0 l
0 1 m 0 -1 l
-1 -21 m 6 0 l
0 0 l
-6 -28 m 8 0 l
0 1 m 0 -1 l
-11 66 m 21 0 l
0 0 l
-23 -32 m 8 0 l
0 1 m 0 -1 l
-8 -25 m 7 0 l
0 0 l
-17 41 m 13 0 l
0 0 l
-18 15 m 10 0 l
0 0 l
-15 -22 m 16 0 l
0 0 l
-31 -46 m 6 0 l
0 0 l
-13 -33 m 8 0 l
0 0 l
-14 72 m 10 0 l
0 -1 l
-28 -123 m 24 0 l
0 0 l
-34 82 m 15 0 l
0 0 l
-23 -8 m 8 0 l
0 0 l
-27 -74 m 16 0 l
0 0 l
-16 44 m 7 0 l
0 0 l
-15 -3 m 6 0 l
0 0 l
-6 -18 m 5 0 l
0 -1 l
-7 84 m 7 0 l
0 0 l
-10 7 m 22 0 l
0 1 m 0 -1 l
-30 -8 m 8 0 l
0 0 l
-20 16 m 7 0 l
0 -1 l
-7 -61 m 25 0 l
0 0 l
-41 4 m 8 0 l
0 1 m 0 -1 l
-15 -16 m 8 0 l
0 0 l
-24 73 m 7 0 l
0 0 l
-27 -38 m 12 0 l
0 0 l
-52 -38 m 9 0 l
0 0 l
-261 -13 m 16 0 l
0 0 l
1119 237 m -14 0 l
0 0 l
-27 -24 m -3 0 l
0 0 l
-86 -70 m -21 0 l
0 0 l
4 129 m -11 0 l
0 0 l
-1 -54 m -7 0 l
0 0 l
-28 44 m -21 0 l
0 0 l
-16 -74 m -20 0 l
0 0 l
10 -5 m -17 0 l
0 0 l
10 30 m -1 0 l
-1 0 l
0 53 m -33 0 l
0 1 m 0 -1 l
11 -198 m -14 0 l
0 0 l
13 121 m -11 0 l
0 0 l
-1 -18 m -20 0 l
0 0 l
-25 21 m -15 0 l
0 0 l
15 -24 m -33 0 l
0 0 l
3 -39 m -7 0 l
0 -1 l
4 10 m -7 0 l
0 0 l
-3 29 m -47 0 l
0 0 l
41 -3 m -12 0 l
0 0 l
3 -3 m -6 0 l
0 0 l
5 17 m -14 0 l
0 0 l
-3 -73 m -10 0 l
0 -1 l
8 37 m -30 0 l
0 0 l
9 -7 m -5 0 l
-1 0 l
1 -1 m -11 0 l
0 0 l
5 -17 m -6 0 l
0 0 l
-2 68 m -8 0 l
0 0 l
-6 -56 m -8 0 l
0 0 l
-12 -52 m -7 0 l
0 1 m 0 -1 l
-61 186 m -17 0 l
0 0 l
10 -187 m -7 0 l
0 0 l
3 -11 m -15 0 l
0 0 l
15 64 m -20 0 l
0 -1 l
15 -18 m -14 0 l
0 0 l
-3 -26 m -7 0 l
0 0 l
5 24 m -8 0 l
0 0 l
-7 -24 m -20 0 l
0 0 l
12 1 m -7 0 l
0 0 l
3 -10 m -8 0 l
0 0 l
3 -35 m -17 0 l
0 0 l
14 61 m -5 0 l
0 0 l
-12 -9 m -6 0 l
0 0 l
0 15 m -1 0 l
0 1 m 0 -1 l
1 -21 m -7 0 l
0 0 l
7 -28 m -8 0 l
0 1 m 0 -1 l
5 66 m -20 0 l
0 0 l
18 -32 m -7 0 l
0 1 m 0 -1 l
7 -25 m -7 0 l
0 0 l
-3 41 m -13 0 l
0 0 l
8 15 m -10 0 l
0 0 l
5 -22 m -16 0 l
0 0 l
1 -46 m -7 0 l
0 0 l
0 -33 m -8 0 l
0 0 l
2 72 m -10 0 l
0 -1 l
-8 -123 m -24 0 l
0 0 l
14 82 m -15 0 l
0 0 l
7 -8 m -8 0 l
CS M
0 0 l
-11 -74 m -16 0 l
0 0 l
16 44 m -7 0 l
0 0 l
-1 -3 m -6 0 l
0 0 l
6 -18 m -5 0 l
0 -1 l
3 84 m -7 0 l
0 0 l
4 7 m -22 0 l
0 1 m 0 -1 l
14 -8 m -9 0 l
0 0 l
-3 16 m -8 0 l
0 -1 l
8 -61 m -25 0 l
-1 0 l
10 4 m -7 0 l
0 1 m -1 -1 l
1 -16 m -8 0 l
0 0 l
-8 73 m -7 0 l
0 0 l
-13 -38 m -12 0 l
0 0 l
-28 -38 m -9 0 l
0 0 l
-243 -13 m -16 0 l
0 0 l
42 326 m CS [] 0 setdash M
694 1571 M 3 6 l
0 -13 l
-3 7 l
-4 4 l
-7 2 l
-7 0 l
-6 -2 l
-5 -4 l
0 -5 l
3 -4 l
2 -2 l
4 -3 l
14 -4 l
4 -2 l
5 -5 l
-32 20 m 5 -4 l
4 -2 l
14 -5 l
4 -2 l
2 -2 l
3 -5 l
0 -9 l
-5 -4 l
-7 -3 l
-6 0 l
-7 3 l
-4 4 l
-3 7 l
0 -14 l
3 7 l
56 40 m -7 -2 l
-5 -6 l
-2 -12 l
0 -6 l
2 -12 l
5 -6 l
7 -3 l
4 0 l
7 3 l
4 6 l
3 12 l
0 6 l
-3 12 l
-4 6 l
-7 2 l
-4 0 l
-5 -2 l
-2 -2 l
-2 -4 l
-3 -12 l
0 -6 l
3 -12 l
2 -4 l
2 -2 l
5 -3 l
4 0 m 5 3 l
2 2 l
2 4 l
2 12 l
0 6 l
-2 12 l
-2 4 l
-2 2 l
-5 2 l
20 -47 m CS [] 0 setdash M
511 1115 M 1677 496 l
CS [32 24] 0 setdash M
511 1092 M 1677 496 l
CS [] 0 setdash M
CS [] 0 setdash M
511 365 M 1677 0 l
0 656 l
511 1021 L
511 365 L
1677 0 l
511 365 M 1677 0 l
560 365 M 0 54 l
-59 -155 m 10 23 m 46 0 l
21 21 m 2 -3 l
-2 -2 l
-3 2 l
0 3 l
3 5 l
2 2 l
8 3 l
10 0 l
8 -3 l
3 -2 l
2 -5 l
0 -5 l
-2 -6 l
-8 -5 l
-13 -5 l
-5 -2 l
-5 -6 l
-3 -7 l
0 -8 l
23 54 m 5 -3 l
3 -2 l
3 -5 l
0 -5 l
-3 -6 l
-8 -5 l
-10 -5 l
-13 -18 m 3 3 l
5 0 l
13 -5 l
7 0 l
6 2 l
2 3 l
-28 0 m 13 -8 l
10 0 l
3 3 l
2 5 l
0 5 l
48 88 m 0 27 l
98 -27 m 0 27 l
99 -27 m 0 27 l
99 -27 m 0 27 l
98 -27 m 0 54 l
-59 -155 m 10 23 m 47 0 l
25 21 m 6 2 l
7 8 l
0 -54 l
-2 51 m 0 -51 l
-11 0 m 24 0 l
52 101 m 0 27 l
99 -27 m 0 27 l
98 -27 m 0 27 l
99 -27 m 0 27 l
99 -27 m 0 54 l
-26 -155 m 23 54 m -8 -3 l
-5 -7 l
-2 -13 l
0 -8 l
2 -13 l
5 -7 l
8 -3 l
5 0 l
8 3 l
5 7 l
3 13 l
0 8 l
-3 13 l
-5 7 l
-8 3 l
-5 0 l
-5 -3 l
-3 -2 l
-2 -5 l
-3 -13 l
0 -8 l
3 -13 l
2 -5 l
3 -2 l
5 -3 l
5 0 m 5 3 l
3 2 l
3 5 l
2 13 l
0 8 l
-2 13 l
-3 5 l
-3 2 l
-5 3 l
96 47 m 0 27 l
99 -27 m 0 27 l
99 -27 m 0 27 l
98 -27 m 0 27 l
99 -27 m 0 54 l
-26 -155 m 16 44 m 5 2 l
8 8 l
0 -54 l
-3 51 m 0 -51 l
-10 0 m 23 0 l
86 101 m 0 27 l
511 1021 M 1677 0 l
560 1021 M 0 -55 l
99 55 m 0 -27 l
98 27 m 0 -27 l
99 27 m 0 -27 l
99 27 m 0 -27 l
98 27 m 0 -55 l
99 55 m 0 -27 l
99 27 m 0 -27 l
98 27 m 0 -27 l
99 27 m 0 -27 l
99 27 m 0 -55 l
98 55 m 0 -27 l
99 27 m 0 -27 l
99 27 m 0 -27 l
98 27 m 0 -27 l
99 27 m 0 -55 l
99 55 m 0 -27 l
511 365 M 0 656 l
511 365 M 27 0 l
-27 56 m 54 0 l
-152 -27 m 23 54 m -8 -2 l
-5 -8 l
-3 -13 l
0 -8 l
3 -12 l
5 -8 l
8 -3 l
5 0 l
7 3 l
6 8 l
2 12 l
0 8 l
-2 13 l
-6 8 l
-7 2 l
-5 0 l
-6 -2 l
-2 -3 l
-3 -5 l
-2 -13 l
0 -8 l
2 -12 l
3 -6 l
2 -2 l
6 -3 l
5 0 m 5 3 l
2 2 l
3 6 l
3 12 l
0 8 l
-3 13 l
-3 5 l
-2 3 l
-5 2 l
70 30 m 27 0 l
-27 56 m 27 0 l
-27 57 m 27 0 l
-27 57 m 54 0 l
-152 -27 m 10 43 m 2 -2 l
-2 -3 l
-3 3 l
0 2 l
3 5 l
2 3 l
8 3 l
10 0 l
8 -3 l
3 -3 l
2 -5 l
0 -5 l
-2 -5 l
-8 -5 l
-13 -5 l
-5 -3 l
-5 -5 l
-3 -8 l
0 -7 l
23 54 m 5 -3 l
3 -3 l
3 -5 l
0 -5 l
-3 -5 l
-8 -5 l
-10 -5 l
-13 -18 m 3 2 l
5 0 l
13 -5 l
7 0 l
6 3 l
2 2 l
-28 0 m 13 -7 l
10 0 l
3 2 l
2 5 l
0 6 l
55 70 m 27 0 l
CS M
-27 57 m 27 0 l
-27 56 m 27 0 l
-27 57 m 54 0 l
-152 -27 m 30 49 m 0 -49 l
3 54 m 0 -54 l
0 54 m -28 -39 l
41 0 l
-23 -15 m 18 0 l
57 84 m 27 0 l
-27 56 m 27 0 l
2188 365 M 0 656 l
2188 365 M -27 0 l
27 56 m -55 0 l
55 57 m -27 0 l
27 56 m -27 0 l
27 57 m -27 0 l
27 57 m -55 0 l
55 56 m -27 0 l
27 57 m -27 0 l
27 56 m -27 0 l
27 57 m -55 0 l
55 57 m -27 0 l
27 56 m -27 0 l
CS [] 0 setdash M
CS [] 0 setdash M
1034 153 M 13 54 m 0 -54 l
2 54 m 0 -54 l
-10 54 m 10 0 l
-10 -54 m 18 0 l
28 36 m -8 -2 l
-5 -6 l
-2 -7 l
0 -5 l
2 -8 l
5 -5 l
8 -3 l
5 0 l
8 3 l
5 5 l
3 8 l
0 5 l
-3 7 l
-5 6 l
-8 2 l
-5 0 l
-5 -2 l
-5 -6 l
-3 -7 l
0 -5 l
3 -8 l
5 -5 l
5 -3 l
5 0 m 5 3 l
6 5 l
2 8 l
0 5 l
-2 7 l
-6 6 l
-5 2 l
44 0 m -5 -2 l
-3 -3 l
-2 -5 l
0 -5 l
2 -5 l
3 -3 l
5 -3 l
5 0 l
5 3 l
3 3 l
2 5 l
0 5 l
-2 5 l
-3 3 l
-5 2 l
-5 0 l
-5 -2 m -3 -6 l
0 -10 l
3 -5 l
15 0 m 3 5 l
0 10 l
-3 6 l
3 -3 m 2 3 l
6 2 l
0 -2 l
-6 0 l
-23 -18 m -2 -3 l
-3 -5 l
0 -3 l
3 -5 l
7 -2 l
13 0 l
8 -3 l
3 -2 l
-34 12 m 3 -2 l
7 -3 l
13 0 l
8 -2 l
3 -5 l
0 -3 l
-3 -5 l
-8 -3 l
-15 0 l
-8 3 l
-2 5 l
0 3 l
2 5 l
8 2 l
61 64 m -5 -5 l
-5 -7 l
-5 -11 l
-3 -13 l
0 -10 l
3 -13 l
5 -10 l
5 -8 l
5 -5 l
-5 77 m -5 -10 l
-2 -8 l
-3 -13 l
0 -10 l
3 -13 l
2 -7 l
5 -11 l
26 67 m 0 -54 l
2 54 m 0 -54 l
-10 54 m 31 0 l
8 -2 l
2 -3 l
3 -5 l
0 -5 l
-3 -5 l
-2 -3 l
-8 -3 l
-21 0 l
21 26 m 5 -2 l
3 -3 l
2 -5 l
0 -5 l
-2 -5 l
-3 -3 l
-5 -3 l
-31 -28 m 18 0 l
5 28 m 5 -2 l
3 -3 l
8 -18 l
2 -2 l
3 0 l
2 2 l
-18 21 m 3 -5 l
5 -18 l
3 -3 l
5 0 l
2 5 l
0 3 l
12 -20 m 18 0 l
0 3 l
-1 3 l
-2 2 l
-3 1 l
-5 0 l
-4 -1 l
-3 -3 l
-2 -5 l
0 -3 l
2 -5 l
3 -3 l
4 -1 l
3 0 l
5 1 l
3 3 l
-1 8 m 0 5 l
-2 3 l
-8 1 m -3 -1 l
-3 -3 l
-1 -5 l
0 -3 l
1 -5 l
3 -3 l
3 -1 l
64 60 m -25 0 l
-8 -2 l
-5 -8 l
-3 -8 l
0 -8 l
3 -5 l
3 -2 l
5 -3 l
5 0 l
8 3 l
5 7 l
2 8 l
0 8 l
-2 5 l
-3 3 l
-5 2 l
-5 0 m -5 -2 l
-5 -8 l
-3 -8 l
0 -10 l
3 -5 l
10 -3 m 5 3 l
5 7 l
3 8 l
0 10 l
-3 6 l
15 0 l
12 -46 m 18 0 l
0 3 l
-1 3 l
-2 2 l
-3 1 l
-4 0 l
-5 -1 l
-3 -3 l
-2 -5 l
0 -3 l
2 -5 l
3 -3 l
5 -1 l
3 0 l
4 1 l
3 3 l
-1 8 m 0 5 l
-2 3 l
-7 1 m -4 -1 l
-3 -3 l
-1 -5 l
0 -3 l
1 -5 l
3 -3 l
4 -1 l
66 88 m -46 -82 l
67 62 m 5 2 l
8 8 l
0 -54 l
-3 52 m 0 -52 l
-10 0 m 23 0 l
36 54 m -8 -2 l
-5 -8 l
-3 -13 l
0 -8 l
3 -13 l
5 -7 l
8 -3 l
5 0 l
8 3 l
5 7 l
2 13 l
0 8 l
-2 13 l
-5 8 l
-8 2 l
-5 0 l
-5 -2 l
-3 -3 l
-2 -5 l
-3 -13 l
0 -8 l
3 -13 l
2 -5 l
3 -2 l
5 -3 l
5 0 m 5 3 l
3 2 l
2 5 l
3 13 l
0 8 l
-3 13 l
-2 5 l
-3 3 l
-5 2 l
46 0 m -8 -2 l
-5 -8 l
-2 -13 l
0 -8 l
2 -13 l
5 -7 l
8 -3 l
5 0 l
8 3 l
5 7 l
3 13 l
0 8 l
-3 13 l
-5 8 l
-8 2 l
-5 0 l
-5 -2 l
-3 -3 l
-2 -5 l
-3 -13 l
0 -8 l
3 -13 l
2 -5 l
3 -2 l
5 -3 l
5 0 m 5 3 l
3 2 l
3 5 l
2 13 l
0 8 l
-2 13 l
CS M
-3 5 l
-3 3 l
-5 2 l
46 0 m -7 -2 l
-5 -8 l
-3 -13 l
0 -8 l
3 -13 l
5 -7 l
7 -3 l
6 0 l
7 3 l
5 7 l
3 13 l
0 8 l
-3 13 l
-5 8 l
-7 2 l
-6 0 l
-5 -2 l
-2 -3 l
-3 -5 l
-2 -13 l
0 -8 l
2 -13 l
3 -5 l
2 -2 l
5 -3 l
6 0 m 5 3 l
2 2 l
3 5 l
2 13 l
0 8 l
-2 13 l
-3 5 l
-2 3 l
-5 2 l
30 10 m 6 -5 l
5 -7 l
5 -11 l
2 -13 l
0 -10 l
-2 -13 l
-5 -10 l
-5 -8 l
-6 -5 l
6 77 m 5 -10 l
2 -8 l
3 -13 l
0 -10 l
-3 -13 l
-2 -7 l
-5 -11 l
CS [] 0 setdash M
1648 622 M 5 -12 m 7 7 l
0 10 l
-7 7 l
-10 0 l
-7 -7 l
0 -10 l
7 -7 l
10 0 l
-25 143 m 5 -12 m 7 7 l
0 10 l
-7 7 l
-10 0 l
-7 -7 l
0 -10 l
7 -7 l
10 0 l
-87 -58 m 5 -12 m 7 7 l
0 10 l
-7 7 l
-10 0 l
-7 -7 l
0 -10 l
7 -7 l
10 0 l
-38 13 m 5 -12 m 7 7 l
0 10 l
-7 7 l
-10 0 l
-7 -7 l
0 -10 l
7 -7 l
10 0 l
-8 -4 m 5 -13 m 7 7 l
0 10 l
-7 8 l
-10 0 l
-7 -8 l
0 -10 l
7 -7 l
10 0 l
-11 137 m 5 -12 m 7 7 l
0 10 l
-7 7 l
-10 0 l
-7 -7 l
0 -10 l
7 -7 l
10 0 l
-25 -59 m 5 -12 m 7 7 l
0 10 l
-7 8 l
-10 0 l
-7 -8 l
0 -10 l
7 -7 l
10 0 l
-64 18 m 5 -12 m 7 7 l
0 10 l
-7 7 l
-10 0 l
-7 -7 l
0 -10 l
7 -7 l
10 0 l
-6 22 m 5 -12 m 7 7 l
0 10 l
-7 7 l
-10 0 l
-7 -7 l
0 -10 l
7 -7 l
10 0 l
-36 -23 m 5 -13 m 7 8 l
0 10 l
-7 7 l
-10 0 l
-7 -7 l
0 -10 l
7 -8 l
10 0 l
-8 -21 m 5 -13 m 7 7 l
0 10 l
-7 8 l
-10 0 l
-7 -8 l
0 -10 l
7 -7 l
10 0 l
-23 31 m 5 -12 m 7 7 l
0 10 l
-7 7 l
-10 0 l
-7 -7 l
0 -10 l
7 -7 l
10 0 l
-28 -44 m 5 -12 m 7 7 l
0 10 l
-7 7 l
-10 0 l
-7 -7 l
0 -10 l
7 -7 l
10 0 l
-9 24 m 5 -12 m 7 7 l
0 10 l
-7 7 l
-10 0 l
-7 -7 l
0 -10 l
7 -7 l
10 0 l
-48 -22 m 5 -12 m 7 7 l
0 10 l
-7 7 l
-10 0 l
-7 -7 l
0 -10 l
7 -7 l
10 0 l
-61 61 m 5 -13 m 7 7 l
0 10 l
-7 8 l
-10 0 l
-7 -8 l
0 -10 l
7 -7 l
10 0 l
-12 -7 m 5 -13 m 7 8 l
0 10 l
-7 7 l
-10 0 l
-7 -7 l
0 -10 l
7 -8 l
10 0 l
-152 -10 m 5 -13 m 7 8 l
0 10 l
-7 7 l
-10 0 l
-7 -7 l
0 -10 l
7 -8 l
10 0 l
-110 70 m 5 -12 m 7 7 l
0 10 l
-7 7 l
-10 0 l
-7 -7 l
0 -10 l
7 -7 l
10 0 l
656 -37 m 0 10 l
0 0 l
-20 121 m 0 15 l
0 0 l
-82 -85 m 0 12 l
0 0 l
-33 -11 m 0 24 l
-1 0 l
-2 -40 m 0 11 l
0 0 l
-6 113 m 0 5 l
0 0 l
-20 -76 m 0 10 l
0 0 l
-59 -4 m 0 16 l
0 0 l
-1 -6 m 0 20 l
0 0 l
-31 -55 m 0 14 l
0 0 l
-3 -48 m 0 11 l
0 0 l
-18 7 m 0 9 l
1 0 m -1 0 l
-23 -65 m 0 12 l
0 0 l
-4 0 m 0 19 l
0 -1 l
-43 -52 m 0 15 l
1 0 m -1 0 l
-56 34 m 0 14 l
0 0 l
-7 -34 m 0 11 l
0 0 l
-147 -34 m 0 16 l
0 0 l
-105 41 m 0 3 l
0 0 l
661 -52 m 0 -9 l
0 0 l
-20 140 m 0 -16 l
0 0 l
-82 -54 m 0 -13 l
0 0 l
-33 14 m 0 -24 l
-1 0 l
-2 8 m 0 -12 l
0 0 l
-6 136 m 0 -4 l
0 -1 l
-20 -66 m 0 -9 l
0 0 l
-59 15 m 0 -17 l
0 0 l
-1 27 m 0 -20 l
0 0 l
-31 -15 m 0 -15 l
0 0 l
-3 -19 m 0 -12 l
0 0 l
-18 30 m 0 -9 l
1 0 m -1 0 l
-23 -47 m 0 -12 l
0 0 l
-4 24 m 0 -18 l
0 0 l
-43 -16 m 0 -15 l
1 0 m -1 0 l
-56 64 m 0 -15 l
0 0 l
-7 -5 m 0 -11 l
0 0 l
-147 -12 m 0 -17 l
0 0 l
-105 74 m 0 -3 l
0 0 l
661 -46 m 34 0 l
0 1 m 0 -1 l
-54 131 m 15 0 l
0 0 l
-97 -70 m 16 0 l
0 0 l
-49 1 m 9 0 l
0 0 l
-12 -16 m 11 0 l
0 -1 l
-17 125 m 17 0 l
0 0 l
-37 -71 m 5 0 l
0 1 m 0 -1 l
-64 6 m 39 0 l
0 0 l
-40 10 m 22 0 l
0 0 l
-53 -35 m 4 0 l
CS M
0 -1 l
-7 -33 m 14 0 l
0 -1 l
-32 19 m 12 0 l
0 0 l
-35 -56 m 14 0 l
0 0 l
-18 12 m 11 0 l
0 0 l
-54 -34 m 30 0 l
-1 0 l
-85 49 m 36 0 l
0 -1 l
-43 -19 m 39 0 l
0 -1 l
-186 -22 m 10 0 l
0 -1 l
-115 58 m 29 0 l
0 0 l
632 -49 m -35 0 l
0 1 m 0 -1 l
15 131 m -15 0 l
0 0 l
-67 -70 m -17 0 l
0 0 l
-16 1 m -10 0 l
0 0 l
7 -16 m -12 0 l
0 -1 l
6 125 m -18 0 l
0 0 l
-2 -71 m -5 0 l
0 1 m 0 -1 l
-54 6 m -40 0 l
0 0 l
39 10 m -22 0 l
0 0 l
-9 -35 m -5 0 l
0 -1 l
2 -33 m -14 0 l
0 -1 l
-4 19 m -11 0 l
0 0 l
-12 -56 m -14 0 l
0 0 l
10 12 m -11 0 l
0 0 l
-32 -34 m -29 0 l
0 0 l
-27 49 m -36 0 l
0 -1 l
29 -19 m -39 0 l
0 -1 l
-108 -22 m -11 0 l
0 -1 l
-94 58 m -28 0 l
-1 0 l
-299 203 m CS [] 0 setdash M
694 914 M 3 7 l
0 -13 l
-3 6 l
-4 5 l
-7 2 l
-7 0 l
-6 -2 l
-5 -5 l
0 -4 l
3 -5 l
2 -2 l
4 -2 l
14 -5 l
4 -2 l
5 -4 l
-32 20 m 5 -5 l
4 -2 l
14 -4 l
4 -3 l
2 -2 l
3 -4 l
0 -9 l
-5 -5 l
-7 -2 l
-6 0 l
-7 2 l
-4 5 l
-3 6 l
0 -13 l
3 7 l
47 24 m 0 -47 l
2 47 m 0 -47 l
0 41 m 4 4 l
5 2 l
4 0 l
7 -2 l
5 -4 l
2 -7 l
0 -5 l
-2 -6 l
-5 -5 l
-7 -2 l
-4 0 l
-5 2 l
-4 5 l
13 24 m 5 -2 l
4 -4 l
3 -7 l
0 -5 l
-3 -6 l
-4 -5 l
-5 -2 l
-22 31 m 9 0 l
-9 -47 m 16 0 l
38 63 m -3 -2 l
3 -2 l
2 2 l
-2 2 l
0 -16 m 0 -31 l
2 31 m 0 -31 l
-9 31 m 9 0 l
-9 -31 m 16 0 l
15 31 m 0 -31 l
3 31 m 0 -31 l
0 18 m 2 7 l
4 4 l
5 2 l
7 0 l
2 -2 l
0 -2 l
-2 -2 l
-3 2 l
3 2 l
-27 2 m 9 0 l
-9 -31 m 15 0 l
29 27 m 0 -2 l
-2 0 l
0 2 l
2 2 l
5 2 l
9 0 l
4 -2 l
3 -2 l
2 -5 l
0 -15 l
2 -5 l
2 -2 l
-6 27 m 0 -20 l
2 -5 l
4 -2 l
3 0 l
-9 22 m -3 -2 l
-13 -2 l
-7 -2 l
-2 -5 l
0 -4 l
2 -5 l
7 -2 l
7 0 l
4 2 l
5 5 l
-16 11 m -5 -2 l
-2 -5 l
0 -4 l
2 -5 l
5 -2 l
40 47 m 0 -47 l
3 47 m 0 -47 l
-9 47 m 9 0 l
-9 -47 m 15 0 l
5 0 m CS [] 0 setdash M
511 458 M 1677 496 l
CS [32 24] 0 setdash M
511 424 M 1677 496 l
CS [] 0 setdash M
stroke
grestore
showpage
end
%%Trailer
%%EOF
