%!PS-Adobe-3.0
%%BoundingBox: 21 109 525 793
%%Title: Graphics produced by IDL
%%For: avonhuxor@merope.star.bris.ac.uk, /Applications/itt/idl70/bin
%%Creator: IDL Version 7.0, Mac OS X (darwin i386 m32)
%%CreationDate: Mon Jul 12 14:41:00 2010
%%DocumentData: Clean7bit
%%Requirements: color
%%LanguageLevel: 1
%%PageOrder: Ascend
%%Pages: (atend)
%%DocumentNeededResources: (atend)
%%EndComments
%%BeginProlog
save
%+ prolog.ps -- Prolog for IDL generated PostScript files
%+ Copyright (c) 1988-2007 ITT Visual Information Solutions. All Rights Reserved.
%v 5
/$IDL_DICT 40 dict def $IDL_DICT begin /bdef { bind def } bind def /C
{currentpoint newpath moveto} bdef /CP {currentpoint} bdef /D {currentpoint
stroke moveto} bdef /F {closepath fill} bdef /K { setgray } bdef /M {moveto}
bdef /N {rmoveto} bdef /P {lineto} bdef /R {rlineto} bdef /S {gsave show
grestore} bdef /X {currentpoint pop} bdef /Z {gsave currentpoint lineto 20
setlinewidth 1 setlinecap stroke grestore} bdef /L0 {[] 0 setdash} bdef /L1
{[40 100] 0 setdash} bdef /L2 {[200 200] 0 setdash} bdef /L3 {[200 100 50
100] 0 setdash} bdef /L4 {[300 100 50 100 50 100 50 100] 0 setdash} bdef /L5
{[400 200] 0 setdash} bdef /STDFONT { findfont exch scalefont setfont } bdef
/ISOFONT { findfont dup length dict begin { 1 index /FID ne {def} {pop pop}
ifelse } forall /Encoding ISOLatin1Encoding def currentdict end /idltmpfont
exch definefont exch scalefont setfont } bdef /ISOBULLET { gsave /Helvetica
findfont exch scalefont setfont (\267) show currentpoint grestore moveto}
bdef /MITERLIMIT { 2.5 setmiterlimit } bdef end
%%EndProlog
%%Page: 0 1
%%PageRequirements: color
%%PageResources: (atend)
%%PageOrientation: Landscape
%%PageBoundingBox: 21 109 525 793
%%BeginPageSetup
save
$IDL_DICT begin 21 793 translate 0.0283465 dup scale 270 rotate MITERLIMIT
%%IncludeResource: font Helvetica
423.333 /Helvetica STDFONT
%%EndPageSetup
50 setlinewidth L0 0.000 0.000 0.000 setrgbcolor 4440 2816 M 18358 0 R D
4440 2816 M 0 271 R D 3622 1970 M 421 0 R D 4347 2251 M -70 -24 R -47 -70 R
-24 -116 R 0 -71 R 24 -116 R 47 -71 R 70 -23 R 46 0 R 70 23 R 47 71 R
24 116 R 0 71 R -24 116 R -47 70 R -70 24 R -46 0 R D 4721 1807 M -24 -24 R
24 -23 R 23 23 R -23 24 R D 5188 2251 M -234 0 R -23 -210 R 23 23 R 70 23 R
70 0 R 71 -23 R 46 -47 R 24 -70 R 0 -47 R -24 -70 R -46 -47 R -71 -23 R
-70 0 R -70 23 R -23 24 R -24 47 R D 7971 2816 M 0 271 R D 7573 2251 M
-70 -24 R -47 -70 R -23 -116 R 0 -71 R 23 -116 R 47 -71 R 70 -23 R 47 0 R
70 23 R 47 71 R 23 116 R 0 71 R -23 116 R -47 70 R -70 24 R -47 0 R D
7947 1807 M -23 -24 R 23 -23 R 24 23 R -24 24 R D 8274 2251 M -70 -24 R
-47 -70 R -23 -116 R 0 -71 R 23 -116 R 47 -71 R 70 -23 R 47 0 R 70 23 R
47 71 R 23 116 R 0 71 R -23 116 R -47 70 R -70 24 R -47 0 R D 11501 2816 M
0 271 R D 11104 2251 M -70 -24 R -47 -70 R -24 -116 R 0 -71 R 24 -116 R
47 -71 R 70 -23 R 46 0 R 70 23 R 47 71 R 24 116 R 0 71 R -24 116 R -47 70 R
-70 24 R -46 0 R D 11478 1807 M -24 -24 R 24 -23 R 23 23 R -23 24 R D
11945 2251 M -234 0 R -23 -210 R 23 23 R 70 23 R 70 0 R 71 -23 R 46 -47 R
24 -70 R 0 -47 R -24 -70 R -46 -47 R -71 -23 R -70 0 R -70 23 R -23 24 R
-24 47 R D 15031 2816 M 0 271 R D 14564 2157 M 47 24 R 70 70 R 0 -491 R D
15008 1807 M -23 -24 R 23 -23 R 23 23 R -23 24 R D 15335 2251 M -70 -24 R
-47 -70 R -23 -116 R 0 -71 R 23 -116 R 47 -71 R 70 -23 R 47 0 R 70 23 R
47 71 R 23 116 R 0 71 R -23 116 R -47 70 R -70 24 R -47 0 R D 18562 2816 M
0 271 R D 18094 2157 M 47 24 R 70 70 R 0 -491 R D 18538 1807 M -23 -24 R
23 -23 R 24 23 R -24 24 R D 19006 2251 M -234 0 R -23 -210 R 23 23 R 70 23 R
70 0 R 70 -23 R 47 -47 R 23 -70 R 0 -47 R -23 -70 R -47 -47 R -70 -23 R
-70 0 R -70 23 R -23 24 R -24 47 R D 22092 2816 M 0 271 R D 21578 2134 M
0 23 R 23 47 R 24 23 R 46 24 R 94 0 R 47 -24 R 23 -23 R 23 -47 R 0 -46 R
-23 -47 R -47 -70 R -233 -234 R 327 0 R D 22069 1807 M -24 -24 R 24 -23 R
23 23 R -23 24 R D 22396 2251 M -70 -24 R -47 -70 R -23 -116 R 0 -71 R
23 -116 R 47 -71 R 70 -23 R 47 0 R 70 23 R 46 71 R 24 116 R 0 71 R -24 116 R
-46 70 R -70 24 R -47 0 R D 5146 2816 M 0 136 R D 5852 2816 M 0 136 R D
6558 2816 M 0 136 R D 7264 2816 M 0 136 R D 8677 2816 M 0 136 R D
9383 2816 M 0 136 R D 10089 2816 M 0 136 R D 10795 2816 M 0 136 R D
12207 2816 M 0 136 R D 12913 2816 M 0 136 R D 13619 2816 M 0 136 R D
14325 2816 M 0 136 R D 15737 2816 M 0 136 R D 16443 2816 M 0 136 R D
17150 2816 M 0 136 R D 17856 2816 M 0 136 R D 19268 2816 M 0 136 R D
19974 2816 M 0 136 R D 20680 2816 M 0 136 R D 21386 2816 M 0 136 R D
22798 2816 M 0 136 R D 11250 1336 M 0 -491 R D 11530 1172 M -46 -23 R
-47 -47 R -23 -70 R 0 -47 R 23 -70 R 47 -47 R 46 -23 R 71 0 R 46 23 R
47 47 R 23 70 R 0 47 R -23 70 R -47 47 R -46 23 R -71 0 R D 12138 1172 M
0 -397 R -23 -70 R -24 -24 R -46 -23 R -71 0 R -46 23 R D 12138 1102 M
-47 47 R -46 23 R -71 0 R -46 -23 R -47 -47 R -23 -70 R 0 -47 R 23 -70 R
47 -47 R 46 -23 R 71 0 R 46 23 R 47 47 R D 12489 1429 M -47 -47 R -47 -70 R
-47 -93 R -23 -117 R 0 -94 R 23 -116 R 47 -117 R 47 -70 R 47 -47 R D
12652 1336 M 0 -491 R D 12652 1336 M 210 0 R 71 -24 R 23 -23 R 23 -47 R
0 -47 R -23 -46 R -23 -24 R -71 -23 R -210 0 R D 12816 1102 M 163 -257 R D
13116 861 M 0 -318 R D 13116 818 M 29 29 R 29 14 R 43 0 R 29 -14 R 29 -29 R
15 -43 R 0 -29 R -15 -44 R -29 -29 R -29 -14 R -43 0 R -29 14 R -29 29 R D
13391 861 M 0 -202 R D 13391 775 M 14 43 R 29 29 R 29 14 R 44 0 R D
13637 861 M -29 -14 R -29 -29 R -14 -43 R 0 -29 R 14 -44 R 29 -29 R 29 -14 R
43 0 R 29 14 R 29 29 R 15 44 R 0 29 R -15 43 R -29 29 R -29 14 R -43 0 R D
13868 963 M 15 -15 R 14 15 R -14 14 R -15 -14 R D 13883 861 M 0 -260 R
-15 -43 R -29 -15 R -29 0 R D 14399 1429 M -420 -771 R D 14539 1336 M
0 -491 R D 14773 1172 M -234 -234 R D 14633 1032 M 163 -187 R D 14937 1172 M
0 -514 R D 14937 1102 M 46 47 R 47 23 R 70 0 R 47 -23 R 47 -47 R 23 -70 R
0 -47 R -23 -70 R -47 -47 R -47 -23 R -70 0 R -47 23 R -46 47 R D
15638 1102 M -47 47 R -47 23 R -70 0 R -47 -23 R -46 -47 R -24 -70 R 0 -47 R
24 -70 R 46 -47 R 47 -23 R 70 0 R 47 23 R 47 47 R D 15778 1429 M 47 -47 R
46 -70 R 47 -93 R 23 -117 R 0 -94 R -23 -116 R -47 -117 R -46 -70 R
-47 -47 R D 4440 16372 M 18358 0 R D 4440 16372 M 0 -271 R D 7971 16372 M
0 -271 R D 11501 16372 M 0 -271 R D 15031 16372 M 0 -271 R D 18562 16372 M
0 -271 R D 22092 16372 M 0 -271 R D 5146 16372 M 0 -135 R D 5852 16372 M
0 -135 R D 6558 16372 M 0 -135 R D 7264 16372 M 0 -135 R D 8677 16372 M
0 -135 R D 9383 16372 M 0 -135 R D 10089 16372 M 0 -135 R D 10795 16372 M
0 -135 R D 12207 16372 M 0 -135 R D 12913 16372 M 0 -135 R D 13619 16372 M
0 -135 R D 14325 16372 M 0 -135 R D 15737 16372 M 0 -135 R D 16443 16372 M
0 -135 R D 17150 16372 M 0 -135 R D 17856 16372 M 0 -135 R D 19268 16372 M
0 -135 R D 19974 16372 M 0 -135 R D 20680 16372 M 0 -135 R D 21386 16372 M
0 -135 R D 22798 16372 M 0 -135 R D 4440 2816 M 0 13556 R D 4440 2816 M
367 0 R D 3213 3026 M 421 0 R D 4031 3307 M -234 -327 R 351 0 R D
4031 3307 M 0 -491 R D 4440 5075 M 367 0 R D 3213 5004 M 421 0 R D
3844 5285 M 257 0 R -140 -187 R 70 0 R 47 -24 R 23 -23 R 24 -70 R 0 -47 R
-24 -70 R -46 -47 R -71 -23 R -70 0 R -70 23 R -23 24 R -24 46 R D
4440 7335 M 367 0 R D 3213 7263 M 421 0 R D 3821 7427 M 0 23 R 23 47 R
24 24 R 46 23 R 94 0 R 47 -23 R 23 -24 R 23 -47 R 0 -46 R -23 -47 R
-47 -70 R -234 -234 R 328 0 R D 4440 9594 M 367 0 R D 3213 9523 M 421 0 R D
3868 9710 M 46 23 R 70 70 R 0 -491 R D 4440 11853 M 367 0 R D 3938 12063 M
-70 -24 R -47 -70 R -24 -117 R 0 -70 R 24 -117 R 47 -70 R 70 -23 R 46 0 R
71 23 R 46 70 R 24 117 R 0 70 R -24 117 R -46 70 R -71 24 R -46 0 R D
4440 14113 M 367 0 R D 3868 14228 M 46 24 R 70 70 R 0 -491 R D 4440 16372 M
367 0 R D 3821 16253 M 0 24 R 23 46 R 24 24 R 46 23 R 94 0 R 47 -23 R
23 -24 R 23 -46 R 0 -47 R -23 -47 R -47 -70 R -234 -234 R 328 0 R D
4440 3042 M 184 0 R D 4440 3268 M 184 0 R D 4440 3494 M 184 0 R D
4440 3720 M 184 0 R D 4440 3946 M 184 0 R D 4440 4172 M 184 0 R D
4440 4398 M 184 0 R D 4440 4624 M 184 0 R D 4440 4849 M 184 0 R D
4440 5301 M 184 0 R D 4440 5527 M 184 0 R D 4440 5753 M 184 0 R D
4440 5979 M 184 0 R D 4440 6205 M 184 0 R D 4440 6431 M 184 0 R D
4440 6657 M 184 0 R D 4440 6883 M 184 0 R D 4440 7109 M 184 0 R D
4440 7561 M 184 0 R D 4440 7787 M 184 0 R D 4440 8013 M 184 0 R D
4440 8238 M 184 0 R D 4440 8464 M 184 0 R D 4440 8690 M 184 0 R D
4440 8916 M 184 0 R D 4440 9142 M 184 0 R D 4440 9368 M 184 0 R D
4440 9820 M 184 0 R D 4440 10046 M 184 0 R D 4440 10272 M 184 0 R D
4440 10498 M 184 0 R D 4440 10724 M 184 0 R D 4440 10950 M 184 0 R D
4440 11176 M 184 0 R D 4440 11402 M 184 0 R D 4440 11627 M 184 0 R D
4440 12079 M 184 0 R D 4440 12305 M 184 0 R D 4440 12531 M 184 0 R D
4440 12757 M 184 0 R D 4440 12983 M 184 0 R D 4440 13209 M 184 0 R D
4440 13435 M 184 0 R D 4440 13661 M 184 0 R D 4440 13887 M 184 0 R D
4440 14339 M 184 0 R D 4440 14565 M 184 0 R D 4440 14791 M 184 0 R D
4440 15016 M 184 0 R D 4440 15242 M 184 0 R D 4440 15468 M 184 0 R D
4440 15694 M 184 0 R D 4440 15920 M 184 0 R D 4440 16146 M 184 0 R D
1986 7510 M 491 0 R D 2150 7790 M 23 -46 R 47 -47 R 70 -24 R 47 0 R 70 24 R
47 47 R 23 46 R 0 70 R -23 47 R -47 47 R -70 23 R -47 0 R -70 -23 R
-47 -47 R -23 -47 R 0 -70 R D 2150 8398 M 397 0 R 70 -24 R 24 -23 R 23 -47 R
0 -70 R -23 -46 R D 2220 8398 M -47 -47 R -23 -47 R 0 -70 R 23 -46 R
47 -47 R 70 -24 R 47 0 R 70 24 R 47 47 R 23 46 R 0 70 R -23 47 R -47 47 R D
1893 8748 M 47 -46 R 70 -47 R 93 -47 R 117 -23 R 94 0 R 116 23 R 117 47 R
70 47 R 47 46 R D 1986 8912 M 491 0 R D 1986 8912 M 491 327 R -491 0 R D
1893 9800 M 771 -421 R D 1986 9940 M 491 0 R D 2150 10174 M 234 -234 R D
2290 10034 M 187 163 R D 2150 10337 M 514 0 R D 2220 10337 M -47 47 R
-23 47 R 0 70 R 23 47 R 47 46 R 70 24 R 47 0 R 70 -24 R 47 -46 R 23 -47 R
0 -70 R -23 -47 R -47 -47 R D 2220 11038 M -47 -46 R -23 -47 R 0 -70 R
23 -47 R 47 -47 R 70 -23 R 47 0 R 70 23 R 47 47 R 23 47 R 0 70 R -23 47 R
-47 46 R D 1891 11175 M -15 0 R -29 15 R -14 14 R -15 29 R 0 58 R 15 29 R
14 14 R 29 15 R 29 0 R 29 -15 R 43 -28 R 145 -145 R 0 202 R D 1893 11468 M
47 47 R 70 46 R 93 47 R 117 24 R 94 0 R 116 -24 R 117 -47 R 70 -46 R
47 -47 R D 22798 2816 M 0 13556 R D 22798 2816 M -367 0 R D 22798 5075 M
-367 0 R D 22798 7335 M -367 0 R D 22798 9594 M -367 0 R D 22798 11853 M
-367 0 R D 22798 14113 M -367 0 R D 22798 16372 M -367 0 R D 22798 3042 M
-183 0 R D 22798 3268 M -183 0 R D 22798 3494 M -183 0 R D 22798 3720 M
-183 0 R D 22798 3946 M -183 0 R D 22798 4172 M -183 0 R D 22798 4398 M
-183 0 R D 22798 4624 M -183 0 R D 22798 4849 M -183 0 R D 22798 5301 M
-183 0 R D 22798 5527 M -183 0 R D 22798 5753 M -183 0 R D 22798 5979 M
-183 0 R D 22798 6205 M -183 0 R D 22798 6431 M -183 0 R D 22798 6657 M
-183 0 R D 22798 6883 M -183 0 R D 22798 7109 M -183 0 R D 22798 7561 M
-183 0 R D 22798 7787 M -183 0 R D 22798 8013 M -183 0 R D 22798 8238 M
-183 0 R D 22798 8464 M -183 0 R D 22798 8690 M -183 0 R D 22798 8916 M
-183 0 R D 22798 9142 M -183 0 R D 22798 9368 M -183 0 R D 22798 9820 M
-183 0 R D 22798 10046 M -183 0 R D 22798 10272 M -183 0 R D 22798 10498 M
-183 0 R D 22798 10724 M -183 0 R D 22798 10950 M -183 0 R D 22798 11176 M
-183 0 R D 22798 11402 M -183 0 R D 22798 11627 M -183 0 R D 22798 12079 M
-183 0 R D 22798 12305 M -183 0 R D 22798 12531 M -183 0 R D 22798 12757 M
-183 0 R D 22798 12983 M -183 0 R D 22798 13209 M -183 0 R D 22798 13435 M
-183 0 R D 22798 13661 M -183 0 R D 22798 13887 M -183 0 R D 22798 14339 M
-183 0 R D 22798 14565 M -183 0 R D 22798 14791 M -183 0 R D 22798 15016 M
-183 0 R D 22798 15242 M -183 0 R D 22798 15468 M -183 0 R D 22798 15694 M
-183 0 R D 22798 15920 M -183 0 R D 22798 16146 M -183 0 R D 4662 14409 M
111 -111 R -111 -111 R -111 111 R 111 111 R D 5721 13731 M 111 -111 R
-111 -111 R -111 111 R 111 111 R D 6780 14131 M 111 -111 R -111 -111 R
-111 111 R 111 111 R D 7839 13338 M 111 -111 R -111 -111 R -111 111 R
111 111 R D 8899 13058 M 111 -111 R -111 -111 R -111 111 R 111 111 R D
9958 12831 M 111 -111 R -111 -111 R -111 111 R 111 111 R D 11017 12568 M
111 -111 R -111 -111 R -111 111 R 111 111 R D 12076 12554 M 111 -111 R
-111 -111 R -111 111 R 111 111 R D 13135 12077 M 111 -111 R -111 -111 R
-111 111 R 111 111 R D 14194 11357 M 111 -111 R -111 -111 R -111 111 R
111 111 R D 15253 10520 M 111 -111 R -111 -111 R -111 111 R 111 111 R D
16312 9495 M 111 -111 R -111 -111 R -111 111 R 111 111 R D 17372 8137 M
111 -111 R -111 -111 R -111 111 R 111 111 R D 18431 6779 M 111 -111 R
-111 -111 R -111 111 R 111 111 R D 19490 6513 M 111 -111 R -111 -111 R
-111 111 R 111 111 R D 20549 6334 M 111 -111 R -111 -111 R -111 111 R
111 111 R D 21608 5708 M 111 -111 R -111 -111 R -111 111 R 111 111 R D
40 setlinewidth 4570 13741 M 184 0 R -92 0 R 0 1116 R -92 0 R 184 0 R D
5629 13063 M 184 0 R -92 0 R 0 1116 R -92 0 R 184 0 R D 6689 13709 M 183 0 R
-92 0 R 0 638 R -91 0 R 183 0 R D 7748 12868 M 183 0 R -92 0 R 0 707 R
-91 0 R 183 0 R D 8807 12665 M 183 0 R -91 0 R 0 564 R -92 0 R 183 0 R D
9866 12495 M 184 0 R -92 0 R 0 450 R -92 0 R 184 0 R D 10925 12276 M 184 0 R
-92 0 R 0 363 R -92 0 R 184 0 R D 11984 12313 M 184 0 R -92 0 R 0 260 R
-92 0 R 184 0 R D 13043 11849 M 184 0 R -92 0 R 0 235 R -92 0 R 184 0 R D
14102 11126 M 184 0 R -92 0 R 0 239 R -92 0 R 184 0 R D 15162 10280 M
183 0 R -92 0 R 0 260 R -91 0 R 183 0 R D 16221 9229 M 183 0 R -92 0 R
0 310 R -91 0 R 183 0 R D 17280 7807 M 183 0 R -91 0 R 0 438 R -92 0 R
183 0 R D 18339 6359 M 183 0 R -91 0 R 0 618 R -92 0 R 183 0 R D
19398 6134 M 184 0 R -92 0 R 0 540 R -92 0 R 184 0 R D 20457 5808 M 184 0 R
-92 0 R 0 638 R -92 0 R 184 0 R D 21516 5040 M 184 0 R -92 0 R 0 1116 R
-92 0 R 184 0 R D 18431 6699 M 3177 -882 R D L4
1.000 0.000 0.000 setrgbcolor 13135 12149 M 5296 -4878 R D L1
0.000 0.000 0.000 setrgbcolor 4662 14194 M 8473 -2178 R D 50 setlinewidth
0.000 0.000 0.000 setrgbcolor 18203 15263 M 3596 0 R D L0
0.000 0.000 0.000 setrgbcolor 13649 15263 M 316 0 R D 14193 15473 M
-53 -18 R -35 -52 R -17 -88 R 0 -52 R 17 -88 R 35 -53 R 53 -17 R 35 0 R
52 17 R 35 53 R 18 88 R 0 52 R -18 88 R -35 52 R -52 18 R -35 0 R D
14473 15140 M -17 -18 R 17 -17 R 18 17 R -18 18 R D 14701 15473 M -53 -18 R
-17 -35 R 0 -35 R 17 -35 R 35 -17 R 71 -18 R 52 -17 R 35 -35 R 18 -35 R
0 -53 R -18 -35 R -17 -18 R -53 -17 R -70 0 R -53 17 R -17 18 R -18 35 R
0 53 R 18 35 R 35 35 R 52 17 R 71 18 R 35 17 R 17 35 R 0 35 R -17 35 R
-53 18 R -70 0 R D 15069 15473 M -53 -18 R -35 -52 R -17 -88 R 0 -52 R
17 -88 R 35 -53 R 53 -17 R 35 0 R 53 17 R 35 53 R 17 88 R 0 52 R -17 88 R
-35 52 R -53 18 R -35 0 R D 15490 15420 M 0 -315 R D 15332 15263 M 315 0 R D
16068 15543 M -315 -578 R D 16173 15263 M 316 0 R D 16716 15473 M -52 -18 R
-35 -52 R -18 -88 R 0 -52 R 18 -88 R 35 -53 R 52 -17 R 36 0 R 52 17 R
35 53 R 18 88 R 0 52 R -18 88 R -35 52 R -52 18 R -36 0 R D 16997 15140 M
-18 -18 R 18 -17 R 17 17 R -17 18 R D 17190 15403 M 35 17 R 52 53 R 0 -368 R
D 17593 15473 M -53 -18 R -35 -52 R -17 -88 R 0 -52 R 17 -88 R 35 -53 R
53 -17 R 35 0 R 52 17 R 35 53 R 18 88 R 0 52 R -18 88 R -35 52 R -52 18 R
-35 0 R D L4 1.000 0.000 0.000 setrgbcolor 18203 14630 M 3596 0 R D L0
0.000 0.000 0.000 setrgbcolor 13649 14629 M 316 0 R D 14105 14752 M 0 17 R
18 35 R 17 18 R 35 17 R 70 0 R 35 -17 R 18 -18 R 17 -35 R 0 -35 R -17 -35 R
-35 -52 R -175 -176 R 245 0 R D 14473 14506 M -17 -17 R 17 -18 R 18 18 R
-18 17 R D 14701 14839 M -53 -17 R -17 -35 R 0 -35 R 17 -35 R 35 -18 R
71 -17 R 52 -18 R 35 -35 R 18 -35 R 0 -53 R -18 -35 R -17 -17 R -53 -18 R
-70 0 R -53 18 R -17 17 R -18 35 R 0 53 R 18 35 R 35 35 R 52 18 R 71 17 R
35 18 R 17 35 R 0 35 R -17 35 R -53 17 R -70 0 R D 15051 14839 M -52 -17 R
-18 -35 R 0 -35 R 18 -35 R 35 -18 R 70 -17 R 53 -18 R 35 -35 R 17 -35 R
0 -53 R -17 -35 R -18 -17 R -52 -18 R -71 0 R -52 18 R -18 17 R -17 35 R
0 53 R 17 35 R 35 35 R 53 18 R 70 17 R 35 18 R 18 35 R 0 35 R -18 35 R
-52 17 R -71 0 R D 15490 14787 M 0 -316 R D 15332 14629 M 315 0 R D
16068 14909 M -315 -578 R D 16173 14629 M 316 0 R D 16716 14839 M -52 -17 R
-35 -53 R -18 -87 R 0 -53 R 18 -88 R 35 -52 R 52 -18 R 36 0 R 52 18 R
35 52 R 18 88 R 0 53 R -18 87 R -35 53 R -52 17 R -36 0 R D 16997 14506 M
-18 -17 R 18 -18 R 17 18 R -17 17 R D 17190 14769 M 35 18 R 52 52 R 0 -368 R
D 17523 14839 M 192 0 R -105 -140 R 53 0 R 35 -17 R 17 -18 R 18 -52 R
0 -36 R -18 -52 R -35 -35 R -52 -18 R -53 0 R -52 18 R -18 17 R -17 35 R D
0.000 0.000 0.000 setrgbcolor 18203 13996 M 3596 0 R D
0.000 0.000 0.000 setrgbcolor 13649 13995 M 316 0 R D 14193 14206 M
-53 -18 R -35 -52 R -17 -88 R 0 -53 R 17 -87 R 35 -53 R 53 -17 R 35 0 R
52 17 R 35 53 R 18 87 R 0 53 R -18 88 R -35 52 R -52 18 R -35 0 R D
14473 13873 M -17 -18 R 17 -17 R 18 17 R -18 18 R D 14701 14206 M -53 -18 R
-17 -35 R 0 -35 R 17 -35 R 35 -17 R 71 -18 R 52 -18 R 35 -35 R 18 -35 R
0 -52 R -18 -35 R -17 -18 R -53 -17 R -70 0 R -53 17 R -17 18 R -18 35 R
0 52 R 18 35 R 35 35 R 52 18 R 71 18 R 35 17 R 17 35 R 0 35 R -17 35 R
-53 18 R -70 0 R D 15209 14206 M -175 -368 R D 14964 14206 M 245 0 R D
15490 14153 M 0 -315 R D 15332 13995 M 315 0 R D 16068 14276 M -315 -579 R D
16173 13995 M 316 0 R D 16716 14206 M -52 -18 R -35 -52 R -18 -88 R 0 -53 R
18 -87 R 35 -53 R 52 -17 R 36 0 R 52 17 R 35 53 R 18 87 R 0 53 R -18 88 R
-35 52 R -52 18 R -36 0 R D 16997 13873 M -18 -18 R 18 -17 R 17 17 R
-17 18 R D 17347 14206 M -175 0 R -17 -158 R 17 18 R 53 17 R 52 0 R 53 -17 R
35 -36 R 17 -52 R 0 -35 R -17 -53 R -35 -35 R -53 -17 R -52 0 R -53 17 R
-17 18 R -18 35 R D 17505 14118 M 0 18 R 18 35 R 17 17 R 35 18 R 70 0 R
35 -18 R 18 -17 R 17 -35 R 0 -35 R -17 -35 R -35 -53 R -175 -175 R 245 0 R D
%%PageTrailer
end
restore
showpage
%%PageResources: font Helvetica
%%Trailer
restore
%%Pages: 1
%%DocumentNeededResources: font Helvetica
%%EOF
