%!PS-Adobe-3.0 EPSF-3.0
%%Creator: SM
%%BoundingBox: 18 144 592 718
%%DocumentNeededResources: font Helvetica
%%LanguageLevel: 1
%%Pages: 1
%%EndComments
%%Page: 1 1
 20 dict begin
72 300 div dup scale
1 setlinejoin 0 setlinecap
/Helvetica findfont 55 scalefont setfont 
/B {CS newpath moveto} def
/F {moveto 0 setlinecap} def
/C {CS M 1 1 3 {pop 3 1 roll 255 div} for SET_COLOUR} def
/CS {currentpoint stroke} def
/CF {currentpoint eofill} def
/L {lineto} def /l {rlineto} def /M {moveto} def /m {rmoveto} def
/P {gsave 0 1 rlineto stroke grestore} def
/T {currentlinecap exch 1 setlinecap show setlinecap} def
errordict /nocurrentpoint {pop 0 0 M currentpoint} put
/SET_COLOUR statusdict begin /processcolors where
  {pop processcolors 1 gt} {false} ifelse
  {(setrgbcolor)} {(pop pop pop)} ifelse cvx end def
 80 600 translate
gsave
CS [] 0 setdash M
CS M 2 100 mul 72 div dup setlinewidth
/P [ /gsave cvx 0 5 -1 roll .05 add dup -2 div 0 exch /rmoveto cvx /rlineto cvx /stroke cvx /grestore cvx ] cvx def
 0 0 0 C
CS M 2 100 mul 72 div dup setlinewidth
/P [ /gsave cvx 0 5 -1 roll .05 add dup -2 div 0 exch /rmoveto cvx /rlineto cvx /stroke cvx /grestore cvx ] cvx def
CS [] 0 setdash M
438 438 M 1750 0 l
0 1562 l
438 2000 L
438 438 L
1750 0 l
438 438 M 1750 0 l
465 438 M 0 27 l
134 -27 m 0 27 l
135 -27 m 0 54 l
-26 -155 m 21 54 m -8 -3 l
-3 -5 l
0 -7 l
3 -6 l
8 -2 l
10 0 l
8 2 l
2 6 l
0 7 l
-2 5 l
-8 3 l
-10 0 l
-5 -3 l
-3 -5 l
0 -7 l
3 -6 l
5 -2 l
10 0 m 5 2 l
3 6 l
0 7 l
-3 5 l
-5 3 l
-10 -23 m -8 -3 l
-3 -2 l
-2 -5 l
0 -11 l
2 -5 l
3 -2 l
8 -3 l
10 0 l
8 3 l
2 2 l
3 5 l
0 11 l
-3 5 l
-2 2 l
-8 3 l
-10 0 m -5 -3 l
-3 -2 l
-3 -5 l
0 -11 l
3 -5 l
3 -2 l
5 -3 l
10 0 m 5 3 l
3 2 l
2 5 l
0 11 l
-2 5 l
-3 2 l
-5 3 l
130 70 m 0 27 l
134 -27 m 0 27 l
135 -27 m 0 27 l
134 -27 m 0 54 l
-51 -155 m 16 44 m 5 2 l
7 8 l
0 -54 l
-2 51 m 0 -51 l
-10 0 m 23 0 l
36 54 m -8 -3 l
-5 -7 l
-3 -13 l
0 -8 l
3 -13 l
5 -7 l
8 -3 l
5 0 l
7 3 l
6 7 l
2 13 l
0 8 l
-2 13 l
-6 7 l
-7 3 l
-5 0 l
-6 -3 l
-2 -2 l
-3 -5 l
-2 -13 l
0 -8 l
2 -13 l
3 -5 l
2 -2 l
6 -3 l
5 0 m 5 3 l
2 2 l
3 5 l
3 13 l
0 8 l
-3 13 l
-3 5 l
-2 2 l
-5 3 l
106 47 m 0 27 l
135 -27 m 0 27 l
134 -27 m 0 27 l
135 -27 m 0 54 l
-51 -155 m 15 44 m 5 2 l
8 8 l
0 -54 l
-3 51 m 0 -51 l
-10 0 m 23 0 l
23 44 m 3 -3 l
-3 -2 l
-2 2 l
0 3 l
2 5 l
3 2 l
8 3 l
10 0 l
8 -3 l
2 -2 l
3 -5 l
0 -5 l
-3 -6 l
-8 -5 l
-12 -5 l
-6 -2 l
-5 -6 l
-2 -7 l
0 -8 l
23 54 m 5 -3 l
3 -2 l
2 -5 l
0 -5 l
-2 -6 l
-8 -5 l
-10 -5 l
-13 -18 m 2 3 l
5 0 l
13 -5 l
8 0 l
5 2 l
3 3 l
-29 0 m 13 -8 l
11 0 l
2 3 l
3 5 l
0 5 l
91 88 m 0 27 l
134 -27 m 0 27 l
438 2000 M 1750 0 l
465 2000 M 0 -28 l
134 28 m 0 -28 l
135 28 m 0 -55 l
135 55 m 0 -28 l
134 28 m 0 -28 l
135 28 m 0 -28 l
134 28 m 0 -55 l
135 55 m 0 -28 l
135 28 m 0 -28 l
134 28 m 0 -28 l
135 28 m 0 -55 l
135 55 m 0 -28 l
134 28 m 0 -28 l
438 438 M 0 1562 l
438 438 M 27 0 l
-27 134 m 54 0 l
-152 -27 m 23 54 m -8 -2 l
-5 -8 l
-3 -13 l
0 -8 l
3 -12 l
5 -8 l
8 -3 l
5 0 l
7 3 l
6 8 l
2 12 l
0 8 l
-2 13 l
-6 8 l
-7 2 l
-5 0 l
-5 -2 l
-3 -3 l
-3 -5 l
-2 -13 l
0 -8 l
2 -12 l
3 -6 l
3 -2 l
5 -3 l
5 0 m 5 3 l
2 2 l
3 6 l
3 12 l
0 8 l
-3 13 l
-3 5 l
-2 3 l
-5 2 l
70 108 m 27 0 l
-27 135 m 27 0 l
-27 134 m 27 0 l
-27 135 m 54 0 l
-152 -27 m 10 44 m 2 -3 l
-2 -3 l
-3 3 l
0 3 l
3 5 l
2 2 l
8 3 l
10 0 l
8 -3 l
3 -2 l
2 -5 l
0 -6 l
-2 -5 l
-8 -5 l
-13 -5 l
-5 -3 l
-5 -5 l
-3 -7 l
0 -8 l
23 54 m 5 -3 l
3 -2 l
3 -5 l
0 -6 l
-3 -5 l
-8 -5 l
-10 -5 l
-13 -18 m 3 3 l
5 0 l
13 -6 l
7 0 l
6 3 l
2 3 l
-28 0 m 13 -8 l
10 0 l
3 2 l
2 6 l
0 5 l
55 149 m 27 0 l
-27 134 m 27 0 l
-27 135 m 27 0 l
-27 134 m 54 0 l
-152 -26 m 30 48 m 0 -48 l
3 53 m 0 -53 l
0 53 m -28 -38 l
41 0 l
-23 -15 m 18 0 l
57 161 m 27 0 l
-27 135 m 27 0 l
2188 438 M 0 1562 l
2188 438 M -27 0 l
27 134 m -55 0 l
55 135 m -27 0 l
27 135 m -27 0 l
27 134 m -27 0 l
27 135 m -55 0 l
55 135 m -27 0 l
27 134 m -27 0 l
27 135 m -27 0 l
27 134 m -55 0 l
55 135 m -27 0 l
27 135 m -27 0 l
CS [] 0 setdash M
CS [] 0 setdash M
1067 226 M 13 54 m 0 -54 l
3 54 m 0 -54 l
-11 54 m 11 0 l
-11 -54 m 18 0 l
29 36 m -8 -2 l
-5 -6 l
-3 -7 l
0 -5 l
3 -8 l
5 -5 l
8 -3 l
5 0 l
7 3 l
6 5 l
2 8 l
0 5 l
-2 7 l
-6 6 l
-7 2 l
-5 0 l
-6 -2 l
-5 -6 l
-2 -7 l
0 -5 l
2 -8 l
5 -5 l
6 -3 l
5 0 m 5 3 l
5 5 l
3 8 l
0 5 l
-3 7 l
-5 6 l
CS M
-5 2 l
43 0 m -5 -2 l
-2 -3 l
-3 -5 l
0 -5 l
3 -5 l
2 -3 l
5 -3 l
6 0 l
5 3 l
2 3 l
3 5 l
0 5 l
-3 5 l
-2 3 l
-5 2 l
-6 0 l
-5 -2 m -2 -6 l
0 -10 l
2 -5 l
16 0 m 2 5 l
0 10 l
-2 6 l
2 -3 m 3 3 l
5 2 l
0 -2 l
-5 0 l
-23 -18 m -3 -3 l
-2 -5 l
0 -3 l
2 -5 l
8 -2 l
13 0 l
7 -3 l
3 -3 l
-33 13 m 2 -2 l
8 -3 l
13 0 l
7 -2 l
3 -6 l
0 -2 l
-3 -5 l
-7 -3 l
-16 0 l
-7 3 l
-3 5 l
0 2 l
3 6 l
7 2 l
87 54 m 0 -54 l
3 54 m 15 -46 l
-18 46 m 18 -54 l
18 54 m -18 -54 l
18 54 m 0 -54 l
3 54 m 0 -54 l
-46 54 m 10 0 l
33 0 m 11 0 l
-54 -54 m 15 0 l
21 0 m 18 0 l
28 8 m 0 -32 l
1 32 m 0 -32 l
-1 16 m -3 4 l
-3 1 l
-3 0 l
-5 -1 l
-3 -4 l
-2 -4 l
0 -3 l
2 -5 l
3 -3 l
5 -1 l
3 0 l
3 1 l
3 3 l
-9 17 m -3 -1 l
-4 -4 l
-1 -4 l
0 -3 l
1 -5 l
4 -3 l
3 -1 l
4 32 m 6 0 l
-1 -32 m 6 0 l
9 21 m 10 -21 l
-8 21 m 8 -18 l
9 18 m -9 -21 l
-4 -7 l
-3 -3 l
-3 -1 l
-1 0 l
-2 1 l
2 2 l
1 -2 l
-3 31 m 9 0 l
7 0 m 9 0 l
9 0 m 0 -21 l
2 21 m 0 -21 l
0 16 m 3 4 l
4 1 l
3 0 l
5 -1 l
2 -4 l
0 -16 l
-7 21 m 3 -1 l
2 -4 l
0 -16 l
-22 21 m 7 0 l
-7 -21 m 11 0 l
6 0 m 11 0 l
55 88 m -47 -82 l
65 72 m 0 -54 l
2 54 m 15 -46 l
-17 46 m 17 -54 l
18 54 m -18 -54 l
18 54 m 0 -54 l
3 54 m 0 -54 l
-46 54 m 10 0 l
33 0 m 11 0 l
-54 -54 m 15 0 l
21 0 m 18 0 l
23 8 m -4 -2 l
-5 -3 l
-3 -4 l
-2 -5 l
0 -5 l
2 -4 l
3 -5 l
5 -3 l
4 -1 l
5 0 l
5 1 l
4 3 l
3 5 l
2 4 l
0 5 l
-2 5 l
-3 4 l
-4 3 l
-5 2 l
-5 0 l
2 -14 m -2 -2 l
0 -1 l
2 -2 l
1 0 l
2 2 l
0 1 l
-2 2 l
-1 0 l
0 -2 m 0 -1 l
1 0 l
0 1 l
-1 0 l
CS [] 0 setdash M
CS [] 0 setdash M
268 1058 M -54 13 m 54 0 l
-54 3 m 54 0 l
-54 -11 m 0 11 l
54 -11 m 0 18 l
-36 28 m 3 -7 l
5 -5 l
8 -3 l
5 0 l
8 3 l
5 5 l
2 7 l
0 6 l
-2 7 l
-5 5 l
-8 3 l
-5 0 l
-8 -3 l
-5 -5 l
-3 -7 l
0 -6 l
3 -5 l
5 -5 l
8 -2 l
5 0 l
8 2 l
5 5 l
2 5 l
0 6 m -2 5 l
-5 5 l
-8 2 l
-5 0 l
-8 -2 l
-5 -5 l
-3 -5 l
0 43 m 3 -5 l
2 -2 l
6 -3 l
5 0 l
5 3 l
2 2 l
3 5 l
0 5 l
-3 6 l
-2 2 l
-5 3 l
-5 0 l
-6 -3 l
-2 -2 l
-3 -6 l
0 -5 l
3 -5 m 5 -2 l
10 0 l
5 2 l
0 16 m -5 2 l
-10 0 l
-5 -2 l
2 2 m -2 3 l
-3 5 l
3 0 l
0 -5 l
18 -23 m 2 -3 l
6 -3 l
2 0 l
5 3 l
3 8 l
0 13 l
2 7 l
3 3 l
-13 -34 m 3 3 l
2 8 l
0 13 l
3 7 l
5 3 l
3 0 l
5 -3 l
2 -7 l
0 -16 l
-2 -8 l
-5 -2 l
-3 0 l
-5 2 l
-3 8 l
-54 87 m 54 0 l
-54 3 m 49 31 l
-43 -31 m 48 31 l
-54 0 m 54 0 l
-54 -41 m 0 10 l
0 23 m 0 15 l
54 -48 m 0 15 l
-3 65 m 5 1 l
-9 0 l
4 -1 l
-3 -3 l
-1 -5 l
0 -3 l
1 -5 l
3 -3 l
3 -1 l
5 -2 l
8 0 l
4 2 l
3 1 l
3 3 l
2 5 l
0 3 l
-2 5 l
-3 3 l
-27 -11 m 1 -3 l
3 -3 l
3 -2 l
5 -1 l
8 0 l
4 1 l
3 2 l
3 3 l
2 3 l
-12 11 m 12 0 l
-12 1 m 12 0 l
-12 -6 m 0 11 l
-16 29 m 5 2 l
-9 0 l
4 -2 l
-3 -3 l
-1 -5 l
0 -3 l
1 -4 l
3 -3 l
3 -2 l
5 -1 l
8 0 l
4 1 l
3 2 l
3 3 l
2 4 l
0 3 l
-2 5 l
-3 3 l
-3 2 l
-24 -13 m 1 -3 l
3 -3 l
3 -1 l
5 -2 l
8 0 l
4 2 l
3 1 l
3 3 l
2 3 l
CS [] 0 setdash M
653 1730 M CS [] 0 setdash M
675 1777 M -15 -47 l
CS M
15 47 m 16 -47 l
-16 41 m 14 -41 l
-25 14 m 20 0 l
-29 -14 m 14 0 l
13 0 m 14 0 l
13 47 m 0 -47 l
2 47 m 0 -47 l
-9 47 m 9 0 l
-9 -47 m 16 0 l
16 47 m 0 -47 l
2 47 m 0 -47 l
-9 47 m 9 0 l
-9 -47 m 16 0 l
60 47 m 0 -47 l
2 47 m 0 -47 l
-15 47 m -2 -13 l
0 13 l
33 0 l
0 -13 l
-2 13 l
-23 -47 m 16 0 l
23 32 m 13 -32 l
-11 32 m 11 -27 l
14 27 m -14 -32 l
-4 -9 l
-5 -4 l
-4 -3 l
-3 0 l
-2 3 l
2 2 l
3 -2 l
-5 45 m 14 0 l
9 0 m 13 0 l
14 0 m 0 -48 l
2 48 m 0 -48 l
0 41 m 4 4 l
5 3 l
4 0 l
7 -3 l
5 -4 l
2 -7 l
0 -4 l
-2 -7 l
-5 -5 l
-7 -2 l
-4 0 l
-5 2 l
-4 5 l
13 25 m 5 -3 l
4 -4 l
3 -7 l
0 -4 l
-3 -7 l
-4 -5 l
-5 -2 l
-22 32 m 9 0 l
-9 -48 m 16 0 l
35 34 m 27 0 l
0 5 l
-2 4 l
-2 2 l
-5 3 l
-6 0 l
-7 -3 l
-5 -4 l
-2 -7 l
0 -4 l
2 -7 l
5 -5 l
7 -2 l
4 0 l
7 2 l
4 5 l
-2 11 m 0 7 l
-2 4 l
-11 3 m -5 -3 l
-4 -4 l
-3 -7 l
0 -4 l
3 -7 l
4 -5 l
5 -2 l
51 27 m 3 5 l
0 -9 l
-3 4 l
-2 2 l
-4 3 l
-9 0 l
-5 -3 l
-2 -2 l
0 -4 l
2 -3 l
5 -2 l
11 -4 l
4 -3 l
3 -2 l
-25 16 m 2 -2 l
5 -3 l
11 -4 l
4 -2 l
3 -3 l
0 -6 l
-3 -3 l
-4 -2 l
-9 0 l
-5 2 l
-2 3 l
-2 4 l
0 -9 l
2 5 l
29 -5 m 1 0 m CS [] 0 setdash M
650 761 M 5 -12 m 7 7 l
0 10 l
-7 7 l
-10 0 l
-7 -7 l
0 -10 l
7 -7 l
10 0 l
106 66 m 5 -12 m 7 7 l
0 10 l
-7 7 l
-10 0 l
-7 -7 l
0 -10 l
7 -7 l
10 0 l
78 -2 m 5 -12 m 7 7 l
0 10 l
-7 7 l
-10 0 l
-7 -7 l
0 -10 l
7 -7 l
10 0 l
3 -42 m 5 -12 m 7 7 l
0 10 l
-7 7 l
-10 0 l
-7 -7 l
0 -10 l
7 -7 l
10 0 l
84 117 m 5 -12 m 7 7 l
0 10 l
-7 7 l
-10 0 l
-7 -7 l
0 -10 l
7 -7 l
10 0 l
-5 45 m 5 -12 m 7 7 l
0 10 l
-7 7 l
-10 0 l
-7 -7 l
0 -10 l
7 -7 l
10 0 l
17 -69 m 5 -12 m 7 7 l
0 10 l
-7 7 l
-10 0 l
-7 -7 l
0 -10 l
7 -7 l
10 0 l
-5 163 m 5 -12 m 7 7 l
0 10 l
-7 7 l
-10 0 l
-7 -7 l
0 -10 l
7 -7 l
10 0 l
-5 87 m 5 -12 m 7 7 l
0 10 l
-7 7 l
-10 0 l
-7 -7 l
0 -10 l
7 -7 l
10 0 l
14 -201 m 5 -12 m 7 7 l
0 10 l
-7 7 l
-10 0 l
-8 -7 l
0 -10 l
8 -7 l
10 0 l
-3 139 m 5 -12 m 7 7 l
0 10 l
-7 7 l
-10 0 l
-7 -7 l
0 -10 l
7 -7 l
10 0 l
3 20 m 5 -12 m 7 7 l
0 10 l
-7 7 l
-10 0 l
-7 -7 l
0 -10 l
7 -7 l
10 0 l
28 -101 m 5 -12 m 7 7 l
0 10 l
-7 7 l
-10 0 l
-7 -7 l
0 -10 l
7 -7 l
10 0 l
-3 20 m 5 -12 m 7 7 l
0 10 l
-7 7 l
-10 0 l
-7 -7 l
0 -10 l
7 -7 l
10 0 l
6 179 m 5 -12 m 7 7 l
0 10 l
-7 7 l
-10 0 l
-7 -7 l
0 -10 l
7 -7 l
10 0 l
19 -53 m 5 -12 m 7 7 l
0 10 l
-7 7 l
-10 0 l
-7 -7 l
0 -10 l
7 -7 l
10 0 l
-2 -36 m 5 -12 m 7 7 l
0 10 l
-7 7 l
-10 0 l
-7 -7 l
0 -10 l
7 -7 l
10 0 l
-5 165 m 5 -12 m 7 7 l
0 10 l
-7 7 l
-10 0 l
-7 -7 l
0 -10 l
7 -7 l
10 0 l
9 -114 m 4 -12 m 8 7 l
0 10 l
-8 7 l
-10 0 l
-7 -7 l
0 -10 l
7 -7 l
10 0 l
-4 28 m 4 -12 m 8 7 l
0 10 l
-8 7 l
-10 0 l
-7 -7 l
0 -10 l
7 -7 l
10 0 l
-2 -90 m 5 -13 m 7 8 l
0 10 l
-7 7 l
-10 0 l
-7 -7 l
0 -10 l
7 -8 l
10 0 l
-5 223 m 5 -13 m 7 8 l
0 10 l
-7 7 l
-10 0 l
-7 -7 l
0 -10 l
7 -8 l
10 0 l
1 -208 m 5 -12 m 7 7 l
0 10 l
-7 7 l
-10 0 l
-7 -7 l
0 -10 l
7 -7 l
10 0 l
48 171 m 5 -12 m 7 7 l
0 10 l
-7 7 l
-10 0 l
-7 -7 l
0 -10 l
CS M
7 -7 l
10 0 l
1 -85 m 5 -12 m 7 7 l
0 10 l
-7 7 l
-10 0 l
-7 -7 l
0 -10 l
7 -7 l
10 0 l
-5 92 m 5 -12 m 7 7 l
0 10 l
-7 8 l
-10 0 l
-7 -8 l
0 -10 l
7 -7 l
10 0 l
6 -41 m 5 -12 m 7 7 l
0 10 l
-7 7 l
-10 0 l
-7 -7 l
0 -10 l
7 -7 l
10 0 l
5 154 m 5 -12 m 7 7 l
0 10 l
-7 7 l
-10 0 l
-7 -7 l
0 -10 l
7 -7 l
10 0 l
1 -168 m 5 -12 m 7 7 l
0 10 l
-7 7 l
-10 0 l
-7 -7 l
0 -10 l
7 -7 l
10 0 l
6 58 m 5 -12 m 7 7 l
0 10 l
-7 7 l
-10 0 l
-8 -7 l
0 -10 l
8 -7 l
10 0 l
-3 -10 m 5 -12 m 7 7 l
0 10 l
-7 7 l
-10 0 l
-7 -7 l
0 -10 l
7 -7 l
10 0 l
14 115 m 5 -13 m 7 7 l
0 10 l
-7 8 l
-10 0 l
-7 -8 l
0 -10 l
7 -7 l
10 0 l
9 -144 m 5 -12 m 7 7 l
0 10 l
-7 7 l
-10 0 l
-8 -7 l
0 -10 l
8 -7 l
10 0 l
-3 72 m 5 -13 m 7 8 l
0 10 l
-7 7 l
-10 0 l
-7 -7 l
0 -10 l
7 -8 l
10 0 l
3 142 m 5 -12 m 7 7 l
0 10 l
-7 7 l
-10 0 l
-7 -7 l
0 -10 l
7 -7 l
10 0 l
-158 111 m 5 -12 m 7 7 l
0 10 l
-7 7 l
-10 0 l
-7 -7 l
0 -10 l
7 -7 l
10 0 l
92 -470 m 5 -12 m 7 7 l
0 10 l
-7 7 l
-10 0 l
-7 -7 l
0 -10 l
7 -7 l
10 0 l
111 516 m 5 -12 m 7 7 l
0 10 l
-7 7 l
-10 0 l
-8 -7 l
0 -10 l
8 -7 l
10 0 l
8 -416 m 5 -12 m 7 7 l
0 10 l
-7 7 l
-10 0 l
-7 -7 l
0 -10 l
7 -7 l
10 0 l
-5 346 m 5 -12 m 7 7 l
0 10 l
-7 7 l
-10 0 l
-7 -7 l
0 -10 l
7 -7 l
10 0 l
-2 -34 m 5 -12 m 7 7 l
0 10 l
-7 7 l
-10 0 l
-7 -7 l
0 -10 l
7 -7 l
10 0 l
3 63 m 5 -12 m 7 7 l
0 10 l
-7 7 l
-10 0 l
-7 -7 l
0 -10 l
7 -7 l
10 0 l
30 -15 m 5 -12 m 7 7 l
0 10 l
-7 7 l
-10 0 l
-7 -7 l
0 -10 l
7 -7 l
10 0 l
-5 117 m 5 -12 m 7 7 l
0 10 l
-7 7 l
-10 0 l
-7 -7 l
0 -10 l
7 -7 l
10 0 l
11 90 m 5 -12 m 7 7 l
0 10 l
-7 7 l
-10 0 l
-7 -7 l
0 -10 l
7 -7 l
10 0 l
14 -52 m 5 -12 m 7 7 l
0 10 l
-7 7 l
-10 0 l
-7 -7 l
0 -10 l
7 -7 l
10 0 l
-2 -204 m 4 -12 m 8 7 l
0 10 l
-8 7 l
-10 0 l
-7 -7 l
0 -10 l
7 -7 l
10 0 l
25 206 m 5 -12 m 7 7 l
0 10 l
-7 7 l
-10 0 l
-7 -7 l
0 -10 l
7 -7 l
10 0 l
1 63 m 4 -12 m 8 7 l
0 10 l
-8 7 l
-10 0 l
-7 -7 l
0 -10 l
7 -7 l
10 0 l
-4 26 m 4 -12 m 8 7 l
0 10 l
-8 7 l
-10 0 l
-7 -7 l
0 -10 l
7 -7 l
10 0 l
-2 -21 m 5 -12 m 7 7 l
0 10 l
-7 7 l
-10 0 l
-7 -7 l
0 -10 l
7 -7 l
10 0 l
-5 23 m 5 -12 m 7 7 l
0 10 l
-7 7 l
-10 0 l
-7 -7 l
0 -10 l
7 -7 l
10 0 l
-2 31 m 5 -12 m 7 7 l
0 10 l
-7 7 l
-10 0 l
-7 -7 l
0 -10 l
7 -7 l
10 0 l
6 -28 m 5 -12 m 7 7 l
0 10 l
-7 7 l
-10 0 l
-7 -7 l
0 -10 l
7 -7 l
10 0 l
3 47 m 5 -12 m 7 7 l
0 10 l
-7 7 l
-10 0 l
-7 -7 l
0 -10 l
7 -7 l
10 0 l
3 74 m 5 -12 m 7 7 l
0 10 l
-7 7 l
-10 0 l
-7 -7 l
0 -10 l
7 -7 l
10 0 l
3 -220 m 5 -12 m 7 7 l
0 10 l
-7 7 l
-10 0 l
-7 -7 l
0 -10 l
7 -7 l
10 0 l
14 252 m 5 -12 m 7 7 l
0 10 l
-7 7 l
-10 0 l
-7 -7 l
0 -10 l
7 -7 l
10 0 l
3 -45 m 5 -12 m 7 7 l
0 10 l
-7 7 l
-10 0 l
-7 -7 l
0 -10 l
7 -7 l
10 0 l
-2 71 m 5 -12 m 7 7 l
0 10 l
-7 7 l
-10 0 l
-8 -7 l
0 -10 l
8 -7 l
10 0 l
0 -31 m 5 -12 m 7 7 l
0 10 l
-7 7 l
-10 0 l
-7 -7 l
0 -10 l
7 -7 l
10 0 l
0 -17 m 5 -12 m 7 7 l
0 10 l
CS M
-7 7 l
-10 0 l
-7 -7 l
0 -10 l
7 -7 l
10 0 l
-2 111 m 5 -12 m 7 7 l
0 10 l
-7 7 l
-10 0 l
-7 -7 l
0 -10 l
7 -7 l
10 0 l
-5 53 m 5 -12 m 7 7 l
0 10 l
-7 7 l
-10 0 l
-7 -7 l
0 -10 l
7 -7 l
10 0 l
-2 -96 m 5 -12 m 7 7 l
0 10 l
-7 7 l
-10 0 l
-7 -7 l
0 -10 l
7 -7 l
10 0 l
-3 42 m 5 -12 m 7 7 l
0 10 l
-7 7 l
-10 0 l
-7 -7 l
0 -10 l
7 -7 l
10 0 l
9 20 m 5 -12 m 7 7 l
0 10 l
-7 7 l
-10 0 l
-7 -7 l
0 -10 l
7 -7 l
10 0 l
-5 66 m 5 -13 m 7 8 l
0 10 l
-7 7 l
-10 0 l
-7 -7 l
0 -10 l
7 -8 l
10 0 l
6 -157 m 5 -12 m 7 7 l
0 10 l
-7 7 l
-10 0 l
-7 -7 l
0 -10 l
7 -7 l
10 0 l
-5 79 m 5 -12 m 7 7 l
0 10 l
-7 7 l
-10 0 l
-7 -7 l
0 -10 l
7 -7 l
10 0 l
-3 90 m 5 -12 m 7 7 l
0 10 l
-7 7 l
-10 0 l
-7 -7 l
0 -10 l
7 -7 l
10 0 l
1 -68 m 5 -13 m 7 8 l
0 10 l
-7 7 l
-10 0 l
-7 -7 l
0 -10 l
7 -8 l
10 0 l
-5 85 m 5 -12 m 7 7 l
0 10 l
-7 7 l
-10 0 l
-7 -7 l
0 -10 l
7 -7 l
10 0 l
-3 -12 m 5 -12 m 7 7 l
0 10 l
-7 7 l
-10 0 l
-7 -7 l
0 -10 l
7 -7 l
10 0 l
4 157 m 4 -12 m 8 7 l
0 10 l
-8 7 l
-9 0 l
-8 -7 l
0 -10 l
8 -7 l
9 0 l
-2 -31 m 5 -12 m 7 7 l
0 10 l
-7 7 l
-10 0 l
-7 -7 l
0 -10 l
7 -7 l
10 0 l
-5 47 m 5 -12 m 7 7 l
0 10 l
-7 7 l
-10 0 l
-7 -7 l
0 -10 l
7 -7 l
10 0 l
-2 -106 m 5 -12 m 7 7 l
0 10 l
-7 7 l
-10 0 l
-7 -7 l
0 -10 l
7 -7 l
10 0 l
0 101 m 5 -12 m 7 7 l
0 10 l
-7 7 l
-10 0 l
-7 -7 l
0 -10 l
7 -7 l
10 0 l
-2 -155 m 5 -12 m 7 7 l
0 10 l
-7 7 l
-10 0 l
-7 -7 l
0 -10 l
7 -7 l
10 0 l
-5 168 m 5 -12 m 7 7 l
0 10 l
-7 7 l
-10 0 l
-7 -7 l
0 -10 l
7 -7 l
10 0 l
-2 -80 m 5 -12 m 7 7 l
0 10 l
-7 7 l
-10 0 l
-7 -7 l
0 -10 l
7 -7 l
10 0 l
-3 150 m 5 -12 m 7 7 l
0 10 l
-7 7 l
-10 0 l
-7 -7 l
0 -10 l
7 -7 l
10 0 l
3 -107 m 5 -12 m 7 7 l
0 10 l
-7 7 l
-10 0 l
-7 -7 l
0 -10 l
7 -7 l
10 0 l
-5 112 m 5 -12 m 7 7 l
0 10 l
-7 7 l
-10 0 l
-7 -7 l
0 -10 l
7 -7 l
10 0 l
-2 -61 m 5 -12 m 7 7 l
0 10 l
-7 7 l
-10 0 l
-7 -7 l
0 -10 l
7 -7 l
10 0 l
-5 45 m 5 -13 m 7 7 l
0 10 l
-7 8 l
-10 0 l
-7 -8 l
0 -10 l
7 -7 l
10 0 l
-5 53 m 5 -12 m 7 7 l
0 10 l
-7 7 l
-10 0 l
-7 -7 l
0 -10 l
7 -7 l
10 0 l
-5 340 m 5 -12 m 7 7 l
0 10 l
-7 8 l
-10 0 l
-7 -8 l
0 -10 l
7 -7 l
10 0 l
9 -327 m 5 -12 m 7 7 l
0 10 l
-7 7 l
-10 0 l
-8 -7 l
0 -10 l
8 -7 l
10 0 l
-5 42 m 5 -12 m 7 7 l
0 10 l
-7 7 l
-10 0 l
-8 -7 l
0 -10 l
8 -7 l
10 0 l
0 71 m 5 -12 m 7 7 l
0 10 l
-7 7 l
-10 0 l
-7 -7 l
0 -10 l
7 -7 l
10 0 l
-5 130 m 5 -12 m 7 7 l
0 10 l
-7 8 l
-10 0 l
-7 -8 l
0 -10 l
7 -7 l
10 0 l
0 -303 m 5 -12 m 7 7 l
0 10 l
-7 7 l
-10 0 l
-7 -7 l
0 -10 l
7 -7 l
10 0 l
1 -109 m 5 -12 m 7 7 l
0 10 l
-7 7 l
-10 0 l
-7 -7 l
0 -10 l
7 -7 l
10 0 l
-5 101 m 5 -12 m 7 7 l
0 10 l
-7 7 l
-10 0 l
-7 -7 l
0 -10 l
7 -7 l
10 0 l
0 158 m 5 -13 m 7 7 l
0 10 l
-7 8 l
-10 0 l
-7 -8 l
0 -10 l
7 -7 l
10 0 l
1 -136 m 5 -12 m 7 7 l
0 10 l
-7 7 l
-10 0 l
-8 -7 l
0 -10 l
8 -7 l
10 0 l
-3 395 m 5 -12 m 7 7 l
0 10 l
-7 7 l
-10 0 l
-7 -7 l
0 -10 l
CS M
7 -7 l
10 0 l
-2 -266 m 5 -12 m 7 7 l
0 10 l
-7 7 l
-10 0 l
-7 -7 l
0 -10 l
7 -7 l
10 0 l
-5 82 m 5 -12 m 7 7 l
0 10 l
-7 7 l
-10 0 l
-7 -7 l
0 -10 l
7 -7 l
10 0 l
-2 -47 m 5 -12 m 7 7 l
0 10 l
-7 7 l
-10 0 l
-8 -7 l
0 -10 l
8 -7 l
10 0 l
-3 50 m 5 -12 m 7 7 l
0 10 l
-7 7 l
-10 0 l
-7 -7 l
0 -10 l
7 -7 l
10 0 l
1 -131 m 5 -12 m 7 7 l
0 10 l
-7 7 l
-10 0 l
-7 -7 l
0 -10 l
7 -7 l
10 0 l
8 193 m 5 -12 m 7 7 l
0 10 l
-7 7 l
-10 0 l
-7 -7 l
0 -10 l
7 -7 l
10 0 l
-5 17 m 5 -12 m 7 7 l
0 10 l
-7 7 l
-10 0 l
-7 -7 l
0 -10 l
7 -7 l
10 0 l
-5 125 m 5 -12 m 7 7 l
0 10 l
-7 7 l
-10 0 l
-7 -7 l
0 -10 l
7 -7 l
10 0 l
-2 -203 m 5 -12 m 7 7 l
0 10 l
-7 7 l
-10 0 l
-7 -7 l
0 -10 l
7 -7 l
10 0 l
-5 243 m 5 -12 m 7 7 l
0 10 l
-7 7 l
-10 0 l
-7 -7 l
0 -10 l
7 -7 l
10 0 l
0 -39 m 5 -12 m 7 7 l
0 10 l
-7 7 l
-10 0 l
-7 -7 l
0 -10 l
7 -7 l
10 0 l
17 26 m 5 -13 m 7 8 l
0 10 l
-7 7 l
-10 0 l
-7 -7 l
0 -10 l
7 -8 l
10 0 l
-5 77 m 5 -12 m 7 7 l
0 10 l
-7 7 l
-10 0 l
-7 -7 l
0 -10 l
7 -7 l
10 0 l
-3 -52 m 5 -13 m 8 8 l
0 10 l
-8 7 l
-10 0 l
-7 -7 l
0 -10 l
7 -8 l
10 0 l
14 -12 m 5 -12 m 7 7 l
0 10 l
-7 7 l
-10 0 l
-7 -7 l
0 -10 l
7 -7 l
10 0 l
-5 72 m 5 -13 m 7 8 l
0 10 l
-7 7 l
-10 0 l
-7 -7 l
0 -10 l
7 -8 l
10 0 l
1 -95 m 5 -12 m 7 7 l
0 10 l
-7 7 l
-10 0 l
-7 -7 l
0 -10 l
7 -7 l
10 0 l
0 25 m 5 -12 m 7 7 l
0 10 l
-7 7 l
-10 0 l
-7 -7 l
0 -10 l
7 -7 l
10 0 l
-2 -17 m 5 -12 m 7 7 l
0 10 l
-7 7 l
-10 0 l
-7 -7 l
0 -10 l
7 -7 l
10 0 l
-5 125 m 5 -12 m 7 7 l
0 10 l
-7 7 l
-10 0 l
-7 -7 l
0 -10 l
7 -7 l
10 0 l
-3 -69 m 5 -12 m 8 7 l
0 10 l
-8 7 l
-10 0 l
-7 -7 l
0 -10 l
7 -7 l
10 0 l
-2 47 m 5 -12 m 7 7 l
0 10 l
-7 7 l
-10 0 l
-7 -7 l
0 -10 l
7 -7 l
10 0 l
-5 77 m 5 -12 m 7 7 l
0 10 l
-7 7 l
-10 0 l
-7 -7 l
0 -10 l
7 -7 l
10 0 l
-2 -40 m 5 -12 m 7 7 l
0 10 l
-7 7 l
-10 0 l
-7 -7 l
0 -10 l
7 -7 l
10 0 l
0 -117 m 5 -12 m 7 7 l
0 10 l
-7 7 l
-10 0 l
-7 -7 l
0 -10 l
7 -7 l
10 0 l
-5 34 m 5 -12 m 7 7 l
0 10 l
-7 7 l
-10 0 l
-7 -7 l
0 -10 l
7 -7 l
10 0 l
3 152 m 5 -12 m 7 7 l
0 10 l
-7 7 l
-10 0 l
-7 -7 l
0 -10 l
7 -7 l
10 0 l
3 -42 m 5 -12 m 7 7 l
0 10 l
-7 7 l
-10 0 l
-7 -7 l
0 -10 l
7 -7 l
10 0 l
1 17 m 5 -12 m 7 7 l
0 10 l
-7 7 l
-10 0 l
-7 -7 l
0 -10 l
7 -7 l
10 0 l
-5 104 m 5 -12 m 7 7 l
0 10 l
-7 7 l
-10 0 l
-7 -7 l
0 -10 l
7 -7 l
10 0 l
-5 128 m 5 -12 m 7 7 l
0 10 l
-7 7 l
-10 0 l
-7 -7 l
0 -10 l
7 -7 l
10 0 l
3 -196 m 5 -12 m 7 7 l
0 10 l
-7 7 l
-10 0 l
-7 -7 l
0 -10 l
7 -7 l
10 0 l
3 -85 m 5 -12 m 7 7 l
0 10 l
-7 7 l
-10 0 l
-7 -7 l
0 -10 l
7 -7 l
10 0 l
-2 212 m 5 -12 m 7 7 l
0 10 l
-7 7 l
-10 0 l
-7 -7 l
0 -10 l
7 -7 l
10 0 l
-5 17 m 5 -12 m 7 7 l
0 10 l
-7 7 l
-10 0 l
-7 -7 l
0 -10 l
7 -7 l
10 0 l
-3 31 m 5 -12 m 7 7 l
0 10 l
-7 7 l
-10 0 l
-7 -7 l
0 -10 l
7 -7 l
10 0 l
3 101 m 5 -12 m 7 7 l
0 10 l
-7 7 l
-10 0 l
-7 -7 l
0 -10 l
7 -7 l
10 0 l
9 -144 m 5 -13 m 7 8 l
0 10 l
CS M
-7 7 l
-10 0 l
-7 -7 l
0 -10 l
7 -8 l
10 0 l
-2 -17 m 5 -12 m 7 7 l
0 10 l
-7 7 l
-10 0 l
-8 -7 l
0 -10 l
8 -7 l
10 0 l
0 71 m 5 -12 m 7 7 l
0 10 l
-7 7 l
-10 0 l
-7 -7 l
0 -10 l
7 -7 l
10 0 l
-2 101 m 5 -12 m 7 7 l
0 10 l
-7 7 l
-10 0 l
-7 -7 l
0 -10 l
7 -7 l
10 0 l
-3 -125 m 5 -12 m 7 7 l
0 10 l
-7 7 l
-10 0 l
-7 -7 l
0 -10 l
7 -7 l
10 0 l
1 60 m 5 -12 m 7 7 l
0 10 l
-7 7 l
-10 0 l
-7 -7 l
0 -10 l
7 -7 l
10 0 l
-5 20 m 5 -12 m 7 7 l
0 10 l
-7 7 l
-10 0 l
-7 -7 l
0 -10 l
7 -7 l
10 0 l
-5 23 m 5 -12 m 7 7 l
0 10 l
-7 7 l
-10 0 l
-7 -7 l
0 -10 l
7 -7 l
10 0 l
6 23 m 4 -12 m 8 7 l
0 10 l
-8 7 l
-10 0 l
-7 -7 l
0 -10 l
7 -7 l
10 0 l
1 -50 m 5 -12 m 7 7 l
0 10 l
-7 7 l
-10 0 l
-7 -7 l
0 -10 l
7 -7 l
10 0 l
-5 184 m 5 -12 m 7 7 l
0 10 l
-7 7 l
-10 0 l
-7 -7 l
0 -10 l
7 -7 l
10 0 l
8 -166 m 5 -12 m 7 7 l
0 10 l
-7 7 l
-10 0 l
-7 -7 l
0 -10 l
7 -7 l
10 0 l
1 -31 m 5 -12 m 7 7 l
0 10 l
-7 7 l
-10 0 l
-7 -7 l
0 -10 l
7 -7 l
10 0 l
0 101 m 5 -12 m 7 7 l
0 10 l
-7 7 l
-10 0 l
-7 -7 l
0 -10 l
7 -7 l
10 0 l
1 -85 m 4 -12 m 8 7 l
0 10 l
-8 7 l
-10 0 l
-7 -7 l
0 -10 l
7 -7 l
10 0 l
1 18 m 5 -12 m 7 7 l
0 10 l
-7 7 l
-10 0 l
-7 -7 l
0 -10 l
7 -7 l
10 0 l
-5 176 m 5 -12 m 7 7 l
0 10 l
-7 7 l
-10 0 l
-7 -7 l
0 -10 l
7 -7 l
10 0 l
0 23 m 5 -12 m 7 7 l
0 10 l
-7 7 l
-10 0 l
-7 -7 l
0 -10 l
7 -7 l
10 0 l
-2 -31 m 5 -12 m 7 7 l
0 10 l
-7 7 l
-10 0 l
-7 -7 l
0 -10 l
7 -7 l
10 0 l
-5 63 m 5 -12 m 7 7 l
0 10 l
-7 7 l
-10 0 l
-7 -7 l
0 -10 l
7 -7 l
10 0 l
0 109 m 5 -12 m 7 7 l
0 10 l
-7 7 l
-10 0 l
-7 -7 l
0 -10 l
7 -7 l
10 0 l
22 -115 m 5 -12 m 7 7 l
0 10 l
-7 7 l
-10 0 l
-7 -7 l
0 -10 l
7 -7 l
10 0 l
-5 71 m 5 -12 m 7 7 l
0 10 l
-7 8 l
-10 0 l
-7 -8 l
0 -10 l
7 -7 l
10 0 l
9 -41 m 5 -13 m 7 8 l
0 10 l
-7 7 l
-10 0 l
-7 -7 l
0 -10 l
7 -8 l
10 0 l
0 58 m 5 -12 m 7 7 l
0 10 l
-7 7 l
-10 0 l
-7 -7 l
0 -10 l
7 -7 l
10 0 l
36 7 m 5 -12 m 7 7 l
0 10 l
-7 7 l
-10 0 l
-8 -7 l
0 -10 l
8 -7 l
10 0 l
38 50 m 5 -12 m 7 7 l
0 10 l
-7 7 l
-10 0 l
-7 -7 l
0 -10 l
7 -7 l
10 0 l
57 33 m 5 -12 m 7 7 l
0 10 l
-7 7 l
-10 0 l
-8 -7 l
0 -10 l
8 -7 l
10 0 l
650 761 M 0 0 l
0 0 l
111 54 m 0 13 l
0 0 l
83 -27 m 0 30 l
0 0 l
8 -84 m 0 73 l
0 0 l
89 32 m 0 27 l
0 0 l
0 6 m 0 40 l
0 0 l
22 -121 m 0 54 l
0 0 l
0 97 m 0 27 l
0 0 l
0 48 m 0 19 l
0 0 l
19 -232 m 0 57 l
-1 0 l
3 70 m 0 38 l
0 0 l
8 -30 m 0 30 l
0 0 l
33 -143 m 0 59 l
0 0 l
2 -51 m 0 46 l
0 0 l
11 121 m 0 19 l
0 0 l
24 -84 m 0 24 l
0 0 l
3 -72 m 0 32 l
0 0 l
0 121 m 0 16 l
0 0 l
14 -142 m 0 32 l
-1 0 l
1 -16 m 0 27 l
-1 0 l
3 -129 m 0 48 l
0 0 l
0 162 m 0 32 l
0 0 l
6 -253 m 0 46 l
-1 -1 l
54 114 m 0 24 l
1 0 m -1 0 l
6 -121 m 0 35 l
0 0 l
0 45 m 0 30 l
0 0 l
11 -83 m 0 35 l
-1 0 l
11 107 m 0 17 l
1 0 m -1 -1 l
6 -196 m 0 35 l
0 0 l
11 11 m 0 45 l
-1 0 l
3 -67 m 0 32 l
0 0 l
19 71 m 0 32 l
0 0 l
14 -189 m 0 86 l
-1 0 l
3 -26 m 0 35 l
0 0 l
8 94 m 0 19 l
0 0 l
-153 80 m 0 17 l
0 0 l
960 438 M 0 134 l
0 0 l
145 -134 m 0 433 l
1 0 m -1 0 l
68 -213 m 0 103 l
0 0 l
CS M
116 401 m 0 32 l
-1 0 l
14 -460 m 0 153 l
0 0 l
0 181 m 0 16 l
0 0 l
3 -62 m 0 24 l
0 0 l
8 27 m 0 19 l
0 0 l
35 -46 m 0 22 l
0 0 l
0 83 m 0 24 l
0 0 l
16 54 m 0 35 l
0 0 l
19 -99 m 0 10 l
0 0 l
3 -226 m 0 33 l
-1 0 l
30 161 m 0 30 l
0 0 l
6 21 m 0 16 l
-1 0 l
1 -2 m 0 35 l
-1 0 l
3 -68 m 0 54 l
0 0 l
0 -43 m 0 8 l
0 0 l
3 11 m 0 11 l
0 0 l
11 -51 m 0 80 l
0 0 l
8 -45 m 0 16 l
0 0 l
8 46 m 0 8 l
0 0 l
8 -240 m 0 54 l
0 0 l
19 186 m 0 8 l
0 0 l
8 -65 m 0 8 l
0 0 l
3 51 m 0 38 l
-1 0 l
6 -81 m 0 33 l
0 0 l
5 -62 m 0 21 l
0 0 l
3 78 m 0 14 l
0 0 l
0 27 m 0 16 l
0 0 l
3 -124 m 0 35 l
0 0 l
2 -5 m 0 5 l
1 0 m -1 0 l
14 3 m 0 13 l
0 0 l
0 41 m 0 32 l
0 0 l
11 -202 m 0 30 l
0 -1 l
0 38 m 0 14 l
0 0 l
2 64 m 0 41 l
0 0 l
6 -121 m 0 13 l
0 0 l
0 59 m 0 35 l
0 0 l
2 -59 m 0 27 l
1 0 m -1 0 l
9 118 m 0 33 l
-1 0 l
3 -76 m 0 27 l
0 0 l
0 8 m 0 38 l
0 0 l
3 -156 m 0 43 l
0 0 l
5 46 m 0 19 l
0 0 l
3 -186 m 0 32 l
0 0 l
0 124 m 0 38 l
0 0 l
3 -130 m 0 14 l
0 0 l
2 124 m 0 24 l
0 0 l
8 -143 m 0 41 l
1 0 m -1 0 l
0 59 m 0 46 l
1 0 m -1 0 l
3 -119 m 0 8 l
0 0 l
0 25 m 0 18 l
0 0 l
0 22 m 0 27 l
0 0 l
0 301 m 0 27 l
0 0 l
14 -366 m 0 30 l
-1 0 l
1 0 m 0 46 l
-1 -1 l
6 14 m 0 35 l
0 0 l
0 83 m 0 9 l
0 -1 l
5 -323 m 0 8 l
0 0 l
6 -129 m 0 41 l
0 0 l
0 48 m 0 32 l
0 0 l
5 114 m 0 16 l
0 0 l
6 -165 m 0 30 l
-1 0 l
3 353 m 0 27 l
0 0 l
3 -305 m 0 33 l
0 0 l
0 37 m 0 22 l
0 0 l
3 -81 m 0 43 l
-1 0 l
3 -5 m 0 19 l
0 0 l
6 -162 m 0 16 l
0 0 l
13 165 m 0 13 l
0 0 l
0 -8 m 0 32 l
0 0 l
0 81 m 0 3 l
0 0 l
3 -218 m 0 29 l
0 0 l
0 202 m 0 3 l
0 0 l
5 -54 m 0 32 l
0 0 l
22 -18 m 0 26 l
0 0 l
0 38 m 0 3 l
0 0 l
2 -67 m 0 29 l
1 0 m -1 0 l
19 -54 m 0 11 l
0 0 l
0 49 m 0 26 l
0 0 l
6 -134 m 0 32 l
0 0 l
5 -19 m 0 35 l
0 0 l
3 -64 m 0 5 l
0 0 l
0 108 m 0 29 l
0 0 l
2 -110 m 0 38 l
1 0 m -1 0 l
3 -3 m 0 16 l
0 0 l
0 49 m 0 8 l
0 0 l
3 -60 m 0 19 l
0 0 l
5 -148 m 0 62 l
0 0 l
0 -40 m 0 24 l
0 0 l
8 116 m 0 27 l
0 0 l
8 -81 m 0 30 l
0 -1 l
6 -24 m 0 11 l
0 0 l
0 81 m 0 24 l
0 0 l
0 92 m 0 13 l
0 0 l
8 -221 m 0 8 l
0 0 l
8 -105 m 0 22 l
0 0 l
3 178 m 0 8 l
-1 0 l
1 -3 m 0 30 l
-1 0 l
3 -11 m 0 8 l
0 0 l
8 81 m 0 27 l
0 0 l
14 -183 m 0 21 l
0 0 l
3 -51 m 0 8 l
-1 0 l
6 51 m 0 27 l
0 0 l
3 62 m 0 8 l
-1 0 l
3 -145 m 0 13 l
0 0 l
6 35 m 0 14 l
0 0 l
0 -6 m 0 6 l
0 0 l
0 5 m 0 13 l
0 0 l
11 -2 m 0 32 l
-1 0 l
6 -94 m 0 51 l
0 0 l
0 121 m 0 11 l
0 0 l
13 -189 m 0 25 l
0 0 l
6 -68 m 0 43 l
0 0 l
5 46 m 0 33 l
0 0 l
6 -130 m 0 19 l
-1 0 l
6 -13 m 0 19 l
0 -1 l
0 146 m 0 27 l
0 0 l
5 -16 m 0 27 l
0 0 l
3 -70 m 0 27 l
0 0 l
0 24 m 0 27 l
0 0 l
5 70 m 0 27 l
0 0 l
27 -154 m 0 19 l
0 0 l
0 40 m 0 27 l
0 0 l
14 -80 m 0 10 l
0 0 l
5 35 m 0 25 l
0 0 l
41 -30 m 0 30 l
-1 0 l
44 8 m 0 24 l
0 0 l
62 -3 m 0 46 l
-1 0 l
650 761 M 0 0 l
0 0 l
111 54 m 0 -14 l
0 0 l
83 0 m 0 -29 l
0 -1 l
8 -24 m 0 -72 l
0 0 l
89 177 m 0 -27 l
0 0 l
0 60 m 0 -41 l
0 0 l
22 -40 m 0 -54 l
0 0 l
0 205 m 0 -27 l
0 0 l
0 102 m 0 -19 l
0 0 l
19 -194 m 0 -56 l
-1 0 l
3 183 m 0 -38 l
0 0 l
8 46 m 0 -30 l
0 0 l
33 -83 m 0 -59 l
0 0 l
2 67 m 0 -46 l
0 0 l
11 213 m 0 -19 l
0 0 l
24 -46 m 0 -24 l
0 0 l
3 -24 m 0 -33 l
0 0 l
0 186 m 0 -16 l
0 0 l
14 -110 m 0 -33 l
-1 0 l
1 49 m 0 -27 l
-1 0 l
3 -75 m 0 -49 l
0 0 l
0 259 m 0 -33 l
0 0 l
6 -188 m 0 -46 l
-1 0 l
CS M
54 205 m 0 -25 l
1 0 m -1 0 l
6 -72 m 0 -35 l
0 0 l
0 115 m 0 -29 l
0 0 l
11 -24 m 0 -35 l
-1 0 l
11 177 m 0 -16 l
1 0 m -1 0 l
6 -164 m 0 -35 l
0 0 l
11 81 m 0 -46 l
-1 0 l
3 24 m 0 -32 l
0 0 l
19 135 m 0 -33 l
0 0 l
14 -124 m 0 -86 l
-1 0 l
3 146 m 0 -35 l
0 -1 l
8 165 m 0 -19 l
0 0 l
-153 118 m 0 -16 l
0 0 l
97 -466 m 0 -102 l
0 0 l
116 606 m 0 -32 l
-1 0 l
14 -396 m 0 -154 l
0 0 l
0 488 m 0 -16 l
0 0 l
3 -30 m 0 -24 l
0 0 l
8 75 m 0 -19 l
0 0 l
35 -8 m 0 -21 l
0 0 l
0 126 m 0 -24 l
0 0 l
16 102 m 0 -35 l
0 0 l
19 -29 m 0 -11 l
0 0 l
3 -205 m 0 -32 l
-1 0 l
30 226 m 0 -29 l
0 -1 l
6 81 m 0 -16 l
-1 0 l
1 30 m 0 -35 l
-1 0 l
3 2 m 0 -53 l
0 0 l
0 64 m 0 -8 l
0 0 l
3 27 m 0 -11 l
0 0 l
11 -29 m 0 -81 l
0 0 l
8 116 m 0 -16 l
0 -1 l
8 79 m 0 -8 l
0 -1 l
8 -223 m 0 -54 l
0 0 l
19 294 m 0 -8 l
0 0 l
8 -49 m 0 -8 l
0 0 l
3 67 m 0 -37 l
-1 0 l
6 -6 m 0 -32 l
0 0 l
5 3 m 0 -22 l
0 0 l
3 121 m 0 -13 l
0 0 l
0 54 m 0 -16 l
0 0 l
3 -92 m 0 -35 l
0 0 l
2 65 m 0 -6 l
1 0 m -1 0 l
14 14 m 0 -14 l
0 0 l
0 68 m 0 -33 l
0 0 l
11 -137 m 0 -30 l
0 0 l
0 97 m 0 -13 l
0 0 l
2 91 m 0 -40 l
0 0 l
6 -40 m 0 -14 l
0 0 l
0 86 m 0 -35 l
0 0 l
2 11 m 0 -27 l
1 0 m -1 0 l
9 172 m 0 -32 l
-1 0 l
3 -11 m 0 -27 l
0 0 l
0 62 m 0 -37 l
0 0 l
3 -81 m 0 -43 l
0 0 l
5 132 m 0 -19 l
0 0 l
3 -148 m 0 -33 l
0 0 l
0 189 m 0 -38 l
0 0 l
3 -54 m 0 -13 l
0 0 l
2 151 m 0 -24 l
0 -1 l
8 -94 m 0 -40 l
1 0 m -1 0 l
0 140 m 0 -46 l
1 0 m -1 0 l
3 -27 m 0 -8 l
0 0 l
0 41 m 0 -19 l
0 0 l
0 59 m 0 -27 l
0 0 l
0 355 m 0 -26 l
0 -1 l
14 -312 m 0 -29 l
-1 -1 l
1 60 m 0 -46 l
-1 0 l
6 105 m 0 -35 l
0 0 l
0 153 m 0 -8 l
0 0 l
5 -307 m 0 -8 l
0 0 l
6 -113 m 0 -40 l
0 0 l
0 129 m 0 -32 l
0 0 l
5 178 m 0 -17 l
0 0 l
6 -132 m 0 -29 l
-1 0 l
3 412 m 0 -27 l
0 0 l
3 -251 m 0 -32 l
0 0 l
0 102 m 0 -21 l
0 0 l
3 -38 m 0 -43 l
-1 0 l
3 81 m 0 -19 l
0 0 l
6 -124 m 0 -16 l
0 0 l
13 197 m 0 -14 l
0 0 l
0 19 m 0 -32 l
0 0 l
0 145 m 0 -3 l
0 0 l
3 -212 m 0 -30 l
0 0 l
0 261 m 0 -2 l
0 -1 l
5 -48 m 0 -32 l
0 0 l
22 46 m 0 -27 l
0 0 l
0 91 m 0 -3 l
0 0 l
2 -61 m 0 -30 l
1 0 m -1 0 l
19 5 m 0 -10 l
0 -1 l
0 71 m 0 -27 l
0 0 l
6 -81 m 0 -32 l
0 -1 l
5 46 m 0 -35 l
0 0 l
3 6 m 0 -6 l
0 0 l
0 119 m 0 -30 l
0 0 l
2 -51 m 0 -38 l
1 0 m -1 0 l
3 73 m 0 -16 l
0 0 l
0 81 m 0 -8 l
0 -1 l
3 -43 m 0 -18 l
0 0 l
5 -111 m 0 -62 l
0 0 l
0 84 m 0 -24 l
0 -1 l
8 165 m 0 -27 l
0 0 l
8 -27 m 0 -30 l
0 0 l
6 35 m 0 -10 l
0 -1 l
0 103 m 0 -24 l
0 0 l
0 140 m 0 -14 l
0 0 l
8 -194 m 0 -8 l
0 0 l
8 -89 m 0 -21 l
0 0 l
3 221 m 0 -8 l
-1 -1 l
1 14 m 0 -30 l
-1 0 l
3 49 m 0 -8 l
0 0 l
8 97 m 0 -27 l
0 0 l
14 -129 m 0 -22 l
0 0 l
3 -8 m 0 -8 l
-1 0 l
6 67 m 0 -27 l
0 0 l
3 116 m 0 -8 l
-1 0 l
3 -129 m 0 -14 l
0 0 l
6 62 m 0 -13 l
0 0 l
0 21 m 0 -5 l
0 0 l
0 16 m 0 -13 l
0 -1 l
11 25 m 0 -33 l
-1 0 l
6 -29 m 0 -51 l
0 0 l
0 223 m 0 -11 l
0 0 l
13 -167 m 0 -24 l
0 0 l
6 -19 m 0 -43 l
0 0 l
5 132 m 0 -32 l
0 0 l
6 -65 m 0 -19 l
-1 0 l
6 25 m 0 -19 l
0 0 l
0 183 m 0 -27 l
0 0 l
5 38 m 0 -27 l
0 0 l
3 -16 m 0 -27 l
0 0 l
0 78 m 0 -27 l
0 0 l
5 124 m 0 -27 l
0 0 l
27 -100 m 0 -19 l
0 0 l
0 78 m 0 -26 l
0 -1 l
14 -26 m 0 -11 l
0 0 l
5 56 m 0 -24 l
0 0 l
41 19 m 0 -30 l
-1 0 l
44 68 m 0 -25 l
0 0 l
62 46 m 0 -46 l
-1 0 l
650 761 M 19 0 l
0 0 l
92 54 m 19 0 l
0 -1 l
64 -13 m 35 0 l
0 0 l
-27 -54 m 16 0 l
0 0 l
73 105 m 24 0 l
0 0 l
-24 33 m 11 0 l
0 0 l
11 -81 m 10 0 l
0 0 l
-10 151 m 19 0 l
0 0 l
-19 75 m 16 0 l
0 0 l
CS M
3 -213 m 16 0 l
0 0 l
-14 127 m 14 0 l
0 0 l
-6 8 m 11 0 l
0 0 l
22 -113 m 54 0 l
-1 0 l
-51 8 m 11 0 l
0 0 l
0 167 m 8 0 l
0 0 l
16 -65 m 17 0 l
-1 0 l
-13 -48 m 38 0 l
0 0 l
-38 153 m 14 0 l
-1 0 l
1 -126 m 5 0 l
0 0 l
-5 16 m 26 0 l
0 0 l
-24 -102 m 11 0 l
0 -1 l
-11 211 m 54 0 l
0 -1 l
-48 -220 m 18 0 l
0 0 l
35 159 m 19 0 l
0 0 l
-13 -97 m 29 0 l
0 0 l
-29 80 m 8 0 l
0 1 m 0 -1 l
3 -53 m 16 0 l
0 0 l
-6 142 m 8 0 l
0 0 l
-2 -180 m 8 0 l
0 0 l
3 46 m 16 0 l
0 0 l
-14 -22 m 27 0 l
0 0 l
-8 103 m 19 0 l
0 -1 l
-5 -156 m 8 0 l
0 0 l
-6 60 m 8 0 l
0 -1 l
0 130 m 11 0 l
0 0 l
-164 99 m 51 0 l
0 1 m 0 -1 l
46 -482 m 24 0 l
0 0 l
92 504 m 10 0 l
0 0 l
3 -428 m 5 0 l
0 0 l
-5 334 m 5 0 l
0 0 l
-2 -46 m 5 0 l
0 0 l
3 51 m 5 0 l
0 0 l
30 -27 m 5 0 l
0 0 l
-5 105 m 5 0 l
0 0 l
11 78 m 5 0 l
0 0 l
14 -64 m 19 0 l
0 0 l
-16 -216 m 29 0 l
0 0 l
0 194 m 6 0 l
-1 0 l
1 51 m 5 0 l
0 0 l
-5 14 m 5 0 l
0 0 l
-3 -33 m 11 0 l
0 1 m 0 -1 l
-11 11 m 8 0 l
0 0 l
-5 19 m 8 0 l
0 0 l
3 -40 m 11 0 l
-1 0 l
-2 35 m 8 0 l
0 0 l
0 62 m 13 0 l
0 0 l
-5 -232 m 16 0 l
0 0 l
3 240 m 11 0 l
-1 0 l
-2 -57 m 11 0 l
0 0 l
-8 59 m 5 0 l
0 0 l
0 -43 m 3 0 l
0 0 l
2 -29 m 11 0 l
0 0 l
-8 99 m 11 0 l
0 0 l
-11 41 m 11 0 l
0 0 l
-8 -108 m 8 0 l
0 0 l
-6 30 m 3 0 l
0 0 l
11 8 m 8 0 l
0 0 l
-8 54 m 16 0 l
0 -1 l
-5 -169 m 16 0 l
0 0 l
-16 67 m 10 0 l
0 0 l
-8 78 m 11 0 l
0 0 l
-5 -80 m 21 0 l
0 -1 l
-21 73 m 8 0 l
0 0 l
-6 -24 m 9 0 l
-1 0 l
1 145 m 13 0 l
0 0 l
-11 -43 m 8 0 l
0 0 l
-8 35 m 8 0 l
0 0 l
-5 -118 m 11 0 l
0 0 l
-6 89 m 19 0 l
0 0 l
-16 -167 m 11 0 l
0 0 l
-11 156 m 8 0 l
0 0 l
-5 -92 m 8 0 l
0 0 l
-6 138 m 8 0 l
0 0 l
0 -119 m 14 0 l
0 0 l
-14 100 m 9 0 l
-1 0 l
-5 -73 m 32 0 l
0 0 l
-32 33 m 3 0 l
0 -1 l
-3 41 m 11 0 l
0 0 l
-11 328 m 19 0 l
0 1 m 0 -1 l
-5 -339 m 18 0 l
0 0 l
-18 30 m 8 0 l
0 0 l
-3 59 m 16 0 l
0 0 l
-16 118 m 16 0 l
0 1 m 0 -1 l
-11 -315 m 11 0 l
0 0 l
-5 -121 m 11 0 l
-1 0 l
-10 89 m 13 0 l
0 0 l
-8 146 m 14 0 l
0 -1 l
-8 -148 m 8 0 l
0 0 l
-6 383 m 19 0 l
0 0 l
-16 -278 m 13 0 l
0 0 l
-13 70 m 8 0 l
0 0 l
-5 -59 m 5 0 l
0 0 l
-3 38 m 6 0 l
0 0 l
0 -143 m 10 0 l
0 0 l
3 181 m 8 0 l
0 -1 l
-8 6 m 14 0 l
0 0 l
-14 113 m 8 0 l
0 0 l
-5 -215 m 11 0 l
0 0 l
-11 231 m 24 0 l
0 0 l
-19 -51 m 11 0 l
0 0 l
11 14 m 19 0 l
0 -1 l
-19 65 m 16 0 l
0 0 l
-14 -64 m 22 0 l
0 -1 l
-3 -24 m 16 0 l
0 0 l
-16 60 m 11 0 l
0 -1 l
-5 -107 m 21 0 l
0 0 l
-16 13 m 16 0 l
0 0 l
-13 -29 m 8 0 l
0 0 l
-8 113 m 8 0 l
0 0 l
-6 -81 m 9 0 l
0 0 l
-6 35 m 11 0 l
0 0 l
-11 65 m 11 0 l
0 0 l
-8 -52 m 3 0 l
0 1 m 0 -1 l
2 -129 m 14 0 l
0 0 l
-14 22 m 8 0 l
0 0 l
0 140 m 11 0 l
0 0 l
-3 -54 m 8 0 l
0 0 l
-2 5 m 5 0 l
0 0 l
-5 92 m 11 0 l
0 0 l
-11 116 m 13 0 l
0 0 l
-5 -208 m 3 0 l
0 0 l
5 -97 m 13 0 l
0 0 l
-10 200 m 8 0 l
0 0 l
-8 5 m 13 0 l
0 0 l
-11 19 m 11 0 l
0 0 l
-3 89 m 14 0 l
0 0 l
0 -156 m 11 0 l
0 -1 l
-8 -29 m 10 0 l
0 0 l
-5 59 m 32 0 l
0 0 l
-29 89 m 8 0 l
0 0 l
-6 -137 m 8 0 l
0 0 l
-2 48 m 8 0 l
0 0 l
-8 8 m 11 0 l
-1 0 l
-10 11 m 2 0 l
0 0 l
9 11 m 13 0 l
0 0 l
-8 -62 m 11 0 l
0 0 l
-11 172 m 8 0 l
0 0 l
5 -178 m 8 0 l
0 1 m 0 -1 l
-2 -43 m 11 0 l
0 1 m -1 -1 l
-5 89 m 8 0 l
0 0 l
-2 -97 m 8 0 l
0 0 l
-3 6 m 8 0 l
0 0 l
-8 164 m 8 0 l
0 0 l
-3 11 m 14 0 l
0 0 l
-11 -43 m 8 0 l
0 0 l
-8 51 m 27 0 l
0 0 l
-22 97 m 19 0 l
0 0 l
8 -127 m 8 0 l
0 0 l
-8 59 m 8 0 l
0 1 m 0 -1 l
CS M
6 -53 m 13 0 l
0 -1 l
-8 46 m 8 0 l
0 0 l
33 -5 m 8 0 l
0 0 l
35 38 m 37 0 l
0 0 l
25 21 m 13 0 l
0 0 l
650 761 M -19 0 l
0 0 l
130 54 m -19 0 l
0 -1 l
102 -13 m -35 0 l
0 0 l
43 -54 m -16 0 l
0 0 l
105 105 m -24 0 l
0 0 l
24 33 m -11 0 l
0 0 l
33 -81 m -11 0 l
0 0 l
11 151 m -19 0 l
0 0 l
19 75 m -16 0 l
0 0 l
35 -213 m -17 0 l
0 0 l
19 127 m -13 0 l
0 0 l
21 8 m -10 0 l
0 0 l
43 -113 m -54 0 l
0 0 l
56 8 m -10 0 l
0 0 l
21 167 m -8 0 l
0 0 l
32 -65 m -16 0 l
0 0 l
19 -48 m -38 0 l
0 0 l
38 153 m -13 0 l
0 0 l
27 -126 m -6 0 l
0 0 l
6 16 m -27 0 l
0 0 l
29 -102 m -11 0 l
0 -1 l
11 211 m -54 0 l
0 -1 l
60 -220 m -19 0 l
0 0 l
72 159 m -18 0 l
0 0 l
24 -97 m -30 0 l
0 0 l
30 80 m -8 0 l
0 1 m 0 -1 l
19 -53 m -17 0 l
0 0 l
27 142 m -8 0 l
0 0 l
14 -180 m -8 0 l
0 0 l
19 46 m -17 0 l
0 0 l
19 -22 m -27 0 l
0 0 l
46 103 m -19 0 l
0 -1 l
33 -156 m -9 0 l
0 0 l
11 60 m -8 0 l
0 -1 l
16 130 m -10 0 l
-1 0 l
-142 99 m -51 0 l
0 1 m 0 -1 l
148 -482 m -24 0 l
-1 0 l
141 504 m -11 0 l
0 0 l
24 -428 m -5 0 l
0 0 l
5 334 m -5 0 l
0 0 l
8 -46 m -6 0 l
0 0 l
14 51 m -6 0 l
0 0 l
41 -27 m -6 0 l
0 0 l
6 105 m -6 0 l
0 0 l
22 78 m -5 0 l
0 0 l
24 -64 m -19 0 l
0 0 l
22 -216 m -30 0 l
0 0 l
59 194 m -5 0 l
0 0 l
11 51 m -6 0 l
0 0 l
6 14 m -6 0 l
0 0 l
8 -33 m -11 0 l
0 1 m 0 -1 l
11 11 m -8 0 l
0 0 l
11 19 m -8 0 l
0 0 l
19 -40 m -11 0 l
0 0 l
19 35 m -8 0 l
0 0 l
16 62 m -14 0 l
0 0 l
22 -232 m -16 0 l
0 0 l
35 240 m -11 0 l
0 0 l
19 -57 m -11 0 l
0 0 l
14 59 m -6 0 l
0 0 l
11 -43 m -3 0 l
0 0 l
8 -29 m -10 0 l
-1 0 l
14 99 m -11 0 l
0 0 l
11 41 m -11 0 l
0 0 l
14 -108 m -8 0 l
0 0 l
10 30 m -2 0 l
0 0 l
16 8 m -8 0 l
0 0 l
8 54 m -16 0 l
0 -1 l
27 -169 m -16 0 l
-1 0 l
17 67 m -11 0 l
0 0 l
13 78 m -10 0 l
-1 0 l
17 -80 m -22 0 l
0 -1 l
22 73 m -8 0 l
0 0 l
10 -24 m -8 0 l
0 0 l
17 145 m -14 0 l
0 0 l
16 -43 m -8 0 l
0 0 l
8 35 m -8 0 l
0 0 l
11 -118 m -11 0 l
0 0 l
16 89 m -19 0 l
0 0 l
22 -167 m -11 0 l
0 0 l
11 156 m -8 0 l
0 0 l
11 -92 m -8 0 l
-1 0 l
11 138 m -8 0 l
0 0 l
16 -119 m -13 0 l
0 0 l
13 100 m -8 0 l
0 0 l
11 -73 m -32 0 l
0 0 l
32 33 m -3 0 l
0 -1 l
3 41 m -11 0 l
0 0 l
11 328 m -19 0 l
0 1 m 0 -1 l
33 -339 m -19 0 l
0 0 l
19 30 m -8 0 l
-1 0 l
14 59 m -16 0 l
0 0 l
16 118 m -16 0 l
0 1 m 0 -1 l
21 -315 m -10 0 l
-1 0 l
17 -121 m -11 0 l
0 0 l
11 89 m -14 0 l
0 0 l
19 146 m -13 0 l
0 -1 l
19 -148 m -9 0 l
0 0 l
11 383 m -19 0 l
0 0 l
22 -278 m -14 0 l
0 0 l
14 70 m -8 0 l
0 0 l
11 -59 m -6 0 l
0 0 l
8 38 m -5 0 l
0 0 l
11 -143 m -11 0 l
0 0 l
24 181 m -8 0 l
0 -1 l
8 6 m -13 0 l
0 0 l
13 113 m -8 0 l
0 0 l
11 -215 m -11 0 l
0 0 l
11 231 m -24 0 l
0 0 l
29 -51 m -11 0 l
0 0 l
33 14 m -19 0 l
0 -1 l
19 65 m -16 0 l
0 0 l
18 -64 m -21 0 l
0 -1 l
40 -24 m -16 0 l
0 0 l
16 60 m -10 0 l
0 -1 l
16 -107 m -22 0 l
0 0 l
27 13 m -16 0 l
0 0 l
19 -29 m -8 0 l
0 0 l
8 113 m -8 0 l
0 0 l
10 -81 m -8 0 l
0 0 l
11 35 m -11 0 l
0 0 l
11 65 m -11 0 l
0 0 l
14 -52 m -3 0 l
0 1 m 0 -1 l
8 -129 m -13 0 l
0 0 l
13 22 m -8 0 l
0 0 l
16 140 m -10 0 l
0 0 l
18 -54 m -8 0 l
0 0 l
14 5 m -6 0 l
0 0 l
6 92 m -11 0 l
0 0 l
11 116 m -14 0 l
0 0 l
22 -208 m -3 0 l
0 0 l
11 -97 m -14 0 l
0 0 l
17 200 m -8 0 l
0 0 l
8 5 m -14 0 l
0 0 l
16 19 m -10 0 l
0 0 l
18 89 m -13 0 l
0 0 l
27 -156 m -11 0 l
0 -1 l
14 -29 m -11 0 l
0 0 l
16 59 m -32 0 l
0 0 l
35 89 m -8 0 l
0 0 l
10 -137 m -8 0 l
0 0 l
14 48 m -8 0 l
0 0 l
8 8 m -11 0 l
0 0 l
11 11 m -3 0 l
0 0 l
14 11 m -14 0 l
0 0 l
CS M
19 -62 m -11 0 l
0 0 l
11 172 m -8 0 l
0 0 l
21 -178 m -8 0 l
0 1 m 0 -1 l
14 -43 m -11 0 l
0 1 m 0 -1 l
16 89 m -8 0 l
0 0 l
14 -97 m -9 0 l
0 0 l
14 6 m -8 0 l
0 0 l
8 164 m -8 0 l
0 0 l
13 11 m -13 0 l
0 0 l
16 -43 m -8 0 l
0 0 l
8 51 m -27 0 l
0 0 l
32 97 m -18 0 l
-1 0 l
46 -127 m -8 0 l
0 0 l
8 59 m -8 0 l
0 1 m 0 -1 l
22 -53 m -14 0 l
0 -1 l
19 46 m -8 0 l
0 0 l
49 -5 m -9 0 l
0 0 l
52 38 m -38 0 l
0 0 l
100 21 m -14 0 l
0 0 l
734 512 M 1346 1339 l
 255 0 0 C
-517 -476 m B
4 -11 m 1574 1370 L
1574 1379 L
1568 1385 L
1559 1385 L
1553 1379 L
1553 1370 L
1559 1364 L
1568 1364 L
CF M
114 210 m B
4 -10 m 1692 1570 L
1692 1578 L
1686 1584 L
1677 1584 L
1671 1578 L
1671 1570 L
1677 1564 L
1686 1564 L
CF M
60 -73 m B
5 -11 m 1757 1486 L
1757 1495 L
1751 1501 L
1742 1501 L
1736 1495 L
1736 1486 L
1742 1480 L
1751 1480 L
CF M
-223 -129 m B
4 -11 m 1539 1346 L
1539 1355 L
1533 1361 L
1524 1361 L
1518 1355 L
1518 1346 L
1524 1340 L
1533 1340 L
CF M
-42 -78 m B
4 -11 m 1501 1257 L
1501 1266 L
1495 1272 L
1486 1272 L
1480 1266 L
1480 1257 L
1486 1251 L
1495 1251 L
CF M
233 183 m B
4 -10 m 1738 1430 L
1738 1438 L
1732 1444 L
1723 1444 L
1717 1438 L
1717 1430 L
1723 1424 L
1732 1424 L
CF M
-77 10 m B
4 -10 m 1665 1430 L
1665 1438 L
1659 1444 L
1651 1444 L
1645 1438 L
1645 1430 L
1651 1424 L
1659 1424 L
CF M
-432 -278 m B
4 -11 m 1237 1142 L
1237 1150 L
1231 1156 L
1222 1156 L
1216 1150 L
1216 1142 L
1222 1135 L
1231 1135 L
CF M
359 199 m B
4 -10 m 1601 1330 L
1601 1339 L
1595 1345 L
1586 1345 L
1580 1339 L
1580 1330 L
1586 1324 L
1595 1324 L
CF M
-430 -200 m B
4 -10 m 1175 1120 L
1175 1129 L
1169 1135 L
1160 1135 L
1154 1129 L
1154 1120 L
1160 1114 L
1169 1114 L
CF M
95 102 m B
5 -10 m 1275 1212 L
1275 1220 L
1269 1226 L
1260 1226 L
1254 1220 L
1254 1212 L
1260 1206 L
1269 1206 L
CF M
106 -82 m B
4 -10 m 1385 1120 L
1385 1129 L
1379 1135 L
1371 1135 L
1364 1129 L
1364 1120 L
1371 1114 L
1379 1114 L
CF M
4 -35 m B
4 -11 m 1393 1074 L
1393 1083 L
1387 1089 L
1379 1089 L
1373 1083 L
1373 1074 L
1379 1068 L
1387 1068 L
CF M
238 493 m B
4 -11 m 1636 1556 L
1636 1565 L
1630 1571 L
1621 1571 L
1615 1565 L
1615 1556 L
1621 1550 L
1630 1550 L
CF M
-409 -496 m B
4 -10 m 1232 1050 L
1232 1059 L
1226 1065 L
1217 1065 L
1211 1059 L
1211 1050 L
1217 1044 L
1226 1044 L
CF M
364 317 m B
4 -10 m 1601 1357 L
1601 1366 L
1595 1372 L
1586 1372 L
1580 1366 L
1580 1357 L
1586 1351 L
1595 1351 L
CF M
-403 -359 m B
4 -10 m 1202 988 L
1202 997 L
1196 1003 L
1187 1003 L
1181 997 L
1181 988 L
1187 982 L
1196 982 L
CF M
311 382 m B
4 -10 m 1517 1360 L
1517 1368 L
1511 1374 L
1502 1374 L
1496 1368 L
1496 1360 L
1502 1354 L
1511 1354 L
CF M
-236 -173 m B
4 -11 m 1286 1177 L
1286 1185 L
1279 1191 L
1271 1191 L
1265 1185 L
1265 1177 L
1271 1170 L
1279 1170 L
CF M
109 16 m B
4 -10 m 1399 1182 L
1399 1191 L
1392 1197 L
1384 1197 L
1378 1191 L
1378 1182 L
1384 1176 L
1392 1176 L
CF M
182 150 m B
4 -10 m 1584 1322 L
1584 1331 L
1578 1337 L
1570 1337 L
1564 1331 L
1564 1322 L
1570 1316 L
1578 1316 L
CF M
-284 -151 m B
4 -11 m 1304 1160 L
1304 1169 L
1298 1175 L
1290 1175 L
1284 1169 L
1284 1160 L
1290 1154 L
1298 1154 L
CF M
-26 -135 m B
5 -10 m 1283 1015 L
1283 1024 L
1277 1030 L
1268 1030 L
1262 1024 L
1262 1015 L
1268 1009 L
1277 1009 L
CF M
348 366 m B
4 -11 m 1636 1370 L
1636 1379 L
1630 1385 L
1621 1385 L
1615 1379 L
1615 1370 L
1621 1364 L
1630 1364 L
CF M
-745 -439 m B
4 -10 m 895 921 L
895 929 L
889 935 L
880 935 L
874 929 L
874 921 L
880 915 L
889 915 L
CF M
356 -60 m B
5 -10 m 1256 851 L
1256 859 L
1250 865 L
1241 865 L
1235 859 L
1235 851 L
1241 845 L
1250 845 L
CF M
141 320 m B
4 -11 m 1401 1160 L
1401 1169 L
1395 1175 L
1387 1175 L
1381 1169 L
1381 1160 L
1387 1154 L
1395 1154 L
CF M
120 78 m B
4 -10 m 1525 1228 L
1525 1236 L
1519 1242 L
1511 1242 L
1504 1236 L
1504 1228 L
1511 1222 L
1519 1222 L
CF M
-34 21 m B
4 -11 m 1496 1238 L
1496 1247 L
1490 1253 L
1481 1253 L
1475 1247 L
1475 1238 L
1481 1232 L
1490 1232 L
CF M
-228 -51 m B
4 -11 m 1272 1177 L
1272 1185 L
1266 1191 L
1257 1191 L
1251 1185 L
1251 1177 L
1257 1170 L
1266 1170 L
CF M
190 75 m B
4 -10 m 1466 1241 L
1466 1250 L
1460 1256 L
1451 1256 L
1445 1250 L
1445 1241 L
1451 1235 L
1460 1235 L
CF M
-115 -105 m B
4 -11 m 1356 1125 L
1356 1134 L
1349 1140 L
1341 1140 L
1335 1134 L
1335 1125 L
1341 1119 L
1349 1119 L
CF M
-31 -35 m B
4 -10 m 1329 1080 L
1329 1088 L
1322 1094 L
1314 1094 L
1308 1088 L
1308 1080 L
1314 1074 L
1322 1074 L
CF M
314 373 m B
4 -10 m 1646 1443 L
1646 1452 L
1640 1458 L
1632 1458 L
1626 1452 L
1626 1443 L
1632 1437 L
1640 1437 L
CF M
-281 -310 m B
4 -10 m 1369 1123 L
1369 1131 L
1363 1137 L
1354 1137 L
1348 1131 L
1348 1123 L
1354 1117 L
1363 1117 L
CF M
-209 -211 m B
4 -10 m 1164 902 L
1164 910 L
1158 917 L
1150 917 L
1144 910 L
1144 902 L
1150 896 L
1158 896 L
CF M
338 414 m B
4 -10 m 1506 1306 L
1506 1314 L
1500 1320 L
1492 1320 L
1486 1314 L
1486 1306 L
1492 1300 L
1500 1300 L
CF M
-26 -68 m B
5 -10 m 1485 1228 L
1485 1236 L
1479 1242 L
1470 1242 L
1464 1236 L
1464 1228 L
1470 1222 L
1479 1222 L
CF M
144 -133 m B
4 -10 m 1633 1085 L
1633 1094 L
1627 1100 L
1618 1100 L
1612 1094 L
1612 1085 L
1618 1079 L
1627 1079 L
CF M
-112 177 m B
4 -10 m 1525 1252 L
1525 1261 L
1519 1267 L
1511 1267 L
1504 1261 L
1504 1252 L
1511 1246 L
1519 1246 L
CF M
-274 -243 m B
5 -10 m 1256 999 L
1256 1007 L
1250 1013 L
1241 1013 L
1235 1007 L
1235 999 L
1241 993 L
1250 993 L
CF M
71 188 m B
4 -11 m 1331 1177 L
1331 1185 L
1325 1191 L
1317 1191 L
1311 1185 L
1311 1177 L
1317 1170 L
1325 1170 L
CF M
-106 -194 m B
4 -10 m 1229 972 L
1229 980 L
1223 987 L
1214 987 L
1208 980 L
1208 972 L
1214 966 L
1223 966 L
CF M
76 137 m B
5 -11 m 1310 1098 L
1310 1107 L
1304 1113 L
1295 1113 L
1289 1107 L
1289 1098 L
1295 1092 L
1304 1092 L
CF M
-96 48 m B
4 -10 m 1218 1136 L
1218 1145 L
1212 1151 L
1204 1151 L
1197 1145 L
1197 1136 L
1204 1130 L
1212 1130 L
CF M
346 194 m B
4 -11 m 1568 1319 L
1568 1328 L
1562 1334 L
1554 1334 L
1548 1328 L
1548 1319 L
1554 1313 L
1562 1313 L
CF M
-290 -283 m B
5 -10 m 1283 1026 L
1283 1034 L
1277 1040 L
1268 1040 L
1262 1034 L
1262 1026 L
1268 1020 L
1277 1020 L
CF M
20 123 m B
4 -10 m 1307 1139 L
1307 1147 L
1301 1153 L
1292 1153 L
1286 1147 L
1286 1139 L
1292 1133 L
1301 1133 L
CF M
187 69 m B
4 -10 m 1498 1198 L
1498 1207 L
1492 1213 L
1484 1213 L
1478 1207 L
1478 1198 L
1484 1192 L
1492 1192 L
CF M
-80 -84 m B
5 -10 m 1423 1104 L
1423 1112 L
1417 1118 L
1408 1118 L
1402 1112 L
1402 1104 L
1408 1098 L
1417 1098 L
CF M
-166 45 m B
4 -10 m 1261 1139 L
1261 1147 L
1255 1153 L
1247 1153 L
1241 1147 L
1241 1139 L
1247 1133 L
1255 1133 L
CF M
63 -9 m B
4 -10 m 1329 1120 L
1329 1129 L
1322 1135 L
1314 1135 L
1308 1129 L
1308 1120 L
1314 1114 L
1322 1114 L
CF M
50 -9 m B
4 -10 m 1382 1101 L
1382 1110 L
1376 1116 L
1368 1116 L
1362 1110 L
1362 1101 L
1368 1095 L
1376 1095 L
CF M
128 80 m B
4 -10 m 1514 1171 L
1514 1180 L
1508 1186 L
1500 1186 L
1494 1180 L
1494 1171 L
1500 1165 L
1508 1165 L
CF M
120 102 m B
4 -10 m 1638 1263 L
1638 1271 L
1632 1277 L
1624 1277 L
1618 1271 L
1618 1263 L
1624 1257 L
1632 1257 L
CF M
-411 -402 m B
4 -10 m 1232 851 L
1232 859 L
1226 865 L
1217 865 L
1211 859 L
1211 851 L
1217 845 L
1226 845 L
CF M
275 473 m B
5 -10 m 1512 1314 L
1512 1322 L
1506 1329 L
1497 1329 L
1491 1322 L
1491 1314 L
1497 1308 L
1506 1308 L
CF M
149 242 m B
4 -11 m 1665 1545 L
1665 1554 L
1659 1560 L
1651 1560 L
1645 1554 L
1645 1545 L
1651 1539 L
1659 1539 L
CF M
-284 -310 m B
4 -10 m 1385 1225 L
1385 1234 L
1379 1240 L
1371 1240 L
1364 1234 L
1364 1225 L
1371 1219 L
1379 1219 L
CF M
-123 0 m B
4 -11 m 1267 1214 L
1267 1223 L
1261 1229 L
1252 1229 L
1246 1223 L
1246 1214 L
1252 1208 L
1261 1208 L
CF M
162 342 m B
4 -11 m 1434 1545 L
1434 1554 L
1428 1560 L
1419 1560 L
1413 1554 L
1413 1545 L
1419 1539 L
1428 1539 L
CF M
87 -156 m B
4 -11 m 1525 1379 L
1525 1387 L
1519 1393 L
1511 1393 L
1504 1387 L
1504 1379 L
1511 1372 L
1519 1372 L
CF M
-335 -323 m B
4 -10 m 1194 1045 L
1194 1053 L
1188 1059 L
1179 1059 L
1173 1053 L
1173 1045 L
1179 1039 L
1188 1039 L
CF M
-85 10 m B
4 -10 m 1113 1045 L
1113 1053 L
1107 1059 L
1099 1059 L
1092 1053 L
1092 1045 L
1099 1039 L
1107 1039 L
CF M
66 -90 m B
4 -10 m 1183 945 L
1183 954 L
1177 960 L
1169 960 L
1162 954 L
1162 945 L
1169 939 L
1177 939 L
CF M
9 166 m B
4 -10 m 1197 1101 L
1197 1110 L
1191 1116 L
1182 1116 L
1176 1110 L
1176 1101 L
1182 1095 L
1191 1095 L
CF M
6 -138 m B
4 -10 m 1207 953 L
1207 962 L
1201 968 L
1193 968 L
1187 962 L
1187 953 L
1193 947 L
1201 947 L
CF M
-82 191 m B
4 -11 m 1129 1133 L
1129 1142 L
1123 1148 L
1115 1148 L
1109 1142 L
1109 1133 L
1115 1127 L
1123 1127 L
CF M
-36 -170 m B
4 -10 m 1097 953 L
1097 962 L
1091 968 L
1082 968 L
1076 962 L
1076 953 L
1082 947 L
1091 947 L
CF M
122 115 m B
4 -10 m 1224 1058 L
1224 1067 L
1217 1073 L
1209 1073 L
1203 1067 L
1203 1058 L
1209 1052 L
1217 1052 L
CF M
-141 -87 m B
4 -10 m 1086 961 L
1086 970 L
1080 976 L
1072 976 L
1065 970 L
1065 961 L
1072 955 L
1080 955 L
CF M
95 148 m B
5 -11 m 1186 1098 L
1186 1107 L
1180 1113 L
1171 1113 L
1165 1107 L
1165 1098 L
1171 1092 L
1180 1092 L
CF M
383 283 m 0 16 l
0 0 l
119 183 m 0 30 l
0 0 l
64 -113 m 0 29 l
0 0 l
-218 -169 m 0 8 l
0 0 l
-37 -97 m 0 35 l
-1 0 l
238 137 m 0 48 l
-1 0 l
-72 -48 m 0 48 l
0 0 l
-428 -336 m 0 35 l
0 0 l
363 153 m 0 25 l
0 0 l
-425 -235 m 0 35 l
0 0 l
99 57 m 0 32 l
0 0 l
111 -124 m 0 35 l
0 0 l
8 -80 m 0 32 l
0 0 l
242 450 m 0 32 l
0 0 l
-404 -539 m 0 33 l
0 0 l
369 274 m 0 30 l
0 0 l
-398 -399 m 0 43 l
-1 0 l
316 329 m 0 16 l
0 0 l
-232 -199 m 0 13 l
0 0 l
113 -8 m 0 27 l
0 0 l
186 113 m 0 49 l
0 0 l
-280 -210 m 0 48 l
0 0 l
-22 -194 m 0 35 l
1 0 m -1 0 l
353 321 m 0 32 l
0 0 l
-740 -482 m 0 38 l
0 0 l
360 -108 m 0 54 l
1 0 m -1 0 l
146 256 m 0 32 l
0 0 l
124 35 m 0 11 l
0 0 l
-30 0 m 0 32 l
0 0 l
-223 -94 m 0 11 l
0 0 l
194 53 m 0 22 l
-1 0 l
-110 -137 m 0 43 l
0 0 l
-27 -89 m 0 30 l
0 -1 l
318 334 m 0 19 l
0 0 l
-277 -339 m 0 16 l
-1 0 l
-204 -237 m 0 43 l
0 0 l
342 361 m 0 24 l
0 0 l
-22 -102 m 0 19 l
0 0 l
149 -162 m 0 19 l
-1 0 l
-107 148 m 0 14 l
0 0 l
-270 -267 m 0 35 l
1 0 m -1 0 l
76 143 m 0 21 l
0 0 l
-102 -226 m 0 35 l
-1 0 l
81 92 m 0 16 l
0 0 l
-91 21 m 0 14 l
0 0 l
350 170 m 0 29 l
0 0 l
-286 -323 m 0 24 l
1 0 m -1 0 l
25 89 m 0 24 l
0 0 l
191 35 m 0 19 l
0 0 l
-76 -113 m 0 22 l
1 0 m -1 0 l
-161 13 m 0 30 l
0 0 l
67 -49 m 0 22 l
0 0 l
54 -41 m 0 17 l
0 0 l
132 53 m 0 11 l
0 0 l
124 81 m 0 11 l
0 0 l
-407 -423 m 0 73 l
0 0 l
280 390 m 0 22 l
0 0 l
154 210 m 0 29 l
0 0 l
-280 -350 m 0 11 l
0 0 l
-119 -21 m 0 32 l
0 0 l
167 299 m 0 29 l
0 0 l
92 -196 m 0 29 l
0 0 l
-331 -363 m 0 40 l
-1 0 l
-80 -40 m 0 40 l
0 0 l
70 -140 m 0 33 l
0 0 l
13 123 m 0 33 l
0 0 l
11 -181 m 0 35 l
0 0 l
-78 146 m 0 32 l
0 0 l
-32 -213 m 0 35 l
-1 0 l
127 70 m 0 19 l
0 0 l
-137 -116 m 0 33 l
0 0 l
99 105 m 0 35 l
1 0 m -1 0 l
388 237 m 0 -16 l
0 0 l
119 215 m 0 -30 l
0 0 l
64 -53 m 0 -30 l
0 0 l
-218 -110 m 0 -9 l
0 0 l
-37 -80 m 0 -35 l
-1 0 l
238 207 m 0 -48 l
-1 -1 l
-72 49 m 0 -48 l
0 -1 l
-428 -239 m 0 -35 l
0 0 l
363 223 m 0 -24 l
0 0 l
-425 -186 m 0 -35 l
0 0 l
99 127 m 0 -32 l
0 -1 l
111 -59 m 0 -35 l
0 0 l
8 -10 m 0 -33 l
0 0 l
242 515 m 0 -33 l
0 0 l
-404 -474 m 0 -32 l
0 0 l
369 339 m 0 -29 l
0 0 l
-398 -340 m 0 -43 l
-1 0 l
316 415 m 0 -16 l
0 0 l
-232 -167 m 0 -14 l
0 0 l
113 19 m 0 -27 l
0 0 l
186 167 m 0 -48 l
0 0 l
-280 -113 m 0 -49 l
0 0 l
-22 -97 m 0 -35 l
1 0 m -1 0 l
353 391 m 0 -33 l
0 0 l
-740 -417 m 0 -38 l
0 0 l
360 -32 m 0 -54 l
1 0 m -1 0 l
146 364 m 0 -33 l
0 0 l
124 100 m 0 -11 l
0 0 l
-30 22 m 0 -33 l
0 0 l
-223 -29 m 0 -11 l
0 0 l
194 75 m 0 -21 l
-1 0 l
-110 -94 m 0 -43 l
0 0 l
-27 -3 m 0 -30 l
0 0 l
318 393 m 0 -18 l
0 0 l
-277 -302 m 0 -16 l
-1 0 l
-204 -205 m 0 -43 l
0 0 l
342 447 m 0 -24 l
0 0 l
-22 -54 m 0 -19 l
0 0 l
149 -124 m 0 -19 l
-1 0 l
-107 186 m 0 -13 l
0 0 l
-270 -240 m 0 -35 l
1 0 m -1 0 l
76 213 m 0 -22 l
0 0 l
-102 -183 m 0 -35 l
-1 0 l
81 162 m 0 -16 l
0 0 l
-91 53 m 0 -13 l
0 0 l
350 197 m 0 -30 l
0 0 l
-286 -264 m 0 -24 l
1 0 m -1 0 l
25 137 m 0 -24 l
0 0 l
191 83 m 0 -18 l
0 -1 l
-76 -75 m 0 -21 l
1 0 m -1 0 l
-161 56 m 0 -29 l
0 -1 l
67 11 m 0 -21 l
0 0 l
54 2 m 0 -16 l
0 0 l
132 86 m 0 -10 l
0 0 l
124 102 m 0 -11 l
0 0 l
-407 -401 m 0 -73 l
0 0 l
280 536 m 0 -21 l
0 0 l
154 253 m 0 -30 l
0 0 l
-280 -291 m 0 -10 l
0 -1 l
-119 1 m 0 -33 l
0 0 l
167 364 m 0 -30 l
0 0 l
92 -137 m 0 -30 l
0 0 l
-331 -304 m 0 -40 l
-1 -1 l
-80 41 m 0 -40 l
0 -1 l
70 -59 m 0 -32 l
0 0 l
13 188 m 0 -32 l
0 0 l
11 -116 m 0 -35 l
0 0 l
-78 216 m 0 -33 l
0 0 l
-32 -148 m 0 -35 l
-1 0 l
127 140 m 0 -18 l
0 -1 l
-137 -78 m 0 -32 l
0 0 l
99 170 m 0 -35 l
1 0 m -1 0 l
388 307 m 8 0 l
0 0 l
111 199 m 8 0 l
0 0 l
56 -83 m 8 0 l
0 -1 l
-226 -139 m 11 0 l
0 -1 l
-48 -88 m 16 0 l
0 0 l
221 172 m 2 0 l
0 0 l
CS M
-75 0 m 8 0 l
0 0 l
-436 -288 m 8 0 l
0 0 l
355 188 m 11 0 l
0 0 l
-436 -210 m 16 0 l
0 0 l
83 92 m 8 0 l
0 0 l
103 -92 m 11 0 l
-1 0 l
-2 -45 m 11 0 l
0 -1 l
231 483 m 19 0 l
0 -1 l
-423 -506 m 19 0 l
0 0 l
350 307 m 11 0 l
0 0 l
-409 -369 m 16 0 l
0 0 l
299 372 m 8 0 l
0 0 l
-240 -183 m 14 0 l
0 0 l
99 5 m 11 0 l
0 0 l
175 140 m 19 0 l
0 0 l
-299 -161 m 8 0 l
0 0 l
-30 -146 m 14 0 l
0 0 l
339 356 m 14 0 l
0 0 l
-754 -450 m 32 0 l
0 0 l
328 -70 m 19 0 l
0 0 l
127 310 m 13 0 l
0 0 l
111 67 m 5 0 l
0 0 l
-35 11 m 8 0 l
0 0 l
-231 -62 m 13 0 l
0 0 l
181 64 m 5 0 l
0 1 m 0 -1 l
-116 -115 m 11 0 l
0 0 l
-38 -46 m 8 0 l
0 0 l
310 363 m 5 0 l
0 1 m 0 -1 l
-282 -320 m 5 0 l
0 0 l
-210 -221 m 16 0 l
0 0 l
326 404 m 8 0 l
0 0 l
-30 -78 m 9 0 l
-1 0 l
141 -143 m 18 0 l
0 0 l
-126 167 m 8 0 l
0 0 l
-278 -253 m 6 0 l
0 0 l
70 178 m 8 0 l
0 0 l
-110 -205 m 16 0 l
0 0 l
64 127 m 8 0 l
0 0 l
-99 37 m 8 0 l
0 1 m 0 -1 l
342 184 m 27 0 l
0 -1 l
-313 -293 m 11 0 l
0 0 l
14 113 m 8 0 l
0 0 l
183 59 m 8 0 l
0 0 l
-84 -94 m 14 0 l
0 0 l
-175 35 m 8 0 l
0 0 l
59 -19 m 27 0 l
0 0 l
27 -19 m 5 0 l
0 1 m 0 -1 l
127 70 m 5 0 l
0 1 m 0 -1 l
119 92 m 16 0 l
0 0 l
-423 -412 m 16 0 l
0 0 l
264 463 m 11 0 l
0 0 l
143 232 m 13 0 l
0 0 l
-293 -321 m 11 0 l
-1 0 l
-129 -10 m 14 0 l
0 -1 l
153 332 m 25 0 l
-1 0 l
68 -167 m 11 0 l
-1 0 l
-341 -334 m 16 0 l
0 0 l
-97 0 m 8 0 l
0 0 l
62 -100 m 8 0 l
0 0 l
5 156 m 11 0 l
0 1 m 0 -1 l
0 -148 m 11 0 l
0 0 l
-89 181 m 24 0 l
0 0 l
-56 -181 m 10 0 l
0 0 l
116 105 m 19 0 l
0 0 l
-156 -97 m 11 0 l
0 0 l
88 138 m 11 0 l
0 0 l
377 272 m -8 0 l
0 0 l
127 199 m -8 0 l
0 0 l
72 -83 m -8 0 l
0 -1 l
-210 -139 m -10 0 l
-1 -1 l
-26 -88 m -17 0 l
0 0 l
254 172 m -3 0 l
0 0 l
-70 0 m -8 0 l
0 0 l
-420 -288 m -8 0 l
-1 0 l
372 188 m -11 0 l
0 0 l
-414 -210 m -16 0 l
-1 0 l
116 92 m -8 0 l
0 0 l
119 -92 m -11 0 l
0 0 l
19 -45 m -11 0 l
0 -1 l
253 483 m -19 0 l
0 -1 l
-385 -506 m -19 0 l
0 0 l
388 307 m -11 0 l
0 0 l
-387 -369 m -17 0 l
0 0 l
332 372 m -8 0 l
0 0 l
-224 -183 m -13 0 l
0 0 l
126 5 m -11 0 l
0 0 l
197 140 m -19 0 l
0 0 l
-261 -161 m -8 0 l
0 0 l
-14 -146 m -13 0 l
0 0 l
366 356 m -13 0 l
0 0 l
-727 -450 m -33 0 l
0 0 l
393 -70 m -18 0 l
0 0 l
164 310 m -14 0 l
0 0 l
138 67 m -6 0 l
0 0 l
-24 11 m -8 0 l
0 0 l
-215 -62 m -14 0 l
0 0 l
208 64 m -6 0 l
0 1 m 0 -1 l
-105 -115 m -11 0 l
0 0 l
-16 -46 m -8 0 l
0 0 l
326 363 m -5 0 l
0 1 m 0 -1 l
-272 -320 m -6 0 l
0 0 l
-199 -221 m -16 0 l
0 0 l
358 404 m -8 0 l
0 0 l
-14 -78 m -8 0 l
0 0 l
157 -143 m -19 0 l
0 0 l
-89 167 m -8 0 l
0 0 l
-262 -253 m -5 0 l
0 0 l
81 178 m -8 0 l
0 0 l
-94 -205 m -17 0 l
0 0 l
97 127 m -8 0 l
0 0 l
-83 37 m -8 0 l
0 1 m 0 -1 l
358 184 m -27 0 l
0 -1 l
-259 -293 m -10 0 l
0 0 l
35 113 m -8 0 l
0 0 l
199 59 m -8 0 l
0 0 l
-68 -94 m -13 0 l
0 0 l
-148 35 m -8 0 l
0 0 l
75 -19 m -27 0 l
0 0 l
81 -19 m -5 0 l
0 1 m 0 -1 l
137 70 m -5 0 l
0 1 m 0 -1 l
129 92 m -16 0 l
0 0 l
-391 -412 m -16 0 l
0 0 l
296 463 m -10 0 l
-1 0 l
165 232 m -14 0 l
0 0 l
-266 -321 m -11 0 l
0 0 l
-108 -10 m -13 0 l
0 -1 l
180 332 m -24 0 l
0 0 l
116 -167 m -11 0 l
0 0 l
-320 -334 m -17 0 l
0 0 l
-64 0 m -8 0 l
0 0 l
78 -100 m -8 0 l
0 0 l
21 156 m -11 0 l
0 1 m 0 -1 l
22 -148 m -11 0 l
0 0 l
-67 181 m -24 0 l
0 0 l
-8 -181 m -11 0 l
0 0 l
137 105 m -19 0 l
0 0 l
-118 -97 m -11 0 l
0 0 l
110 138 m -10 0 l
0 0 l
 0 0 0 C
 0 0 255 C
390 264 m 9 -10 m -18 19 l
18 0 m -18 -18 l
0 18 m -120 -198 m 9 -9 m -18 18 l
18 0 m -18 -18 l
0 18 m -247 -76 m 9 -9 m -18 18 l
18 0 m -18 -18 l
0 18 m 227 31 m 9 -9 m -18 19 l
18 -1 m -18 -18 l
0 18 m 9 53 m 9 -9 m -18 18 l
18 0 m -18 -18 l
0 18 m 112 99 m 9 -9 m -19 18 l
19 0 m -19 -18 l
0 18 m -128 -165 m 9 -10 m -18 19 l
18 0 m -18 -18 l
0 18 m 335 230 m 9 -9 m -18 19 l
18 0 m -18 -19 l
0 19 m -252 -317 m 9 -9 m -18 19 l
18 0 m -18 -19 l
0 19 m 160 168 m 9 -9 m -19 18 l
19 0 m -19 -18 l
0 18 m 53 252 m 9 -9 m -18 19 l
18 0 m -18 -19 l
-1 19 m -146 -166 m 9 -9 m -19 18 l
19 0 m -19 -18 l
CS M
0 18 m -12 -106 m 9 -9 m -18 18 l
18 0 m -18 -18 l
0 18 m 52 -52 m 9 -9 m -18 18 l
18 0 m -18 -18 l
0 18 m 149 -117 m 9 -9 m -18 19 l
18 0 m -18 -19 l
0 19 m -55 136 m 9 -9 m -19 18 l
19 0 m -19 -18 l
0 18 m 115 155 m 9 -9 m -19 18 l
19 0 m -19 -18 l
0 18 m -139 -211 m 10 -9 m -19 18 l
19 0 m -19 -18 l
0 18 m -265 -4 m 9 -9 m -18 19 l
18 0 m -18 -19 l
-1 19 m 330 112 m 0 24 l
0 0 l
-129 -213 m 0 43 l
0 0 l
-256 -110 m 0 40 l
0 0 l
218 0 m 0 30 l
0 0 l
0 32 m 0 32 l
0 0 l
103 76 m 0 32 l
-1 0 l
-137 -188 m 0 27 l
0 0 l
326 212 m 0 49 l
0 0 l
-261 -356 m 0 35 l
0 0 l
151 143 m 0 30 l
0 0 l
43 231 m 0 11 l
0 0 l
-156 -167 m 0 41 l
-1 -1 l
-21 -137 m 0 22 l
0 0 l
43 -65 m 0 27 l
0 0 l
140 -135 m 0 25 l
0 0 l
-64 121 m 0 56 l
-1 0 l
106 108 m 0 38 l
-1 0 l
-148 -240 m 0 27 l
1 0 m -1 0 l
-274 -22 m 0 9 l
0 -1 l
320 114 m 0 -25 l
0 0 l
-129 -164 m 0 -43 l
0 0 l
-256 -24 m 0 -41 l
0 0 l
218 81 m 0 -29 l
0 0 l
0 91 m 0 -32 l
0 0 l
103 140 m 0 -32 l
-1 0 l
-137 -124 m 0 -27 l
0 0 l
326 266 m 0 -48 l
0 0 l
-261 -259 m 0 -35 l
0 0 l
151 213 m 0 -30 l
0 0 l
43 291 m 0 -10 l
0 -1 l
-156 -145 m 0 -40 l
-1 0 l
-21 -57 m 0 -21 l
0 0 l
43 -22 m 0 -27 l
0 0 l
140 -81 m 0 -24 l
0 0 l
-64 170 m 0 -57 l
-1 0 l
106 221 m 0 -38 l
-1 0 l
-148 -164 m 0 -27 l
1 0 m -1 0 l
-274 32 m 0 -8 l
0 0 l
320 130 m 8 0 l
0 0 l
-137 -189 m 27 0 l
0 0 l
-283 -67 m 57 0 l
0 0 l
161 40 m 22 0 l
0 0 l
-22 62 m 22 0 l
0 0 l
81 108 m 8 0 l
0 0 l
-146 -156 m 22 0 l
0 0 l
304 239 m 14 0 l
0 0 l
-275 -307 m 16 0 l
0 0 l
135 178 m 10 0 l
0 0 l
33 261 m 13 0 l
0 0 l
-169 -156 m 27 0 l
-1 0 l
-48 -97 m 16 0 l
0 0 l
27 -43 m 46 0 l
0 0 l
94 -108 m 22 0 l
0 0 l
-86 146 m 8 0 l
-1 0 l
98 164 m 13 0 l
0 0 l
-162 -202 m 11 0 l
0 0 l
-285 5 m 32 0 l
0 1 m 0 -1 l
288 122 m -8 0 l
0 0 l
-121 -189 m -27 0 l
0 0 l
-229 -67 m -56 0 l
-1 0 l
275 40 m -21 0 l
0 0 l
21 62 m -21 0 l
0 0 l
124 108 m -8 0 l
-1 0 l
-129 -156 m -21 0 l
0 0 l
347 239 m -13 0 l
0 0 l
-248 -307 m -16 0 l
0 0 l
167 178 m -11 0 l
0 0 l
54 261 m -14 0 l
0 0 l
-142 -156 m -27 0 l
0 0 l
5 -97 m -16 0 l
0 0 l
59 -43 m -46 0 l
0 0 l
186 -108 m -21 0 l
-1 0 l
-42 146 m -9 0 l
0 0 l
114 164 m -14 0 l
0 0 l
-135 -202 m -10 0 l
0 0 l
-264 5 m -33 0 l
0 1 m 0 -1 l
 0 0 0 C
stroke
grestore
showpage
end
%%Trailer
%%EOF
