%!PS-Adobe-2.0 EPSF-2.0
%%Creator: SM
%%BoundingBox: 18 144 592 718
%%DocumentFonts: Helvetica
%%EndComments
 20 dict begin
72 300 div dup scale
1 setlinejoin 0 setlinecap
/Helvetica findfont 55 scalefont setfont 
/B {CS newpath moveto} def
/F {moveto 0 setlinecap} def
/C {CS M 1 1 3 {pop 3 1 roll 255 div} for SET_COLOUR} def
/CS {currentpoint stroke} def
/CF {currentpoint eofill} def
/L {lineto} def /l {rlineto} def /M {moveto} def /m {rmoveto} def
/P {currentpoint 0 1 rlineto stroke moveto} def
/T {currentlinecap exch 1 setlinecap show setlinecap} def
errordict /nocurrentpoint {pop 0 0 M currentpoint} put
/SET_COLOUR statusdict begin /processcolors where
  {pop processcolors 1 gt} {false} ifelse
  {(setrgbcolor)} {(pop pop pop)} ifelse cvx end def
 80 600 translate
gsave
CS [32 24] 0 setdash M
CS M 2.49 100 mul 72 div dup setlinewidth
/P [ /currentpoint cvx 0 5 -1 roll .05 add dup -2 div 0 exch /rmoveto cvx /rlineto cvx /stroke cvx /moveto cvx ] cvx def
 255 0 0 C
CS M 2.49 100 mul 72 div dup setlinewidth
/P [ /currentpoint cvx 0 5 -1 roll .05 add dup -2 div 0 exch /rmoveto cvx /rlineto cvx /stroke cvx /moveto cvx ] cvx def
CS [] 0 setdash M
 0 0 0 C
CS [] 0 setdash M
255 255 M 2006 0 l
0 2006 l
255 2261 L
255 255 L
2006 0 l
255 255 M 2006 0 l
324 255 M 0 24 l
139 -24 m 0 24 l
138 -24 m 0 48 l
-52 -136 m 9 21 m 41 0 l
18 17 m 2 -2 l
-2 -2 l
-3 2 l
0 2 l
3 5 l
2 2 l
7 2 l
9 0 l
6 -2 l
3 -2 l
2 -5 l
0 -4 l
-2 -5 l
-7 -4 l
-11 -4 l
-5 -3 l
-4 -4 l
-3 -7 l
0 -7 l
21 47 m 4 -2 l
2 -2 l
3 -5 l
0 -4 l
-3 -5 l
-6 -4 l
-9 -4 l
-12 -16 m 3 2 l
4 0 l
11 -4 l
7 0 l
5 2 l
2 2 l
-25 0 m 11 -7 l
9 0 l
3 3 l
2 4 l
0 4 l
93 77 m 0 24 l
139 -24 m 0 24 l
138 -24 m 0 24 l
138 -24 m 0 24 l
139 -24 m 0 48 l
-52 -136 m 9 21 m 40 0 l
23 17 m 4 3 l
7 6 l
0 -47 l
-2 45 m 0 -45 l
-9 0 m 20 0 l
98 88 m 0 24 l
138 -24 m 0 24 l
139 -24 m 0 24 l
138 -24 m 0 24 l
138 -24 m 0 48 l
-22 -136 m 20 47 m -7 -2 l
-4 -7 l
-2 -11 l
0 -6 l
2 -12 l
4 -6 l
7 -3 l
5 0 l
6 3 l
5 6 l
2 12 l
0 6 l
-2 11 l
-5 7 l
-6 2 l
-5 0 l
-4 -2 l
-3 -2 l
-2 -5 l
-2 -11 l
0 -6 l
2 -12 l
2 -4 l
3 -2 l
4 -3 l
5 0 m 4 3 l
2 2 l
3 4 l
2 12 l
0 6 l
-2 11 l
-3 5 l
-2 2 l
-4 2 l
136 41 m 0 24 l
138 -24 m 0 24 l
255 2261 M 2006 0 l
324 2261 M 0 -24 l
139 24 m 0 -24 l
138 24 m 0 -48 l
138 48 m 0 -24 l
139 24 m 0 -24 l
138 24 m 0 -24 l
138 24 m 0 -24 l
139 24 m 0 -48 l
138 48 m 0 -24 l
138 24 m 0 -24 l
139 24 m 0 -24 l
138 24 m 0 -24 l
138 24 m 0 -48 l
139 48 m 0 -24 l
138 24 m 0 -24 l
255 255 M 0 2006 l
255 255 M 48 0 l
-133 -23 m 20 47 m -7 -2 l
-4 -7 l
-3 -11 l
0 -7 l
3 -11 l
4 -7 l
7 -2 l
4 0 l
7 2 l
4 7 l
3 11 l
0 7 l
-3 11 l
-4 7 l
-7 2 l
-4 0 l
-5 -2 l
-2 -3 l
-2 -4 l
-2 -11 l
0 -7 l
2 -11 l
2 -5 l
2 -2 l
5 -2 l
4 0 m 5 2 l
2 2 l
2 5 l
2 11 l
0 7 l
-2 11 l
-2 4 l
-2 3 l
-5 2 l
61 77 m 24 0 l
-24 100 m 24 0 l
-24 100 m 24 0 l
-24 100 m 24 0 l
-24 101 m 48 0 l
125 733 M 13 38 m 5 3 l
6 6 l
0 -47 l
-2 45 m 0 -45 l
-9 0 m 20 0 l
32 47 m -7 -2 l
-5 -7 l
-2 -11 l
0 -7 l
2 -11 l
5 -7 l
7 -2 l
4 0 l
7 2 l
4 7 l
3 11 l
0 7 l
-3 11 l
-4 7 l
-7 2 l
-4 0 l
-5 -2 l
-2 -2 l
-2 -5 l
-3 -11 l
0 -7 l
3 -11 l
2 -4 l
2 -3 l
5 -2 l
4 0 m 5 2 l
2 3 l
2 4 l
2 11 l
0 7 l
-2 11 l
-2 5 l
-2 2 l
-5 2 l
61 77 m 24 0 l
-24 100 m 24 0 l
-24 101 m 24 0 l
-24 100 m 24 0 l
-24 100 m 48 0 l
125 1235 M 9 38 m 2 -3 l
-2 -2 l
-3 2 l
0 3 l
3 4 l
2 2 l
7 3 l
9 0 l
6 -3 l
3 -2 l
2 -4 l
0 -5 l
-2 -4 l
-7 -5 l
-11 -4 l
-5 -2 l
-4 -5 l
-3 -7 l
0 -6 l
21 47 m 4 -3 l
2 -2 l
3 -4 l
0 -5 l
-3 -4 l
-6 -5 l
-9 -4 l
-12 -16 m 3 2 l
4 0 l
11 -4 l
7 0 l
5 2 l
2 2 l
-25 0 m 11 -6 l
9 0 l
3 2 l
2 4 l
0 5 l
27 36 m -7 -3 l
-5 -6 l
-2 -11 l
0 -7 l
2 -11 l
5 -7 l
7 -2 l
4 0 l
7 2 l
4 7 l
3 11 l
0 7 l
-3 11 l
-4 6 l
-7 3 l
-4 0 l
-5 -3 l
-2 -2 l
-2 -4 l
-3 -11 l
0 -7 l
3 -11 l
2 -5 l
2 -2 l
5 -2 l
4 0 m 5 2 l
2 2 l
2 5 l
2 11 l
0 7 l
-2 11 l
-2 4 l
-2 2 l
-5 3 l
61 76 m 24 0 l
-24 101 m 24 0 l
-24 100 m 24 0 l
-24 100 m 24 0 l
-24 101 m 48 0 l
125 1736 M 9 38 m 2 -2 l
-2 -2 l
-3 2 l
0 2 l
3 5 l
2 2 l
7 2 l
9 0 l
6 -2 l
3 -5 l
0 -6 l
-3 -5 l
-6 -2 l
-7 0 l
7 20 m 4 -2 l
2 -5 l
0 -6 l
-2 -5 l
-4 -2 l
4 -2 l
5 -5 l
2 -4 l
0 -7 l
-2 -5 l
CS M
-3 -2 l
-6 -2 l
-9 0 l
-7 2 l
-2 2 l
-3 5 l
0 2 l
3 2 l
2 -2 l
-2 -2 l
24 13 m 3 -6 l
0 -7 l
-3 -5 l
-2 -2 l
-4 -2 l
38 47 m -7 -2 l
-5 -7 l
-2 -11 l
0 -7 l
2 -11 l
5 -7 l
7 -2 l
4 0 l
7 2 l
4 7 l
3 11 l
0 7 l
-3 11 l
-4 7 l
-7 2 l
-4 0 l
-5 -2 l
-2 -2 l
-2 -5 l
-3 -11 l
0 -7 l
3 -11 l
2 -5 l
2 -2 l
5 -2 l
4 0 m 5 2 l
2 2 l
2 5 l
2 11 l
0 7 l
-2 11 l
-2 5 l
-2 2 l
-5 2 l
61 77 m 24 0 l
-24 100 m 24 0 l
-24 100 m 24 0 l
-24 101 m 24 0 l
-24 100 m 48 0 l
125 2237 M 27 43 m 0 -43 l
2 48 m 0 -48 l
0 48 m -25 -34 l
36 0 l
-20 -14 m 16 0 l
29 48 m -7 -3 l
-5 -6 l
-2 -12 l
0 -6 l
2 -12 l
5 -6 l
7 -3 l
4 0 l
7 3 l
4 6 l
3 12 l
0 6 l
-3 12 l
-4 6 l
-7 3 l
-4 0 l
-5 -3 l
-2 -2 l
-2 -4 l
-3 -12 l
0 -6 l
3 -12 l
2 -4 l
2 -2 l
5 -3 l
4 0 m 5 3 l
2 2 l
2 4 l
2 12 l
0 6 l
-2 12 l
-2 4 l
-2 2 l
-5 3 l
2261 255 M 0 2006 l
2261 255 M -48 0 l
48 101 m -24 0 l
24 100 m -24 0 l
24 100 m -24 0 l
24 100 m -24 0 l
24 101 m -48 0 l
48 100 m -24 0 l
24 100 m -24 0 l
24 101 m -24 0 l
24 100 m -24 0 l
24 100 m -48 0 l
48 100 m -24 0 l
24 101 m -24 0 l
24 100 m -24 0 l
24 100 m -24 0 l
24 101 m -48 0 l
48 100 m -24 0 l
24 100 m -24 0 l
24 100 m -24 0 l
24 101 m -24 0 l
24 100 m -48 0 l
CS [] 0 setdash M
255 256 M 69 0 l
0 0 l
0 84 l
173 0 l
0 609 l
173 0 l
0 291 l
139 0 l
0 258 l
138 0 l
0 105 l
138 0 l
0 -588 l
139 0 l
0 -310 l
138 0 l
0 29 l
138 0 l
0 354 l
208 0 l
0 -347 l
207 0 l
1915 284 L
242 0 l
0 -29 l
104 0 l
CS [] 0 setdash M
1131 70 M 9 56 m 1140 55 L
2 71 m 1142 55 L
-2 71 m 16 0 l
1140 55 M 16 0 l
18 63 m 0 -48 l
2 48 m 0 -48 l
14 34 m 0 -18 l
-23 32 m 36 0 l
0 -14 l
-2 14 l
-25 -23 m 14 0 l
-23 -25 m 16 0 l
34 18 m 26 0 l
0 5 l
-2 4 l
-2 3 l
-5 2 l
-6 0 l
-7 -2 l
-4 -5 l
-3 -7 l
0 -4 l
3 -7 l
4 -4 l
7 -3 l
4 0 l
7 3 l
4 4 l
-2 11 m 0 7 l
-2 5 l
-11 2 m -5 -2 l
-4 -5 l
-2 -7 l
0 -4 l
2 -7 l
4 -4 l
5 -3 l
67 56 m 1255 55 L
56 63 m 0 -48 l
2 48 m 0 -48 l
27 48 m 0 -48 l
2 48 m 0 -48 l
-38 48 m 16 0 l
13 0 m 16 0 l
-36 -23 m 27 0 l
-36 -25 m 16 0 l
13 0 m 16 0 l
25 56 m 1374 55 L
2 71 m 1376 55 L
-16 71 m 16 0 l
1360 55 M 16 0 l
CS [] 0 setdash M
CS [] 0 setdash M
84 1232 M 37 1244 M 47 0 l
37 1246 M 42 27 l
-38 -27 m 43 27 l
37 1273 M 47 0 l
37 1237 M 0 9 l
0 20 m 0 13 l
47 -42 m 0 13 l
CS [] 0 setdash M
CS M 1 dup setlinewidth
/P [ /currentpoint cvx 0 5 -1 roll .05 add dup -2 div 0 exch /rmoveto cvx /rlineto cvx /stroke cvx /moveto cvx ] cvx def
1293 2010 M 276 0 l
76 -12 m CS [] 0 setdash M
1657 2029 M 0 -31 l
2 31 m 0 -31 l
0 24 m 4 5 l
7 2 l
5 0 l
6 -2 l
3 -5 l
0 -24 l
-9 31 m 4 -2 l
2 -5 l
0 -24 l
3 24 m 4 5 l
7 2 l
4 0 l
7 -2 l
2 -5 l
0 -24 l
-9 31 m 5 -2 l
2 -5 l
0 -24 l
-56 31 m 9 0 l
-9 -31 m 16 0 l
9 0 m 15 0 l
9 0 m 16 0 l
25 31 m -7 -2 l
-4 -5 l
-3 -6 l
0 -5 l
3 -7 l
4 -4 l
7 -2 l
4 0 l
7 2 l
4 4 l
3 7 l
0 5 l
-3 6 l
-4 5 l
-7 2 l
-4 0 l
-5 -2 l
-4 -5 l
-2 -6 l
0 -5 l
2 -7 l
4 -4 l
5 -2 l
4 0 m 5 2 l
4 4 l
2 7 l
0 5 l
-2 6 l
-4 5 l
-5 2 l
54 16 m 0 -47 l
2 47 m 0 -47 l
-2 24 m -4 5 l
-5 2 l
-4 0 l
-7 -2 l
-5 -5 l
-2 -6 l
0 -5 l
2 -7 l
5 -4 l
7 -2 l
4 0 l
5 2 l
4 4 l
-13 25 m -5 -2 l
-4 -5 l
-3 -6 l
0 -5 l
3 -7 l
4 -4 l
5 -2 l
6 47 m 9 0 l
-2 -47 m 9 0 l
14 18 m 26 0 l
0 4 l
-2 5 l
-2 2 l
-5 2 l
-6 0 l
-7 -2 l
-4 -5 l
-3 -6 l
0 -5 l
3 -7 l
4 -4 l
7 -2 l
4 0 l
7 2 l
4 4 l
-2 12 m 0 6 l
-2 5 l
-11 2 m -5 -2 l
-4 -5 l
-2 -6 l
0 -5 l
CS M
2 -7 l
4 -4 l
5 -2 l
33 47 m 0 -47 l
3 47 m 0 -47 l
-9 47 m 9 0 l
-9 -47 m 15 0 l
5 0 m CS [] 0 setdash M
 255 0 0 C
CS [32 24] 0 setdash M
CS M 2.49 100 mul 72 div dup setlinewidth
/P [ /currentpoint cvx 0 5 -1 roll .05 add dup -2 div 0 exch /rmoveto cvx /rlineto cvx /stroke cvx /moveto cvx ] cvx def
255 255 M 69 0 l
0 0 l
0 251 l
173 0 l
0 501 l
173 0 l
0 101 l
139 0 l
0 652 l
138 0 l
0 -502 l
138 0 l
0 -351 l
139 0 l
0 -251 l
138 0 l
0 151 l
138 0 l
0 501 l
208 0 l
1708 506 L
207 0 l
0 -100 l
242 0 l
0 -151 l
104 0 l
-968 1655 m 276 0 l
76 -13 m CS [] 0 setdash M
1666 1929 M -7 -2 l
-5 -5 l
-2 -7 l
0 -4 l
2 -7 l
5 -4 l
7 -3 l
4 0 l
7 3 l
4 4 l
3 7 l
0 4 l
-3 7 l
-4 5 l
-7 2 l
-4 0 l
-5 -2 l
-4 -5 l
-3 -7 l
0 -4 l
3 -7 l
4 -4 l
5 -3 l
4 0 m 5 3 l
4 4 l
2 7 l
0 4 l
-2 7 l
-4 5 l
-5 2 l
31 16 m 0 -48 l
3 48 m 0 -48 l
0 25 m 4 5 l
5 2 l
4 0 l
7 -2 l
4 -5 l
3 -7 l
0 -4 l
-3 -7 l
-4 -4 l
-7 -3 l
-4 0 l
-5 3 l
-4 4 l
13 25 m 5 -2 l
4 -5 l
2 -7 l
0 -4 l
-2 -7 l
-4 -4 l
-5 -3 l
-22 48 m 9 0 l
63 -21 m 2 5 l
0 -9 l
-2 4 l
-3 3 l
-4 2 l
-9 0 l
-5 -2 l
-2 -3 l
0 -4 l
2 -2 l
5 -3 l
11 -4 l
5 -2 l
2 -3 l
-25 16 m 2 -2 l
5 -2 l
11 -5 l
5 -2 l
2 -2 l
0 -7 l
-2 -2 l
-5 -3 l
-9 0 l
-4 3 l
-3 2 l
-2 4 l
0 -9 l
2 5 l
39 13 m 26 0 l
0 5 l
-2 4 l
-2 3 l
-5 2 l
-6 0 l
-7 -2 l
-4 -5 l
-3 -7 l
0 -4 l
3 -7 l
4 -4 l
7 -3 l
4 0 l
7 3 l
4 4 l
-2 11 m 0 7 l
-2 5 l
-11 2 m -5 -2 l
-4 -5 l
-2 -7 l
0 -4 l
2 -7 l
4 -4 l
5 -3 l
33 32 m 0 -32 l
3 32 m 0 -32 l
0 18 m 2 7 l
4 5 l
5 2 l
7 0 l
2 -2 l
0 -3 l
-2 -2 l
-3 2 l
3 3 l
-27 2 m 9 0 l
-9 -32 m 15 0 l
25 32 m 14 -32 l
-12 32 m 12 -27 l
13 27 m -13 -32 l
-18 32 m 13 0 l
9 0 m 14 0 l
11 -14 m 27 0 l
0 5 l
-3 4 l
-2 3 l
-4 2 l
-7 0 l
-7 -2 l
-4 -5 l
-2 -7 l
0 -4 l
2 -7 l
4 -4 l
7 -3 l
4 0 l
7 3 l
5 4 l
-3 11 m 0 7 l
-2 5 l
-11 2 m -5 -2 l
-4 -5 l
-2 -7 l
0 -4 l
2 -7 l
4 -4 l
5 -3 l
56 48 m 0 -48 l
2 48 m 0 -48 l
-2 25 m -4 5 l
-5 2 l
-4 0 l
-7 -2 l
-5 -5 l
-2 -7 l
0 -4 l
2 -7 l
5 -4 l
7 -3 l
4 0 l
5 3 l
4 4 l
-13 25 m -5 -2 l
-4 -5 l
-3 -7 l
0 -4 l
3 -7 l
4 -4 l
5 -3 l
6 48 m 9 0 l
-2 -48 m 9 0 l
5 0 m CS [32 24] 0 setdash M
stroke
grestore
showpage
end
