%!PS-Adobe-3.0 EPSF-3.0
%%Title: /Users/Jovan/Desktop/MW_bimodal_hist.eps
%%Creator: matplotlib version 1.3.1, http://matplotlib.org/
%%CreationDate: Fri Dec  6 14:35:42 2013
%%Orientation: portrait
%%BoundingBox: -90 180 702 612
%%EndComments
%%BeginProlog
/mpldict 9 dict def
mpldict begin
/m { moveto } bind def
/l { lineto } bind def
/r { rlineto } bind def
/c { curveto } bind def
/cl { closepath } bind def
/box {
m
1 index 0 r
0 exch r
neg 0 r
cl
} bind def
/clipbox {
box
clip
newpath
} bind def
%!PS-Adobe-3.0 Resource-Font
%%Title: Bitstream Vera Sans
%%Copyright: Copyright (c) 2003 by Bitstream, Inc. All Rights Reserved.
%%Creator: Converted from TrueType to type 3 by PPR
25 dict begin
/_d{bind def}bind def
/_m{moveto}_d
/_l{lineto}_d
/_cl{closepath eofill}_d
/_c{curveto}_d
/_sc{7 -1 roll{setcachedevice}{pop pop pop pop pop pop}ifelse}_d
/_e{exec}_d
/FontName /BitstreamVeraSans-Roman def
/PaintType 0 def
/FontMatrix[.001 0 0 .001 0 0]def
/FontBBox[-183 -236 1287 928]def
/FontType 3 def
/Encoding [ /space /parenleft /parenright /hyphen /period /slash /zero /one /two /three /four /five /six /eight /C /F /G /H /I /M /N /V /bracketleft /bracketright /a /b /c /e /f /i /l /m /o /r /s /t /u /y /minus ] def
/FontInfo 10 dict dup begin
/FamilyName (Bitstream Vera Sans) def
/FullName (Bitstream Vera Sans) def
/Notice (Copyright (c) 2003 by Bitstream, Inc. All Rights Reserved. Bitstream Vera is a trademark of Bitstream, Inc.) def
/Weight (Roman) def
/Version (Release 1.10) def
/ItalicAngle 0.0 def
/isFixedPitch false def
/UnderlinePosition -213 def
/UnderlineThickness 143 def
end readonly def
/CharStrings 39 dict dup begin
/space{318 0 0 0 0 0 _sc
}_d
/parenleft{390 0 86 -131 310 759 _sc
310 759 _m
266 683 234 609 213 536 _c
191 463 181 389 181 314 _c
181 238 191 164 213 91 _c
234 17 266 -56 310 -131 _c
232 -131 _l
183 -54 146 20 122 94 _c
98 168 86 241 86 314 _c
86 386 98 459 122 533 _c
146 607 182 682 232 759 _c
310 759 _l
_cl}_d
/parenright{390 0 80 -131 304 759 _sc
80 759 _m
158 759 _l
206 682 243 607 267 533 _c
291 459 304 386 304 314 _c
304 241 291 168 267 94 _c
243 20 206 -54 158 -131 _c
80 -131 _l
123 -56 155 17 177 91 _c
198 164 209 238 209 314 _c
209 389 198 463 177 536 _c
155 609 123 683 80 759 _c
_cl}_d
/hyphen{361 0 49 234 312 314 _sc
49 314 _m
312 314 _l
312 234 _l
49 234 _l
49 314 _l
_cl}_d
/period{318 0 107 0 210 124 _sc
107 124 _m
210 124 _l
210 0 _l
107 0 _l
107 124 _l
_cl}_d
/slash{337 0 0 -92 337 729 _sc
254 729 _m
337 729 _l
83 -92 _l
0 -92 _l
254 729 _l
_cl}_d
/zero{636 0 66 -13 570 742 _sc
318 664 _m
267 664 229 639 203 589 _c
177 539 165 464 165 364 _c
165 264 177 189 203 139 _c
229 89 267 64 318 64 _c
369 64 407 89 433 139 _c
458 189 471 264 471 364 _c
471 464 458 539 433 589 _c
407 639 369 664 318 664 _c
318 742 _m
399 742 461 709 505 645 _c
548 580 570 486 570 364 _c
570 241 548 147 505 83 _c
461 19 399 -13 318 -13 _c
236 -13 173 19 130 83 _c
87 147 66 241 66 364 _c
66 486 87 580 130 645 _c
173 709 236 742 318 742 _c
_cl}_d
/one{636 0 110 0 544 729 _sc
124 83 _m
285 83 _l
285 639 _l
110 604 _l
110 694 _l
284 729 _l
383 729 _l
383 83 _l
544 83 _l
544 0 _l
124 0 _l
124 83 _l
_cl}_d
/two{{636 0 73 0 536 742 _sc
192 83 _m
536 83 _l
536 0 _l
73 0 _l
73 83 _l
110 121 161 173 226 239 _c
290 304 331 346 348 365 _c
380 400 402 430 414 455 _c
426 479 433 504 433 528 _c
433 566 419 598 392 622 _c
365 646 330 659 286 659 _c
255 659 222 653 188 643 _c
154 632 117 616 78 594 _c
78 694 _l
118 710 155 722 189 730 _c
223 738 255 742 284 742 _c
}_e{359 742 419 723 464 685 _c
509 647 532 597 532 534 _c
532 504 526 475 515 449 _c
504 422 484 390 454 354 _c
446 344 420 317 376 272 _c
332 227 271 164 192 83 _c
_cl}_e}_d
/three{{636 0 76 -13 556 742 _sc
406 393 _m
453 383 490 362 516 330 _c
542 298 556 258 556 212 _c
556 140 531 84 482 45 _c
432 6 362 -13 271 -13 _c
240 -13 208 -10 176 -4 _c
144 1 110 10 76 22 _c
76 117 _l
103 101 133 89 166 81 _c
198 73 232 69 268 69 _c
330 69 377 81 409 105 _c
441 129 458 165 458 212 _c
458 254 443 288 413 312 _c
383 336 341 349 287 349 _c
}_e{202 349 _l
202 430 _l
291 430 _l
339 430 376 439 402 459 _c
428 478 441 506 441 543 _c
441 580 427 609 401 629 _c
374 649 336 659 287 659 _c
260 659 231 656 200 650 _c
169 644 135 635 98 623 _c
98 711 _l
135 721 170 729 203 734 _c
235 739 266 742 296 742 _c
370 742 429 725 473 691 _c
517 657 539 611 539 553 _c
539 513 527 479 504 451 _c
481 423 448 403 406 393 _c
_cl}_e}_d
/four{636 0 49 0 580 729 _sc
378 643 _m
129 254 _l
378 254 _l
378 643 _l
352 729 _m
476 729 _l
476 254 _l
580 254 _l
580 172 _l
476 172 _l
476 0 _l
378 0 _l
378 172 _l
49 172 _l
49 267 _l
352 729 _l
_cl}_d
/five{{636 0 77 -13 549 729 _sc
108 729 _m
495 729 _l
495 646 _l
198 646 _l
198 467 _l
212 472 227 476 241 478 _c
255 480 270 482 284 482 _c
365 482 429 459 477 415 _c
525 370 549 310 549 234 _c
549 155 524 94 475 51 _c
426 8 357 -13 269 -13 _c
238 -13 207 -10 175 -6 _c
143 -1 111 6 77 17 _c
77 116 _l
106 100 136 88 168 80 _c
199 72 232 69 267 69 _c
}_e{323 69 368 83 401 113 _c
433 143 450 183 450 234 _c
450 284 433 324 401 354 _c
368 384 323 399 267 399 _c
241 399 214 396 188 390 _c
162 384 135 375 108 363 _c
108 729 _l
_cl}_e}_d
/six{{636 0 70 -13 573 742 _sc
330 404 _m
286 404 251 388 225 358 _c
199 328 186 286 186 234 _c
186 181 199 139 225 109 _c
251 79 286 64 330 64 _c
374 64 409 79 435 109 _c
461 139 474 181 474 234 _c
474 286 461 328 435 358 _c
409 388 374 404 330 404 _c
526 713 _m
526 623 _l
501 635 476 644 451 650 _c
425 656 400 659 376 659 _c
310 659 260 637 226 593 _c
}_e{192 549 172 482 168 394 _c
187 422 211 444 240 459 _c
269 474 301 482 336 482 _c
409 482 467 459 509 415 _c
551 371 573 310 573 234 _c
573 159 550 99 506 54 _c
462 9 403 -13 330 -13 _c
246 -13 181 19 137 83 _c
92 147 70 241 70 364 _c
70 479 97 571 152 639 _c
206 707 280 742 372 742 _c
396 742 421 739 447 735 _c
472 730 498 723 526 713 _c
_cl}_e}_d
/eight{{636 0 68 -13 568 742 _sc
318 346 _m
271 346 234 333 207 308 _c
180 283 167 249 167 205 _c
167 161 180 126 207 101 _c
234 76 271 64 318 64 _c
364 64 401 76 428 102 _c
455 127 469 161 469 205 _c
469 249 455 283 429 308 _c
402 333 365 346 318 346 _c
219 388 _m
177 398 144 418 120 447 _c
96 476 85 511 85 553 _c
85 611 105 657 147 691 _c
188 725 245 742 318 742 _c
}_e{390 742 447 725 489 691 _c
530 657 551 611 551 553 _c
551 511 539 476 515 447 _c
491 418 459 398 417 388 _c
464 377 501 355 528 323 _c
554 291 568 251 568 205 _c
568 134 546 80 503 43 _c
459 5 398 -13 318 -13 _c
237 -13 175 5 132 43 _c
89 80 68 134 68 205 _c
68 251 81 291 108 323 _c
134 355 171 377 219 388 _c
183 544 _m
183 506 194 476 218 455 _c
}_e{242 434 275 424 318 424 _c
360 424 393 434 417 455 _c
441 476 453 506 453 544 _c
453 582 441 611 417 632 _c
393 653 360 664 318 664 _c
275 664 242 653 218 632 _c
194 611 183 582 183 544 _c
_cl}_e}_d
/C{{698 0 56 -13 644 742 _sc
644 673 _m
644 569 _l
610 599 575 622 537 638 _c
499 653 460 661 418 661 _c
334 661 270 635 226 584 _c
182 533 160 460 160 364 _c
160 268 182 194 226 143 _c
270 92 334 67 418 67 _c
460 67 499 74 537 90 _c
575 105 610 128 644 159 _c
644 56 _l
609 32 572 15 534 4 _c
496 -7 455 -13 412 -13 _c
302 -13 215 20 151 87 _c
}_e{87 154 56 246 56 364 _c
56 481 87 573 151 641 _c
215 708 302 742 412 742 _c
456 742 497 736 535 725 _c
573 713 610 696 644 673 _c
_cl}_e}_d
/F{575 0 98 0 517 729 _sc
98 729 _m
517 729 _l
517 646 _l
197 646 _l
197 431 _l
486 431 _l
486 348 _l
197 348 _l
197 0 _l
98 0 _l
98 729 _l
_cl}_d
/G{{775 0 56 -13 693 742 _sc
595 104 _m
595 300 _l
434 300 _l
434 381 _l
693 381 _l
693 68 _l
655 40 613 20 567 7 _c
521 -6 472 -13 420 -13 _c
306 -13 216 20 152 86 _c
88 152 56 245 56 364 _c
56 482 88 575 152 642 _c
216 708 306 742 420 742 _c
467 742 512 736 555 724 _c
598 712 638 695 674 673 _c
674 568 _l
637 598 598 621 557 637 _c
516 653 473 661 428 661 _c
}_e{338 661 271 636 227 586 _c
182 536 160 462 160 364 _c
160 265 182 191 227 141 _c
271 91 338 67 428 67 _c
462 67 493 70 521 76 _c
549 82 573 91 595 104 _c
_cl}_e}_d
/H{752 0 98 0 654 729 _sc
98 729 _m
197 729 _l
197 430 _l
555 430 _l
555 729 _l
654 729 _l
654 0 _l
555 0 _l
555 347 _l
197 347 _l
197 0 _l
98 0 _l
98 729 _l
_cl}_d
/I{295 0 98 0 197 729 _sc
98 729 _m
197 729 _l
197 0 _l
98 0 _l
98 729 _l
_cl}_d
/M{863 0 98 0 765 729 _sc
98 729 _m
245 729 _l
431 233 _l
618 729 _l
765 729 _l
765 0 _l
669 0 _l
669 640 _l
481 140 _l
382 140 _l
194 640 _l
194 0 _l
98 0 _l
98 729 _l
_cl}_d
/N{748 0 98 0 650 729 _sc
98 729 _m
231 729 _l
554 119 _l
554 729 _l
650 729 _l
650 0 _l
517 0 _l
194 610 _l
194 0 _l
98 0 _l
98 729 _l
_cl}_d
/V{684 0 8 0 676 729 _sc
286 0 _m
8 729 _l
111 729 _l
342 115 _l
573 729 _l
676 729 _l
398 0 _l
286 0 _l
_cl}_d
/bracketleft{390 0 86 -131 293 760 _sc
86 760 _m
293 760 _l
293 690 _l
176 690 _l
176 -61 _l
293 -61 _l
293 -131 _l
86 -131 _l
86 760 _l
_cl}_d
/bracketright{390 0 97 -131 304 760 _sc
304 760 _m
304 -131 _l
97 -131 _l
97 -61 _l
214 -61 _l
214 690 _l
97 690 _l
97 760 _l
304 760 _l
_cl}_d
/a{{613 0 60 -13 522 560 _sc
343 275 _m
270 275 220 266 192 250 _c
164 233 150 205 150 165 _c
150 133 160 107 181 89 _c
202 70 231 61 267 61 _c
317 61 357 78 387 114 _c
417 149 432 196 432 255 _c
432 275 _l
343 275 _l
522 312 _m
522 0 _l
432 0 _l
432 83 _l
411 49 385 25 355 10 _c
325 -5 287 -13 243 -13 _c
187 -13 142 2 109 33 _c
76 64 60 106 60 159 _c
}_e{60 220 80 266 122 298 _c
163 329 224 345 306 345 _c
432 345 _l
432 354 _l
432 395 418 427 391 450 _c
364 472 326 484 277 484 _c
245 484 215 480 185 472 _c
155 464 127 453 100 439 _c
100 522 _l
132 534 164 544 195 550 _c
226 556 256 560 286 560 _c
365 560 424 539 463 498 _c
502 457 522 395 522 312 _c
_cl}_e}_d
/b{{635 0 91 -13 580 760 _sc
487 273 _m
487 339 473 390 446 428 _c
418 466 381 485 334 485 _c
286 485 249 466 222 428 _c
194 390 181 339 181 273 _c
181 207 194 155 222 117 _c
249 79 286 61 334 61 _c
381 61 418 79 446 117 _c
473 155 487 207 487 273 _c
181 464 _m
199 496 223 520 252 536 _c
281 552 316 560 356 560 _c
422 560 476 533 518 481 _c
559 428 580 359 580 273 _c
}_e{580 187 559 117 518 65 _c
476 13 422 -13 356 -13 _c
316 -13 281 -5 252 10 _c
223 25 199 49 181 82 _c
181 0 _l
91 0 _l
91 760 _l
181 760 _l
181 464 _l
_cl}_e}_d
/c{{550 0 55 -13 488 560 _sc
488 526 _m
488 442 _l
462 456 437 466 411 473 _c
385 480 360 484 334 484 _c
276 484 230 465 198 428 _c
166 391 150 339 150 273 _c
150 206 166 154 198 117 _c
230 80 276 62 334 62 _c
360 62 385 65 411 72 _c
437 79 462 90 488 104 _c
488 21 _l
462 9 436 0 410 -5 _c
383 -10 354 -13 324 -13 _c
242 -13 176 12 128 64 _c
}_e{79 115 55 185 55 273 _c
55 362 79 432 128 483 _c
177 534 244 560 330 560 _c
358 560 385 557 411 551 _c
437 545 463 537 488 526 _c
_cl}_e}_d
/e{{615 0 55 -13 562 560 _sc
562 296 _m
562 252 _l
149 252 _l
153 190 171 142 205 110 _c
238 78 284 62 344 62 _c
378 62 412 66 444 74 _c
476 82 509 95 541 113 _c
541 28 _l
509 14 476 3 442 -3 _c
408 -9 373 -13 339 -13 _c
251 -13 182 12 131 62 _c
80 112 55 181 55 268 _c
55 357 79 428 127 481 _c
175 533 241 560 323 560 _c
397 560 455 536 498 489 _c
}_e{540 441 562 377 562 296 _c
472 322 _m
471 371 457 410 431 440 _c
404 469 368 484 324 484 _c
274 484 234 469 204 441 _c
174 413 156 373 152 322 _c
472 322 _l
_cl}_e}_d
/f{352 0 23 0 371 760 _sc
371 760 _m
371 685 _l
285 685 _l
253 685 230 678 218 665 _c
205 652 199 629 199 595 _c
199 547 _l
347 547 _l
347 477 _l
199 477 _l
199 0 _l
109 0 _l
109 477 _l
23 477 _l
23 547 _l
109 547 _l
109 585 _l
109 645 123 690 151 718 _c
179 746 224 760 286 760 _c
371 760 _l
_cl}_d
/i{278 0 94 0 184 760 _sc
94 547 _m
184 547 _l
184 0 _l
94 0 _l
94 547 _l
94 760 _m
184 760 _l
184 646 _l
94 646 _l
94 760 _l
_cl}_d
/l{278 0 94 0 184 760 _sc
94 760 _m
184 760 _l
184 0 _l
94 0 _l
94 760 _l
_cl}_d
/m{{974 0 91 0 889 560 _sc
520 442 _m
542 482 569 511 600 531 _c
631 550 668 560 711 560 _c
767 560 811 540 842 500 _c
873 460 889 403 889 330 _c
889 0 _l
799 0 _l
799 327 _l
799 379 789 418 771 444 _c
752 469 724 482 686 482 _c
639 482 602 466 575 435 _c
548 404 535 362 535 309 _c
535 0 _l
445 0 _l
445 327 _l
445 379 435 418 417 444 _c
398 469 369 482 331 482 _c
}_e{285 482 248 466 221 435 _c
194 404 181 362 181 309 _c
181 0 _l
91 0 _l
91 547 _l
181 547 _l
181 462 _l
201 495 226 520 255 536 _c
283 552 317 560 357 560 _c
397 560 430 550 458 530 _c
486 510 506 480 520 442 _c
_cl}_e}_d
/o{612 0 55 -13 557 560 _sc
306 484 _m
258 484 220 465 192 427 _c
164 389 150 338 150 273 _c
150 207 163 156 191 118 _c
219 80 257 62 306 62 _c
354 62 392 80 420 118 _c
448 156 462 207 462 273 _c
462 337 448 389 420 427 _c
392 465 354 484 306 484 _c
306 560 _m
384 560 445 534 490 484 _c
534 433 557 363 557 273 _c
557 183 534 113 490 63 _c
445 12 384 -13 306 -13 _c
227 -13 165 12 121 63 _c
77 113 55 183 55 273 _c
55 363 77 433 121 484 _c
165 534 227 560 306 560 _c
_cl}_d
/r{411 0 91 0 411 560 _sc
411 463 _m
401 469 390 473 378 476 _c
366 478 353 480 339 480 _c
288 480 249 463 222 430 _c
194 397 181 350 181 288 _c
181 0 _l
91 0 _l
91 547 _l
181 547 _l
181 462 _l
199 495 224 520 254 536 _c
284 552 321 560 365 560 _c
371 560 378 559 386 559 _c
393 558 401 557 411 555 _c
411 463 _l
_cl}_d
/s{{521 0 54 -13 472 560 _sc
443 531 _m
443 446 _l
417 458 391 468 364 475 _c
336 481 308 485 279 485 _c
234 485 200 478 178 464 _c
156 450 145 430 145 403 _c
145 382 153 366 169 354 _c
185 342 217 330 265 320 _c
296 313 _l
360 299 405 279 432 255 _c
458 230 472 195 472 151 _c
472 100 452 60 412 31 _c
372 1 316 -13 246 -13 _c
216 -13 186 -10 154 -5 _c
}_e{122 0 89 8 54 20 _c
54 113 _l
87 95 120 82 152 74 _c
184 65 216 61 248 61 _c
290 61 323 68 346 82 _c
368 96 380 117 380 144 _c
380 168 371 187 355 200 _c
339 213 303 226 247 238 _c
216 245 _l
160 257 119 275 95 299 _c
70 323 58 356 58 399 _c
58 450 76 490 112 518 _c
148 546 200 560 268 560 _c
301 560 332 557 362 552 _c
391 547 418 540 443 531 _c
}_e{_cl}_e}_d
/t{392 0 27 0 368 702 _sc
183 702 _m
183 547 _l
368 547 _l
368 477 _l
183 477 _l
183 180 _l
183 135 189 106 201 94 _c
213 81 238 75 276 75 _c
368 75 _l
368 0 _l
276 0 _l
206 0 158 13 132 39 _c
106 65 93 112 93 180 _c
93 477 _l
27 477 _l
27 547 _l
93 547 _l
93 702 _l
183 702 _l
_cl}_d
/u{634 0 85 -13 543 547 _sc
85 216 _m
85 547 _l
175 547 _l
175 219 _l
175 167 185 129 205 103 _c
225 77 255 64 296 64 _c
344 64 383 79 411 110 _c
439 141 453 183 453 237 _c
453 547 _l
543 547 _l
543 0 _l
453 0 _l
453 84 _l
431 50 405 26 377 10 _c
348 -5 315 -13 277 -13 _c
214 -13 166 6 134 45 _c
101 83 85 140 85 216 _c
_cl}_d
/y{592 0 30 -207 562 547 _sc
322 -50 _m
296 -114 271 -157 247 -177 _c
223 -197 191 -207 151 -207 _c
79 -207 _l
79 -132 _l
132 -132 _l
156 -132 175 -126 189 -114 _c
203 -102 218 -75 235 -31 _c
251 9 _l
30 547 _l
125 547 _l
296 119 _l
467 547 _l
562 547 _l
322 -50 _l
_cl}_d
/minus{838 0 106 272 732 355 _sc
106 355 _m
732 355 _l
732 272 _l
106 272 _l
106 355 _l
_cl}_d
end readonly def

/BuildGlyph
 {exch begin
 CharStrings exch
 2 copy known not{pop /.notdef}if
 true 3 1 roll get exec
 end}_d

/BuildChar {
 1 index /Encoding get exch get
 1 index /BuildGlyph get exec
}_d

FontName currentdict end definefont pop
%!PS-Adobe-3.0 Resource-Font
%%Title: cmr10
%%Copyright: Copyright (C) 1994, Basil K. Malyshev. All Rights Reserved.012BaKoMa Fonts Collection, Level-B.
%%Creator: Converted from TrueType to type 3 by PPR
25 dict begin
/_d{bind def}bind def
/_m{moveto}_d
/_l{lineto}_d
/_cl{closepath eofill}_d
/_c{curveto}_d
/_sc{7 -1 roll{setcachedevice}{pop pop pop pop pop pop}ifelse}_d
/_e{exec}_d
/FontName /Cmr10 def
/PaintType 0 def
/FontMatrix[.001 0 0 .001 0 0]def
/FontBBox[-44 -250 1009 750]def
/FontType 3 def
/Encoding [ /zero ] def
/FontInfo 10 dict dup begin
/FamilyName (cmr10) def
/FullName (cmr10) def
/Notice (Copyright (C) 1994, Basil K. Malyshev. All Rights Reserved.012BaKoMa Fonts Collection, Level-B. ) def
/Weight (Regular) def
/Version (1.1/12-Nov-94) def
/ItalicAngle 0.0 def
/isFixedPitch false def
/UnderlinePosition -133 def
/UnderlineThickness 20 def
end readonly def
/CharStrings 1 dict dup begin
/zero{{500 0 39 -21 460 666 _sc
250 -21 _m
168 -21 112 12 83 79 _c
53 146 39 226 39 319 _c
39 377 44 431 55 482 _c
65 533 86 576 118 612 _c
149 648 193 666 250 666 _c
294 666 330 655 358 634 _c
386 612 407 585 422 551 _c
436 517 446 480 452 441 _c
457 402 460 361 460 319 _c
460 261 454 208 444 158 _c
433 108 412 65 381 31 _c
350 -3 306 -21 250 -21 _c
250 4 _m
}_e{287 4 315 23 333 61 _c
351 99 362 141 366 187 _c
370 233 373 283 373 335 _c
373 385 370 431 366 473 _c
362 515 351 554 333 588 _c
315 622 287 640 250 640 _c
212 640 184 622 166 588 _c
148 554 136 515 132 473 _c
128 431 126 385 126 335 _c
126 297 126 262 128 230 _c
130 197 135 163 143 128 _c
151 93 163 64 181 40 _c
198 16 221 4 250 4 _c
_cl}_e}_d
end readonly def

/BuildGlyph
 {exch begin
 CharStrings exch
 2 copy known not{pop /.notdef}if
 true 3 1 roll get exec
 end}_d

/BuildChar {
 1 index /Encoding get exch get
 1 index /BuildGlyph get exec
}_d

FontName currentdict end definefont pop
end
%%EndProlog
mpldict begin
-90 180 translate
792 432 0 0 clipbox
gsave
0 0 m
792 0 l
792 432 l
0 432 l
cl
1.000 setgray
fill
grestore
gsave
51.9412 56.1313 m
384.116 56.1313 l
384.116 410.94 l
51.9412 410.94 l
cl
1.000 setgray
fill
grestore
1.000 setlinewidth
1 setlinejoin
0 setlinecap
[] 0 setdash
0.000 setgray
gsave
332.2 354.8 51.94 56.13 clipbox
67.9349 56.1313 m
85.3126 56.1313 l
85.3126 154.689 l
67.9349 154.689 l
cl
gsave
0.000 0.000 1.000 setrgbcolor
fill
grestore
stroke
grestore
gsave
332.2 354.8 51.94 56.13 clipbox
85.3126 56.1313 m
102.69 56.1313 l
102.69 154.689 l
85.3126 154.689 l
cl
gsave
0.000 0.000 1.000 setrgbcolor
fill
grestore
stroke
grestore
gsave
332.2 354.8 51.94 56.13 clipbox
102.69 56.1313 m
120.068 56.1313 l
120.068 154.689 l
102.69 154.689 l
cl
gsave
0.000 0.000 1.000 setrgbcolor
fill
grestore
stroke
grestore
gsave
332.2 354.8 51.94 56.13 clipbox
120.068 56.1313 m
137.446 56.1313 l
137.446 194.112 l
120.068 194.112 l
cl
gsave
0.000 0.000 1.000 setrgbcolor
fill
grestore
stroke
grestore
gsave
332.2 354.8 51.94 56.13 clipbox
137.446 56.1313 m
154.823 56.1313 l
154.823 213.824 l
137.446 213.824 l
cl
gsave
0.000 0.000 1.000 setrgbcolor
fill
grestore
stroke
grestore
gsave
332.2 354.8 51.94 56.13 clipbox
154.823 56.1313 m
172.201 56.1313 l
172.201 253.247 l
154.823 253.247 l
cl
gsave
0.000 0.000 1.000 setrgbcolor
fill
grestore
stroke
grestore
gsave
332.2 354.8 51.94 56.13 clipbox
172.201 56.1313 m
189.579 56.1313 l
189.579 253.247 l
172.201 253.247 l
cl
gsave
0.000 0.000 1.000 setrgbcolor
fill
grestore
stroke
grestore
gsave
332.2 354.8 51.94 56.13 clipbox
189.579 56.1313 m
206.956 56.1313 l
206.956 391.228 l
189.579 391.228 l
cl
gsave
0.000 0.000 1.000 setrgbcolor
fill
grestore
stroke
grestore
gsave
332.2 354.8 51.94 56.13 clipbox
206.956 56.1313 m
224.334 56.1313 l
224.334 174.401 l
206.956 174.401 l
cl
gsave
0.000 0.000 1.000 setrgbcolor
fill
grestore
stroke
grestore
gsave
332.2 354.8 51.94 56.13 clipbox
224.334 56.1313 m
241.712 56.1313 l
241.712 134.978 l
224.334 134.978 l
cl
gsave
0.000 0.000 1.000 setrgbcolor
fill
grestore
stroke
grestore
gsave
332.2 354.8 51.94 56.13 clipbox
241.712 56.1313 m
259.089 56.1313 l
259.089 75.8429 l
241.712 75.8429 l
cl
gsave
0.000 0.000 1.000 setrgbcolor
fill
grestore
stroke
grestore
gsave
332.2 354.8 51.94 56.13 clipbox
259.089 56.1313 m
276.467 56.1313 l
276.467 134.978 l
259.089 134.978 l
cl
gsave
0.000 0.000 1.000 setrgbcolor
fill
grestore
stroke
grestore
gsave
332.2 354.8 51.94 56.13 clipbox
276.467 56.1313 m
293.845 56.1313 l
293.845 154.689 l
276.467 154.689 l
cl
gsave
0.000 0.000 1.000 setrgbcolor
fill
grestore
stroke
grestore
gsave
332.2 354.8 51.94 56.13 clipbox
293.845 56.1313 m
311.222 56.1313 l
311.222 194.112 l
293.845 194.112 l
cl
gsave
0.000 0.000 1.000 setrgbcolor
fill
grestore
stroke
grestore
gsave
332.2 354.8 51.94 56.13 clipbox
311.222 56.1313 m
328.6 56.1313 l
328.6 75.8429 l
311.222 75.8429 l
cl
gsave
0.000 0.000 1.000 setrgbcolor
fill
grestore
stroke
grestore
gsave
332.2 354.8 51.94 56.13 clipbox
328.6 56.1313 m
345.978 56.1313 l
345.978 95.5545 l
328.6 95.5545 l
cl
gsave
0.000 0.000 1.000 setrgbcolor
fill
grestore
stroke
grestore
2.300 setlinewidth
gsave
/o {
gsave
newpath
translate
2.3 setlinewidth
1 setlinejoin
0 setlinecap
0 0 m
0 5.5 l
gsave
0.000 setgray
fill
grestore
stroke
grestore
} bind def
51.9412 56.1313 o
grestore
gsave
/o {
gsave
newpath
translate
2.3 setlinewidth
1 setlinejoin
0 setlinecap
0 0 m
0 -5.5 l
gsave
0.000 setgray
fill
grestore
stroke
grestore
} bind def
51.9412 410.94 o
grestore
/BitstreamVeraSans-Roman findfont
15.000 scalefont
setfont
gsave
35.183437 40.740688 translate
0.000000 rotate
0.000000 0.000000 m /minus glyphshow
12.568359 0.000000 m /two glyphshow
22.111816 0.000000 m /period glyphshow
26.879883 0.000000 m /five glyphshow
grestore
gsave
/o {
gsave
newpath
translate
2.3 setlinewidth
1 setlinejoin
0 setlinecap
0 0 m
0 5.5 l
gsave
0.000 setgray
fill
grestore
stroke
grestore
} bind def
113.455 56.1313 o
grestore
gsave
/o {
gsave
newpath
translate
2.3 setlinewidth
1 setlinejoin
0 setlinecap
0 0 m
0 -5.5 l
gsave
0.000 setgray
fill
grestore
stroke
grestore
} bind def
113.455 410.94 o
grestore
gsave
96.541120 40.740688 translate
0.000000 rotate
0.000000 0.000000 m /minus glyphshow
12.568359 0.000000 m /two glyphshow
22.111816 0.000000 m /period glyphshow
26.879883 0.000000 m /zero glyphshow
grestore
gsave
/o {
gsave
newpath
translate
2.3 setlinewidth
1 setlinejoin
0 setlinecap
0 0 m
0 5.5 l
gsave
0.000 setgray
fill
grestore
stroke
grestore
} bind def
174.969 56.1313 o
grestore
gsave
/o {
gsave
newpath
translate
2.3 setlinewidth
1 setlinejoin
0 setlinecap
0 0 m
0 -5.5 l
gsave
0.000 setgray
fill
grestore
stroke
grestore
} bind def
174.969 410.94 o
grestore
gsave
158.211302 40.740688 translate
0.000000 rotate
0.000000 0.000000 m /minus glyphshow
12.568359 0.000000 m /one glyphshow
22.111816 0.000000 m /period glyphshow
26.879883 0.000000 m /five glyphshow
grestore
gsave
/o {
gsave
newpath
translate
2.3 setlinewidth
1 setlinejoin
0 setlinecap
0 0 m
0 5.5 l
gsave
0.000 setgray
fill
grestore
stroke
grestore
} bind def
236.483 56.1313 o
grestore
gsave
/o {
gsave
newpath
translate
2.3 setlinewidth
1 setlinejoin
0 setlinecap
0 0 m
0 -5.5 l
gsave
0.000 setgray
fill
grestore
stroke
grestore
} bind def
236.483 410.94 o
grestore
gsave
219.568984 40.740688 translate
0.000000 rotate
0.000000 0.000000 m /minus glyphshow
12.568359 0.000000 m /one glyphshow
22.111816 0.000000 m /period glyphshow
26.879883 0.000000 m /zero glyphshow
grestore
gsave
/o {
gsave
newpath
translate
2.3 setlinewidth
1 setlinejoin
0 setlinecap
0 0 m
0 5.5 l
gsave
0.000 setgray
fill
grestore
stroke
grestore
} bind def
297.997 56.1313 o
grestore
gsave
/o {
gsave
newpath
translate
2.3 setlinewidth
1 setlinejoin
0 setlinecap
0 0 m
0 -5.5 l
gsave
0.000 setgray
fill
grestore
stroke
grestore
} bind def
297.997 410.94 o
grestore
gsave
281.239167 40.740688 translate
0.000000 rotate
0.000000 0.000000 m /minus glyphshow
12.568359 0.000000 m /zero glyphshow
22.111816 0.000000 m /period glyphshow
26.879883 0.000000 m /five glyphshow
grestore
gsave
/o {
gsave
newpath
translate
2.3 setlinewidth
1 setlinejoin
0 setlinecap
0 0 m
0 5.5 l
gsave
0.000 setgray
fill
grestore
stroke
grestore
} bind def
359.511 56.1313 o
grestore
gsave
/o {
gsave
newpath
translate
2.3 setlinewidth
1 setlinejoin
0 setlinecap
0 0 m
0 -5.5 l
gsave
0.000 setgray
fill
grestore
stroke
grestore
} bind def
359.511 410.94 o
grestore
gsave
348.573411 40.740688 translate
0.000000 rotate
0.000000 0.000000 m /zero glyphshow
9.543457 0.000000 m /period glyphshow
14.311523 0.000000 m /zero glyphshow
grestore
1.700 setlinewidth
gsave
/o {
gsave
newpath
translate
1.7 setlinewidth
1 setlinejoin
0 setlinecap
0 0 m
0 3.5 l
gsave
0.000 setgray
fill
grestore
stroke
grestore
} bind def
51.9412 56.1313 o
grestore
gsave
/o {
gsave
newpath
translate
1.7 setlinewidth
1 setlinejoin
0 setlinecap
0 0 m
0 -3.5 l
gsave
0.000 setgray
fill
grestore
stroke
grestore
} bind def
51.9412 410.94 o
grestore
gsave
/o {
gsave
newpath
translate
1.7 setlinewidth
1 setlinejoin
0 setlinecap
0 0 m
0 3.5 l
gsave
0.000 setgray
fill
grestore
stroke
grestore
} bind def
64.244 56.1313 o
grestore
gsave
/o {
gsave
newpath
translate
1.7 setlinewidth
1 setlinejoin
0 setlinecap
0 0 m
0 -3.5 l
gsave
0.000 setgray
fill
grestore
stroke
grestore
} bind def
64.244 410.94 o
grestore
gsave
/o {
gsave
newpath
translate
1.7 setlinewidth
1 setlinejoin
0 setlinecap
0 0 m
0 3.5 l
gsave
0.000 setgray
fill
grestore
stroke
grestore
} bind def
76.5468 56.1313 o
grestore
gsave
/o {
gsave
newpath
translate
1.7 setlinewidth
1 setlinejoin
0 setlinecap
0 0 m
0 -3.5 l
gsave
0.000 setgray
fill
grestore
stroke
grestore
} bind def
76.5468 410.94 o
grestore
gsave
/o {
gsave
newpath
translate
1.7 setlinewidth
1 setlinejoin
0 setlinecap
0 0 m
0 3.5 l
gsave
0.000 setgray
fill
grestore
stroke
grestore
} bind def
88.8496 56.1313 o
grestore
gsave
/o {
gsave
newpath
translate
1.7 setlinewidth
1 setlinejoin
0 setlinecap
0 0 m
0 -3.5 l
gsave
0.000 setgray
fill
grestore
stroke
grestore
} bind def
88.8496 410.94 o
grestore
gsave
/o {
gsave
newpath
translate
1.7 setlinewidth
1 setlinejoin
0 setlinecap
0 0 m
0 3.5 l
gsave
0.000 setgray
fill
grestore
stroke
grestore
} bind def
101.152 56.1313 o
grestore
gsave
/o {
gsave
newpath
translate
1.7 setlinewidth
1 setlinejoin
0 setlinecap
0 0 m
0 -3.5 l
gsave
0.000 setgray
fill
grestore
stroke
grestore
} bind def
101.152 410.94 o
grestore
gsave
/o {
gsave
newpath
translate
1.7 setlinewidth
1 setlinejoin
0 setlinecap
0 0 m
0 3.5 l
gsave
0.000 setgray
fill
grestore
stroke
grestore
} bind def
113.455 56.1313 o
grestore
gsave
/o {
gsave
newpath
translate
1.7 setlinewidth
1 setlinejoin
0 setlinecap
0 0 m
0 -3.5 l
gsave
0.000 setgray
fill
grestore
stroke
grestore
} bind def
113.455 410.94 o
grestore
gsave
/o {
gsave
newpath
translate
1.7 setlinewidth
1 setlinejoin
0 setlinecap
0 0 m
0 3.5 l
gsave
0.000 setgray
fill
grestore
stroke
grestore
} bind def
125.758 56.1313 o
grestore
gsave
/o {
gsave
newpath
translate
1.7 setlinewidth
1 setlinejoin
0 setlinecap
0 0 m
0 -3.5 l
gsave
0.000 setgray
fill
grestore
stroke
grestore
} bind def
125.758 410.94 o
grestore
gsave
/o {
gsave
newpath
translate
1.7 setlinewidth
1 setlinejoin
0 setlinecap
0 0 m
0 3.5 l
gsave
0.000 setgray
fill
grestore
stroke
grestore
} bind def
138.061 56.1313 o
grestore
gsave
/o {
gsave
newpath
translate
1.7 setlinewidth
1 setlinejoin
0 setlinecap
0 0 m
0 -3.5 l
gsave
0.000 setgray
fill
grestore
stroke
grestore
} bind def
138.061 410.94 o
grestore
gsave
/o {
gsave
newpath
translate
1.7 setlinewidth
1 setlinejoin
0 setlinecap
0 0 m
0 3.5 l
gsave
0.000 setgray
fill
grestore
stroke
grestore
} bind def
150.364 56.1313 o
grestore
gsave
/o {
gsave
newpath
translate
1.7 setlinewidth
1 setlinejoin
0 setlinecap
0 0 m
0 -3.5 l
gsave
0.000 setgray
fill
grestore
stroke
grestore
} bind def
150.364 410.94 o
grestore
gsave
/o {
gsave
newpath
translate
1.7 setlinewidth
1 setlinejoin
0 setlinecap
0 0 m
0 3.5 l
gsave
0.000 setgray
fill
grestore
stroke
grestore
} bind def
162.666 56.1313 o
grestore
gsave
/o {
gsave
newpath
translate
1.7 setlinewidth
1 setlinejoin
0 setlinecap
0 0 m
0 -3.5 l
gsave
0.000 setgray
fill
grestore
stroke
grestore
} bind def
162.666 410.94 o
grestore
gsave
/o {
gsave
newpath
translate
1.7 setlinewidth
1 setlinejoin
0 setlinecap
0 0 m
0 3.5 l
gsave
0.000 setgray
fill
grestore
stroke
grestore
} bind def
174.969 56.1313 o
grestore
gsave
/o {
gsave
newpath
translate
1.7 setlinewidth
1 setlinejoin
0 setlinecap
0 0 m
0 -3.5 l
gsave
0.000 setgray
fill
grestore
stroke
grestore
} bind def
174.969 410.94 o
grestore
gsave
/o {
gsave
newpath
translate
1.7 setlinewidth
1 setlinejoin
0 setlinecap
0 0 m
0 3.5 l
gsave
0.000 setgray
fill
grestore
stroke
grestore
} bind def
187.272 56.1313 o
grestore
gsave
/o {
gsave
newpath
translate
1.7 setlinewidth
1 setlinejoin
0 setlinecap
0 0 m
0 -3.5 l
gsave
0.000 setgray
fill
grestore
stroke
grestore
} bind def
187.272 410.94 o
grestore
gsave
/o {
gsave
newpath
translate
1.7 setlinewidth
1 setlinejoin
0 setlinecap
0 0 m
0 3.5 l
gsave
0.000 setgray
fill
grestore
stroke
grestore
} bind def
199.575 56.1313 o
grestore
gsave
/o {
gsave
newpath
translate
1.7 setlinewidth
1 setlinejoin
0 setlinecap
0 0 m
0 -3.5 l
gsave
0.000 setgray
fill
grestore
stroke
grestore
} bind def
199.575 410.94 o
grestore
gsave
/o {
gsave
newpath
translate
1.7 setlinewidth
1 setlinejoin
0 setlinecap
0 0 m
0 3.5 l
gsave
0.000 setgray
fill
grestore
stroke
grestore
} bind def
211.877 56.1313 o
grestore
gsave
/o {
gsave
newpath
translate
1.7 setlinewidth
1 setlinejoin
0 setlinecap
0 0 m
0 -3.5 l
gsave
0.000 setgray
fill
grestore
stroke
grestore
} bind def
211.877 410.94 o
grestore
gsave
/o {
gsave
newpath
translate
1.7 setlinewidth
1 setlinejoin
0 setlinecap
0 0 m
0 3.5 l
gsave
0.000 setgray
fill
grestore
stroke
grestore
} bind def
224.18 56.1313 o
grestore
gsave
/o {
gsave
newpath
translate
1.7 setlinewidth
1 setlinejoin
0 setlinecap
0 0 m
0 -3.5 l
gsave
0.000 setgray
fill
grestore
stroke
grestore
} bind def
224.18 410.94 o
grestore
gsave
/o {
gsave
newpath
translate
1.7 setlinewidth
1 setlinejoin
0 setlinecap
0 0 m
0 3.5 l
gsave
0.000 setgray
fill
grestore
stroke
grestore
} bind def
236.483 56.1313 o
grestore
gsave
/o {
gsave
newpath
translate
1.7 setlinewidth
1 setlinejoin
0 setlinecap
0 0 m
0 -3.5 l
gsave
0.000 setgray
fill
grestore
stroke
grestore
} bind def
236.483 410.94 o
grestore
gsave
/o {
gsave
newpath
translate
1.7 setlinewidth
1 setlinejoin
0 setlinecap
0 0 m
0 3.5 l
gsave
0.000 setgray
fill
grestore
stroke
grestore
} bind def
248.786 56.1313 o
grestore
gsave
/o {
gsave
newpath
translate
1.7 setlinewidth
1 setlinejoin
0 setlinecap
0 0 m
0 -3.5 l
gsave
0.000 setgray
fill
grestore
stroke
grestore
} bind def
248.786 410.94 o
grestore
gsave
/o {
gsave
newpath
translate
1.7 setlinewidth
1 setlinejoin
0 setlinecap
0 0 m
0 3.5 l
gsave
0.000 setgray
fill
grestore
stroke
grestore
} bind def
261.089 56.1313 o
grestore
gsave
/o {
gsave
newpath
translate
1.7 setlinewidth
1 setlinejoin
0 setlinecap
0 0 m
0 -3.5 l
gsave
0.000 setgray
fill
grestore
stroke
grestore
} bind def
261.089 410.94 o
grestore
gsave
/o {
gsave
newpath
translate
1.7 setlinewidth
1 setlinejoin
0 setlinecap
0 0 m
0 3.5 l
gsave
0.000 setgray
fill
grestore
stroke
grestore
} bind def
273.391 56.1313 o
grestore
gsave
/o {
gsave
newpath
translate
1.7 setlinewidth
1 setlinejoin
0 setlinecap
0 0 m
0 -3.5 l
gsave
0.000 setgray
fill
grestore
stroke
grestore
} bind def
273.391 410.94 o
grestore
gsave
/o {
gsave
newpath
translate
1.7 setlinewidth
1 setlinejoin
0 setlinecap
0 0 m
0 3.5 l
gsave
0.000 setgray
fill
grestore
stroke
grestore
} bind def
285.694 56.1313 o
grestore
gsave
/o {
gsave
newpath
translate
1.7 setlinewidth
1 setlinejoin
0 setlinecap
0 0 m
0 -3.5 l
gsave
0.000 setgray
fill
grestore
stroke
grestore
} bind def
285.694 410.94 o
grestore
gsave
/o {
gsave
newpath
translate
1.7 setlinewidth
1 setlinejoin
0 setlinecap
0 0 m
0 3.5 l
gsave
0.000 setgray
fill
grestore
stroke
grestore
} bind def
297.997 56.1313 o
grestore
gsave
/o {
gsave
newpath
translate
1.7 setlinewidth
1 setlinejoin
0 setlinecap
0 0 m
0 -3.5 l
gsave
0.000 setgray
fill
grestore
stroke
grestore
} bind def
297.997 410.94 o
grestore
gsave
/o {
gsave
newpath
translate
1.7 setlinewidth
1 setlinejoin
0 setlinecap
0 0 m
0 3.5 l
gsave
0.000 setgray
fill
grestore
stroke
grestore
} bind def
310.3 56.1313 o
grestore
gsave
/o {
gsave
newpath
translate
1.7 setlinewidth
1 setlinejoin
0 setlinecap
0 0 m
0 -3.5 l
gsave
0.000 setgray
fill
grestore
stroke
grestore
} bind def
310.3 410.94 o
grestore
gsave
/o {
gsave
newpath
translate
1.7 setlinewidth
1 setlinejoin
0 setlinecap
0 0 m
0 3.5 l
gsave
0.000 setgray
fill
grestore
stroke
grestore
} bind def
322.603 56.1313 o
grestore
gsave
/o {
gsave
newpath
translate
1.7 setlinewidth
1 setlinejoin
0 setlinecap
0 0 m
0 -3.5 l
gsave
0.000 setgray
fill
grestore
stroke
grestore
} bind def
322.603 410.94 o
grestore
gsave
/o {
gsave
newpath
translate
1.7 setlinewidth
1 setlinejoin
0 setlinecap
0 0 m
0 3.5 l
gsave
0.000 setgray
fill
grestore
stroke
grestore
} bind def
334.905 56.1313 o
grestore
gsave
/o {
gsave
newpath
translate
1.7 setlinewidth
1 setlinejoin
0 setlinecap
0 0 m
0 -3.5 l
gsave
0.000 setgray
fill
grestore
stroke
grestore
} bind def
334.905 410.94 o
grestore
gsave
/o {
gsave
newpath
translate
1.7 setlinewidth
1 setlinejoin
0 setlinecap
0 0 m
0 3.5 l
gsave
0.000 setgray
fill
grestore
stroke
grestore
} bind def
347.208 56.1313 o
grestore
gsave
/o {
gsave
newpath
translate
1.7 setlinewidth
1 setlinejoin
0 setlinecap
0 0 m
0 -3.5 l
gsave
0.000 setgray
fill
grestore
stroke
grestore
} bind def
347.208 410.94 o
grestore
gsave
/o {
gsave
newpath
translate
1.7 setlinewidth
1 setlinejoin
0 setlinecap
0 0 m
0 3.5 l
gsave
0.000 setgray
fill
grestore
stroke
grestore
} bind def
359.511 56.1313 o
grestore
gsave
/o {
gsave
newpath
translate
1.7 setlinewidth
1 setlinejoin
0 setlinecap
0 0 m
0 -3.5 l
gsave
0.000 setgray
fill
grestore
stroke
grestore
} bind def
359.511 410.94 o
grestore
gsave
/o {
gsave
newpath
translate
1.7 setlinewidth
1 setlinejoin
0 setlinecap
0 0 m
0 3.5 l
gsave
0.000 setgray
fill
grestore
stroke
grestore
} bind def
371.814 56.1313 o
grestore
gsave
/o {
gsave
newpath
translate
1.7 setlinewidth
1 setlinejoin
0 setlinecap
0 0 m
0 -3.5 l
gsave
0.000 setgray
fill
grestore
stroke
grestore
} bind def
371.814 410.94 o
grestore
/BitstreamVeraSans-Roman findfont
14.000 scalefont
setfont
gsave
157.239805 21.975063 translate
0.000000 rotate
0.000000 0.000000 m /space glyphshow
4.450195 0.000000 m /M glyphshow
16.529297 0.000000 m /e glyphshow
25.142578 0.000000 m /t glyphshow
30.631836 0.000000 m /a glyphshow
39.210938 0.000000 m /l glyphshow
43.100586 0.000000 m /l glyphshow
46.990234 0.000000 m /i glyphshow
50.879883 0.000000 m /c glyphshow
58.577148 0.000000 m /i glyphshow
62.466797 0.000000 m /t glyphshow
67.956055 0.000000 m /y glyphshow
76.241211 0.000000 m /space glyphshow
80.691406 0.000000 m /bracketleft glyphshow
86.153320 0.000000 m /F glyphshow
93.456055 0.000000 m /e glyphshow
102.069336 0.000000 m /slash glyphshow
106.786133 0.000000 m /H glyphshow
117.313477 0.000000 m /bracketright glyphshow
grestore
2.300 setlinewidth
gsave
/o {
gsave
newpath
translate
2.3 setlinewidth
1 setlinejoin
0 setlinecap
0 0 m
5.5 0 l
gsave
0.000 setgray
fill
grestore
stroke
grestore
} bind def
51.9412 56.1313 o
grestore
gsave
/o {
gsave
newpath
translate
2.3 setlinewidth
1 setlinejoin
0 setlinecap
0 0 m
-5.5 0 l
gsave
0.000 setgray
fill
grestore
stroke
grestore
} bind def
384.116 56.1313 o
grestore
/BitstreamVeraSans-Roman findfont
15.000 scalefont
setfont
gsave
40.378750 51.998500 translate
0.000000 rotate
0.000000 0.000000 m /zero glyphshow
grestore
gsave
/o {
gsave
newpath
translate
2.3 setlinewidth
1 setlinejoin
0 setlinecap
0 0 m
5.5 0 l
gsave
0.000 setgray
fill
grestore
stroke
grestore
} bind def
51.9412 95.5545 o
grestore
gsave
/o {
gsave
newpath
translate
2.3 setlinewidth
1 setlinejoin
0 setlinecap
0 0 m
-5.5 0 l
gsave
0.000 setgray
fill
grestore
stroke
grestore
} bind def
384.116 95.5545 o
grestore
gsave
40.988125 91.421688 translate
0.000000 rotate
0.000000 0.000000 m /two glyphshow
grestore
gsave
/o {
gsave
newpath
translate
2.3 setlinewidth
1 setlinejoin
0 setlinecap
0 0 m
5.5 0 l
gsave
0.000 setgray
fill
grestore
stroke
grestore
} bind def
51.9412 134.978 o
grestore
gsave
/o {
gsave
newpath
translate
2.3 setlinewidth
1 setlinejoin
0 setlinecap
0 0 m
-5.5 0 l
gsave
0.000 setgray
fill
grestore
stroke
grestore
} bind def
384.116 134.978 o
grestore
gsave
39.972500 130.844875 translate
0.000000 rotate
0.000000 0.000000 m /four glyphshow
grestore
gsave
/o {
gsave
newpath
translate
2.3 setlinewidth
1 setlinejoin
0 setlinecap
0 0 m
5.5 0 l
gsave
0.000 setgray
fill
grestore
stroke
grestore
} bind def
51.9412 174.401 o
grestore
gsave
/o {
gsave
newpath
translate
2.3 setlinewidth
1 setlinejoin
0 setlinecap
0 0 m
-5.5 0 l
gsave
0.000 setgray
fill
grestore
stroke
grestore
} bind def
384.116 174.401 o
grestore
gsave
40.394375 170.268062 translate
0.000000 rotate
0.000000 0.000000 m /six glyphshow
grestore
gsave
/o {
gsave
newpath
translate
2.3 setlinewidth
1 setlinejoin
0 setlinecap
0 0 m
5.5 0 l
gsave
0.000 setgray
fill
grestore
stroke
grestore
} bind def
51.9412 213.824 o
grestore
gsave
/o {
gsave
newpath
translate
2.3 setlinewidth
1 setlinejoin
0 setlinecap
0 0 m
-5.5 0 l
gsave
0.000 setgray
fill
grestore
stroke
grestore
} bind def
384.116 213.824 o
grestore
gsave
40.441250 209.691250 translate
0.000000 rotate
0.000000 0.000000 m /eight glyphshow
grestore
gsave
/o {
gsave
newpath
translate
2.3 setlinewidth
1 setlinejoin
0 setlinecap
0 0 m
5.5 0 l
gsave
0.000 setgray
fill
grestore
stroke
grestore
} bind def
51.9412 253.247 o
grestore
gsave
/o {
gsave
newpath
translate
2.3 setlinewidth
1 setlinejoin
0 setlinecap
0 0 m
-5.5 0 l
gsave
0.000 setgray
fill
grestore
stroke
grestore
} bind def
384.116 253.247 o
grestore
gsave
31.503750 249.114437 translate
0.000000 rotate
0.000000 0.000000 m /one glyphshow
9.543457 0.000000 m /zero glyphshow
grestore
gsave
/o {
gsave
newpath
translate
2.3 setlinewidth
1 setlinejoin
0 setlinecap
0 0 m
5.5 0 l
gsave
0.000 setgray
fill
grestore
stroke
grestore
} bind def
51.9412 292.67 o
grestore
gsave
/o {
gsave
newpath
translate
2.3 setlinewidth
1 setlinejoin
0 setlinecap
0 0 m
-5.5 0 l
gsave
0.000 setgray
fill
grestore
stroke
grestore
} bind def
384.116 292.67 o
grestore
gsave
32.003750 288.537625 translate
0.000000 rotate
0.000000 0.000000 m /one glyphshow
9.543457 0.000000 m /two glyphshow
grestore
gsave
/o {
gsave
newpath
translate
2.3 setlinewidth
1 setlinejoin
0 setlinecap
0 0 m
5.5 0 l
gsave
0.000 setgray
fill
grestore
stroke
grestore
} bind def
51.9412 332.094 o
grestore
gsave
/o {
gsave
newpath
translate
2.3 setlinewidth
1 setlinejoin
0 setlinecap
0 0 m
-5.5 0 l
gsave
0.000 setgray
fill
grestore
stroke
grestore
} bind def
384.116 332.094 o
grestore
gsave
31.347500 327.960812 translate
0.000000 rotate
0.000000 0.000000 m /one glyphshow
9.543457 0.000000 m /four glyphshow
grestore
gsave
/o {
gsave
newpath
translate
2.3 setlinewidth
1 setlinejoin
0 setlinecap
0 0 m
5.5 0 l
gsave
0.000 setgray
fill
grestore
stroke
grestore
} bind def
51.9412 371.517 o
grestore
gsave
/o {
gsave
newpath
translate
2.3 setlinewidth
1 setlinejoin
0 setlinecap
0 0 m
-5.5 0 l
gsave
0.000 setgray
fill
grestore
stroke
grestore
} bind def
384.116 371.517 o
grestore
gsave
31.456875 367.384000 translate
0.000000 rotate
0.000000 0.000000 m /one glyphshow
9.543457 0.000000 m /six glyphshow
grestore
gsave
/o {
gsave
newpath
translate
2.3 setlinewidth
1 setlinejoin
0 setlinecap
0 0 m
5.5 0 l
gsave
0.000 setgray
fill
grestore
stroke
grestore
} bind def
51.9412 410.94 o
grestore
gsave
/o {
gsave
newpath
translate
2.3 setlinewidth
1 setlinejoin
0 setlinecap
0 0 m
-5.5 0 l
gsave
0.000 setgray
fill
grestore
stroke
grestore
} bind def
384.116 410.94 o
grestore
gsave
31.535000 406.807187 translate
0.000000 rotate
0.000000 0.000000 m /one glyphshow
9.543457 0.000000 m /eight glyphshow
grestore
1.700 setlinewidth
gsave
/o {
gsave
newpath
translate
1.7 setlinewidth
1 setlinejoin
0 setlinecap
0 0 m
3.5 0 l
gsave
0.000 setgray
fill
grestore
stroke
grestore
} bind def
51.9412 56.1313 o
grestore
gsave
/o {
gsave
newpath
translate
1.7 setlinewidth
1 setlinejoin
0 setlinecap
0 0 m
-3.5 0 l
gsave
0.000 setgray
fill
grestore
stroke
grestore
} bind def
384.116 56.1313 o
grestore
gsave
/o {
gsave
newpath
translate
1.7 setlinewidth
1 setlinejoin
0 setlinecap
0 0 m
3.5 0 l
gsave
0.000 setgray
fill
grestore
stroke
grestore
} bind def
51.9412 64.016 o
grestore
gsave
/o {
gsave
newpath
translate
1.7 setlinewidth
1 setlinejoin
0 setlinecap
0 0 m
-3.5 0 l
gsave
0.000 setgray
fill
grestore
stroke
grestore
} bind def
384.116 64.016 o
grestore
gsave
/o {
gsave
newpath
translate
1.7 setlinewidth
1 setlinejoin
0 setlinecap
0 0 m
3.5 0 l
gsave
0.000 setgray
fill
grestore
stroke
grestore
} bind def
51.9412 71.9006 o
grestore
gsave
/o {
gsave
newpath
translate
1.7 setlinewidth
1 setlinejoin
0 setlinecap
0 0 m
-3.5 0 l
gsave
0.000 setgray
fill
grestore
stroke
grestore
} bind def
384.116 71.9006 o
grestore
gsave
/o {
gsave
newpath
translate
1.7 setlinewidth
1 setlinejoin
0 setlinecap
0 0 m
3.5 0 l
gsave
0.000 setgray
fill
grestore
stroke
grestore
} bind def
51.9412 79.7852 o
grestore
gsave
/o {
gsave
newpath
translate
1.7 setlinewidth
1 setlinejoin
0 setlinecap
0 0 m
-3.5 0 l
gsave
0.000 setgray
fill
grestore
stroke
grestore
} bind def
384.116 79.7852 o
grestore
gsave
/o {
gsave
newpath
translate
1.7 setlinewidth
1 setlinejoin
0 setlinecap
0 0 m
3.5 0 l
gsave
0.000 setgray
fill
grestore
stroke
grestore
} bind def
51.9412 87.6699 o
grestore
gsave
/o {
gsave
newpath
translate
1.7 setlinewidth
1 setlinejoin
0 setlinecap
0 0 m
-3.5 0 l
gsave
0.000 setgray
fill
grestore
stroke
grestore
} bind def
384.116 87.6699 o
grestore
gsave
/o {
gsave
newpath
translate
1.7 setlinewidth
1 setlinejoin
0 setlinecap
0 0 m
3.5 0 l
gsave
0.000 setgray
fill
grestore
stroke
grestore
} bind def
51.9412 95.5545 o
grestore
gsave
/o {
gsave
newpath
translate
1.7 setlinewidth
1 setlinejoin
0 setlinecap
0 0 m
-3.5 0 l
gsave
0.000 setgray
fill
grestore
stroke
grestore
} bind def
384.116 95.5545 o
grestore
gsave
/o {
gsave
newpath
translate
1.7 setlinewidth
1 setlinejoin
0 setlinecap
0 0 m
3.5 0 l
gsave
0.000 setgray
fill
grestore
stroke
grestore
} bind def
51.9412 103.439 o
grestore
gsave
/o {
gsave
newpath
translate
1.7 setlinewidth
1 setlinejoin
0 setlinecap
0 0 m
-3.5 0 l
gsave
0.000 setgray
fill
grestore
stroke
grestore
} bind def
384.116 103.439 o
grestore
gsave
/o {
gsave
newpath
translate
1.7 setlinewidth
1 setlinejoin
0 setlinecap
0 0 m
3.5 0 l
gsave
0.000 setgray
fill
grestore
stroke
grestore
} bind def
51.9412 111.324 o
grestore
gsave
/o {
gsave
newpath
translate
1.7 setlinewidth
1 setlinejoin
0 setlinecap
0 0 m
-3.5 0 l
gsave
0.000 setgray
fill
grestore
stroke
grestore
} bind def
384.116 111.324 o
grestore
gsave
/o {
gsave
newpath
translate
1.7 setlinewidth
1 setlinejoin
0 setlinecap
0 0 m
3.5 0 l
gsave
0.000 setgray
fill
grestore
stroke
grestore
} bind def
51.9412 119.208 o
grestore
gsave
/o {
gsave
newpath
translate
1.7 setlinewidth
1 setlinejoin
0 setlinecap
0 0 m
-3.5 0 l
gsave
0.000 setgray
fill
grestore
stroke
grestore
} bind def
384.116 119.208 o
grestore
gsave
/o {
gsave
newpath
translate
1.7 setlinewidth
1 setlinejoin
0 setlinecap
0 0 m
3.5 0 l
gsave
0.000 setgray
fill
grestore
stroke
grestore
} bind def
51.9412 127.093 o
grestore
gsave
/o {
gsave
newpath
translate
1.7 setlinewidth
1 setlinejoin
0 setlinecap
0 0 m
-3.5 0 l
gsave
0.000 setgray
fill
grestore
stroke
grestore
} bind def
384.116 127.093 o
grestore
gsave
/o {
gsave
newpath
translate
1.7 setlinewidth
1 setlinejoin
0 setlinecap
0 0 m
3.5 0 l
gsave
0.000 setgray
fill
grestore
stroke
grestore
} bind def
51.9412 134.978 o
grestore
gsave
/o {
gsave
newpath
translate
1.7 setlinewidth
1 setlinejoin
0 setlinecap
0 0 m
-3.5 0 l
gsave
0.000 setgray
fill
grestore
stroke
grestore
} bind def
384.116 134.978 o
grestore
gsave
/o {
gsave
newpath
translate
1.7 setlinewidth
1 setlinejoin
0 setlinecap
0 0 m
3.5 0 l
gsave
0.000 setgray
fill
grestore
stroke
grestore
} bind def
51.9412 142.862 o
grestore
gsave
/o {
gsave
newpath
translate
1.7 setlinewidth
1 setlinejoin
0 setlinecap
0 0 m
-3.5 0 l
gsave
0.000 setgray
fill
grestore
stroke
grestore
} bind def
384.116 142.862 o
grestore
gsave
/o {
gsave
newpath
translate
1.7 setlinewidth
1 setlinejoin
0 setlinecap
0 0 m
3.5 0 l
gsave
0.000 setgray
fill
grestore
stroke
grestore
} bind def
51.9412 150.747 o
grestore
gsave
/o {
gsave
newpath
translate
1.7 setlinewidth
1 setlinejoin
0 setlinecap
0 0 m
-3.5 0 l
gsave
0.000 setgray
fill
grestore
stroke
grestore
} bind def
384.116 150.747 o
grestore
gsave
/o {
gsave
newpath
translate
1.7 setlinewidth
1 setlinejoin
0 setlinecap
0 0 m
3.5 0 l
gsave
0.000 setgray
fill
grestore
stroke
grestore
} bind def
51.9412 158.632 o
grestore
gsave
/o {
gsave
newpath
translate
1.7 setlinewidth
1 setlinejoin
0 setlinecap
0 0 m
-3.5 0 l
gsave
0.000 setgray
fill
grestore
stroke
grestore
} bind def
384.116 158.632 o
grestore
gsave
/o {
gsave
newpath
translate
1.7 setlinewidth
1 setlinejoin
0 setlinecap
0 0 m
3.5 0 l
gsave
0.000 setgray
fill
grestore
stroke
grestore
} bind def
51.9412 166.516 o
grestore
gsave
/o {
gsave
newpath
translate
1.7 setlinewidth
1 setlinejoin
0 setlinecap
0 0 m
-3.5 0 l
gsave
0.000 setgray
fill
grestore
stroke
grestore
} bind def
384.116 166.516 o
grestore
gsave
/o {
gsave
newpath
translate
1.7 setlinewidth
1 setlinejoin
0 setlinecap
0 0 m
3.5 0 l
gsave
0.000 setgray
fill
grestore
stroke
grestore
} bind def
51.9412 174.401 o
grestore
gsave
/o {
gsave
newpath
translate
1.7 setlinewidth
1 setlinejoin
0 setlinecap
0 0 m
-3.5 0 l
gsave
0.000 setgray
fill
grestore
stroke
grestore
} bind def
384.116 174.401 o
grestore
gsave
/o {
gsave
newpath
translate
1.7 setlinewidth
1 setlinejoin
0 setlinecap
0 0 m
3.5 0 l
gsave
0.000 setgray
fill
grestore
stroke
grestore
} bind def
51.9412 182.286 o
grestore
gsave
/o {
gsave
newpath
translate
1.7 setlinewidth
1 setlinejoin
0 setlinecap
0 0 m
-3.5 0 l
gsave
0.000 setgray
fill
grestore
stroke
grestore
} bind def
384.116 182.286 o
grestore
gsave
/o {
gsave
newpath
translate
1.7 setlinewidth
1 setlinejoin
0 setlinecap
0 0 m
3.5 0 l
gsave
0.000 setgray
fill
grestore
stroke
grestore
} bind def
51.9412 190.17 o
grestore
gsave
/o {
gsave
newpath
translate
1.7 setlinewidth
1 setlinejoin
0 setlinecap
0 0 m
-3.5 0 l
gsave
0.000 setgray
fill
grestore
stroke
grestore
} bind def
384.116 190.17 o
grestore
gsave
/o {
gsave
newpath
translate
1.7 setlinewidth
1 setlinejoin
0 setlinecap
0 0 m
3.5 0 l
gsave
0.000 setgray
fill
grestore
stroke
grestore
} bind def
51.9412 198.055 o
grestore
gsave
/o {
gsave
newpath
translate
1.7 setlinewidth
1 setlinejoin
0 setlinecap
0 0 m
-3.5 0 l
gsave
0.000 setgray
fill
grestore
stroke
grestore
} bind def
384.116 198.055 o
grestore
gsave
/o {
gsave
newpath
translate
1.7 setlinewidth
1 setlinejoin
0 setlinecap
0 0 m
3.5 0 l
gsave
0.000 setgray
fill
grestore
stroke
grestore
} bind def
51.9412 205.939 o
grestore
gsave
/o {
gsave
newpath
translate
1.7 setlinewidth
1 setlinejoin
0 setlinecap
0 0 m
-3.5 0 l
gsave
0.000 setgray
fill
grestore
stroke
grestore
} bind def
384.116 205.939 o
grestore
gsave
/o {
gsave
newpath
translate
1.7 setlinewidth
1 setlinejoin
0 setlinecap
0 0 m
3.5 0 l
gsave
0.000 setgray
fill
grestore
stroke
grestore
} bind def
51.9412 213.824 o
grestore
gsave
/o {
gsave
newpath
translate
1.7 setlinewidth
1 setlinejoin
0 setlinecap
0 0 m
-3.5 0 l
gsave
0.000 setgray
fill
grestore
stroke
grestore
} bind def
384.116 213.824 o
grestore
gsave
/o {
gsave
newpath
translate
1.7 setlinewidth
1 setlinejoin
0 setlinecap
0 0 m
3.5 0 l
gsave
0.000 setgray
fill
grestore
stroke
grestore
} bind def
51.9412 221.709 o
grestore
gsave
/o {
gsave
newpath
translate
1.7 setlinewidth
1 setlinejoin
0 setlinecap
0 0 m
-3.5 0 l
gsave
0.000 setgray
fill
grestore
stroke
grestore
} bind def
384.116 221.709 o
grestore
gsave
/o {
gsave
newpath
translate
1.7 setlinewidth
1 setlinejoin
0 setlinecap
0 0 m
3.5 0 l
gsave
0.000 setgray
fill
grestore
stroke
grestore
} bind def
51.9412 229.593 o
grestore
gsave
/o {
gsave
newpath
translate
1.7 setlinewidth
1 setlinejoin
0 setlinecap
0 0 m
-3.5 0 l
gsave
0.000 setgray
fill
grestore
stroke
grestore
} bind def
384.116 229.593 o
grestore
gsave
/o {
gsave
newpath
translate
1.7 setlinewidth
1 setlinejoin
0 setlinecap
0 0 m
3.5 0 l
gsave
0.000 setgray
fill
grestore
stroke
grestore
} bind def
51.9412 237.478 o
grestore
gsave
/o {
gsave
newpath
translate
1.7 setlinewidth
1 setlinejoin
0 setlinecap
0 0 m
-3.5 0 l
gsave
0.000 setgray
fill
grestore
stroke
grestore
} bind def
384.116 237.478 o
grestore
gsave
/o {
gsave
newpath
translate
1.7 setlinewidth
1 setlinejoin
0 setlinecap
0 0 m
3.5 0 l
gsave
0.000 setgray
fill
grestore
stroke
grestore
} bind def
51.9412 245.363 o
grestore
gsave
/o {
gsave
newpath
translate
1.7 setlinewidth
1 setlinejoin
0 setlinecap
0 0 m
-3.5 0 l
gsave
0.000 setgray
fill
grestore
stroke
grestore
} bind def
384.116 245.363 o
grestore
gsave
/o {
gsave
newpath
translate
1.7 setlinewidth
1 setlinejoin
0 setlinecap
0 0 m
3.5 0 l
gsave
0.000 setgray
fill
grestore
stroke
grestore
} bind def
51.9412 253.247 o
grestore
gsave
/o {
gsave
newpath
translate
1.7 setlinewidth
1 setlinejoin
0 setlinecap
0 0 m
-3.5 0 l
gsave
0.000 setgray
fill
grestore
stroke
grestore
} bind def
384.116 253.247 o
grestore
gsave
/o {
gsave
newpath
translate
1.7 setlinewidth
1 setlinejoin
0 setlinecap
0 0 m
3.5 0 l
gsave
0.000 setgray
fill
grestore
stroke
grestore
} bind def
51.9412 261.132 o
grestore
gsave
/o {
gsave
newpath
translate
1.7 setlinewidth
1 setlinejoin
0 setlinecap
0 0 m
-3.5 0 l
gsave
0.000 setgray
fill
grestore
stroke
grestore
} bind def
384.116 261.132 o
grestore
gsave
/o {
gsave
newpath
translate
1.7 setlinewidth
1 setlinejoin
0 setlinecap
0 0 m
3.5 0 l
gsave
0.000 setgray
fill
grestore
stroke
grestore
} bind def
51.9412 269.017 o
grestore
gsave
/o {
gsave
newpath
translate
1.7 setlinewidth
1 setlinejoin
0 setlinecap
0 0 m
-3.5 0 l
gsave
0.000 setgray
fill
grestore
stroke
grestore
} bind def
384.116 269.017 o
grestore
gsave
/o {
gsave
newpath
translate
1.7 setlinewidth
1 setlinejoin
0 setlinecap
0 0 m
3.5 0 l
gsave
0.000 setgray
fill
grestore
stroke
grestore
} bind def
51.9412 276.901 o
grestore
gsave
/o {
gsave
newpath
translate
1.7 setlinewidth
1 setlinejoin
0 setlinecap
0 0 m
-3.5 0 l
gsave
0.000 setgray
fill
grestore
stroke
grestore
} bind def
384.116 276.901 o
grestore
gsave
/o {
gsave
newpath
translate
1.7 setlinewidth
1 setlinejoin
0 setlinecap
0 0 m
3.5 0 l
gsave
0.000 setgray
fill
grestore
stroke
grestore
} bind def
51.9412 284.786 o
grestore
gsave
/o {
gsave
newpath
translate
1.7 setlinewidth
1 setlinejoin
0 setlinecap
0 0 m
-3.5 0 l
gsave
0.000 setgray
fill
grestore
stroke
grestore
} bind def
384.116 284.786 o
grestore
gsave
/o {
gsave
newpath
translate
1.7 setlinewidth
1 setlinejoin
0 setlinecap
0 0 m
3.5 0 l
gsave
0.000 setgray
fill
grestore
stroke
grestore
} bind def
51.9412 292.67 o
grestore
gsave
/o {
gsave
newpath
translate
1.7 setlinewidth
1 setlinejoin
0 setlinecap
0 0 m
-3.5 0 l
gsave
0.000 setgray
fill
grestore
stroke
grestore
} bind def
384.116 292.67 o
grestore
gsave
/o {
gsave
newpath
translate
1.7 setlinewidth
1 setlinejoin
0 setlinecap
0 0 m
3.5 0 l
gsave
0.000 setgray
fill
grestore
stroke
grestore
} bind def
51.9412 300.555 o
grestore
gsave
/o {
gsave
newpath
translate
1.7 setlinewidth
1 setlinejoin
0 setlinecap
0 0 m
-3.5 0 l
gsave
0.000 setgray
fill
grestore
stroke
grestore
} bind def
384.116 300.555 o
grestore
gsave
/o {
gsave
newpath
translate
1.7 setlinewidth
1 setlinejoin
0 setlinecap
0 0 m
3.5 0 l
gsave
0.000 setgray
fill
grestore
stroke
grestore
} bind def
51.9412 308.44 o
grestore
gsave
/o {
gsave
newpath
translate
1.7 setlinewidth
1 setlinejoin
0 setlinecap
0 0 m
-3.5 0 l
gsave
0.000 setgray
fill
grestore
stroke
grestore
} bind def
384.116 308.44 o
grestore
gsave
/o {
gsave
newpath
translate
1.7 setlinewidth
1 setlinejoin
0 setlinecap
0 0 m
3.5 0 l
gsave
0.000 setgray
fill
grestore
stroke
grestore
} bind def
51.9412 316.324 o
grestore
gsave
/o {
gsave
newpath
translate
1.7 setlinewidth
1 setlinejoin
0 setlinecap
0 0 m
-3.5 0 l
gsave
0.000 setgray
fill
grestore
stroke
grestore
} bind def
384.116 316.324 o
grestore
gsave
/o {
gsave
newpath
translate
1.7 setlinewidth
1 setlinejoin
0 setlinecap
0 0 m
3.5 0 l
gsave
0.000 setgray
fill
grestore
stroke
grestore
} bind def
51.9412 324.209 o
grestore
gsave
/o {
gsave
newpath
translate
1.7 setlinewidth
1 setlinejoin
0 setlinecap
0 0 m
-3.5 0 l
gsave
0.000 setgray
fill
grestore
stroke
grestore
} bind def
384.116 324.209 o
grestore
gsave
/o {
gsave
newpath
translate
1.7 setlinewidth
1 setlinejoin
0 setlinecap
0 0 m
3.5 0 l
gsave
0.000 setgray
fill
grestore
stroke
grestore
} bind def
51.9412 332.094 o
grestore
gsave
/o {
gsave
newpath
translate
1.7 setlinewidth
1 setlinejoin
0 setlinecap
0 0 m
-3.5 0 l
gsave
0.000 setgray
fill
grestore
stroke
grestore
} bind def
384.116 332.094 o
grestore
gsave
/o {
gsave
newpath
translate
1.7 setlinewidth
1 setlinejoin
0 setlinecap
0 0 m
3.5 0 l
gsave
0.000 setgray
fill
grestore
stroke
grestore
} bind def
51.9412 339.978 o
grestore
gsave
/o {
gsave
newpath
translate
1.7 setlinewidth
1 setlinejoin
0 setlinecap
0 0 m
-3.5 0 l
gsave
0.000 setgray
fill
grestore
stroke
grestore
} bind def
384.116 339.978 o
grestore
gsave
/o {
gsave
newpath
translate
1.7 setlinewidth
1 setlinejoin
0 setlinecap
0 0 m
3.5 0 l
gsave
0.000 setgray
fill
grestore
stroke
grestore
} bind def
51.9412 347.863 o
grestore
gsave
/o {
gsave
newpath
translate
1.7 setlinewidth
1 setlinejoin
0 setlinecap
0 0 m
-3.5 0 l
gsave
0.000 setgray
fill
grestore
stroke
grestore
} bind def
384.116 347.863 o
grestore
gsave
/o {
gsave
newpath
translate
1.7 setlinewidth
1 setlinejoin
0 setlinecap
0 0 m
3.5 0 l
gsave
0.000 setgray
fill
grestore
stroke
grestore
} bind def
51.9412 355.748 o
grestore
gsave
/o {
gsave
newpath
translate
1.7 setlinewidth
1 setlinejoin
0 setlinecap
0 0 m
-3.5 0 l
gsave
0.000 setgray
fill
grestore
stroke
grestore
} bind def
384.116 355.748 o
grestore
gsave
/o {
gsave
newpath
translate
1.7 setlinewidth
1 setlinejoin
0 setlinecap
0 0 m
3.5 0 l
gsave
0.000 setgray
fill
grestore
stroke
grestore
} bind def
51.9412 363.632 o
grestore
gsave
/o {
gsave
newpath
translate
1.7 setlinewidth
1 setlinejoin
0 setlinecap
0 0 m
-3.5 0 l
gsave
0.000 setgray
fill
grestore
stroke
grestore
} bind def
384.116 363.632 o
grestore
gsave
/o {
gsave
newpath
translate
1.7 setlinewidth
1 setlinejoin
0 setlinecap
0 0 m
3.5 0 l
gsave
0.000 setgray
fill
grestore
stroke
grestore
} bind def
51.9412 371.517 o
grestore
gsave
/o {
gsave
newpath
translate
1.7 setlinewidth
1 setlinejoin
0 setlinecap
0 0 m
-3.5 0 l
gsave
0.000 setgray
fill
grestore
stroke
grestore
} bind def
384.116 371.517 o
grestore
gsave
/o {
gsave
newpath
translate
1.7 setlinewidth
1 setlinejoin
0 setlinecap
0 0 m
3.5 0 l
gsave
0.000 setgray
fill
grestore
stroke
grestore
} bind def
51.9412 379.401 o
grestore
gsave
/o {
gsave
newpath
translate
1.7 setlinewidth
1 setlinejoin
0 setlinecap
0 0 m
-3.5 0 l
gsave
0.000 setgray
fill
grestore
stroke
grestore
} bind def
384.116 379.401 o
grestore
gsave
/o {
gsave
newpath
translate
1.7 setlinewidth
1 setlinejoin
0 setlinecap
0 0 m
3.5 0 l
gsave
0.000 setgray
fill
grestore
stroke
grestore
} bind def
51.9412 387.286 o
grestore
gsave
/o {
gsave
newpath
translate
1.7 setlinewidth
1 setlinejoin
0 setlinecap
0 0 m
-3.5 0 l
gsave
0.000 setgray
fill
grestore
stroke
grestore
} bind def
384.116 387.286 o
grestore
gsave
/o {
gsave
newpath
translate
1.7 setlinewidth
1 setlinejoin
0 setlinecap
0 0 m
3.5 0 l
gsave
0.000 setgray
fill
grestore
stroke
grestore
} bind def
51.9412 395.171 o
grestore
gsave
/o {
gsave
newpath
translate
1.7 setlinewidth
1 setlinejoin
0 setlinecap
0 0 m
-3.5 0 l
gsave
0.000 setgray
fill
grestore
stroke
grestore
} bind def
384.116 395.171 o
grestore
gsave
/o {
gsave
newpath
translate
1.7 setlinewidth
1 setlinejoin
0 setlinecap
0 0 m
3.5 0 l
gsave
0.000 setgray
fill
grestore
stroke
grestore
} bind def
51.9412 403.055 o
grestore
gsave
/o {
gsave
newpath
translate
1.7 setlinewidth
1 setlinejoin
0 setlinecap
0 0 m
-3.5 0 l
gsave
0.000 setgray
fill
grestore
stroke
grestore
} bind def
384.116 403.055 o
grestore
/BitstreamVeraSans-Roman findfont
14.000 scalefont
setfont
gsave
23.441250 150.035656 translate
90.000000 rotate
0.000000 0.000000 m /N glyphshow
10.472656 0.000000 m /u glyphshow
19.345703 0.000000 m /m glyphshow
32.983398 0.000000 m /b glyphshow
41.870117 0.000000 m /e glyphshow
50.483398 0.000000 m /r glyphshow
56.239258 0.000000 m /space glyphshow
60.689453 0.000000 m /o glyphshow
69.254883 0.000000 m /f glyphshow
74.183594 0.000000 m /space glyphshow
78.633789 0.000000 m /G glyphshow
89.482422 0.000000 m /a glyphshow
98.061523 0.000000 m /l glyphshow
101.951172 0.000000 m /a glyphshow
110.530273 0.000000 m /c glyphshow
118.227539 0.000000 m /t glyphshow
123.716797 0.000000 m /i glyphshow
127.606445 0.000000 m /c glyphshow
135.303711 0.000000 m /space glyphshow
139.753906 0.000000 m /G glyphshow
150.602539 0.000000 m /C glyphshow
160.377930 0.000000 m /s glyphshow
grestore
1.000 setlinewidth
gsave
51.9412 410.94 m
384.116 410.94 l
stroke
grestore
gsave
384.116 56.1313 m
384.116 410.94 l
stroke
grestore
gsave
51.9412 56.1313 m
384.116 56.1313 l
stroke
grestore
gsave
51.9412 56.1313 m
51.9412 410.94 l
stroke
grestore
gsave
436.058 56.1313 m
768.233 56.1313 l
768.233 410.94 l
436.058 410.94 l
cl
1.000 setgray
fill
grestore
gsave
332.2 354.8 436.1 56.13 clipbox
474.59 56.1313 m
489.128 56.1313 l
489.128 202.229 l
474.59 202.229 l
cl
gsave
0.000 0.000 1.000 setrgbcolor
fill
grestore
stroke
grestore
gsave
332.2 354.8 436.1 56.13 clipbox
489.128 56.1313 m
503.665 56.1313 l
503.665 390.069 l
489.128 390.069 l
cl
gsave
0.000 0.000 1.000 setrgbcolor
fill
grestore
stroke
grestore
gsave
332.2 354.8 436.1 56.13 clipbox
503.665 56.1313 m
518.203 56.1313 l
518.203 390.069 l
503.665 390.069 l
cl
gsave
0.000 0.000 1.000 setrgbcolor
fill
grestore
stroke
grestore
gsave
332.2 354.8 436.1 56.13 clipbox
518.203 56.1313 m
532.74 56.1313 l
532.74 243.971 l
518.203 243.971 l
cl
gsave
0.000 0.000 1.000 setrgbcolor
fill
grestore
stroke
grestore
gsave
332.2 354.8 436.1 56.13 clipbox
532.74 56.1313 m
547.278 56.1313 l
547.278 202.229 l
532.74 202.229 l
cl
gsave
0.000 0.000 1.000 setrgbcolor
fill
grestore
stroke
grestore
gsave
332.2 354.8 436.1 56.13 clipbox
547.278 56.1313 m
561.815 56.1313 l
561.815 223.1 l
547.278 223.1 l
cl
gsave
0.000 0.000 1.000 setrgbcolor
fill
grestore
stroke
grestore
gsave
332.2 354.8 436.1 56.13 clipbox
561.815 56.1313 m
576.353 56.1313 l
576.353 243.971 l
561.815 243.971 l
cl
gsave
0.000 0.000 1.000 setrgbcolor
fill
grestore
stroke
grestore
gsave
332.2 354.8 436.1 56.13 clipbox
576.353 56.1313 m
590.89 56.1313 l
590.89 202.229 l
576.353 202.229 l
cl
gsave
0.000 0.000 1.000 setrgbcolor
fill
grestore
stroke
grestore
gsave
332.2 354.8 436.1 56.13 clipbox
590.89 56.1313 m
605.428 56.1313 l
605.428 139.616 l
590.89 139.616 l
cl
gsave
0.000 0.000 1.000 setrgbcolor
fill
grestore
stroke
grestore
gsave
332.2 354.8 436.1 56.13 clipbox
605.428 56.1313 m
619.966 56.1313 l
619.966 139.616 l
605.428 139.616 l
cl
gsave
0.000 0.000 1.000 setrgbcolor
fill
grestore
stroke
grestore
gsave
332.2 354.8 436.1 56.13 clipbox
619.966 56.1313 m
634.503 56.1313 l
634.503 77.0024 l
619.966 77.0024 l
cl
gsave
0.000 0.000 1.000 setrgbcolor
fill
grestore
stroke
grestore
gsave
332.2 354.8 436.1 56.13 clipbox
634.503 56.1313 m
649.041 56.1313 l
649.041 97.8735 l
634.503 97.8735 l
cl
gsave
0.000 0.000 1.000 setrgbcolor
fill
grestore
stroke
grestore
gsave
332.2 354.8 436.1 56.13 clipbox
649.041 56.1313 m
663.578 56.1313 l
663.578 118.745 l
649.041 118.745 l
cl
gsave
0.000 0.000 1.000 setrgbcolor
fill
grestore
stroke
grestore
gsave
332.2 354.8 436.1 56.13 clipbox
663.578 56.1313 m
678.116 56.1313 l
678.116 97.8735 l
663.578 97.8735 l
cl
gsave
0.000 0.000 1.000 setrgbcolor
fill
grestore
stroke
grestore
gsave
332.2 354.8 436.1 56.13 clipbox
678.116 56.1313 m
692.653 56.1313 l
692.653 56.1313 l
678.116 56.1313 l
cl
gsave
0.000 0.000 1.000 setrgbcolor
fill
grestore
stroke
grestore
gsave
332.2 354.8 436.1 56.13 clipbox
692.653 56.1313 m
707.191 56.1313 l
707.191 77.0024 l
692.653 77.0024 l
cl
gsave
0.000 0.000 1.000 setrgbcolor
fill
grestore
stroke
grestore
gsave
332.2 354.8 436.1 56.13 clipbox
707.191 56.1313 m
721.728 56.1313 l
721.728 77.0024 l
707.191 77.0024 l
cl
gsave
0.000 0.000 1.000 setrgbcolor
fill
grestore
stroke
grestore
2.300 setlinewidth
gsave
/o {
gsave
newpath
translate
2.3 setlinewidth
1 setlinejoin
0 setlinecap
0 0 m
0 5.5 l
gsave
0.000 setgray
fill
grestore
stroke
grestore
} bind def
436.058 56.1313 o
grestore
gsave
/o {
gsave
newpath
translate
2.3 setlinewidth
1 setlinejoin
0 setlinecap
0 0 m
0 -5.5 l
gsave
0.000 setgray
fill
grestore
stroke
grestore
} bind def
436.058 410.94 o
grestore
/BitstreamVeraSans-Roman findfont
15.000 scalefont
setfont
gsave
425.276484 40.740688 translate
0.000000 rotate
0.000000 0.000000 m /zero glyphshow
9.543457 0.000000 m /period glyphshow
14.311523 0.000000 m /five glyphshow
grestore
gsave
/o {
gsave
newpath
translate
2.3 setlinewidth
1 setlinejoin
0 setlinecap
0 0 m
0 5.5 l
gsave
0.000 setgray
fill
grestore
stroke
grestore
} bind def
502.493 56.1313 o
grestore
gsave
/o {
gsave
newpath
translate
2.3 setlinewidth
1 setlinejoin
0 setlinecap
0 0 m
0 -5.5 l
gsave
0.000 setgray
fill
grestore
stroke
grestore
} bind def
502.493 410.94 o
grestore
gsave
491.891219 40.740688 translate
0.000000 rotate
0.000000 0.000000 m /one glyphshow
9.543457 0.000000 m /period glyphshow
14.311523 0.000000 m /zero glyphshow
grestore
gsave
/o {
gsave
newpath
translate
2.3 setlinewidth
1 setlinejoin
0 setlinecap
0 0 m
0 5.5 l
gsave
0.000 setgray
fill
grestore
stroke
grestore
} bind def
568.928 56.1313 o
grestore
gsave
/o {
gsave
newpath
translate
2.3 setlinewidth
1 setlinejoin
0 setlinecap
0 0 m
0 -5.5 l
gsave
0.000 setgray
fill
grestore
stroke
grestore
} bind def
568.928 410.94 o
grestore
gsave
558.482516 40.740688 translate
0.000000 rotate
0.000000 0.000000 m /one glyphshow
9.543457 0.000000 m /period glyphshow
14.311523 0.000000 m /five glyphshow
grestore
gsave
/o {
gsave
newpath
translate
2.3 setlinewidth
1 setlinejoin
0 setlinecap
0 0 m
0 5.5 l
gsave
0.000 setgray
fill
grestore
stroke
grestore
} bind def
635.363 56.1313 o
grestore
gsave
/o {
gsave
newpath
translate
2.3 setlinewidth
1 setlinejoin
0 setlinecap
0 0 m
0 -5.5 l
gsave
0.000 setgray
fill
grestore
stroke
grestore
} bind def
635.363 410.94 o
grestore
gsave
624.480063 40.740688 translate
0.000000 rotate
0.000000 0.000000 m /two glyphshow
9.543457 0.000000 m /period glyphshow
14.311523 0.000000 m /zero glyphshow
grestore
gsave
/o {
gsave
newpath
translate
2.3 setlinewidth
1 setlinejoin
0 setlinecap
0 0 m
0 5.5 l
gsave
0.000 setgray
fill
grestore
stroke
grestore
} bind def
701.798 56.1313 o
grestore
gsave
/o {
gsave
newpath
translate
2.3 setlinewidth
1 setlinejoin
0 setlinecap
0 0 m
0 -5.5 l
gsave
0.000 setgray
fill
grestore
stroke
grestore
} bind def
701.798 410.94 o
grestore
gsave
691.071359 40.740688 translate
0.000000 rotate
0.000000 0.000000 m /two glyphshow
9.543457 0.000000 m /period glyphshow
14.311523 0.000000 m /five glyphshow
grestore
gsave
/o {
gsave
newpath
translate
2.3 setlinewidth
1 setlinejoin
0 setlinecap
0 0 m
0 5.5 l
gsave
0.000 setgray
fill
grestore
stroke
grestore
} bind def
768.233 56.1313 o
grestore
gsave
/o {
gsave
newpath
translate
2.3 setlinewidth
1 setlinejoin
0 setlinecap
0 0 m
0 -5.5 l
gsave
0.000 setgray
fill
grestore
stroke
grestore
} bind def
768.233 410.94 o
grestore
gsave
757.373594 40.740688 translate
0.000000 rotate
0.000000 0.000000 m /three glyphshow
9.543457 0.000000 m /period glyphshow
14.311523 0.000000 m /zero glyphshow
grestore
1.700 setlinewidth
gsave
/o {
gsave
newpath
translate
1.7 setlinewidth
1 setlinejoin
0 setlinecap
0 0 m
0 3.5 l
gsave
0.000 setgray
fill
grestore
stroke
grestore
} bind def
436.058 56.1313 o
grestore
gsave
/o {
gsave
newpath
translate
1.7 setlinewidth
1 setlinejoin
0 setlinecap
0 0 m
0 -3.5 l
gsave
0.000 setgray
fill
grestore
stroke
grestore
} bind def
436.058 410.94 o
grestore
gsave
/o {
gsave
newpath
translate
1.7 setlinewidth
1 setlinejoin
0 setlinecap
0 0 m
0 3.5 l
gsave
0.000 setgray
fill
grestore
stroke
grestore
} bind def
449.345 56.1313 o
grestore
gsave
/o {
gsave
newpath
translate
1.7 setlinewidth
1 setlinejoin
0 setlinecap
0 0 m
0 -3.5 l
gsave
0.000 setgray
fill
grestore
stroke
grestore
} bind def
449.345 410.94 o
grestore
gsave
/o {
gsave
newpath
translate
1.7 setlinewidth
1 setlinejoin
0 setlinecap
0 0 m
0 3.5 l
gsave
0.000 setgray
fill
grestore
stroke
grestore
} bind def
462.632 56.1313 o
grestore
gsave
/o {
gsave
newpath
translate
1.7 setlinewidth
1 setlinejoin
0 setlinecap
0 0 m
0 -3.5 l
gsave
0.000 setgray
fill
grestore
stroke
grestore
} bind def
462.632 410.94 o
grestore
gsave
/o {
gsave
newpath
translate
1.7 setlinewidth
1 setlinejoin
0 setlinecap
0 0 m
0 3.5 l
gsave
0.000 setgray
fill
grestore
stroke
grestore
} bind def
475.919 56.1313 o
grestore
gsave
/o {
gsave
newpath
translate
1.7 setlinewidth
1 setlinejoin
0 setlinecap
0 0 m
0 -3.5 l
gsave
0.000 setgray
fill
grestore
stroke
grestore
} bind def
475.919 410.94 o
grestore
gsave
/o {
gsave
newpath
translate
1.7 setlinewidth
1 setlinejoin
0 setlinecap
0 0 m
0 3.5 l
gsave
0.000 setgray
fill
grestore
stroke
grestore
} bind def
489.206 56.1313 o
grestore
gsave
/o {
gsave
newpath
translate
1.7 setlinewidth
1 setlinejoin
0 setlinecap
0 0 m
0 -3.5 l
gsave
0.000 setgray
fill
grestore
stroke
grestore
} bind def
489.206 410.94 o
grestore
gsave
/o {
gsave
newpath
translate
1.7 setlinewidth
1 setlinejoin
0 setlinecap
0 0 m
0 3.5 l
gsave
0.000 setgray
fill
grestore
stroke
grestore
} bind def
502.493 56.1313 o
grestore
gsave
/o {
gsave
newpath
translate
1.7 setlinewidth
1 setlinejoin
0 setlinecap
0 0 m
0 -3.5 l
gsave
0.000 setgray
fill
grestore
stroke
grestore
} bind def
502.493 410.94 o
grestore
gsave
/o {
gsave
newpath
translate
1.7 setlinewidth
1 setlinejoin
0 setlinecap
0 0 m
0 3.5 l
gsave
0.000 setgray
fill
grestore
stroke
grestore
} bind def
515.78 56.1313 o
grestore
gsave
/o {
gsave
newpath
translate
1.7 setlinewidth
1 setlinejoin
0 setlinecap
0 0 m
0 -3.5 l
gsave
0.000 setgray
fill
grestore
stroke
grestore
} bind def
515.78 410.94 o
grestore
gsave
/o {
gsave
newpath
translate
1.7 setlinewidth
1 setlinejoin
0 setlinecap
0 0 m
0 3.5 l
gsave
0.000 setgray
fill
grestore
stroke
grestore
} bind def
529.067 56.1313 o
grestore
gsave
/o {
gsave
newpath
translate
1.7 setlinewidth
1 setlinejoin
0 setlinecap
0 0 m
0 -3.5 l
gsave
0.000 setgray
fill
grestore
stroke
grestore
} bind def
529.067 410.94 o
grestore
gsave
/o {
gsave
newpath
translate
1.7 setlinewidth
1 setlinejoin
0 setlinecap
0 0 m
0 3.5 l
gsave
0.000 setgray
fill
grestore
stroke
grestore
} bind def
542.354 56.1313 o
grestore
gsave
/o {
gsave
newpath
translate
1.7 setlinewidth
1 setlinejoin
0 setlinecap
0 0 m
0 -3.5 l
gsave
0.000 setgray
fill
grestore
stroke
grestore
} bind def
542.354 410.94 o
grestore
gsave
/o {
gsave
newpath
translate
1.7 setlinewidth
1 setlinejoin
0 setlinecap
0 0 m
0 3.5 l
gsave
0.000 setgray
fill
grestore
stroke
grestore
} bind def
555.641 56.1313 o
grestore
gsave
/o {
gsave
newpath
translate
1.7 setlinewidth
1 setlinejoin
0 setlinecap
0 0 m
0 -3.5 l
gsave
0.000 setgray
fill
grestore
stroke
grestore
} bind def
555.641 410.94 o
grestore
gsave
/o {
gsave
newpath
translate
1.7 setlinewidth
1 setlinejoin
0 setlinecap
0 0 m
0 3.5 l
gsave
0.000 setgray
fill
grestore
stroke
grestore
} bind def
568.928 56.1313 o
grestore
gsave
/o {
gsave
newpath
translate
1.7 setlinewidth
1 setlinejoin
0 setlinecap
0 0 m
0 -3.5 l
gsave
0.000 setgray
fill
grestore
stroke
grestore
} bind def
568.928 410.94 o
grestore
gsave
/o {
gsave
newpath
translate
1.7 setlinewidth
1 setlinejoin
0 setlinecap
0 0 m
0 3.5 l
gsave
0.000 setgray
fill
grestore
stroke
grestore
} bind def
582.215 56.1313 o
grestore
gsave
/o {
gsave
newpath
translate
1.7 setlinewidth
1 setlinejoin
0 setlinecap
0 0 m
0 -3.5 l
gsave
0.000 setgray
fill
grestore
stroke
grestore
} bind def
582.215 410.94 o
grestore
gsave
/o {
gsave
newpath
translate
1.7 setlinewidth
1 setlinejoin
0 setlinecap
0 0 m
0 3.5 l
gsave
0.000 setgray
fill
grestore
stroke
grestore
} bind def
595.502 56.1313 o
grestore
gsave
/o {
gsave
newpath
translate
1.7 setlinewidth
1 setlinejoin
0 setlinecap
0 0 m
0 -3.5 l
gsave
0.000 setgray
fill
grestore
stroke
grestore
} bind def
595.502 410.94 o
grestore
gsave
/o {
gsave
newpath
translate
1.7 setlinewidth
1 setlinejoin
0 setlinecap
0 0 m
0 3.5 l
gsave
0.000 setgray
fill
grestore
stroke
grestore
} bind def
608.789 56.1313 o
grestore
gsave
/o {
gsave
newpath
translate
1.7 setlinewidth
1 setlinejoin
0 setlinecap
0 0 m
0 -3.5 l
gsave
0.000 setgray
fill
grestore
stroke
grestore
} bind def
608.789 410.94 o
grestore
gsave
/o {
gsave
newpath
translate
1.7 setlinewidth
1 setlinejoin
0 setlinecap
0 0 m
0 3.5 l
gsave
0.000 setgray
fill
grestore
stroke
grestore
} bind def
622.076 56.1313 o
grestore
gsave
/o {
gsave
newpath
translate
1.7 setlinewidth
1 setlinejoin
0 setlinecap
0 0 m
0 -3.5 l
gsave
0.000 setgray
fill
grestore
stroke
grestore
} bind def
622.076 410.94 o
grestore
gsave
/o {
gsave
newpath
translate
1.7 setlinewidth
1 setlinejoin
0 setlinecap
0 0 m
0 3.5 l
gsave
0.000 setgray
fill
grestore
stroke
grestore
} bind def
635.363 56.1313 o
grestore
gsave
/o {
gsave
newpath
translate
1.7 setlinewidth
1 setlinejoin
0 setlinecap
0 0 m
0 -3.5 l
gsave
0.000 setgray
fill
grestore
stroke
grestore
} bind def
635.363 410.94 o
grestore
gsave
/o {
gsave
newpath
translate
1.7 setlinewidth
1 setlinejoin
0 setlinecap
0 0 m
0 3.5 l
gsave
0.000 setgray
fill
grestore
stroke
grestore
} bind def
648.65 56.1313 o
grestore
gsave
/o {
gsave
newpath
translate
1.7 setlinewidth
1 setlinejoin
0 setlinecap
0 0 m
0 -3.5 l
gsave
0.000 setgray
fill
grestore
stroke
grestore
} bind def
648.65 410.94 o
grestore
gsave
/o {
gsave
newpath
translate
1.7 setlinewidth
1 setlinejoin
0 setlinecap
0 0 m
0 3.5 l
gsave
0.000 setgray
fill
grestore
stroke
grestore
} bind def
661.937 56.1313 o
grestore
gsave
/o {
gsave
newpath
translate
1.7 setlinewidth
1 setlinejoin
0 setlinecap
0 0 m
0 -3.5 l
gsave
0.000 setgray
fill
grestore
stroke
grestore
} bind def
661.937 410.94 o
grestore
gsave
/o {
gsave
newpath
translate
1.7 setlinewidth
1 setlinejoin
0 setlinecap
0 0 m
0 3.5 l
gsave
0.000 setgray
fill
grestore
stroke
grestore
} bind def
675.224 56.1313 o
grestore
gsave
/o {
gsave
newpath
translate
1.7 setlinewidth
1 setlinejoin
0 setlinecap
0 0 m
0 -3.5 l
gsave
0.000 setgray
fill
grestore
stroke
grestore
} bind def
675.224 410.94 o
grestore
gsave
/o {
gsave
newpath
translate
1.7 setlinewidth
1 setlinejoin
0 setlinecap
0 0 m
0 3.5 l
gsave
0.000 setgray
fill
grestore
stroke
grestore
} bind def
688.511 56.1313 o
grestore
gsave
/o {
gsave
newpath
translate
1.7 setlinewidth
1 setlinejoin
0 setlinecap
0 0 m
0 -3.5 l
gsave
0.000 setgray
fill
grestore
stroke
grestore
} bind def
688.511 410.94 o
grestore
gsave
/o {
gsave
newpath
translate
1.7 setlinewidth
1 setlinejoin
0 setlinecap
0 0 m
0 3.5 l
gsave
0.000 setgray
fill
grestore
stroke
grestore
} bind def
701.798 56.1313 o
grestore
gsave
/o {
gsave
newpath
translate
1.7 setlinewidth
1 setlinejoin
0 setlinecap
0 0 m
0 -3.5 l
gsave
0.000 setgray
fill
grestore
stroke
grestore
} bind def
701.798 410.94 o
grestore
gsave
/o {
gsave
newpath
translate
1.7 setlinewidth
1 setlinejoin
0 setlinecap
0 0 m
0 3.5 l
gsave
0.000 setgray
fill
grestore
stroke
grestore
} bind def
715.085 56.1313 o
grestore
gsave
/o {
gsave
newpath
translate
1.7 setlinewidth
1 setlinejoin
0 setlinecap
0 0 m
0 -3.5 l
gsave
0.000 setgray
fill
grestore
stroke
grestore
} bind def
715.085 410.94 o
grestore
gsave
/o {
gsave
newpath
translate
1.7 setlinewidth
1 setlinejoin
0 setlinecap
0 0 m
0 3.5 l
gsave
0.000 setgray
fill
grestore
stroke
grestore
} bind def
728.372 56.1313 o
grestore
gsave
/o {
gsave
newpath
translate
1.7 setlinewidth
1 setlinejoin
0 setlinecap
0 0 m
0 -3.5 l
gsave
0.000 setgray
fill
grestore
stroke
grestore
} bind def
728.372 410.94 o
grestore
gsave
/o {
gsave
newpath
translate
1.7 setlinewidth
1 setlinejoin
0 setlinecap
0 0 m
0 3.5 l
gsave
0.000 setgray
fill
grestore
stroke
grestore
} bind def
741.659 56.1313 o
grestore
gsave
/o {
gsave
newpath
translate
1.7 setlinewidth
1 setlinejoin
0 setlinecap
0 0 m
0 -3.5 l
gsave
0.000 setgray
fill
grestore
stroke
grestore
} bind def
741.659 410.94 o
grestore
gsave
/o {
gsave
newpath
translate
1.7 setlinewidth
1 setlinejoin
0 setlinecap
0 0 m
0 3.5 l
gsave
0.000 setgray
fill
grestore
stroke
grestore
} bind def
754.946 56.1313 o
grestore
gsave
/o {
gsave
newpath
translate
1.7 setlinewidth
1 setlinejoin
0 setlinecap
0 0 m
0 -3.5 l
gsave
0.000 setgray
fill
grestore
stroke
grestore
} bind def
754.946 410.94 o
grestore
gsave
/o {
gsave
newpath
translate
1.7 setlinewidth
1 setlinejoin
0 setlinecap
0 0 m
0 3.5 l
gsave
0.000 setgray
fill
grestore
stroke
grestore
} bind def
768.233 56.1313 o
grestore
gsave
/o {
gsave
newpath
translate
1.7 setlinewidth
1 setlinejoin
0 setlinecap
0 0 m
0 -3.5 l
gsave
0.000 setgray
fill
grestore
stroke
grestore
} bind def
768.233 410.94 o
grestore
gsave
581.145352 21.615688 translate
0.000000 rotate
/BitstreamVeraSans-Roman findfont
14.0 scalefont
setfont
0.000000 0.375000 moveto
/space glyphshow

4.450195 0.375000 moveto
/parenleft glyphshow

9.912109 0.375000 moveto
/V glyphshow

19.489258 0.375000 moveto
/hyphen glyphshow

24.541016 0.375000 moveto
/I glyphshow

28.669922 0.375000 moveto
/parenright glyphshow

/Cmr10 findfont
9.8 scalefont
setfont
34.131836 -3.196312 moveto
/zero glyphshow


grestore
2.300 setlinewidth
gsave
/o {
gsave
newpath
translate
2.3 setlinewidth
1 setlinejoin
0 setlinecap
0 0 m
5.5 0 l
gsave
0.000 setgray
fill
grestore
stroke
grestore
} bind def
436.058 56.1313 o
grestore
gsave
/o {
gsave
newpath
translate
2.3 setlinewidth
1 setlinejoin
0 setlinecap
0 0 m
-5.5 0 l
gsave
0.000 setgray
fill
grestore
stroke
grestore
} bind def
768.233 56.1313 o
grestore
gsave
424.495234 51.998500 translate
0.000000 rotate
0.000000 0.000000 m /zero glyphshow
grestore
gsave
/o {
gsave
newpath
translate
2.3 setlinewidth
1 setlinejoin
0 setlinecap
0 0 m
5.5 0 l
gsave
0.000 setgray
fill
grestore
stroke
grestore
} bind def
436.058 97.8735 o
grestore
gsave
/o {
gsave
newpath
translate
2.3 setlinewidth
1 setlinejoin
0 setlinecap
0 0 m
-5.5 0 l
gsave
0.000 setgray
fill
grestore
stroke
grestore
} bind def
768.233 97.8735 o
grestore
gsave
425.104609 93.740699 translate
0.000000 rotate
0.000000 0.000000 m /two glyphshow
grestore
gsave
/o {
gsave
newpath
translate
2.3 setlinewidth
1 setlinejoin
0 setlinecap
0 0 m
5.5 0 l
gsave
0.000 setgray
fill
grestore
stroke
grestore
} bind def
436.058 139.616 o
grestore
gsave
/o {
gsave
newpath
translate
2.3 setlinewidth
1 setlinejoin
0 setlinecap
0 0 m
-5.5 0 l
gsave
0.000 setgray
fill
grestore
stroke
grestore
} bind def
768.233 139.616 o
grestore
gsave
424.088984 135.482897 translate
0.000000 rotate
0.000000 0.000000 m /four glyphshow
grestore
gsave
/o {
gsave
newpath
translate
2.3 setlinewidth
1 setlinejoin
0 setlinecap
0 0 m
5.5 0 l
gsave
0.000 setgray
fill
grestore
stroke
grestore
} bind def
436.058 181.358 o
grestore
gsave
/o {
gsave
newpath
translate
2.3 setlinewidth
1 setlinejoin
0 setlinecap
0 0 m
-5.5 0 l
gsave
0.000 setgray
fill
grestore
stroke
grestore
} bind def
768.233 181.358 o
grestore
gsave
424.510859 177.225096 translate
0.000000 rotate
0.000000 0.000000 m /six glyphshow
grestore
gsave
/o {
gsave
newpath
translate
2.3 setlinewidth
1 setlinejoin
0 setlinecap
0 0 m
5.5 0 l
gsave
0.000 setgray
fill
grestore
stroke
grestore
} bind def
436.058 223.1 o
grestore
gsave
/o {
gsave
newpath
translate
2.3 setlinewidth
1 setlinejoin
0 setlinecap
0 0 m
-5.5 0 l
gsave
0.000 setgray
fill
grestore
stroke
grestore
} bind def
768.233 223.1 o
grestore
gsave
424.557734 218.967294 translate
0.000000 rotate
0.000000 0.000000 m /eight glyphshow
grestore
gsave
/o {
gsave
newpath
translate
2.3 setlinewidth
1 setlinejoin
0 setlinecap
0 0 m
5.5 0 l
gsave
0.000 setgray
fill
grestore
stroke
grestore
} bind def
436.058 264.842 o
grestore
gsave
/o {
gsave
newpath
translate
2.3 setlinewidth
1 setlinejoin
0 setlinecap
0 0 m
-5.5 0 l
gsave
0.000 setgray
fill
grestore
stroke
grestore
} bind def
768.233 264.842 o
grestore
gsave
415.620234 260.709493 translate
0.000000 rotate
0.000000 0.000000 m /one glyphshow
9.543457 0.000000 m /zero glyphshow
grestore
gsave
/o {
gsave
newpath
translate
2.3 setlinewidth
1 setlinejoin
0 setlinecap
0 0 m
5.5 0 l
gsave
0.000 setgray
fill
grestore
stroke
grestore
} bind def
436.058 306.585 o
grestore
gsave
/o {
gsave
newpath
translate
2.3 setlinewidth
1 setlinejoin
0 setlinecap
0 0 m
-5.5 0 l
gsave
0.000 setgray
fill
grestore
stroke
grestore
} bind def
768.233 306.585 o
grestore
gsave
416.120234 302.451691 translate
0.000000 rotate
0.000000 0.000000 m /one glyphshow
9.543457 0.000000 m /two glyphshow
grestore
gsave
/o {
gsave
newpath
translate
2.3 setlinewidth
1 setlinejoin
0 setlinecap
0 0 m
5.5 0 l
gsave
0.000 setgray
fill
grestore
stroke
grestore
} bind def
436.058 348.327 o
grestore
gsave
/o {
gsave
newpath
translate
2.3 setlinewidth
1 setlinejoin
0 setlinecap
0 0 m
-5.5 0 l
gsave
0.000 setgray
fill
grestore
stroke
grestore
} bind def
768.233 348.327 o
grestore
gsave
415.463984 344.193890 translate
0.000000 rotate
0.000000 0.000000 m /one glyphshow
9.543457 0.000000 m /four glyphshow
grestore
gsave
/o {
gsave
newpath
translate
2.3 setlinewidth
1 setlinejoin
0 setlinecap
0 0 m
5.5 0 l
gsave
0.000 setgray
fill
grestore
stroke
grestore
} bind def
436.058 390.069 o
grestore
gsave
/o {
gsave
newpath
translate
2.3 setlinewidth
1 setlinejoin
0 setlinecap
0 0 m
-5.5 0 l
gsave
0.000 setgray
fill
grestore
stroke
grestore
} bind def
768.233 390.069 o
grestore
gsave
415.573359 385.936088 translate
0.000000 rotate
0.000000 0.000000 m /one glyphshow
9.543457 0.000000 m /six glyphshow
grestore
1.700 setlinewidth
gsave
/o {
gsave
newpath
translate
1.7 setlinewidth
1 setlinejoin
0 setlinecap
0 0 m
3.5 0 l
gsave
0.000 setgray
fill
grestore
stroke
grestore
} bind def
436.058 56.1313 o
grestore
gsave
/o {
gsave
newpath
translate
1.7 setlinewidth
1 setlinejoin
0 setlinecap
0 0 m
-3.5 0 l
gsave
0.000 setgray
fill
grestore
stroke
grestore
} bind def
768.233 56.1313 o
grestore
gsave
/o {
gsave
newpath
translate
1.7 setlinewidth
1 setlinejoin
0 setlinecap
0 0 m
3.5 0 l
gsave
0.000 setgray
fill
grestore
stroke
grestore
} bind def
436.058 64.4798 o
grestore
gsave
/o {
gsave
newpath
translate
1.7 setlinewidth
1 setlinejoin
0 setlinecap
0 0 m
-3.5 0 l
gsave
0.000 setgray
fill
grestore
stroke
grestore
} bind def
768.233 64.4798 o
grestore
gsave
/o {
gsave
newpath
translate
1.7 setlinewidth
1 setlinejoin
0 setlinecap
0 0 m
3.5 0 l
gsave
0.000 setgray
fill
grestore
stroke
grestore
} bind def
436.058 72.8282 o
grestore
gsave
/o {
gsave
newpath
translate
1.7 setlinewidth
1 setlinejoin
0 setlinecap
0 0 m
-3.5 0 l
gsave
0.000 setgray
fill
grestore
stroke
grestore
} bind def
768.233 72.8282 o
grestore
gsave
/o {
gsave
newpath
translate
1.7 setlinewidth
1 setlinejoin
0 setlinecap
0 0 m
3.5 0 l
gsave
0.000 setgray
fill
grestore
stroke
grestore
} bind def
436.058 81.1766 o
grestore
gsave
/o {
gsave
newpath
translate
1.7 setlinewidth
1 setlinejoin
0 setlinecap
0 0 m
-3.5 0 l
gsave
0.000 setgray
fill
grestore
stroke
grestore
} bind def
768.233 81.1766 o
grestore
gsave
/o {
gsave
newpath
translate
1.7 setlinewidth
1 setlinejoin
0 setlinecap
0 0 m
3.5 0 l
gsave
0.000 setgray
fill
grestore
stroke
grestore
} bind def
436.058 89.5251 o
grestore
gsave
/o {
gsave
newpath
translate
1.7 setlinewidth
1 setlinejoin
0 setlinecap
0 0 m
-3.5 0 l
gsave
0.000 setgray
fill
grestore
stroke
grestore
} bind def
768.233 89.5251 o
grestore
gsave
/o {
gsave
newpath
translate
1.7 setlinewidth
1 setlinejoin
0 setlinecap
0 0 m
3.5 0 l
gsave
0.000 setgray
fill
grestore
stroke
grestore
} bind def
436.058 97.8735 o
grestore
gsave
/o {
gsave
newpath
translate
1.7 setlinewidth
1 setlinejoin
0 setlinecap
0 0 m
-3.5 0 l
gsave
0.000 setgray
fill
grestore
stroke
grestore
} bind def
768.233 97.8735 o
grestore
gsave
/o {
gsave
newpath
translate
1.7 setlinewidth
1 setlinejoin
0 setlinecap
0 0 m
3.5 0 l
gsave
0.000 setgray
fill
grestore
stroke
grestore
} bind def
436.058 106.222 o
grestore
gsave
/o {
gsave
newpath
translate
1.7 setlinewidth
1 setlinejoin
0 setlinecap
0 0 m
-3.5 0 l
gsave
0.000 setgray
fill
grestore
stroke
grestore
} bind def
768.233 106.222 o
grestore
gsave
/o {
gsave
newpath
translate
1.7 setlinewidth
1 setlinejoin
0 setlinecap
0 0 m
3.5 0 l
gsave
0.000 setgray
fill
grestore
stroke
grestore
} bind def
436.058 114.57 o
grestore
gsave
/o {
gsave
newpath
translate
1.7 setlinewidth
1 setlinejoin
0 setlinecap
0 0 m
-3.5 0 l
gsave
0.000 setgray
fill
grestore
stroke
grestore
} bind def
768.233 114.57 o
grestore
gsave
/o {
gsave
newpath
translate
1.7 setlinewidth
1 setlinejoin
0 setlinecap
0 0 m
3.5 0 l
gsave
0.000 setgray
fill
grestore
stroke
grestore
} bind def
436.058 122.919 o
grestore
gsave
/o {
gsave
newpath
translate
1.7 setlinewidth
1 setlinejoin
0 setlinecap
0 0 m
-3.5 0 l
gsave
0.000 setgray
fill
grestore
stroke
grestore
} bind def
768.233 122.919 o
grestore
gsave
/o {
gsave
newpath
translate
1.7 setlinewidth
1 setlinejoin
0 setlinecap
0 0 m
3.5 0 l
gsave
0.000 setgray
fill
grestore
stroke
grestore
} bind def
436.058 131.267 o
grestore
gsave
/o {
gsave
newpath
translate
1.7 setlinewidth
1 setlinejoin
0 setlinecap
0 0 m
-3.5 0 l
gsave
0.000 setgray
fill
grestore
stroke
grestore
} bind def
768.233 131.267 o
grestore
gsave
/o {
gsave
newpath
translate
1.7 setlinewidth
1 setlinejoin
0 setlinecap
0 0 m
3.5 0 l
gsave
0.000 setgray
fill
grestore
stroke
grestore
} bind def
436.058 139.616 o
grestore
gsave
/o {
gsave
newpath
translate
1.7 setlinewidth
1 setlinejoin
0 setlinecap
0 0 m
-3.5 0 l
gsave
0.000 setgray
fill
grestore
stroke
grestore
} bind def
768.233 139.616 o
grestore
gsave
/o {
gsave
newpath
translate
1.7 setlinewidth
1 setlinejoin
0 setlinecap
0 0 m
3.5 0 l
gsave
0.000 setgray
fill
grestore
stroke
grestore
} bind def
436.058 147.964 o
grestore
gsave
/o {
gsave
newpath
translate
1.7 setlinewidth
1 setlinejoin
0 setlinecap
0 0 m
-3.5 0 l
gsave
0.000 setgray
fill
grestore
stroke
grestore
} bind def
768.233 147.964 o
grestore
gsave
/o {
gsave
newpath
translate
1.7 setlinewidth
1 setlinejoin
0 setlinecap
0 0 m
3.5 0 l
gsave
0.000 setgray
fill
grestore
stroke
grestore
} bind def
436.058 156.313 o
grestore
gsave
/o {
gsave
newpath
translate
1.7 setlinewidth
1 setlinejoin
0 setlinecap
0 0 m
-3.5 0 l
gsave
0.000 setgray
fill
grestore
stroke
grestore
} bind def
768.233 156.313 o
grestore
gsave
/o {
gsave
newpath
translate
1.7 setlinewidth
1 setlinejoin
0 setlinecap
0 0 m
3.5 0 l
gsave
0.000 setgray
fill
grestore
stroke
grestore
} bind def
436.058 164.661 o
grestore
gsave
/o {
gsave
newpath
translate
1.7 setlinewidth
1 setlinejoin
0 setlinecap
0 0 m
-3.5 0 l
gsave
0.000 setgray
fill
grestore
stroke
grestore
} bind def
768.233 164.661 o
grestore
gsave
/o {
gsave
newpath
translate
1.7 setlinewidth
1 setlinejoin
0 setlinecap
0 0 m
3.5 0 l
gsave
0.000 setgray
fill
grestore
stroke
grestore
} bind def
436.058 173.009 o
grestore
gsave
/o {
gsave
newpath
translate
1.7 setlinewidth
1 setlinejoin
0 setlinecap
0 0 m
-3.5 0 l
gsave
0.000 setgray
fill
grestore
stroke
grestore
} bind def
768.233 173.009 o
grestore
gsave
/o {
gsave
newpath
translate
1.7 setlinewidth
1 setlinejoin
0 setlinecap
0 0 m
3.5 0 l
gsave
0.000 setgray
fill
grestore
stroke
grestore
} bind def
436.058 181.358 o
grestore
gsave
/o {
gsave
newpath
translate
1.7 setlinewidth
1 setlinejoin
0 setlinecap
0 0 m
-3.5 0 l
gsave
0.000 setgray
fill
grestore
stroke
grestore
} bind def
768.233 181.358 o
grestore
gsave
/o {
gsave
newpath
translate
1.7 setlinewidth
1 setlinejoin
0 setlinecap
0 0 m
3.5 0 l
gsave
0.000 setgray
fill
grestore
stroke
grestore
} bind def
436.058 189.706 o
grestore
gsave
/o {
gsave
newpath
translate
1.7 setlinewidth
1 setlinejoin
0 setlinecap
0 0 m
-3.5 0 l
gsave
0.000 setgray
fill
grestore
stroke
grestore
} bind def
768.233 189.706 o
grestore
gsave
/o {
gsave
newpath
translate
1.7 setlinewidth
1 setlinejoin
0 setlinecap
0 0 m
3.5 0 l
gsave
0.000 setgray
fill
grestore
stroke
grestore
} bind def
436.058 198.055 o
grestore
gsave
/o {
gsave
newpath
translate
1.7 setlinewidth
1 setlinejoin
0 setlinecap
0 0 m
-3.5 0 l
gsave
0.000 setgray
fill
grestore
stroke
grestore
} bind def
768.233 198.055 o
grestore
gsave
/o {
gsave
newpath
translate
1.7 setlinewidth
1 setlinejoin
0 setlinecap
0 0 m
3.5 0 l
gsave
0.000 setgray
fill
grestore
stroke
grestore
} bind def
436.058 206.403 o
grestore
gsave
/o {
gsave
newpath
translate
1.7 setlinewidth
1 setlinejoin
0 setlinecap
0 0 m
-3.5 0 l
gsave
0.000 setgray
fill
grestore
stroke
grestore
} bind def
768.233 206.403 o
grestore
gsave
/o {
gsave
newpath
translate
1.7 setlinewidth
1 setlinejoin
0 setlinecap
0 0 m
3.5 0 l
gsave
0.000 setgray
fill
grestore
stroke
grestore
} bind def
436.058 214.752 o
grestore
gsave
/o {
gsave
newpath
translate
1.7 setlinewidth
1 setlinejoin
0 setlinecap
0 0 m
-3.5 0 l
gsave
0.000 setgray
fill
grestore
stroke
grestore
} bind def
768.233 214.752 o
grestore
gsave
/o {
gsave
newpath
translate
1.7 setlinewidth
1 setlinejoin
0 setlinecap
0 0 m
3.5 0 l
gsave
0.000 setgray
fill
grestore
stroke
grestore
} bind def
436.058 223.1 o
grestore
gsave
/o {
gsave
newpath
translate
1.7 setlinewidth
1 setlinejoin
0 setlinecap
0 0 m
-3.5 0 l
gsave
0.000 setgray
fill
grestore
stroke
grestore
} bind def
768.233 223.1 o
grestore
gsave
/o {
gsave
newpath
translate
1.7 setlinewidth
1 setlinejoin
0 setlinecap
0 0 m
3.5 0 l
gsave
0.000 setgray
fill
grestore
stroke
grestore
} bind def
436.058 231.449 o
grestore
gsave
/o {
gsave
newpath
translate
1.7 setlinewidth
1 setlinejoin
0 setlinecap
0 0 m
-3.5 0 l
gsave
0.000 setgray
fill
grestore
stroke
grestore
} bind def
768.233 231.449 o
grestore
gsave
/o {
gsave
newpath
translate
1.7 setlinewidth
1 setlinejoin
0 setlinecap
0 0 m
3.5 0 l
gsave
0.000 setgray
fill
grestore
stroke
grestore
} bind def
436.058 239.797 o
grestore
gsave
/o {
gsave
newpath
translate
1.7 setlinewidth
1 setlinejoin
0 setlinecap
0 0 m
-3.5 0 l
gsave
0.000 setgray
fill
grestore
stroke
grestore
} bind def
768.233 239.797 o
grestore
gsave
/o {
gsave
newpath
translate
1.7 setlinewidth
1 setlinejoin
0 setlinecap
0 0 m
3.5 0 l
gsave
0.000 setgray
fill
grestore
stroke
grestore
} bind def
436.058 248.145 o
grestore
gsave
/o {
gsave
newpath
translate
1.7 setlinewidth
1 setlinejoin
0 setlinecap
0 0 m
-3.5 0 l
gsave
0.000 setgray
fill
grestore
stroke
grestore
} bind def
768.233 248.145 o
grestore
gsave
/o {
gsave
newpath
translate
1.7 setlinewidth
1 setlinejoin
0 setlinecap
0 0 m
3.5 0 l
gsave
0.000 setgray
fill
grestore
stroke
grestore
} bind def
436.058 256.494 o
grestore
gsave
/o {
gsave
newpath
translate
1.7 setlinewidth
1 setlinejoin
0 setlinecap
0 0 m
-3.5 0 l
gsave
0.000 setgray
fill
grestore
stroke
grestore
} bind def
768.233 256.494 o
grestore
gsave
/o {
gsave
newpath
translate
1.7 setlinewidth
1 setlinejoin
0 setlinecap
0 0 m
3.5 0 l
gsave
0.000 setgray
fill
grestore
stroke
grestore
} bind def
436.058 264.842 o
grestore
gsave
/o {
gsave
newpath
translate
1.7 setlinewidth
1 setlinejoin
0 setlinecap
0 0 m
-3.5 0 l
gsave
0.000 setgray
fill
grestore
stroke
grestore
} bind def
768.233 264.842 o
grestore
gsave
/o {
gsave
newpath
translate
1.7 setlinewidth
1 setlinejoin
0 setlinecap
0 0 m
3.5 0 l
gsave
0.000 setgray
fill
grestore
stroke
grestore
} bind def
436.058 273.191 o
grestore
gsave
/o {
gsave
newpath
translate
1.7 setlinewidth
1 setlinejoin
0 setlinecap
0 0 m
-3.5 0 l
gsave
0.000 setgray
fill
grestore
stroke
grestore
} bind def
768.233 273.191 o
grestore
gsave
/o {
gsave
newpath
translate
1.7 setlinewidth
1 setlinejoin
0 setlinecap
0 0 m
3.5 0 l
gsave
0.000 setgray
fill
grestore
stroke
grestore
} bind def
436.058 281.539 o
grestore
gsave
/o {
gsave
newpath
translate
1.7 setlinewidth
1 setlinejoin
0 setlinecap
0 0 m
-3.5 0 l
gsave
0.000 setgray
fill
grestore
stroke
grestore
} bind def
768.233 281.539 o
grestore
gsave
/o {
gsave
newpath
translate
1.7 setlinewidth
1 setlinejoin
0 setlinecap
0 0 m
3.5 0 l
gsave
0.000 setgray
fill
grestore
stroke
grestore
} bind def
436.058 289.888 o
grestore
gsave
/o {
gsave
newpath
translate
1.7 setlinewidth
1 setlinejoin
0 setlinecap
0 0 m
-3.5 0 l
gsave
0.000 setgray
fill
grestore
stroke
grestore
} bind def
768.233 289.888 o
grestore
gsave
/o {
gsave
newpath
translate
1.7 setlinewidth
1 setlinejoin
0 setlinecap
0 0 m
3.5 0 l
gsave
0.000 setgray
fill
grestore
stroke
grestore
} bind def
436.058 298.236 o
grestore
gsave
/o {
gsave
newpath
translate
1.7 setlinewidth
1 setlinejoin
0 setlinecap
0 0 m
-3.5 0 l
gsave
0.000 setgray
fill
grestore
stroke
grestore
} bind def
768.233 298.236 o
grestore
gsave
/o {
gsave
newpath
translate
1.7 setlinewidth
1 setlinejoin
0 setlinecap
0 0 m
3.5 0 l
gsave
0.000 setgray
fill
grestore
stroke
grestore
} bind def
436.058 306.585 o
grestore
gsave
/o {
gsave
newpath
translate
1.7 setlinewidth
1 setlinejoin
0 setlinecap
0 0 m
-3.5 0 l
gsave
0.000 setgray
fill
grestore
stroke
grestore
} bind def
768.233 306.585 o
grestore
gsave
/o {
gsave
newpath
translate
1.7 setlinewidth
1 setlinejoin
0 setlinecap
0 0 m
3.5 0 l
gsave
0.000 setgray
fill
grestore
stroke
grestore
} bind def
436.058 314.933 o
grestore
gsave
/o {
gsave
newpath
translate
1.7 setlinewidth
1 setlinejoin
0 setlinecap
0 0 m
-3.5 0 l
gsave
0.000 setgray
fill
grestore
stroke
grestore
} bind def
768.233 314.933 o
grestore
gsave
/o {
gsave
newpath
translate
1.7 setlinewidth
1 setlinejoin
0 setlinecap
0 0 m
3.5 0 l
gsave
0.000 setgray
fill
grestore
stroke
grestore
} bind def
436.058 323.281 o
grestore
gsave
/o {
gsave
newpath
translate
1.7 setlinewidth
1 setlinejoin
0 setlinecap
0 0 m
-3.5 0 l
gsave
0.000 setgray
fill
grestore
stroke
grestore
} bind def
768.233 323.281 o
grestore
gsave
/o {
gsave
newpath
translate
1.7 setlinewidth
1 setlinejoin
0 setlinecap
0 0 m
3.5 0 l
gsave
0.000 setgray
fill
grestore
stroke
grestore
} bind def
436.058 331.63 o
grestore
gsave
/o {
gsave
newpath
translate
1.7 setlinewidth
1 setlinejoin
0 setlinecap
0 0 m
-3.5 0 l
gsave
0.000 setgray
fill
grestore
stroke
grestore
} bind def
768.233 331.63 o
grestore
gsave
/o {
gsave
newpath
translate
1.7 setlinewidth
1 setlinejoin
0 setlinecap
0 0 m
3.5 0 l
gsave
0.000 setgray
fill
grestore
stroke
grestore
} bind def
436.058 339.978 o
grestore
gsave
/o {
gsave
newpath
translate
1.7 setlinewidth
1 setlinejoin
0 setlinecap
0 0 m
-3.5 0 l
gsave
0.000 setgray
fill
grestore
stroke
grestore
} bind def
768.233 339.978 o
grestore
gsave
/o {
gsave
newpath
translate
1.7 setlinewidth
1 setlinejoin
0 setlinecap
0 0 m
3.5 0 l
gsave
0.000 setgray
fill
grestore
stroke
grestore
} bind def
436.058 348.327 o
grestore
gsave
/o {
gsave
newpath
translate
1.7 setlinewidth
1 setlinejoin
0 setlinecap
0 0 m
-3.5 0 l
gsave
0.000 setgray
fill
grestore
stroke
grestore
} bind def
768.233 348.327 o
grestore
gsave
/o {
gsave
newpath
translate
1.7 setlinewidth
1 setlinejoin
0 setlinecap
0 0 m
3.5 0 l
gsave
0.000 setgray
fill
grestore
stroke
grestore
} bind def
436.058 356.675 o
grestore
gsave
/o {
gsave
newpath
translate
1.7 setlinewidth
1 setlinejoin
0 setlinecap
0 0 m
-3.5 0 l
gsave
0.000 setgray
fill
grestore
stroke
grestore
} bind def
768.233 356.675 o
grestore
gsave
/o {
gsave
newpath
translate
1.7 setlinewidth
1 setlinejoin
0 setlinecap
0 0 m
3.5 0 l
gsave
0.000 setgray
fill
grestore
stroke
grestore
} bind def
436.058 365.024 o
grestore
gsave
/o {
gsave
newpath
translate
1.7 setlinewidth
1 setlinejoin
0 setlinecap
0 0 m
-3.5 0 l
gsave
0.000 setgray
fill
grestore
stroke
grestore
} bind def
768.233 365.024 o
grestore
gsave
/o {
gsave
newpath
translate
1.7 setlinewidth
1 setlinejoin
0 setlinecap
0 0 m
3.5 0 l
gsave
0.000 setgray
fill
grestore
stroke
grestore
} bind def
436.058 373.372 o
grestore
gsave
/o {
gsave
newpath
translate
1.7 setlinewidth
1 setlinejoin
0 setlinecap
0 0 m
-3.5 0 l
gsave
0.000 setgray
fill
grestore
stroke
grestore
} bind def
768.233 373.372 o
grestore
gsave
/o {
gsave
newpath
translate
1.7 setlinewidth
1 setlinejoin
0 setlinecap
0 0 m
3.5 0 l
gsave
0.000 setgray
fill
grestore
stroke
grestore
} bind def
436.058 381.72 o
grestore
gsave
/o {
gsave
newpath
translate
1.7 setlinewidth
1 setlinejoin
0 setlinecap
0 0 m
-3.5 0 l
gsave
0.000 setgray
fill
grestore
stroke
grestore
} bind def
768.233 381.72 o
grestore
gsave
/o {
gsave
newpath
translate
1.7 setlinewidth
1 setlinejoin
0 setlinecap
0 0 m
3.5 0 l
gsave
0.000 setgray
fill
grestore
stroke
grestore
} bind def
436.058 390.069 o
grestore
gsave
/o {
gsave
newpath
translate
1.7 setlinewidth
1 setlinejoin
0 setlinecap
0 0 m
-3.5 0 l
gsave
0.000 setgray
fill
grestore
stroke
grestore
} bind def
768.233 390.069 o
grestore
gsave
/o {
gsave
newpath
translate
1.7 setlinewidth
1 setlinejoin
0 setlinecap
0 0 m
3.5 0 l
gsave
0.000 setgray
fill
grestore
stroke
grestore
} bind def
436.058 398.417 o
grestore
gsave
/o {
gsave
newpath
translate
1.7 setlinewidth
1 setlinejoin
0 setlinecap
0 0 m
-3.5 0 l
gsave
0.000 setgray
fill
grestore
stroke
grestore
} bind def
768.233 398.417 o
grestore
gsave
/o {
gsave
newpath
translate
1.7 setlinewidth
1 setlinejoin
0 setlinecap
0 0 m
3.5 0 l
gsave
0.000 setgray
fill
grestore
stroke
grestore
} bind def
436.058 406.766 o
grestore
gsave
/o {
gsave
newpath
translate
1.7 setlinewidth
1 setlinejoin
0 setlinecap
0 0 m
-3.5 0 l
gsave
0.000 setgray
fill
grestore
stroke
grestore
} bind def
768.233 406.766 o
grestore
/BitstreamVeraSans-Roman findfont
14.000 scalefont
setfont
gsave
407.557734 150.035656 translate
90.000000 rotate
0.000000 0.000000 m /N glyphshow
10.472656 0.000000 m /u glyphshow
19.345703 0.000000 m /m glyphshow
32.983398 0.000000 m /b glyphshow
41.870117 0.000000 m /e glyphshow
50.483398 0.000000 m /r glyphshow
56.239258 0.000000 m /space glyphshow
60.689453 0.000000 m /o glyphshow
69.254883 0.000000 m /f glyphshow
74.183594 0.000000 m /space glyphshow
78.633789 0.000000 m /G glyphshow
89.482422 0.000000 m /a glyphshow
98.061523 0.000000 m /l glyphshow
101.951172 0.000000 m /a glyphshow
110.530273 0.000000 m /c glyphshow
118.227539 0.000000 m /t glyphshow
123.716797 0.000000 m /i glyphshow
127.606445 0.000000 m /c glyphshow
135.303711 0.000000 m /space glyphshow
139.753906 0.000000 m /G glyphshow
150.602539 0.000000 m /C glyphshow
160.377930 0.000000 m /s glyphshow
grestore
1.000 setlinewidth
gsave
436.058 410.94 m
768.233 410.94 l
stroke
grestore
gsave
768.233 56.1313 m
768.233 410.94 l
stroke
grestore
gsave
436.058 56.1313 m
768.233 56.1313 l
stroke
grestore
gsave
436.058 56.1313 m
436.058 410.94 l
stroke
grestore

end
showpage
