%!PS-Adobe-2.0 EPSF-2.0
%%Creator: SM
%%BoundingBox: 18 144 592 718
%%DocumentFonts: Helvetica
%%EndComments
 20 dict begin
72 300 div dup scale
1 setlinejoin 0 setlinecap
/Helvetica findfont 55 scalefont setfont 
/B {currentpoint stroke newpath moveto} def
/F {moveto 0 setlinecap} def
/C {CS M 1 1 3 { pop 3 1 roll 255 div} for SET_COLOUR } def
/CS {currentpoint stroke} def
/CF {currentpoint eofill} def
/L {lineto} def /M {moveto} def
/P {moveto 0 1 rlineto stroke} def
/T {currentlinecap exch 1 setlinecap show setlinecap} def
errordict /nocurrentpoint {pop 0 0 M currentpoint} put
%% /SET_COLOUR { setrgbcolor }  def
/SET_COLOUR { }  def
 80 600 translate
gsave
CS [] 0 setdash M
CS M 1 100 mul 72 div dup setlinewidth
/P [ /moveto cvx 0 5 -1 roll .05 add dup -2 div 0 exch /rmoveto cvx /rlineto cvx /stroke cvx ] cvx def
 0 0 0 C
 0 0 0 C
CS [] 0 setdash M
727 116 M 778 166 M 778 116 L
780 166 M 780 116 L
771 166 M 800 166 L
807 164 L
809 161 L
812 156 L
812 149 L
809 144 L
807 142 L
800 140 L
780 140 L
800 166 M 804 164 L
807 161 L
809 156 L
809 149 L
807 144 L
804 142 L
800 140 L
771 116 M 788 116 L
831 149 M 831 116 L
833 149 M 833 116 L
833 135 M 836 142 L
840 147 L
845 149 L
852 149 L
855 147 L
855 144 L
852 142 L
850 144 L
852 147 L
824 149 M 833 149 L
824 116 M 840 116 L
881 149 M 874 147 L
869 142 L
867 135 L
867 130 L
869 123 L
874 118 L
881 116 L
886 116 L
893 118 L
898 123 L
901 130 L
901 135 L
898 142 L
893 147 L
886 149 L
881 149 L
877 147 L
872 142 L
869 135 L
869 130 L
872 123 L
877 118 L
881 116 L
886 116 M 891 118 L
896 123 L
898 130 L
898 135 L
896 142 L
891 147 L
886 149 L
922 166 M 920 164 L
922 161 L
925 164 L
922 166 L
925 149 M 925 106 L
922 101 L
917 99 L
913 99 L
910 101 L
910 104 L
913 106 L
915 104 L
913 101 L
922 149 M 922 106 L
920 101 L
917 99 L
915 149 M 925 149 L
944 135 M 973 135 L
973 140 L
970 144 L
968 147 L
963 149 L
956 149 L
949 147 L
944 142 L
942 135 L
942 130 L
944 123 L
949 118 L
956 116 L
961 116 L
968 118 L
973 123 L
970 135 M 970 142 L
968 147 L
956 149 M 951 147 L
946 142 L
944 135 L
944 130 L
946 123 L
951 118 L
956 116 L
1016 142 M 1014 140 L
1016 137 L
1019 140 L
1019 142 L
1014 147 L
1009 149 L
1002 149 L
995 147 L
990 142 L
987 135 L
987 130 L
990 123 L
995 118 L
1002 116 L
1007 116 L
1014 118 L
1019 123 L
1002 149 M 997 147 L
992 142 L
990 135 L
990 130 L
992 123 L
997 118 L
1002 116 L
1038 166 M 1038 125 L
1040 118 L
1045 116 L
1050 116 L
1055 118 L
1057 123 L
1040 166 M 1040 125 L
1043 118 L
1045 116 L
1031 149 M 1050 149 L
1072 135 M 1100 135 L
1100 140 L
1098 144 L
1096 147 L
1091 149 L
1084 149 L
1076 147 L
1072 142 L
1069 135 L
1069 130 L
1072 123 L
1076 118 L
1084 116 L
1088 116 L
1096 118 L
1100 123 L
1098 135 M 1098 142 L
1096 147 L
1084 149 M 1079 147 L
1074 142 L
1072 135 L
1072 130 L
1074 123 L
1079 118 L
1084 116 L
1144 166 M 1144 116 L
1146 166 M 1146 116 L
1144 142 M 1139 147 L
1134 149 L
1129 149 L
1122 147 L
1117 142 L
1115 135 L
1115 130 L
1117 123 L
1122 118 L
1129 116 L
1134 116 L
1139 118 L
1144 123 L
1129 149 M 1124 147 L
1120 142 L
1117 135 L
1117 130 L
1120 123 L
1124 118 L
1129 116 L
1137 166 M 1146 166 L
1144 116 M 1153 116 L
1209 166 M 1209 116 L
1211 166 M 1211 116 L
1202 166 M 1230 166 L
1238 164 L
1240 161 L
1242 156 L
1242 152 L
1240 147 L
1238 144 L
1230 142 L
1211 142 L
1230 166 M 1235 164 L
1238 161 L
1240 156 L
1240 152 L
1238 147 L
1235 144 L
1230 142 L
1202 116 M 1218 116 L
1223 142 M 1228 140 L
1230 137 L
1238 120 L
1240 118 L
1242 118 L
1245 120 L
1228 140 M 1230 135 L
1235 118 L
1238 116 L
1242 116 L
1245 120 L
1245 123 L
1262 144 M 1262 142 L
1259 142 L
1259 144 L
1262 147 L
1266 149 L
1276 149 L
1281 147 L
1283 144 L
1286 140 L
1286 123 L
1288 118 L
1291 116 L
1283 144 M 1283 123 L
1286 118 L
1291 116 L
1293 116 L
1283 140 M 1281 137 L
1266 135 L
1259 132 L
1257 128 L
1257 123 L
1259 118 L
1266 116 L
1274 116 L
1279 118 L
1283 123 L
1266 135 M 1262 132 L
1259 128 L
1259 123 L
1262 118 L
1266 116 L
1334 166 M 1334 116 L
1336 166 M 1336 116 L
1334 142 M 1329 147 L
1324 149 L
1319 149 L
1312 147 L
1307 142 L
1305 135 L
1305 130 L
1307 123 L
1312 118 L
1319 116 L
1324 116 L
1329 118 L
1334 123 L
1319 149 M 1315 147 L
1310 142 L
1307 135 L
1307 130 L
1310 123 L
1315 118 L
1319 116 L
1327 166 M 1336 166 L
1334 116 M 1344 116 L
1360 166 M 1358 164 L
1360 161 L
1363 164 L
1360 166 L
1360 149 M 1360 116 L
1363 149 M 1363 116 L
1353 149 M 1363 149 L
1353 116 M 1370 116 L
1387 149 M 1387 123 L
1389 118 L
1396 116 L
1401 116 L
1408 118 L
1413 123 L
1389 149 M 1389 123 L
1392 118 L
1396 116 L
1413 149 M 1413 116 L
1416 149 M 1416 116 L
1380 149 M 1389 149 L
1406 149 M 1416 149 L
1413 116 M 1423 116 L
1459 144 M 1461 149 L
1461 140 L
1459 144 L
1457 147 L
1452 149 L
CS M
1442 149 L
1437 147 L
1435 144 L
1435 140 L
1437 137 L
1442 135 L
1454 130 L
1459 128 L
1461 125 L
1435 142 M 1437 140 L
1442 137 L
1454 132 L
1459 130 L
1461 128 L
1461 120 L
1459 118 L
1454 116 L
1445 116 L
1440 118 L
1437 120 L
1435 125 L
1435 116 L
1437 120 L
1534 176 M 1529 171 L
1524 164 L
1519 154 L
1517 142 L
1517 132 L
1519 120 L
1524 111 L
1529 104 L
1534 99 L
1529 171 M 1524 161 L
1522 154 L
1519 142 L
1519 132 L
1522 120 L
1524 113 L
1529 104 L
1553 144 M 1553 142 L
1551 142 L
1551 144 L
1553 147 L
1558 149 L
1567 149 L
1572 147 L
1575 144 L
1577 140 L
1577 123 L
1579 118 L
1582 116 L
1575 144 M 1575 123 L
1577 118 L
1582 116 L
1584 116 L
1575 140 M 1572 137 L
1558 135 L
1551 132 L
1548 128 L
1548 123 L
1551 118 L
1558 116 L
1565 116 L
1570 118 L
1575 123 L
1558 135 M 1553 132 L
1551 128 L
1551 123 L
1553 118 L
1558 116 L
1601 149 M 1601 116 L
1603 149 M 1603 116 L
1603 135 M 1606 142 L
1611 147 L
1615 149 L
1623 149 L
1625 147 L
1625 144 L
1623 142 L
1620 144 L
1623 147 L
1594 149 M 1603 149 L
1594 116 M 1611 116 L
1666 142 M 1664 140 L
1666 137 L
1668 140 L
1668 142 L
1664 147 L
1659 149 L
1652 149 L
1644 147 L
1640 142 L
1637 135 L
1637 130 L
1640 123 L
1644 118 L
1652 116 L
1656 116 L
1664 118 L
1668 123 L
1652 149 M 1647 147 L
1642 142 L
1640 135 L
1640 130 L
1642 123 L
1647 118 L
1652 116 L
1688 149 M 1688 116 L
1690 149 M 1690 116 L
1690 142 M 1695 147 L
1702 149 L
1707 149 L
1714 147 L
1717 142 L
1717 116 L
1707 149 M 1712 147 L
1714 142 L
1714 116 L
1717 142 M 1721 147 L
1729 149 L
1733 149 L
1741 147 L
1743 142 L
1743 116 L
1733 149 M 1738 147 L
1741 142 L
1741 116 L
1680 149 M 1690 149 L
1680 116 M 1697 116 L
1707 116 M 1724 116 L
1733 116 M 1750 116 L
1767 166 M 1765 164 L
1767 161 L
1770 164 L
1767 166 L
1767 149 M 1767 116 L
1770 149 M 1770 116 L
1760 149 M 1770 149 L
1760 116 M 1777 116 L
1794 149 M 1794 116 L
1796 149 M 1796 116 L
1796 142 M 1801 147 L
1808 149 L
1813 149 L
1820 147 L
1822 142 L
1822 116 L
1813 149 M 1818 147 L
1820 142 L
1820 116 L
1786 149 M 1796 149 L
1786 116 M 1803 116 L
1813 116 M 1830 116 L
1842 176 M 1847 171 L
1851 164 L
1856 154 L
1859 142 L
1859 132 L
1856 120 L
1851 111 L
1847 104 L
1842 99 L
1847 171 M 1851 161 L
1854 154 L
1856 142 L
1856 132 L
1854 120 L
1851 113 L
1847 104 L
CS [] 0 setdash M
CS [] 0 setdash M
67 1142 M 7 1191 M 84 1191 L
7 1193 M 84 1193 L
7 1191 M 7 1207 L
84 1191 M 84 1207 L
16 1227 M 67 1227 L
16 1229 M 67 1229 L
31 1244 M 50 1244 L
16 1220 M 16 1258 L
31 1258 L
16 1256 L
40 1229 M 40 1244 L
67 1220 M 67 1236 L
48 1272 M 48 1301 L
43 1301 L
38 1299 L
36 1297 L
33 1292 L
33 1285 L
36 1277 L
40 1272 L
48 1270 L
53 1270 L
60 1272 L
65 1277 L
67 1285 L
67 1289 L
65 1297 L
60 1301 L
48 1299 M 40 1299 L
36 1297 L
33 1285 M 36 1280 L
40 1275 L
48 1272 L
53 1272 L
60 1275 L
65 1280 L
67 1285 L
7 1357 M 84 1313 L
16 1374 M 67 1374 L
16 1376 M 67 1376 L
16 1405 M 67 1405 L
16 1407 M 67 1407 L
16 1366 M 16 1383 L
16 1398 M 16 1414 L
40 1376 M 40 1405 L
67 1366 M 67 1383 L
67 1398 M 67 1414 L
7 1441 M 84 1441 L
7 1443 M 84 1443 L
7 1427 M 7 1443 L
84 1426 M 84 1443 L
CS [] 0 setdash M
CS [] 0 setdash M
335 1635 M 2261 1635 L
371 1635 M 371 1677 L
461 1635 M 461 1656 L
551 1635 M 551 1656 L
641 1635 M 641 1656 L
731 1635 M 731 1677 L
821 1635 M 821 1656 L
911 1635 M 911 1656 L
1001 1635 M 1001 1656 L
1091 1635 M 1091 1677 L
1181 1635 M 1181 1656 L
1271 1635 M 1271 1656 L
1361 1635 M 1361 1656 L
1451 1635 M 1451 1677 L
1541 1635 M 1541 1656 L
1631 1635 M 1631 1656 L
1721 1635 M 1721 1656 L
1811 1635 M 1811 1677 L
1901 1635 M 1901 1656 L
1991 1635 M 1991 1656 L
2081 1635 M 2081 1656 L
2171 1635 M 2171 1677 L
2261 1635 M 2261 1656 L
335 2260 M 2261 2260 L
371 2260 M 371 2219 L
461 2260 M 461 2240 L
551 2260 M 551 2240 L
641 2260 M 641 2240 L
731 2260 M 731 2219 L
821 2260 M 821 2240 L
911 2260 M 911 2240 L
1001 2260 M 1001 2240 L
1091 2260 M 1091 2219 L
1181 2260 M 1181 2240 L
1271 2260 M 1271 2240 L
1361 2260 M 1361 2240 L
1451 2260 M 1451 2219 L
1541 2260 M 1541 2240 L
1631 2260 M 1631 2240 L
1721 2260 M 1721 2240 L
1811 2260 M 1811 2219 L
1901 2260 M 1901 2240 L
1991 2260 M 1991 2240 L
2081 2260 M 2081 2240 L
2171 2260 M 2171 2219 L
2261 2260 M 2261 2240 L
335 1635 M 335 2260 L
335 1635 M 356 1635 L
335 1675 M 356 1675 L
335 1714 M 356 1714 L
335 1753 M 376 1753 L
211 1732 M 219 1750 M 254 1750 L
269 1765 M 271 1763 L
269 1761 L
267 1763 L
267 1765 L
269 1769 L
271 1771 L
277 1773 L
285 1773 L
290 1771 L
292 1769 L
294 1765 L
294 1761 L
292 1758 L
287 1754 L
277 1750 L
273 1748 L
269 1744 L
267 1738 L
267 1732 L
285 1773 M 288 1771 L
290 1769 L
292 1765 L
292 1761 L
290 1758 L
285 1754 L
277 1750 L
267 1736 M 269 1738 L
273 1738 L
CS M
283 1734 L
288 1734 L
292 1736 L
294 1738 L
273 1738 M 283 1732 L
290 1732 L
292 1734 L
294 1738 L
294 1742 L
335 1792 M 356 1792 L
335 1831 M 356 1831 L
335 1870 M 356 1870 L
335 1909 M 356 1909 L
335 1948 M 376 1948 L
211 1928 M 219 1945 M 254 1945 L
273 1960 M 277 1962 L
283 1968 L
283 1928 L
281 1966 M 281 1928 L
273 1928 M 290 1928 L
335 1987 M 356 1987 L
335 2026 M 356 2026 L
335 2065 M 356 2065 L
335 2104 M 356 2104 L
335 2143 M 376 2143 L
261 2123 M 279 2163 M 273 2161 L
269 2156 L
267 2146 L
267 2140 L
269 2131 L
273 2125 L
279 2123 L
283 2123 L
288 2125 L
292 2131 L
294 2140 L
294 2146 L
292 2156 L
288 2161 L
283 2163 L
279 2163 L
275 2161 L
273 2160 L
271 2156 L
269 2146 L
269 2140 L
271 2131 L
273 2127 L
275 2125 L
279 2123 L
283 2123 M 287 2125 L
288 2127 L
290 2131 L
292 2140 L
292 2146 L
290 2156 L
288 2160 L
287 2161 L
283 2163 L
335 2182 M 356 2182 L
335 2221 M 356 2221 L
335 2260 M 356 2260 L
2261 1635 M 2261 2260 L
2261 1635 M 2240 1635 L
2261 1675 M 2240 1675 L
2261 1714 M 2240 1714 L
2261 1753 M 2219 1753 L
2261 1792 M 2240 1792 L
2261 1831 M 2240 1831 L
2261 1870 M 2240 1870 L
2261 1909 M 2240 1909 L
2261 1948 M 2219 1948 L
2261 1987 M 2240 1987 L
2261 2026 M 2240 2026 L
2261 2065 M 2240 2065 L
2261 2104 M 2240 2104 L
2261 2143 M 2219 2143 L
2261 2182 M 2240 2182 L
2261 2221 M 2240 2221 L
2261 2260 M 2240 2260 L
CS [] 0 setdash M
1732 1866 M 1722 1875 L
1713 1866 L
1722 1856 L
1732 1866 L
1743 1774 M 1734 1783 L
1725 1774 L
1734 1765 L
1743 1774 L
1966 1809 M 1956 1819 L
1947 1809 L
1956 1800 L
1966 1809 L
1505 1739 M 1496 1748 L
1487 1739 L
1496 1730 L
1505 1739 L
1963 1905 M 1954 1914 L
1945 1905 L
1954 1895 L
1963 1905 L
1232 1850 M 1223 1860 L
1214 1850 L
1223 1841 L
1232 1850 L
1336 1792 M 1326 1801 L
1317 1792 L
1327 1782 L
1336 1792 L
1563 1735 M 1553 1744 L
1544 1735 L
1553 1726 L
1563 1735 L
1564 2059 M 1555 2069 L
1545 2059 L
1555 2050 L
1564 2059 L
1456 1903 M 1446 1912 L
1437 1903 L
1447 1894 L
1456 1903 L
1157 1885 M 1147 1895 L
1138 1885 L
1147 1876 L
1157 1885 L
1699 1891 M 1690 1901 L
1681 1891 L
1690 1882 L
1699 1891 L
1430 2018 M 1421 2028 L
1412 2018 L
1421 2009 L
1430 2018 L
1809 1760 M 1800 1770 L
1790 1760 L
1800 1751 L
1809 1760 L
1426 2063 M 1416 2072 L
1407 2063 L
1417 2054 L
1426 2063 L
1064 1864 M 1055 1873 L
1045 1864 L
1055 1855 L
1064 1864 L
1416 1760 M 1407 1770 L
1397 1760 L
1407 1751 L
1416 1760 L
1093 1868 M 1083 1877 L
1074 1868 L
1084 1858 L
1093 1868 L
1653 1829 M 1644 1838 L
1635 1829 L
1644 1819 L
1653 1829 L
1119 1930 M 1110 1940 L
1100 1930 L
1110 1921 L
1119 1930 L
1382 1776 M 1372 1785 L
1363 1776 L
1372 1767 L
1382 1776 L
1051 2030 M 1041 2039 L
1032 2030 L
1041 2021 L
1051 2030 L
1578 2016 M 1569 2026 L
1559 2016 L
1569 2007 L
1578 2016 L
1230 1856 M 1220 1865 L
1211 1856 L
1220 1847 L
1230 1856 L
1185 1729 M 1175 1739 L
1166 1729 L
1176 1720 L
1185 1729 L
1318 1733 M 1309 1742 L
1299 1733 L
1309 1724 L
1318 1733 L
1316 1700 M 1307 1709 L
1298 1700 L
1307 1690 L
1316 1700 L
1387 1676 M 1378 1686 L
1369 1676 L
1378 1667 L
1387 1676 L
1204 1911 M 1195 1920 L
1185 1911 L
1195 1901 L
1204 1911 L
1213 1819 M 1204 1828 L
1195 1819 L
1204 1810 L
1213 1819 L
889 1897 M 879 1906 L
870 1897 L
879 1888 L
889 1897 L
1038 1872 M 1028 1881 L
1019 1872 L
1028 1862 L
1038 1872 L
1138 1913 M 1129 1922 L
1120 1913 L
1129 1903 L
1138 1913 L
1292 1680 M 1282 1690 L
1273 1680 L
1282 1671 L
1292 1680 L
1240 1688 M 1231 1697 L
1221 1688 L
1231 1679 L
1240 1688 L
1022 1848 M 1012 1858 L
1003 1848 L
1012 1839 L
1022 1848 L
1053 1934 M 1043 1944 L
1034 1934 L
1043 1925 L
1053 1934 L
1039 1862 M 1030 1871 L
1020 1862 L
1030 1853 L
1039 1862 L
888 2030 M 879 2039 L
869 2030 L
879 2021 L
888 2030 L
1232 1823 M 1223 1832 L
1213 1823 L
1223 1814 L
1232 1823 L
834 2063 M 824 2072 L
815 2063 L
824 2054 L
834 2063 L
965 1837 M 956 1846 L
946 1836 L
956 1827 L
965 1837 L
830 1798 M 821 1807 L
812 1797 L
821 1788 L
830 1798 L
990 1842 M 981 1852 L
971 1842 L
981 1833 L
990 1842 L
837 1821 M 828 1830 L
818 1821 L
828 1812 L
837 1821 L
1158 1721 M 1149 1731 L
1140 1721 L
1149 1712 L
1158 1721 L
1035 1721 M 1026 1731 L
1016 1721 L
1026 1712 L
1035 1721 L
837 1946 M 827 1955 L
818 1946 L
827 1937 L
837 1946 L
1176 1938 M 1166 1948 L
1157 1938 L
1167 1929 L
1176 1938 L
879 2075 M 869 2084 L
860 2075 L
869 2065 L
879 2075 L
797 1991 M 788 2000 L
779 1991 L
788 1981 L
797 1991 L
975 1727 M 966 1737 L
956 1727 L
966 1718 L
975 1727 L
1461 1930 M 1452 1940 L
1442 1930 L
1452 1921 L
1461 1930 L
778 2061 M 769 2070 L
759 2061 L
769 2052 L
778 2061 L
1115 1825 M 1106 1834 L
1096 1825 L
1106 1815 L
1115 1825 L
CS M
873 1905 M 864 1914 L
854 1905 L
864 1895 L
873 1905 L
761 1930 M 752 1940 L
743 1930 L
752 1921 L
761 1930 L
965 1934 M 955 1944 L
946 1934 L
955 1925 L
965 1934 L
784 1967 M 774 1977 L
765 1967 L
774 1958 L
784 1967 L
1189 1881 M 1180 1891 L
1171 1881 L
1180 1872 L
1189 1881 L
731 1964 M 722 1973 L
713 1963 L
722 1954 L
731 1964 L
765 1921 M 755 1930 L
746 1921 L
755 1911 L
765 1921 L
819 1735 M 809 1744 L
800 1735 L
809 1726 L
819 1735 L
1174 1915 M 1164 1924 L
1155 1915 L
1164 1905 L
1174 1915 L
998 2049 M 989 2059 L
980 2049 L
989 2040 L
998 2049 L
746 1833 M 737 1842 L
728 1833 L
737 1823 L
746 1833 L
800 1858 M 791 1867 L
781 1858 L
791 1849 L
800 1858 L
720 2145 M 711 2154 L
702 2145 L
711 2136 L
720 2145 L
856 1823 M 846 1832 L
837 1823 L
846 1814 L
856 1823 L
808 1778 M 799 1787 L
789 1778 L
799 1769 L
808 1778 L
788 2081 M 779 2090 L
769 2081 L
779 2071 L
788 2081 L
827 2067 M 818 2076 L
808 2067 L
818 2058 L
827 2067 L
798 1905 M 788 1914 L
779 1905 L
788 1895 L
798 1905 L
1139 1827 M 1130 1836 L
1120 1827 L
1130 1817 L
1139 1827 L
770 1883 M 761 1893 L
751 1883 L
761 1874 L
770 1883 L
858 1946 M 848 1955 L
839 1946 L
849 1937 L
858 1946 L
991 1922 M 981 1932 L
972 1922 L
982 1913 L
991 1922 L
851 2104 M 841 2113 L
832 2104 L
841 2095 L
851 2104 L
681 1950 M 671 1959 L
662 1950 L
671 1940 L
681 1950 L
744 1919 M 734 1928 L
725 1919 L
734 1909 L
744 1919 L
616 1934 M 606 1944 L
597 1934 L
607 1925 L
616 1934 L
618 1819 M 609 1828 L
599 1819 L
609 1810 L
618 1819 L
620 2007 M 611 2016 L
601 2006 L
611 1997 L
620 2007 L
1052 1952 M 1043 1961 L
1034 1952 L
1043 1942 L
1052 1952 L
896 1751 M 887 1760 L
878 1751 L
887 1741 L
896 1751 L
597 1905 M 587 1914 L
578 1905 L
587 1895 L
597 1905 L
644 1991 M 635 2000 L
625 1991 L
635 1981 L
644 1991 L
1018 1671 M 1009 1680 L
1000 1670 L
1009 1661 L
1018 1671 L
600 1921 M 590 1930 L
581 1921 L
590 1911 L
600 1921 L
767 1938 M 758 1948 L
749 1938 L
758 1929 L
767 1938 L
1547 1852 M 1537 1862 L
1528 1852 L
1537 1843 L
1547 1852 L
962 1784 M 952 1793 L
943 1784 L
953 1774 L
962 1784 L
870 1913 M 860 1922 L
851 1913 L
860 1903 L
870 1913 L
887 1827 M 878 1836 L
868 1827 L
878 1817 L
887 1827 L
585 2065 M 575 2074 L
566 2065 L
575 2056 L
585 2065 L
893 1725 M 883 1735 L
874 1725 L
883 1716 L
893 1725 L
731 1866 M 721 1875 L
712 1866 L
722 1856 L
731 1866 L
636 1948 M 626 1957 L
617 1948 L
626 1939 L
636 1948 L
607 2079 M 597 2088 L
588 2079 L
598 2069 L
607 2079 L
715 2055 M 705 2065 L
696 2055 L
705 2046 L
715 2055 L
576 2098 M 567 2108 L
557 2098 L
567 2089 L
576 2098 L
758 2131 M 749 2141 L
740 2131 L
749 2122 L
758 2131 L
847 1729 M 838 1739 L
828 1729 L
838 1720 L
847 1729 L
930 1860 M 920 1869 L
911 1860 L
921 1851 L
930 1860 L
574 1878 M 564 1887 L
555 1878 L
564 1868 L
574 1878 L
665 2001 M 655 2010 L
646 2001 L
655 1991 L
665 2001 L
657 1973 M 647 1983 L
638 1973 L
647 1964 L
657 1973 L
549 1841 M 540 1850 L
531 1840 L
540 1831 L
549 1841 L
1043 1839 M 1033 1848 L
1024 1838 L
1033 1829 L
1043 1839 L
1041 1922 M 1032 1932 L
1022 1922 L
1032 1913 L
1041 1922 L
962 1733 M 952 1742 L
943 1733 L
952 1724 L
962 1733 L
722 2087 M 712 2096 L
703 2087 L
712 2077 L
722 2087 L
603 1880 M 594 1889 L
584 1879 L
594 1870 L
603 1880 L
513 1880 M 503 1889 L
494 1879 L
503 1870 L
513 1880 L
553 2069 M 544 2078 L
534 2069 L
544 2060 L
553 2069 L
707 2018 M 698 2028 L
689 2018 L
698 2009 L
707 2018 L
885 1776 M 876 1785 L
866 1776 L
876 1767 L
885 1776 L
522 1942 M 513 1951 L
504 1942 L
513 1933 L
522 1942 L
606 2003 M 597 2012 L
587 2002 L
597 1993 L
606 2003 L
886 1803 M 876 1813 L
867 1803 L
876 1794 L
886 1803 L
665 1987 M 656 1996 L
646 1987 L
656 1978 L
665 1987 L
914 1895 M 905 1905 L
895 1895 L
905 1886 L
914 1895 L
1038 1786 M 1028 1795 L
1019 1786 L
1028 1776 L
1038 1786 L
475 1803 M 466 1813 L
456 1803 L
466 1794 L
475 1803 L
680 1790 M 671 1799 L
662 1790 L
671 1780 L
680 1790 L
630 1872 M 621 1881 L
612 1872 L
621 1862 L
630 1872 L
512 1792 M 502 1801 L
493 1792 L
502 1782 L
512 1792 L
542 1821 M 533 1830 L
524 1821 L
533 1812 L
542 1821 L
504 1942 M 494 1951 L
485 1942 L
494 1933 L
504 1942 L
471 1987 M 462 1996 L
453 1987 L
462 1978 L
471 1987 L
CS M
726 2063 M 716 2072 L
707 2063 L
716 2054 L
726 2063 L
583 1837 M 573 1846 L
564 1836 L
573 1827 L
583 1837 L
462 2151 M 452 2160 L
443 2151 L
452 2142 L
462 2151 L
463 2092 M 454 2102 L
444 2092 L
454 2083 L
463 2092 L
458 1897 M 448 1906 L
439 1897 L
449 1888 L
458 1897 L
559 1907 M 549 1916 L
540 1907 L
549 1897 L
559 1907 L
683 2012 M 674 2022 L
665 2012 L
674 2003 L
683 2012 L
1305 1856 M 1295 1865 L
1286 1856 L
1295 1847 L
1305 1856 L
711 1837 M 701 1846 L
692 1836 L
702 1827 L
711 1837 L
435 2034 M 426 2043 L
416 2034 L
426 2024 L
435 2034 L
642 1922 M 633 1932 L
623 1922 L
633 1913 L
642 1922 L
462 1975 M 453 1985 L
444 1975 L
453 1966 L
462 1975 L
454 1913 M 445 1922 L
436 1913 L
445 1903 L
454 1913 L
443 1997 M 434 2006 L
425 1997 L
434 1987 L
443 1997 L
490 2118 M 481 2127 L
472 2118 L
481 2108 L
490 2118 L
612 1936 M 602 1946 L
593 1936 L
602 1927 L
612 1936 L
464 1878 M 454 1887 L
445 1878 L
454 1868 L
464 1878 L
427 2200 M 418 2209 L
408 2200 L
418 2190 L
427 2200 L
454 1864 M 445 1873 L
435 1864 L
445 1855 L
454 1864 L
683 1971 M 673 1981 L
664 1971 L
673 1962 L
683 1971 L
431 2114 M 421 2123 L
412 2114 L
422 2104 L
431 2114 L
724 1883 M 714 1893 L
705 1883 L
714 1874 L
724 1883 L
418 2047 M 409 2057 L
400 2047 L
409 2038 L
418 2047 L
441 1995 M 432 2004 L
423 1995 L
432 1985 L
441 1995 L
1210 1776 M 1200 1785 L
1191 1776 L
1201 1767 L
1210 1776 L
403 2139 M 394 2149 L
384 2139 L
394 2130 L
403 2139 L
437 2005 M 428 2014 L
419 2004 L
428 1995 L
437 2005 L
698 1813 M 689 1822 L
679 1813 L
689 1804 L
698 1813 L
572 1846 M 562 1856 L
553 1846 L
562 1837 L
572 1846 L
442 1909 M 433 1918 L
423 1909 L
433 1899 L
442 1909 L
406 1987 M 397 1996 L
388 1987 L
397 1978 L
406 1987 L
406 2040 M 397 2049 L
388 2040 L
397 2030 L
406 2040 L
433 2194 M 424 2203 L
415 2194 L
424 2185 L
433 2194 L
1177 1858 M 1168 1867 L
1159 1858 L
1168 1849 L
1177 1858 L
542 1907 M 533 1916 L
524 1907 L
533 1897 L
542 1907 L
628 1893 M 619 1903 L
609 1893 L
619 1884 L
628 1893 L
402 1985 M 393 1994 L
384 1985 L
393 1976 L
402 1985 L
425 2018 M 416 2028 L
407 2018 L
416 2009 L
425 2018 L
651 1827 M 642 1836 L
633 1827 L
642 1817 L
651 1827 L
1134 1827 M 1125 1836 L
1115 1827 L
1125 1817 L
1134 1827 L
672 1907 M 662 1916 L
653 1907 L
662 1897 L
672 1907 L
520 1971 M 510 1981 L
501 1971 L
510 1962 L
520 1971 L
684 1833 M 675 1842 L
665 1833 L
675 1823 L
684 1833 L
457 2161 M 448 2170 L
439 2161 L
448 2151 L
457 2161 L
433 2018 M 423 2028 L
414 2018 L
423 2009 L
433 2018 L
641 1973 M 632 1983 L
623 1973 L
632 1964 L
641 1973 L
445 2059 M 436 2069 L
426 2059 L
436 2050 L
445 2059 L
494 2096 M 485 2106 L
475 2096 L
485 2087 L
494 2096 L
455 1919 M 446 1928 L
436 1919 L
446 1909 L
455 1919 L
717 1880 M 708 1889 L
699 1879 L
708 1870 L
717 1880 L
1206 1657 M 1196 1666 L
1187 1657 L
1196 1648 L
1206 1657 L
508 1997 M 499 2006 L
490 1997 L
499 1987 L
508 1997 L
475 1973 M 466 1983 L
457 1973 L
466 1964 L
475 1973 L
1005 1858 M 996 1867 L
986 1858 L
996 1849 L
1005 1858 L
472 2128 M 463 2137 L
454 2128 L
463 2118 L
472 2128 L
476 2055 M 466 2065 L
457 2055 L
466 2046 L
476 2055 L
1558 1987 M 1548 1996 L
1539 1987 L
1548 1978 L
1558 1987 L
665 1848 M 656 1858 L
647 1848 L
656 1839 L
665 1848 L
569 1944 M 559 1953 L
550 1944 L
559 1935 L
569 1944 L
573 1835 M 564 1844 L
554 1835 L
564 1825 L
573 1835 L
662 1915 M 653 1924 L
643 1915 L
653 1905 L
662 1915 L
515 1899 M 506 1908 L
497 1899 L
506 1890 L
515 1899 L
618 2073 M 608 2082 L
599 2073 L
609 2063 L
618 2073 L
512 2126 M 503 2135 L
493 2126 L
503 2116 L
512 2126 L
529 1792 M 520 1801 L
510 1792 L
520 1782 L
529 1792 L
1949 1786 M 1939 1795 L
1930 1786 L
1939 1776 L
1949 1786 L
519 1883 M 509 1893 L
500 1883 L
509 1874 L
519 1883 L
510 2061 M 500 2070 L
491 2061 L
501 2052 L
510 2061 L
857 2038 M 848 2047 L
838 2038 L
848 2028 L
857 2038 L
784 1899 M 774 1908 L
765 1899 L
774 1890 L
784 1899 L
520 2063 M 511 2072 L
501 2063 L
511 2054 L
520 2063 L
819 1817 M 810 1826 L
800 1817 L
810 1808 L
819 1817 L
538 1893 M 529 1903 L
519 1893 L
529 1884 L
538 1893 L
890 1831 M 881 1840 L
871 1831 L
881 1821 L
890 1831 L
563 1848 M 554 1858 L
544 1848 L
554 1839 L
563 1848 L
CS M
543 1928 M 534 1938 L
524 1928 L
534 1919 L
543 1928 L
600 1911 M 591 1920 L
581 1911 L
591 1901 L
600 1911 L
608 1901 M 598 1910 L
589 1901 L
598 1892 L
608 1901 L
691 2106 M 681 2115 L
672 2106 L
681 2097 L
691 2106 L
561 1995 M 552 2004 L
542 1995 L
552 1985 L
561 1995 L
790 2071 M 780 2080 L
771 2071 L
780 2062 L
790 2071 L
624 1848 M 615 1858 L
606 1848 L
615 1839 L
624 1848 L
760 1942 M 750 1951 L
741 1942 L
750 1933 L
760 1942 L
808 2057 M 798 2067 L
789 2057 L
799 2048 L
808 2057 L
671 2083 M 662 2092 L
652 2083 L
662 2073 L
671 2083 L
670 1860 M 661 1869 L
652 1860 L
661 1851 L
670 1860 L
716 2059 M 706 2069 L
697 2059 L
706 2050 L
716 2059 L
772 1833 M 762 1842 L
753 1833 L
762 1823 L
772 1833 L
740 1922 M 730 1932 L
721 1922 L
731 1913 L
740 1922 L
707 1965 M 697 1975 L
688 1965 L
697 1956 L
707 1965 L
638 1936 M 629 1946 L
619 1936 L
629 1927 L
638 1936 L
762 1967 M 752 1977 L
743 1967 L
753 1958 L
762 1967 L
646 1987 M 637 1996 L
627 1987 L
637 1978 L
646 1987 L
673 1881 M 664 1891 L
654 1881 L
664 1872 L
673 1881 L
738 1860 M 729 1869 L
719 1860 L
729 1851 L
738 1860 L
692 1985 M 682 1994 L
673 1985 L
682 1976 L
692 1985 L
666 1979 M 657 1988 L
647 1979 L
657 1970 L
666 1979 L
693 1876 M 684 1885 L
675 1876 L
684 1866 L
693 1876 L
648 1772 M 638 1781 L
629 1772 L
638 1763 L
648 1772 L
656 1817 M 647 1826 L
637 1817 L
647 1808 L
656 1817 L
715 1801 M 706 1811 L
696 1801 L
706 1792 L
715 1801 L
754 1944 M 744 1953 L
735 1944 L
745 1935 L
754 1944 L
705 1948 M 696 1957 L
687 1948 L
696 1939 L
705 1948 L
875 1792 M 865 1801 L
856 1792 L
865 1782 L
875 1792 L
899 1788 M 890 1797 L
880 1788 L
890 1778 L
899 1788 L
865 1778 M 855 1787 L
846 1778 L
855 1769 L
865 1778 L
703 1962 M 694 1971 L
684 1962 L
694 1952 L
703 1962 L
690 1911 M 680 1920 L
671 1911 L
681 1901 L
690 1911 L
845 2001 M 836 2010 L
826 2001 L
836 1991 L
845 2001 L
793 1907 M 784 1916 L
775 1907 L
784 1897 L
793 1907 L
832 1891 M 823 1901 L
813 1891 L
823 1882 L
832 1891 L
724 1926 M 714 1936 L
705 1926 L
715 1917 L
724 1926 L
861 1922 M 852 1932 L
842 1922 L
852 1913 L
861 1922 L
795 1792 M 786 1801 L
777 1792 L
786 1782 L
795 1792 L
749 2012 M 740 2022 L
730 2012 L
740 2003 L
749 2012 L
966 2016 M 957 2026 L
947 2016 L
957 2007 L
966 2016 L
926 1790 M 917 1799 L
908 1790 L
917 1780 L
926 1790 L
888 1719 M 878 1729 L
869 1719 L
878 1710 L
888 1719 L
1544 1880 M 1535 1889 L
1525 1879 L
1535 1870 L
1544 1880 L
819 1852 M 810 1862 L
800 1852 L
810 1843 L
819 1852 L
773 1786 M 763 1795 L
754 1786 L
763 1776 L
773 1786 L
971 2208 M 962 2217 L
953 2208 L
962 2198 L
971 2208 L
1019 1833 M 1009 1842 L
1000 1833 L
1009 1823 L
1019 1833 L
787 1973 M 778 1983 L
768 1973 L
778 1964 L
787 1973 L
856 1958 M 846 1967 L
837 1958 L
846 1948 L
856 1958 L
1332 1794 M 1323 1803 L
1313 1794 L
1323 1784 L
1332 1794 L
1360 1690 M 1351 1699 L
1341 1690 L
1351 1681 L
1360 1690 L
824 2131 M 814 2141 L
805 2131 L
814 2122 L
824 2131 L
1193 1753 M 1184 1762 L
1174 1753 L
1184 1743 L
1193 1753 L
891 2003 M 881 2012 L
872 2002 L
881 1993 L
891 2003 L
1211 1755 M 1202 1764 L
1192 1755 L
1202 1745 L
1211 1755 L
883 1735 M 874 1744 L
865 1735 L
874 1726 L
883 1735 L
1282 1792 M 1273 1801 L
1263 1792 L
1273 1782 L
1282 1792 L
892 2032 M 883 2041 L
874 2032 L
883 2022 L
892 2032 L
996 1913 M 987 1922 L
978 1913 L
987 1903 L
996 1913 L
953 1800 M 943 1809 L
934 1799 L
943 1790 L
953 1800 L
1359 1866 M 1349 1875 L
1340 1866 L
1349 1856 L
1359 1866 L
1180 2046 M 1170 2055 L
1161 2045 L
1170 2036 L
1180 2046 L
1144 1772 M 1135 1781 L
1126 1772 L
1135 1763 L
1144 1772 L
1192 1780 M 1183 1789 L
1173 1780 L
1183 1771 L
1192 1780 L
1124 1903 M 1115 1912 L
1105 1903 L
1115 1894 L
1124 1903 L
1164 1717 M 1154 1727 L
1145 1717 L
1155 1708 L
1164 1717 L
1307 1715 M 1298 1725 L
1289 1715 L
1298 1706 L
1307 1715 L
1175 1794 M 1166 1803 L
1156 1794 L
1166 1784 L
1175 1794 L
1234 1762 M 1224 1772 L
1215 1762 L
1224 1753 L
1234 1762 L
1315 1823 M 1306 1832 L
1296 1823 L
1306 1814 L
1315 1823 L
1276 2007 M 1266 2016 L
1257 2006 L
1266 1997 L
1276 2007 L
1433 1692 M 1424 1701 L
1414 1692 L
1424 1683 L
1433 1692 L
1072 1905 M 1062 1914 L
1053 1905 L
1062 1895 L
1072 1905 L
1145 1698 M 1135 1707 L
1126 1698 L
1135 1689 L
1145 1698 L
CS M
1176 1846 M 1166 1856 L
1157 1846 L
1166 1837 L
1176 1846 L
1085 2049 M 1075 2059 L
1066 2049 L
1075 2040 L
1085 2049 L
1678 2014 M 1668 2024 L
1659 2014 L
1668 2005 L
1678 2014 L
1493 1827 M 1483 1836 L
1474 1827 L
1483 1817 L
1493 1827 L
1348 1760 M 1339 1770 L
1329 1760 L
1339 1751 L
1348 1760 L
1720 1809 M 1710 1819 L
1701 1809 L
1711 1800 L
1720 1809 L
1804 2051 M 1795 2061 L
1786 2051 L
1795 2042 L
1804 2051 L
2173 1776 M 2164 1785 L
2154 1776 L
2164 1767 L
2173 1776 L
1294 2036 M 1285 2045 L
1276 2036 L
1285 2026 L
1294 2036 L
1260 1944 M 1251 1953 L
1241 1944 L
1251 1935 L
1260 1944 L
1341 1938 M 1331 1948 L
1322 1938 L
1332 1929 L
1341 1938 L
1588 2077 M 1579 2086 L
1569 2077 L
1579 2067 L
1588 2077 L
2020 1751 M 2010 1760 L
2001 1751 L
2011 1741 L
2020 1751 L
1559 1801 M 1550 1811 L
1540 1801 L
1550 1792 L
1559 1801 L
2095 1921 M 2086 1930 L
2076 1921 L
2086 1911 L
2095 1921 L
1751 2055 M 1742 2065 L
1733 2055 L
1742 2046 L
1751 2055 L
1824 1792 M 1815 1801 L
1805 1792 L
1815 1782 L
1824 1792 L
1948 1977 M 1938 1987 L
1929 1977 L
1938 1968 L
1948 1977 L
 255 0 0 C
CS M 3 100 mul 72 div dup setlinewidth
/P [ /moveto cvx 0 5 -1 roll .05 add dup -2 div 0 exch /rmoveto cvx /rlineto cvx /stroke cvx ] cvx def
CS [] 0 setdash M
502 1973 M 503 1973 L
503 1973 L
506 1973 L
509 1971 L
510 1971 L
511 1969 L
513 1969 L
520 1967 L
529 1964 L
533 1954 L
534 1954 L
540 1950 L
544 1946 L
549 1946 L
552 1946 L
554 1950 L
559 1946 L
562 1940 L
564 1938 L
564 1938 L
567 1940 L
573 1936 L
575 1938 L
587 1936 L
590 1934 L
591 1934 L
594 1932 L
597 1932 L
598 1932 L
598 1932 L
602 1932 L
607 1936 L
609 1936 L
609 1936 L
611 1938 L
615 1936 L
619 1936 L
621 1932 L
626 1932 L
629 1934 L
632 1934 L
633 1934 L
635 1934 L
637 1934 L
638 1934 L
642 1938 L
647 1938 L
647 1938 L
653 1936 L
655 1936 L
656 1934 L
656 1934 L
657 1934 L
661 1934 L
662 1934 L
662 1936 L
664 1936 L
671 1938 L
671 1938 L
673 1942 L
674 1942 L
675 1940 L
681 1938 L
681 1940 L
682 1940 L
684 1938 L
689 1938 L
694 1936 L
696 1938 L
697 1938 L
698 1938 L
702 1936 L
705 1934 L
706 1932 L
706 1934 L
708 1936 L
711 1936 L
712 1936 L
714 1936 L
715 1936 L
716 1936 L
722 1934 L
722 1934 L
729 1936 L
731 1934 L
734 1936 L
737 1936 L
740 1938 L
745 1936 L
749 1936 L
750 1938 L
752 1938 L
753 1938 L
755 1938 L
758 1936 L
761 1936 L
762 1938 L
763 1938 L
769 1932 L
774 1928 L
774 1928 L
778 1926 L
779 1926 L
780 1926 L
784 1924 L
786 1924 L
788 1924 L
788 1924 L
791 1921 L
799 1922 L
799 1922 L
809 1919 L
810 1919 L
814 1919 L
818 1917 L
821 1911 L
823 1911 L
824 1911 L
827 1909 L
828 1909 L
836 1907 L
838 1909 L
841 1909 L
846 1905 L
848 1903 L
849 1903 L
852 1903 L
855 1907 L
860 1901 L
864 1899 L
865 1899 L
869 1899 L
874 1901 L
876 1901 L
876 1901 L
878 1899 L
878 1899 L
879 1899 L
879 1899 L
881 1899 L
881 1901 L
883 1901 L
883 1901 L
887 1895 L
890 1891 L
905 1885 L
917 1885 L
921 1883 L
943 1878 L
952 1874 L
953 1874 L
955 1872 L
956 1872 L
957 1870 L
962 1866 L
966 1868 L
981 1868 L
982 1868 L
987 1876 L
989 1876 L
996 1876 L
1009 1880 L
1009 1880 L
1012 1880 L
1026 1880 L
1028 1872 L
1028 1872 L
1030 1872 L
1032 1872 L
1033 1872 L
1041 1868 L
1043 1868 L
1043 1868 L
1055 1866 L
1062 1876 L
1075 1862 L
1084 1860 L
1106 1844 L
1110 1844 L
1115 1844 L
1125 1842 L
1129 1842 L
1130 1842 L
1135 1844 L
1135 1844 L
1147 1846 L
1149 1846 L
1155 1837 L
1164 1841 L
1166 1839 L
1166 1839 L
1167 1839 L
1168 1839 L
1170 1839 L
1176 1833 L
1180 1839 L
1183 1839 L
1184 1833 L
1195 1829 L
1196 1829 L
1201 1825 L
1202 1823 L
1204 1823 L
1220 1819 L
1223 1817 L
1223 1817 L
1224 1819 L
1231 1819 L
1251 1817 L
1266 1819 L
1273 1813 L
1282 1801 L
1285 1803 L
1295 1803 L
1298 1803 L
1306 1803 L
1307 1803 L
1309 1813 L
1323 1809 L
1327 1809 L
1332 1805 L
1339 1811 L
1349 1821 L
1351 1821 L
1372 1815 L
1378 1807 L
1407 1801 L
1417 1807 L
CS M
1418 1811 L
1421 1811 L
1424 1811 L
1447 1817 L
 0 0 0 C
CS M 1 100 mul 72 div dup setlinewidth
/P [ /moveto cvx 0 5 -1 roll .05 add dup -2 div 0 exch /rmoveto cvx /rlineto cvx /stroke cvx ] cvx def
CS [6 12] 0 setdash M
502 1870 M 503 1872 L
503 1872 L
506 1870 L
509 1868 L
510 1868 L
511 1866 L
513 1866 L
520 1866 L
529 1866 L
533 1860 L
534 1860 L
540 1854 L
544 1848 L
549 1850 L
552 1850 L
554 1854 L
559 1852 L
562 1850 L
564 1846 L
564 1846 L
567 1850 L
573 1848 L
575 1850 L
587 1848 L
590 1848 L
591 1848 L
594 1848 L
597 1848 L
598 1848 L
598 1846 L
602 1846 L
607 1846 L
609 1846 L
609 1846 L
611 1850 L
615 1850 L
619 1848 L
621 1844 L
626 1846 L
629 1848 L
632 1848 L
633 1848 L
635 1848 L
637 1848 L
638 1848 L
642 1850 L
647 1852 L
647 1852 L
653 1852 L
655 1852 L
656 1848 L
656 1848 L
657 1848 L
661 1846 L
662 1846 L
662 1848 L
664 1848 L
671 1850 L
671 1850 L
673 1854 L
674 1854 L
675 1854 L
681 1852 L
681 1854 L
682 1854 L
684 1852 L
689 1852 L
694 1848 L
696 1850 L
697 1850 L
698 1850 L
702 1846 L
705 1842 L
706 1842 L
706 1842 L
708 1842 L
711 1842 L
712 1842 L
714 1842 L
715 1842 L
716 1841 L
722 1841 L
722 1841 L
729 1842 L
731 1837 L
734 1839 L
737 1837 L
740 1839 L
745 1837 L
749 1837 L
750 1839 L
752 1839 L
753 1841 L
755 1839 L
758 1837 L
761 1837 L
762 1839 L
763 1839 L
769 1827 L
774 1823 L
774 1823 L
778 1819 L
779 1819 L
780 1817 L
784 1813 L
786 1813 L
788 1813 L
788 1813 L
791 1809 L
799 1813 L
799 1813 L
809 1805 L
810 1805 L
814 1807 L
818 1805 L
821 1801 L
823 1801 L
824 1801 L
827 1800 L
828 1800 L
836 1796 L
838 1798 L
841 1798 L
846 1790 L
848 1790 L
849 1790 L
852 1790 L
855 1788 L
860 1782 L
864 1778 L
865 1778 L
869 1776 L
874 1778 L
876 1778 L
876 1778 L
878 1778 L
878 1778 L
879 1778 L
879 1778 L
881 1778 L
881 1780 L
883 1778 L
883 1778 L
887 1774 L
890 1772 L
905 1760 L
917 1762 L
921 1760 L
943 1762 L
952 1762 L
953 1762 L
955 1762 L
956 1762 L
957 1762 L
962 1757 L
966 1758 L
981 1757 L
982 1757 L
987 1766 L
989 1764 L
996 1768 L
1009 1774 L
1009 1774 L
1012 1774 L
1026 1776 L
1028 1766 L
1028 1766 L
1030 1764 L
1032 1764 L
1033 1764 L
1041 1760 L
1043 1760 L
1043 1760 L
1055 1757 L
1062 1770 L
1075 1770 L
1084 1768 L
1106 1751 L
1110 1751 L
1115 1751 L
1125 1751 L
1129 1751 L
1130 1751 L
1135 1753 L
1135 1753 L
1147 1751 L
1149 1751 L
1155 1745 L
1164 1745 L
1166 1745 L
1166 1745 L
1167 1745 L
1168 1745 L
1170 1745 L
1176 1735 L
1180 1737 L
1183 1737 L
1184 1737 L
1195 1733 L
1196 1733 L
1201 1729 L
1202 1727 L
1204 1727 L
1220 1723 L
1223 1721 L
1223 1721 L
1224 1723 L
1231 1723 L
1251 1719 L
1266 1721 L
1273 1714 L
1282 1708 L
1285 1710 L
1295 1706 L
1298 1706 L
1306 1710 L
1307 1710 L
1309 1708 L
1323 1688 L
1327 1688 L
1332 1676 L
1339 1682 L
1349 1692 L
1351 1692 L
1372 1686 L
1378 1684 L
1407 1682 L
1417 1684 L
1418 1686 L
1421 1686 L
1424 1686 L
1447 1692 L
CS [6 12] 0 setdash M
502 2077 M 503 2075 L
503 2075 L
506 2077 L
509 2075 L
510 2075 L
511 2073 L
513 2073 L
520 2069 L
529 2061 L
533 2047 L
534 2047 L
540 2046 L
544 2044 L
549 2042 L
552 2042 L
554 2046 L
559 2040 L
562 2030 L
564 2030 L
564 2030 L
567 2030 L
573 2024 L
575 2026 L
587 2024 L
590 2020 L
591 2020 L
594 2016 L
597 2016 L
598 2016 L
598 2018 L
602 2018 L
607 2026 L
609 2026 L
609 2026 L
611 2026 L
615 2022 L
619 2024 L
621 2020 L
626 2018 L
629 2020 L
632 2020 L
633 2020 L
635 2020 L
637 2020 L
638 2020 L
642 2026 L
647 2024 L
647 2024 L
653 2020 L
655 2020 L
656 2020 L
656 2020 L
657 2020 L
661 2022 L
662 2022 L
662 2024 L
664 2024 L
671 2026 L
671 2026 L
673 2030 L
674 2030 L
675 2026 L
681 2024 L
681 2026 L
CS M
682 2026 L
684 2024 L
689 2024 L
694 2024 L
696 2026 L
697 2026 L
698 2026 L
702 2026 L
705 2026 L
706 2022 L
706 2026 L
708 2030 L
711 2030 L
712 2030 L
714 2030 L
715 2030 L
716 2032 L
722 2028 L
722 2028 L
729 2030 L
731 2032 L
734 2034 L
737 2036 L
740 2038 L
745 2036 L
749 2036 L
750 2038 L
752 2038 L
753 2036 L
755 2038 L
758 2036 L
761 2036 L
762 2038 L
763 2038 L
769 2038 L
774 2034 L
774 2034 L
778 2034 L
779 2034 L
780 2036 L
784 2036 L
786 2036 L
788 2036 L
788 2036 L
791 2032 L
799 2032 L
799 2032 L
809 2032 L
810 2032 L
814 2030 L
818 2028 L
821 2020 L
823 2020 L
824 2020 L
827 2018 L
828 2018 L
836 2018 L
838 2020 L
841 2020 L
846 2020 L
848 2016 L
849 2016 L
852 2016 L
855 2026 L
860 2020 L
864 2020 L
865 2020 L
869 2022 L
874 2024 L
876 2024 L
876 2024 L
878 2020 L
878 2020 L
879 2020 L
879 2020 L
881 2020 L
881 2022 L
883 2024 L
883 2024 L
887 2016 L
890 2010 L
905 2010 L
917 2008 L
921 2007 L
943 1993 L
952 1985 L
953 1985 L
955 1981 L
956 1981 L
957 1977 L
962 1975 L
966 1977 L
981 1979 L
982 1979 L
987 1985 L
989 1987 L
996 1983 L
1009 1985 L
1009 1985 L
1012 1985 L
1026 1983 L
1028 1977 L
1028 1977 L
1030 1979 L
1032 1979 L
1033 1979 L
1041 1975 L
1043 1975 L
1043 1975 L
1055 1975 L
1062 1981 L
1075 1954 L
1084 1952 L
1106 1938 L
1110 1938 L
1115 1938 L
1125 1934 L
1129 1934 L
1130 1934 L
1135 1936 L
1135 1936 L
1147 1942 L
1149 1942 L
1155 1928 L
1164 1936 L
1166 1932 L
1166 1932 L
1167 1932 L
1168 1932 L
1170 1932 L
1176 1930 L
1180 1940 L
1183 1940 L
1184 1928 L
1195 1924 L
1196 1924 L
1201 1921 L
1202 1919 L
1204 1919 L
1220 1915 L
1223 1913 L
1223 1913 L
1224 1915 L
1231 1915 L
1251 1915 L
1266 1917 L
1273 1913 L
1282 1895 L
1285 1897 L
1295 1901 L
1298 1901 L
1306 1897 L
1307 1897 L
1309 1919 L
1323 1930 L
1327 1930 L
1332 1934 L
1339 1940 L
1349 1950 L
1351 1950 L
1372 1944 L
1378 1930 L
1407 1921 L
1417 1930 L
1418 1936 L
1421 1936 L
1424 1936 L
1447 1942 L
2183 2135 M CS [] 0 setdash M
1791 2122 M 1800 2162 M 1800 2122 L
1802 2162 M 1802 2122 L
1814 2151 M 1814 2135 L
1794 2162 M 1825 2162 L
1825 2151 L
1823 2162 L
1802 2143 M 1814 2143 L
1794 2122 M 1808 2122 L
1839 2149 M 1839 2128 L
1841 2124 L
1846 2122 L
1850 2122 L
1856 2124 L
1860 2128 L
1841 2149 M 1841 2128 L
1843 2124 L
1846 2122 L
1860 2149 M 1860 2122 L
1862 2149 M 1862 2122 L
1833 2149 M 1841 2149 L
1854 2149 M 1862 2149 L
1860 2122 M 1868 2122 L
1881 2162 M 1881 2122 L
1883 2162 M 1883 2122 L
1875 2162 M 1883 2162 L
1875 2122 M 1889 2122 L
1902 2162 M 1902 2122 L
1904 2162 M 1904 2122 L
1896 2162 M 1904 2162 L
1896 2122 M 1910 2122 L
1975 2157 M 1977 2162 L
1977 2151 L
1975 2157 L
1971 2160 L
1966 2162 L
1960 2162 L
1954 2160 L
1950 2157 L
1950 2153 L
1952 2149 L
1954 2147 L
1958 2145 L
1970 2141 L
1973 2139 L
1977 2135 L
1950 2153 M 1954 2149 L
1958 2147 L
1970 2143 L
1973 2141 L
1975 2139 L
1977 2135 L
1977 2128 L
1973 2124 L
1968 2122 L
1962 2122 L
1956 2124 L
1952 2128 L
1950 2133 L
1950 2122 L
1952 2128 L
1993 2145 M 1993 2143 L
1991 2143 L
1991 2145 L
1993 2147 L
1997 2149 L
2004 2149 L
2008 2147 L
2010 2145 L
2012 2141 L
2012 2128 L
2014 2124 L
2016 2122 L
2010 2145 M 2010 2128 L
2012 2124 L
2016 2122 L
2018 2122 L
2010 2141 M 2008 2139 L
1997 2137 L
1991 2135 L
1989 2132 L
1989 2128 L
1991 2124 L
1997 2122 L
2002 2122 L
2006 2124 L
2010 2128 L
1997 2137 M 1993 2135 L
1991 2132 L
1991 2128 L
1993 2124 L
1997 2122 L
2031 2149 M 2031 2122 L
2033 2149 M 2033 2122 L
2033 2143 M 2037 2147 L
2043 2149 L
2047 2149 L
2052 2147 L
2054 2143 L
2054 2122 L
2047 2149 M 2050 2147 L
2052 2143 L
2052 2122 L
2054 2143 M 2058 2147 L
2064 2149 L
2068 2149 L
2074 2147 L
2076 2143 L
2076 2122 L
2068 2149 M 2072 2147 L
2074 2143 L
2074 2122 L
2025 2149 M 2033 2149 L
2025 2122 M 2039 2122 L
2047 2122 M 2060 2122 L
2068 2122 M 2081 2122 L
2095 2149 M 2095 2108 L
2097 2149 M 2097 2108 L
2097 2143 M 2101 2147 L
2104 2149 L
2108 2149 L
2114 2147 L
2118 2143 L
2120 2137 L
2120 2133 L
2118 2128 L
2114 2124 L
2108 2122 L
2104 2122 L
2101 2124 L
2097 2128 L
2108 2149 M 2112 2147 L
2116 2143 L
CS M
2118 2137 L
2118 2133 L
2116 2128 L
2112 2124 L
2108 2122 L
2089 2149 M 2097 2149 L
2089 2108 M 2102 2108 L
2135 2162 M 2135 2122 L
2137 2162 M 2137 2122 L
2129 2162 M 2137 2162 L
2129 2122 M 2143 2122 L
2154 2137 M 2177 2137 L
2177 2141 L
2176 2145 L
2174 2147 L
2170 2149 L
2164 2149 L
2158 2147 L
2154 2143 L
2152 2137 L
2152 2133 L
2154 2128 L
2158 2124 L
2164 2122 L
2168 2122 L
2174 2124 L
2177 2128 L
2176 2137 M 2176 2143 L
2174 2147 L
2164 2149 M 2160 2147 L
2156 2143 L
2154 2137 L
2154 2133 L
2156 2128 L
2160 2124 L
2164 2122 L
2183 2122 M CS [6 12] 0 setdash M
CS [] 0 setdash M
CS [] 0 setdash M
335 985 M 2261 985 L
371 985 M 371 1026 L
461 985 M 461 1006 L
551 985 M 551 1006 L
641 985 M 641 1006 L
731 985 M 731 1026 L
821 985 M 821 1006 L
911 985 M 911 1006 L
1001 985 M 1001 1006 L
1091 985 M 1091 1026 L
1181 985 M 1181 1006 L
1271 985 M 1271 1006 L
1361 985 M 1361 1006 L
1451 985 M 1451 1026 L
1541 985 M 1541 1006 L
1631 985 M 1631 1006 L
1721 985 M 1721 1006 L
1811 985 M 1811 1026 L
1901 985 M 1901 1006 L
1991 985 M 1991 1006 L
2081 985 M 2081 1006 L
2171 985 M 2171 1026 L
2261 985 M 2261 1006 L
335 1610 M 2261 1610 L
371 1610 M 371 1569 L
461 1610 M 461 1590 L
551 1610 M 551 1590 L
641 1610 M 641 1590 L
731 1610 M 731 1569 L
821 1610 M 821 1590 L
911 1610 M 911 1590 L
1001 1610 M 1001 1590 L
1091 1610 M 1091 1569 L
1181 1610 M 1181 1590 L
1271 1610 M 1271 1590 L
1361 1610 M 1361 1590 L
1451 1610 M 1451 1569 L
1541 1610 M 1541 1590 L
1631 1610 M 1631 1590 L
1721 1610 M 1721 1590 L
1811 1610 M 1811 1569 L
1901 1610 M 1901 1590 L
1991 1610 M 1991 1590 L
2081 1610 M 2081 1590 L
2171 1610 M 2171 1569 L
2261 1610 M 2261 1590 L
335 985 M 335 1610 L
335 985 M 356 985 L
335 1033 M 356 1033 L
335 1081 M 356 1081 L
335 1129 M 356 1129 L
335 1178 M 376 1178 L
154 1157 M 161 1175 M 196 1175 L
221 1198 M 215 1196 L
211 1190 L
209 1180 L
209 1175 L
211 1165 L
215 1159 L
221 1157 L
225 1157 L
231 1159 L
235 1165 L
236 1175 L
236 1180 L
235 1190 L
231 1196 L
225 1198 L
221 1198 L
217 1196 L
215 1194 L
213 1190 L
211 1180 L
211 1175 L
213 1165 L
215 1161 L
217 1159 L
221 1157 L
225 1157 M 229 1159 L
231 1161 L
233 1165 L
235 1175 L
235 1180 L
233 1190 L
231 1194 L
229 1196 L
225 1198 L
252 1161 M 250 1159 L
252 1157 L
254 1159 L
252 1161 L
271 1198 M 267 1178 L
271 1182 L
277 1184 L
283 1184 L
288 1182 L
292 1178 L
294 1173 L
294 1169 L
292 1163 L
288 1159 L
283 1157 L
277 1157 L
271 1159 L
269 1161 L
267 1165 L
267 1167 L
269 1169 L
271 1167 L
269 1165 L
283 1184 M 287 1182 L
290 1178 L
292 1173 L
292 1169 L
290 1163 L
287 1159 L
283 1157 L
271 1198 M 290 1198 L
271 1196 M 281 1196 L
290 1198 L
335 1226 M 356 1226 L
335 1274 M 356 1274 L
335 1322 M 356 1322 L
335 1370 M 356 1370 L
335 1418 M 376 1418 L
261 1398 M 279 1438 M 273 1436 L
269 1430 L
267 1421 L
267 1415 L
269 1405 L
273 1400 L
279 1398 L
283 1398 L
288 1400 L
292 1405 L
294 1415 L
294 1421 L
292 1430 L
288 1436 L
283 1438 L
279 1438 L
275 1436 L
273 1434 L
271 1430 L
269 1421 L
269 1415 L
271 1405 L
273 1401 L
275 1400 L
279 1398 L
283 1398 M 287 1400 L
288 1401 L
290 1405 L
292 1415 L
292 1421 L
290 1430 L
288 1434 L
287 1436 L
283 1438 L
335 1466 M 356 1466 L
335 1514 M 356 1514 L
335 1562 M 356 1562 L
335 1610 M 356 1610 L
2261 985 M 2261 1610 L
2261 985 M 2240 985 L
2261 1033 M 2240 1033 L
2261 1081 M 2240 1081 L
2261 1129 M 2240 1129 L
2261 1178 M 2219 1178 L
2261 1226 M 2240 1226 L
2261 1274 M 2240 1274 L
2261 1322 M 2240 1322 L
2261 1370 M 2240 1370 L
2261 1418 M 2219 1418 L
2261 1466 M 2240 1466 L
2261 1514 M 2240 1514 L
2261 1562 M 2240 1562 L
2261 1610 M 2240 1610 L
CS [] 0 setdash M
1564 1211 M 1555 1220 L
1545 1211 L
1555 1202 L
1564 1211 L
1430 1110 M 1421 1120 L
1412 1110 L
1421 1101 L
1430 1110 L
1426 1221 M 1416 1230 L
1407 1221 L
1417 1211 L
1426 1221 L
1051 1139 M 1041 1148 L
1032 1139 L
1041 1130 L
1051 1139 L
1578 1105 M 1569 1115 L
1559 1105 L
1569 1096 L
1578 1105 L
888 1139 M 879 1148 L
869 1139 L
879 1130 L
888 1139 L
834 1221 M 824 1230 L
815 1221 L
824 1211 L
834 1221 L
879 1250 M 869 1259 L
860 1249 L
869 1240 L
879 1250 L
778 1216 M 769 1225 L
759 1216 L
769 1207 L
778 1216 L
998 1187 M 989 1196 L
980 1187 L
989 1178 L
998 1187 L
720 1423 M 711 1432 L
702 1423 L
711 1413 L
720 1423 L
788 1264 M 779 1273 L
769 1264 L
779 1255 L
788 1264 L
827 1230 M 818 1240 L
808 1230 L
818 1221 L
827 1230 L
851 1322 M 841 1331 L
832 1322 L
841 1312 L
851 1322 L
620 1081 M 611 1091 L
601 1081 L
611 1072 L
620 1081 L
585 1226 M 575 1235 L
566 1225 L
575 1216 L
585 1226 L
607 1259 M 597 1269 L
588 1259 L
598 1250 L
607 1259 L
715 1202 M 705 1211 L
696 1201 L
705 1192 L
715 1202 L
576 1307 M 567 1317 L
557 1307 L
567 1298 L
576 1307 L
758 1389 M 749 1398 L
740 1389 L
749 1380 L
758 1389 L
665 1067 M 655 1076 L
646 1067 L
655 1058 L
665 1067 L
722 1278 M 712 1288 L
703 1278 L
CS M
712 1269 L
722 1278 L
553 1235 M 544 1245 L
534 1235 L
544 1226 L
553 1235 L
707 1110 M 698 1120 L
689 1110 L
698 1101 L
707 1110 L
606 1072 M 597 1081 L
587 1072 L
597 1062 L
606 1072 L
726 1221 M 716 1230 L
707 1221 L
716 1211 L
726 1221 L
462 1437 M 452 1446 L
443 1437 L
452 1428 L
462 1437 L
463 1293 M 454 1302 L
444 1293 L
454 1283 L
463 1293 L
683 1096 M 674 1105 L
665 1096 L
674 1086 L
683 1096 L
435 1149 M 426 1158 L
416 1149 L
426 1139 L
435 1149 L
490 1355 M 481 1365 L
472 1355 L
481 1346 L
490 1355 L
427 1557 M 418 1567 L
408 1557 L
418 1548 L
427 1557 L
431 1346 M 421 1355 L
412 1346 L
422 1336 L
431 1346 L
418 1182 M 409 1192 L
400 1182 L
409 1173 L
418 1182 L
403 1408 M 394 1418 L
384 1408 L
394 1399 L
403 1408 L
437 1077 M 428 1086 L
419 1076 L
428 1067 L
437 1077 L
406 1163 M 397 1172 L
388 1163 L
397 1154 L
406 1163 L
433 1543 M 424 1552 L
415 1543 L
424 1533 L
433 1543 L
425 1110 M 416 1120 L
407 1110 L
416 1101 L
425 1110 L
457 1461 M 448 1470 L
439 1461 L
448 1452 L
457 1461 L
433 1110 M 423 1120 L
414 1110 L
423 1101 L
433 1110 L
445 1211 M 436 1220 L
426 1211 L
436 1202 L
445 1211 L
494 1302 M 485 1312 L
475 1302 L
485 1293 L
494 1302 L
472 1379 M 463 1389 L
454 1379 L
463 1370 L
472 1379 L
476 1202 M 466 1211 L
457 1201 L
466 1192 L
476 1202 L
618 1245 M 608 1254 L
599 1245 L
609 1235 L
618 1245 L
512 1375 M 503 1384 L
493 1375 L
503 1365 L
512 1375 L
510 1216 M 500 1225 L
491 1216 L
501 1207 L
510 1216 L
857 1158 M 848 1168 L
838 1158 L
848 1149 L
857 1158 L
520 1221 M 511 1230 L
501 1221 L
511 1211 L
520 1221 L
691 1327 M 681 1336 L
672 1326 L
681 1317 L
691 1327 L
790 1240 M 780 1249 L
771 1240 L
780 1231 L
790 1240 L
808 1206 M 798 1216 L
789 1206 L
799 1197 L
808 1206 L
671 1269 M 662 1278 L
652 1269 L
662 1259 L
671 1269 L
716 1211 M 706 1220 L
697 1211 L
706 1202 L
716 1211 L
845 1067 M 836 1076 L
826 1067 L
836 1058 L
845 1067 L
749 1096 M 740 1105 L
730 1096 L
740 1086 L
749 1096 L
966 1105 M 957 1115 L
947 1105 L
957 1096 L
966 1105 L
971 1576 M 962 1586 L
953 1576 L
962 1567 L
971 1576 L
824 1389 M 814 1398 L
805 1389 L
814 1380 L
824 1389 L
891 1072 M 881 1081 L
872 1072 L
881 1062 L
891 1072 L
892 1144 M 883 1153 L
874 1144 L
883 1134 L
892 1144 L
1180 1178 M 1170 1187 L
1161 1177 L
1170 1168 L
1180 1178 L
1276 1081 M 1266 1091 L
1257 1081 L
1266 1072 L
1276 1081 L
1085 1187 M 1075 1196 L
1066 1187 L
1075 1178 L
1085 1187 L
1678 1101 M 1668 1110 L
1659 1100 L
1668 1091 L
1678 1101 L
1804 1192 M 1795 1201 L
1786 1192 L
1795 1183 L
1804 1192 L
1294 1153 M 1285 1163 L
1276 1153 L
1285 1144 L
1294 1153 L
1588 1254 M 1579 1264 L
1569 1254 L
1579 1245 L
1588 1254 L
1751 1202 M 1742 1211 L
1733 1201 L
1742 1192 L
1751 1202 L
 255 0 0 C
CS M 3 100 mul 72 div dup setlinewidth
/P [ /moveto cvx 0 5 -1 roll .05 add dup -2 div 0 exch /rmoveto cvx /rlineto cvx /stroke cvx ] cvx def
CS [] 0 setdash M
503 1264 M 511 1269 L
544 1274 L
567 1230 L
575 1230 L
597 1206 L
598 1206 L
609 1221 L
611 1221 L
655 1216 L
662 1216 L
674 1221 L
681 1216 L
698 1216 L
705 1221 L
706 1226 L
711 1230 L
712 1230 L
716 1226 L
740 1226 L
749 1226 L
769 1235 L
779 1221 L
780 1221 L
799 1221 L
814 1226 L
818 1226 L
824 1211 L
836 1211 L
841 1211 L
848 1211 L
869 1226 L
879 1226 L
881 1221 L
883 1221 L
 0 0 0 C
CS M 1 100 mul 72 div dup setlinewidth
/P [ /moveto cvx 0 5 -1 roll .05 add dup -2 div 0 exch /rmoveto cvx /rlineto cvx /stroke cvx ] cvx def
CS [6 12] 0 setdash M
503 1129 M 511 1134 L
544 1168 L
567 1129 L
575 1134 L
597 1110 L
598 1115 L
609 1125 L
611 1120 L
655 1110 L
662 1110 L
674 1120 L
681 1115 L
698 1115 L
705 1125 L
706 1120 L
711 1129 L
712 1129 L
716 1129 L
740 1125 L
749 1125 L
769 1139 L
779 1125 L
780 1125 L
799 1125 L
814 1129 L
818 1125 L
824 1120 L
836 1115 L
841 1115 L
848 1115 L
869 1101 L
879 1096 L
881 1096 L
883 1096 L
CS [6 12] 0 setdash M
503 1399 M 511 1403 L
544 1379 L
567 1331 L
575 1327 L
597 1302 L
598 1298 L
609 1317 L
611 1322 L
655 1322 L
662 1322 L
674 1322 L
681 1317 L
698 1317 L
705 1317 L
706 1331 L
711 1331 L
712 1331 L
716 1322 L
740 1327 L
749 1327 L
769 1331 L
779 1317 L
780 1317 L
799 1317 L
814 1322 L
818 1327 L
824 1302 L
836 1307 L
841 1307 L
848 1307 L
869 1351 L
879 1355 L
881 1346 L
883 1346 L
CS [] 0 setdash M
2183 1485 M CS [] 0 setdash M
1818 1465 M 1827 1505 M 1827 1465 L
1829 1505 M 1841 1471 L
1827 1505 M 1841 1465 L
1854 1505 M 1841 1465 L
CS M
1854 1505 M 1854 1465 L
1856 1505 M 1856 1465 L
1821 1505 M 1829 1505 L
1854 1505 M 1862 1505 L
1821 1465 M 1833 1465 L
1848 1465 M 1862 1465 L
1873 1480 M 1897 1480 L
1897 1484 L
1895 1488 L
1893 1490 L
1889 1492 L
1883 1492 L
1877 1490 L
1873 1486 L
1872 1480 L
1872 1476 L
1873 1471 L
1877 1467 L
1883 1465 L
1887 1465 L
1893 1467 L
1897 1471 L
1895 1480 M 1895 1486 L
1893 1490 L
1883 1492 M 1879 1490 L
1875 1486 L
1873 1480 L
1873 1476 L
1875 1471 L
1879 1467 L
1883 1465 L
1912 1505 M 1912 1473 L
1914 1467 L
1918 1465 L
1922 1465 L
1925 1467 L
1927 1471 L
1914 1505 M 1914 1473 L
1916 1467 L
1918 1465 L
1906 1492 M 1922 1492 L
1941 1488 M 1941 1486 L
1939 1486 L
1939 1488 L
1941 1490 L
1945 1492 L
1952 1492 L
1956 1490 L
1958 1488 L
1960 1484 L
1960 1471 L
1962 1467 L
1964 1465 L
1958 1488 M 1958 1471 L
1960 1467 L
1964 1465 L
1966 1465 L
1958 1484 M 1956 1482 L
1945 1480 L
1939 1478 L
1937 1475 L
1937 1471 L
1939 1467 L
1945 1465 L
1950 1465 L
1954 1467 L
1958 1471 L
1945 1480 M 1941 1478 L
1939 1475 L
1939 1471 L
1941 1467 L
1945 1465 L
1979 1505 M 1979 1465 L
1981 1505 M 1981 1465 L
1973 1505 M 1981 1505 L
1973 1465 M 1987 1465 L
1998 1482 M 2033 1482 L
2050 1505 M 2050 1465 L
2052 1505 M 2052 1465 L
2045 1505 M 2068 1505 L
2074 1503 L
2076 1501 L
2077 1498 L
2077 1494 L
2076 1490 L
2074 1488 L
2068 1486 L
2052 1486 L
2068 1505 M 2072 1503 L
2074 1501 L
2076 1498 L
2076 1494 L
2074 1490 L
2072 1488 L
2068 1486 L
2045 1465 M 2058 1465 L
2062 1486 M 2066 1484 L
2068 1482 L
2074 1469 L
2076 1467 L
2077 1467 L
2079 1469 L
2066 1484 M 2068 1480 L
2072 1467 L
2074 1465 L
2077 1465 L
2079 1469 L
2079 1471 L
2093 1505 M 2091 1503 L
2093 1501 L
2095 1503 L
2093 1505 L
2093 1492 M 2093 1465 L
2095 1492 M 2095 1465 L
2087 1492 M 2095 1492 L
2087 1465 M 2100 1465 L
2133 1486 M 2131 1484 L
2133 1482 L
2135 1484 L
2135 1486 L
2131 1490 L
2127 1492 L
2122 1492 L
2116 1490 L
2112 1486 L
2110 1480 L
2110 1476 L
2112 1471 L
2116 1467 L
2122 1465 L
2125 1465 L
2131 1467 L
2135 1471 L
2122 1492 M 2118 1490 L
2114 1486 L
2112 1480 L
2112 1476 L
2114 1471 L
2118 1467 L
2122 1465 L
2150 1505 M 2150 1465 L
2152 1505 M 2152 1465 L
2152 1486 M 2156 1490 L
2162 1492 L
2166 1492 L
2172 1490 L
2174 1486 L
2174 1465 L
2166 1492 M 2170 1490 L
2172 1486 L
2172 1465 L
2145 1505 M 2152 1505 L
2145 1465 M 2158 1465 L
2166 1465 M 2179 1465 L
2183 1465 M CS [] 0 setdash M
CS [] 0 setdash M
335 335 M 2261 335 L
371 335 M 371 376 L
352 260 M 369 300 M 363 298 L
359 292 L
357 283 L
357 277 L
359 267 L
363 261 L
369 260 L
373 260 L
379 261 L
382 267 L
384 277 L
384 283 L
382 292 L
379 298 L
373 300 L
369 300 L
365 298 L
363 296 L
361 292 L
359 283 L
359 277 L
361 267 L
363 263 L
365 261 L
369 260 L
373 260 M 377 261 L
379 263 L
381 267 L
382 277 L
382 283 L
381 292 L
379 296 L
377 298 L
373 300 L
461 335 M 461 356 L
551 335 M 551 356 L
641 335 M 641 356 L
731 335 M 731 376 L
692 260 M 700 292 M 702 290 L
700 288 L
698 290 L
698 292 L
700 296 L
702 298 L
708 300 L
715 300 L
721 298 L
723 296 L
725 292 L
725 288 L
723 285 L
717 281 L
708 277 L
704 275 L
700 271 L
698 265 L
698 260 L
715 300 M 719 298 L
721 296 L
723 292 L
723 288 L
721 285 L
715 281 L
708 277 L
698 263 M 700 265 L
704 265 L
714 261 L
719 261 L
723 263 L
725 265 L
704 265 M 714 260 L
721 260 L
723 261 L
725 265 L
725 269 L
748 300 M 742 298 L
739 292 L
737 283 L
737 277 L
739 267 L
742 261 L
748 260 L
752 260 L
758 261 L
762 267 L
764 277 L
764 283 L
762 292 L
758 298 L
752 300 L
748 300 L
744 298 L
742 296 L
741 292 L
739 283 L
739 277 L
741 267 L
742 263 L
744 261 L
748 260 L
752 260 M 756 261 L
758 263 L
760 267 L
762 277 L
762 283 L
760 292 L
758 296 L
756 298 L
752 300 L
821 335 M 821 356 L
911 335 M 911 356 L
1001 335 M 1001 356 L
1091 335 M 1091 376 L
1052 260 M 1075 296 M 1075 260 L
1077 300 M 1077 260 L
1077 300 M 1056 271 L
1087 271 L
1070 260 M 1083 260 L
1108 300 M 1102 298 L
1099 292 L
1097 283 L
1097 277 L
1099 267 L
1102 261 L
1108 260 L
1112 260 L
1118 261 L
1122 267 L
1124 277 L
1124 283 L
1122 292 L
1118 298 L
1112 300 L
1108 300 L
1104 298 L
1102 296 L
1100 292 L
1099 283 L
1099 277 L
1100 267 L
1102 263 L
1104 261 L
1108 260 L
1112 260 M 1116 261 L
CS M
1118 263 L
1120 267 L
1122 277 L
1122 283 L
1120 292 L
1118 296 L
1116 298 L
1112 300 L
1181 335 M 1181 356 L
1271 335 M 1271 356 L
1361 335 M 1361 356 L
1451 335 M 1451 376 L
1412 260 M 1441 294 M 1439 292 L
1441 290 L
1443 292 L
1443 294 L
1441 298 L
1437 300 L
1431 300 L
1426 298 L
1422 294 L
1420 290 L
1418 283 L
1418 271 L
1420 265 L
1424 261 L
1430 260 L
1433 260 L
1439 261 L
1443 265 L
1445 271 L
1445 273 L
1443 279 L
1439 283 L
1433 285 L
1431 285 L
1426 283 L
1422 279 L
1420 273 L
1431 300 M 1428 298 L
1424 294 L
1422 290 L
1420 283 L
1420 271 L
1422 265 L
1426 261 L
1430 260 L
1433 260 M 1437 261 L
1441 265 L
1443 271 L
1443 273 L
1441 279 L
1437 283 L
1433 285 L
1468 300 M 1462 298 L
1458 292 L
1456 283 L
1456 277 L
1458 267 L
1462 261 L
1468 260 L
1472 260 L
1478 261 L
1482 267 L
1483 277 L
1483 283 L
1482 292 L
1478 298 L
1472 300 L
1468 300 L
1464 298 L
1462 296 L
1460 292 L
1458 283 L
1458 277 L
1460 267 L
1462 263 L
1464 261 L
1468 260 L
1472 260 M 1476 261 L
1478 263 L
1480 267 L
1482 277 L
1482 283 L
1480 292 L
1478 296 L
1476 298 L
1472 300 L
1541 335 M 1541 356 L
1631 335 M 1631 356 L
1721 335 M 1721 356 L
1811 335 M 1811 376 L
1772 260 M 1788 300 M 1782 298 L
1780 294 L
1780 288 L
1782 285 L
1788 283 L
1795 283 L
1801 285 L
1803 288 L
1803 294 L
1801 298 L
1795 300 L
1788 300 L
1784 298 L
1782 294 L
1782 288 L
1784 285 L
1788 283 L
1795 283 M 1799 285 L
1801 288 L
1801 294 L
1799 298 L
1795 300 L
1788 283 M 1782 281 L
1780 279 L
1778 275 L
1778 267 L
1780 263 L
1782 261 L
1788 260 L
1795 260 L
1801 261 L
1803 263 L
1805 267 L
1805 275 L
1803 279 L
1801 281 L
1795 283 L
1788 283 M 1784 281 L
1782 279 L
1780 275 L
1780 267 L
1782 263 L
1784 261 L
1788 260 L
1795 260 M 1799 261 L
1801 263 L
1803 267 L
1803 275 L
1801 279 L
1799 281 L
1795 283 L
1828 300 M 1822 298 L
1818 292 L
1816 283 L
1816 277 L
1818 267 L
1822 261 L
1828 260 L
1832 260 L
1838 261 L
1841 267 L
1843 277 L
1843 283 L
1841 292 L
1838 298 L
1832 300 L
1828 300 L
1824 298 L
1822 296 L
1820 292 L
1818 283 L
1818 277 L
1820 267 L
1822 263 L
1824 261 L
1828 260 L
1832 260 M 1836 261 L
1838 263 L
1840 267 L
1841 277 L
1841 283 L
1840 292 L
1838 296 L
1836 298 L
1832 300 L
1901 335 M 1901 356 L
1991 335 M 1991 356 L
2081 335 M 2081 356 L
2171 335 M 2171 376 L
2113 260 M 2124 292 M 2128 294 L
2134 300 L
2134 260 L
2132 298 M 2132 260 L
2124 260 M 2142 260 L
2169 300 M 2163 298 L
2159 292 L
2157 283 L
2157 277 L
2159 267 L
2163 261 L
2169 260 L
2172 260 L
2178 261 L
2182 267 L
2184 277 L
2184 283 L
2182 292 L
2178 298 L
2172 300 L
2169 300 L
2165 298 L
2163 296 L
2161 292 L
2159 283 L
2159 277 L
2161 267 L
2163 263 L
2165 261 L
2169 260 L
2172 260 M 2176 261 L
2178 263 L
2180 267 L
2182 277 L
2182 283 L
2180 292 L
2178 296 L
2176 298 L
2172 300 L
2207 300 M 2201 298 L
2197 292 L
2196 283 L
2196 277 L
2197 267 L
2201 261 L
2207 260 L
2211 260 L
2217 261 L
2221 267 L
2222 277 L
2222 283 L
2221 292 L
2217 298 L
2211 300 L
2207 300 L
2203 298 L
2201 296 L
2199 292 L
2197 283 L
2197 277 L
2199 267 L
2201 263 L
2203 261 L
2207 260 L
2211 260 M 2215 261 L
2217 263 L
2219 267 L
2221 277 L
2221 283 L
2219 292 L
2217 296 L
2215 298 L
2211 300 L
2261 335 M 2261 356 L
335 960 M 2261 960 L
371 960 M 371 919 L
461 960 M 461 939 L
551 960 M 551 939 L
641 960 M 641 939 L
731 960 M 731 919 L
821 960 M 821 939 L
911 960 M 911 939 L
1001 960 M 1001 939 L
1091 960 M 1091 919 L
1181 960 M 1181 939 L
1271 960 M 1271 939 L
1361 960 M 1361 939 L
1451 960 M 1451 919 L
1541 960 M 1541 939 L
1631 960 M 1631 939 L
1721 960 M 1721 939 L
1811 960 M 1811 919 L
1901 960 M 1901 939 L
1991 960 M 1991 939 L
2081 960 M 2081 939 L
2171 960 M 2171 919 L
2261 960 M 2261 939 L
335 335 M 335 960 L
335 335 M 356 335 L
335 366 M 376 366 L
154 346 M 161 363 M 196 363 L
211 379 M 213 377 L
211 375 L
209 377 L
209 379 L
211 383 L
213 385 L
219 386 L
227 386 L
233 385 L
235 383 L
236 379 L
236 375 L
235 371 L
229 367 L
219 363 L
215 361 L
211 358 L
209 352 L
CS M
209 346 L
227 386 M 231 385 L
233 383 L
235 379 L
235 375 L
233 371 L
227 367 L
219 363 L
209 350 M 211 352 L
215 352 L
225 348 L
231 348 L
235 350 L
236 352 L
215 352 M 225 346 L
233 346 L
235 348 L
236 352 L
236 356 L
252 350 M 250 348 L
252 346 L
254 348 L
252 350 L
271 386 M 267 367 L
271 371 L
277 373 L
283 373 L
288 371 L
292 367 L
294 361 L
294 358 L
292 352 L
288 348 L
283 346 L
277 346 L
271 348 L
269 350 L
267 354 L
267 356 L
269 358 L
271 356 L
269 354 L
283 373 M 287 371 L
290 367 L
292 361 L
292 358 L
290 352 L
287 348 L
283 346 L
271 386 M 290 386 L
271 385 M 281 385 L
290 386 L
335 398 M 356 398 L
335 429 M 356 429 L
335 460 M 356 460 L
335 491 M 356 491 L
335 522 M 376 522 L
211 502 M 219 520 M 254 520 L
269 535 M 271 533 L
269 531 L
267 533 L
267 535 L
269 539 L
271 541 L
277 543 L
285 543 L
290 541 L
292 539 L
294 535 L
294 531 L
292 527 L
287 523 L
277 520 L
273 518 L
269 514 L
267 508 L
267 502 L
285 543 M 288 541 L
290 539 L
292 535 L
292 531 L
290 527 L
285 523 L
277 520 L
267 506 M 269 508 L
273 508 L
283 504 L
288 504 L
292 506 L
294 508 L
273 508 M 283 502 L
290 502 L
292 504 L
294 508 L
294 512 L
335 554 M 356 554 L
335 585 M 356 585 L
335 616 M 356 616 L
335 647 M 356 647 L
335 679 M 376 679 L
154 658 M 161 676 M 196 676 L
215 691 M 219 693 L
225 699 L
225 658 L
223 697 M 223 658 L
215 658 M 233 658 L
252 662 M 250 660 L
252 658 L
254 660 L
252 662 L
271 699 M 267 680 L
271 684 L
277 685 L
283 685 L
288 684 L
292 680 L
294 674 L
294 670 L
292 664 L
288 660 L
283 658 L
277 658 L
271 660 L
269 662 L
267 666 L
267 668 L
269 670 L
271 668 L
269 666 L
283 685 M 287 684 L
290 680 L
292 674 L
292 670 L
290 664 L
287 660 L
283 658 L
271 699 M 290 699 L
271 697 M 281 697 L
290 699 L
335 710 M 356 710 L
335 741 M 356 741 L
335 772 M 356 772 L
335 804 M 356 804 L
335 835 M 376 835 L
211 815 M 219 832 M 254 832 L
273 847 M 277 849 L
283 855 L
283 815 L
281 853 M 281 815 L
273 815 M 290 815 L
335 866 M 356 866 L
335 897 M 356 897 L
335 929 M 356 929 L
335 960 M 356 960 L
2261 335 M 2261 960 L
2261 335 M 2240 335 L
2261 366 M 2219 366 L
2261 398 M 2240 398 L
2261 429 M 2240 429 L
2261 460 M 2240 460 L
2261 491 M 2240 491 L
2261 522 M 2219 522 L
2261 554 M 2240 554 L
2261 585 M 2240 585 L
2261 616 M 2240 616 L
2261 647 M 2240 647 L
2261 679 M 2219 679 L
2261 710 M 2240 710 L
2261 741 M 2240 741 L
2261 772 M 2240 772 L
2261 804 M 2240 804 L
2261 835 M 2219 835 L
2261 866 M 2240 866 L
2261 897 M 2240 897 L
2261 929 M 2240 929 L
2261 960 M 2240 960 L
CS [] 0 setdash M
1732 704 M 1722 713 L
1713 704 L
1722 694 L
1732 704 L
1743 557 M 1734 566 L
1725 557 L
1734 547 L
1743 557 L
1966 613 M 1956 622 L
1947 613 L
1956 604 L
1966 613 L
1505 501 M 1496 510 L
1487 501 L
1496 491 L
1505 501 L
1963 766 M 1954 775 L
1945 766 L
1954 757 L
1963 766 L
1232 679 M 1223 688 L
1214 679 L
1223 669 L
1232 679 L
1336 585 M 1326 594 L
1317 585 L
1327 576 L
1336 585 L
1563 494 M 1553 504 L
1544 494 L
1553 485 L
1563 494 L
1456 763 M 1446 772 L
1437 763 L
1447 754 L
1456 763 L
1157 735 M 1147 744 L
1138 735 L
1147 726 L
1157 735 L
1699 744 M 1690 754 L
1681 744 L
1690 735 L
1699 744 L
1809 535 M 1800 544 L
1790 535 L
1800 526 L
1809 535 L
1064 701 M 1055 710 L
1045 700 L
1055 691 L
1064 701 L
1416 535 M 1407 544 L
1397 535 L
1407 526 L
1416 535 L
1093 707 M 1083 716 L
1074 707 L
1084 697 L
1093 707 L
1653 644 M 1644 654 L
1635 644 L
1644 635 L
1653 644 L
1119 807 M 1110 816 L
1100 807 L
1110 797 L
1119 807 L
1382 560 M 1372 569 L
1363 560 L
1372 551 L
1382 560 L
1230 688 M 1220 697 L
1211 688 L
1220 679 L
1230 688 L
1185 485 M 1175 494 L
1166 485 L
1176 476 L
1185 485 L
1318 491 M 1309 501 L
1299 491 L
1309 482 L
1318 491 L
1316 438 M 1307 447 L
1298 438 L
1307 429 L
1316 438 L
1387 401 M 1378 410 L
1369 401 L
1378 391 L
1387 401 L
1204 776 M 1195 785 L
1185 775 L
1195 766 L
1204 776 L
1213 629 M 1204 638 L
1195 629 L
1204 619 L
1213 629 L
889 754 M 879 763 L
870 754 L
879 744 L
889 754 L
1038 713 M 1028 722 L
1019 713 L
1028 704 L
1038 713 L
1138 779 M 1129 788 L
1120 779 L
1129 769 L
1138 779 L
1292 407 M 1282 416 L
1273 407 L
1282 397 L
1292 407 L
1240 419 M 1231 429 L
1221 419 L
1231 410 L
1240 419 L
1022 676 M 1012 685 L
1003 675 L
1012 666 L
1022 676 L
CS M
1053 813 M 1043 822 L
1034 813 L
1043 804 L
1053 813 L
1039 697 M 1030 707 L
1020 697 L
1030 688 L
1039 697 L
1232 635 M 1223 644 L
1213 635 L
1223 626 L
1232 635 L
965 657 M 956 666 L
946 657 L
956 647 L
965 657 L
830 594 M 821 604 L
812 594 L
821 585 L
830 594 L
990 666 M 981 676 L
971 666 L
981 657 L
990 666 L
837 632 M 828 641 L
818 632 L
828 622 L
837 632 L
1158 472 M 1149 482 L
1140 472 L
1149 463 L
1158 472 L
1035 472 M 1026 482 L
1016 472 L
1026 463 L
1035 472 L
837 832 M 827 841 L
818 832 L
827 822 L
837 832 L
1176 819 M 1166 829 L
1157 819 L
1167 810 L
1176 819 L
797 904 M 788 913 L
779 904 L
788 894 L
797 904 L
975 482 M 966 491 L
956 482 L
966 472 L
975 482 L
1461 807 M 1452 816 L
1442 807 L
1452 797 L
1461 807 L
1115 638 M 1106 647 L
1096 638 L
1106 629 L
1115 638 L
873 766 M 864 775 L
854 766 L
864 757 L
873 766 L
761 807 M 752 816 L
743 807 L
752 797 L
761 807 L
965 813 M 955 822 L
946 813 L
955 804 L
965 813 L
784 866 M 774 875 L
765 866 L
774 857 L
784 866 L
1189 729 M 1180 738 L
1171 729 L
1180 719 L
1189 729 L
731 860 M 722 869 L
713 860 L
722 851 L
731 860 L
765 791 M 755 800 L
746 791 L
755 782 L
765 791 L
819 494 M 809 504 L
800 494 L
809 485 L
819 494 L
1174 782 M 1164 791 L
1155 782 L
1164 772 L
1174 782 L
746 651 M 737 660 L
728 650 L
737 641 L
746 651 L
800 691 M 791 700 L
781 691 L
791 682 L
800 691 L
856 635 M 846 644 L
837 635 L
846 626 L
856 635 L
808 563 M 799 572 L
789 563 L
799 554 L
808 563 L
798 766 M 788 775 L
779 766 L
788 757 L
798 766 L
1139 641 M 1130 651 L
1120 641 L
1130 632 L
1139 641 L
770 732 M 761 741 L
751 732 L
761 722 L
770 732 L
858 832 M 848 841 L
839 832 L
849 822 L
858 832 L
991 794 M 981 804 L
972 794 L
982 785 L
991 794 L
681 838 M 671 847 L
662 838 L
671 829 L
681 838 L
744 788 M 734 797 L
725 788 L
734 779 L
744 788 L
616 813 M 606 822 L
597 813 L
607 804 L
616 813 L
618 629 M 609 638 L
599 629 L
609 619 L
618 629 L
1052 841 M 1043 851 L
1034 841 L
1043 832 L
1052 841 L
896 519 M 887 529 L
878 519 L
887 510 L
896 519 L
597 766 M 587 775 L
578 766 L
587 757 L
597 766 L
644 904 M 635 913 L
625 904 L
635 894 L
644 904 L
1018 391 M 1009 401 L
1000 391 L
1009 382 L
1018 391 L
600 791 M 590 800 L
581 791 L
590 782 L
600 791 L
767 819 M 758 829 L
749 819 L
758 810 L
767 819 L
1547 682 M 1537 691 L
1528 682 L
1537 672 L
1547 682 L
962 572 M 952 582 L
943 572 L
953 563 L
962 572 L
870 779 M 860 788 L
851 779 L
860 769 L
870 779 L
887 641 M 878 651 L
868 641 L
878 632 L
887 641 L
893 479 M 883 488 L
874 479 L
883 469 L
893 479 L
731 704 M 721 713 L
712 704 L
722 694 L
731 704 L
636 835 M 626 844 L
617 835 L
626 826 L
636 835 L
847 485 M 838 494 L
828 485 L
838 476 L
847 485 L
930 694 M 920 704 L
911 694 L
921 685 L
930 694 L
574 722 M 564 732 L
555 722 L
564 713 L
574 722 L
657 876 M 647 885 L
638 875 L
647 866 L
657 876 L
549 663 M 540 672 L
531 663 L
540 654 L
549 663 L
1043 660 M 1033 669 L
1024 660 L
1033 651 L
1043 660 L
1041 794 M 1032 804 L
1022 794 L
1032 785 L
1041 794 L
962 491 M 952 501 L
943 491 L
952 482 L
962 491 L
603 726 M 594 735 L
584 726 L
594 716 L
603 726 L
513 726 M 503 735 L
494 726 L
503 716 L
513 726 L
885 560 M 876 569 L
866 560 L
876 551 L
885 560 L
522 826 M 513 835 L
504 825 L
513 816 L
522 826 L
886 604 M 876 613 L
867 604 L
876 594 L
886 604 L
665 897 M 656 907 L
646 897 L
656 888 L
665 897 L
914 751 M 905 760 L
895 750 L
905 741 L
914 751 L
1038 576 M 1028 585 L
1019 575 L
1028 566 L
1038 576 L
475 604 M 466 613 L
456 604 L
466 594 L
475 604 L
680 582 M 671 591 L
662 582 L
671 572 L
680 582 L
630 713 M 621 722 L
612 713 L
621 704 L
630 713 L
512 585 M 502 594 L
493 585 L
502 576 L
512 585 L
542 632 M 533 641 L
524 632 L
533 622 L
542 632 L
504 826 M 494 835 L
485 825 L
494 816 L
504 826 L
471 897 M 462 907 L
453 897 L
462 888 L
471 897 L
583 657 M 573 666 L
564 657 L
573 647 L
583 657 L
CS M
458 754 M 448 763 L
439 754 L
449 744 L
458 754 L
559 769 M 549 779 L
540 769 L
549 760 L
559 769 L
1305 688 M 1295 697 L
1286 688 L
1295 679 L
1305 688 L
711 657 M 701 666 L
692 657 L
702 647 L
711 657 L
642 794 M 633 804 L
623 794 L
633 785 L
642 794 L
462 879 M 453 888 L
444 879 L
453 869 L
462 879 L
454 779 M 445 788 L
436 779 L
445 769 L
454 779 L
443 913 M 434 922 L
425 913 L
434 904 L
443 913 L
612 816 M 602 826 L
593 816 L
602 807 L
612 816 L
464 722 M 454 732 L
445 722 L
454 713 L
464 722 L
454 701 M 445 710 L
435 700 L
445 691 L
454 701 L
683 872 M 673 882 L
664 872 L
673 863 L
683 872 L
724 732 M 714 741 L
705 732 L
714 722 L
724 732 L
441 910 M 432 919 L
423 910 L
432 900 L
441 910 L
1210 560 M 1200 569 L
1191 560 L
1201 551 L
1210 560 L
698 619 M 689 629 L
679 619 L
689 610 L
698 619 L
572 672 M 562 682 L
553 672 L
562 663 L
572 672 L
442 772 M 433 782 L
423 772 L
433 763 L
442 772 L
406 897 M 397 907 L
388 897 L
397 888 L
406 897 L
1177 691 M 1168 700 L
1159 691 L
1168 682 L
1177 691 L
542 769 M 533 779 L
524 769 L
533 760 L
542 769 L
628 747 M 619 757 L
609 747 L
619 738 L
628 747 L
402 894 M 393 904 L
384 894 L
393 885 L
402 894 L
651 641 M 642 651 L
633 641 L
642 632 L
651 641 L
1134 641 M 1125 651 L
1115 641 L
1125 632 L
1134 641 L
672 769 M 662 779 L
653 769 L
662 760 L
672 769 L
520 872 M 510 882 L
501 872 L
510 863 L
520 872 L
684 651 M 675 660 L
665 650 L
675 641 L
684 651 L
641 876 M 632 885 L
623 875 L
632 866 L
641 876 L
455 788 M 446 797 L
436 788 L
446 779 L
455 788 L
717 726 M 708 735 L
699 726 L
708 716 L
717 726 L
1206 369 M 1196 379 L
1187 369 L
1196 360 L
1206 369 L
508 913 M 499 922 L
490 913 L
499 904 L
508 913 L
475 876 M 466 885 L
457 875 L
466 866 L
475 876 L
1005 691 M 996 700 L
986 691 L
996 682 L
1005 691 L
1558 897 M 1548 907 L
1539 897 L
1548 888 L
1558 897 L
665 676 M 656 685 L
647 675 L
656 666 L
665 676 L
569 829 M 559 838 L
550 829 L
559 819 L
569 829 L
573 654 M 564 663 L
554 654 L
564 644 L
573 654 L
662 782 M 653 791 L
643 782 L
653 772 L
662 782 L
515 757 M 506 766 L
497 757 L
506 747 L
515 757 L
529 585 M 520 594 L
510 585 L
520 576 L
529 585 L
1949 576 M 1939 585 L
1930 575 L
1939 566 L
1949 576 L
519 732 M 509 741 L
500 732 L
509 722 L
519 732 L
784 757 M 774 766 L
765 757 L
774 747 L
784 757 L
819 626 M 810 635 L
800 626 L
810 616 L
819 626 L
538 747 M 529 757 L
519 747 L
529 738 L
538 747 L
890 647 M 881 657 L
871 647 L
881 638 L
890 647 L
563 676 M 554 685 L
544 675 L
554 666 L
563 676 L
543 804 M 534 813 L
524 804 L
534 794 L
543 804 L
600 776 M 591 785 L
581 775 L
591 766 L
600 776 L
608 760 M 598 769 L
589 760 L
598 751 L
608 760 L
561 910 M 552 919 L
542 910 L
552 900 L
561 910 L
624 676 M 615 685 L
606 675 L
615 666 L
624 676 L
760 826 M 750 835 L
741 825 L
750 816 L
760 826 L
670 694 M 661 704 L
652 694 L
661 685 L
670 694 L
772 651 M 762 660 L
753 650 L
762 641 L
772 651 L
740 794 M 730 804 L
721 794 L
731 785 L
740 794 L
707 863 M 697 872 L
688 863 L
697 854 L
707 863 L
638 816 M 629 826 L
619 816 L
629 807 L
638 816 L
762 866 M 752 875 L
743 866 L
753 857 L
762 866 L
646 897 M 637 907 L
627 897 L
637 888 L
646 897 L
673 729 M 664 738 L
654 729 L
664 719 L
673 729 L
738 694 M 729 704 L
719 694 L
729 685 L
738 694 L
692 894 M 682 904 L
673 894 L
682 885 L
692 894 L
666 885 M 657 894 L
647 885 L
657 875 L
666 885 L
693 719 M 684 729 L
675 719 L
684 710 L
693 719 L
648 554 M 638 563 L
629 554 L
638 544 L
648 554 L
656 626 M 647 635 L
637 626 L
647 616 L
656 626 L
715 601 M 706 610 L
696 601 L
706 591 L
715 601 L
754 829 M 744 838 L
735 829 L
745 819 L
754 829 L
705 835 M 696 844 L
687 835 L
696 826 L
705 835 L
875 585 M 865 594 L
856 585 L
865 576 L
875 585 L
899 579 M 890 588 L
880 579 L
890 569 L
899 579 L
865 563 M 855 572 L
846 563 L
855 554 L
865 563 L
CS M
703 857 M 694 866 L
684 857 L
694 847 L
703 857 L
690 776 M 680 785 L
671 775 L
681 766 L
690 776 L
793 769 M 784 779 L
775 769 L
784 760 L
793 769 L
832 744 M 823 754 L
813 744 L
823 735 L
832 744 L
724 801 M 714 810 L
705 800 L
715 791 L
724 801 L
861 794 M 852 804 L
842 794 L
852 785 L
861 794 L
795 585 M 786 594 L
777 585 L
786 576 L
795 585 L
926 582 M 917 591 L
908 582 L
917 572 L
926 582 L
888 469 M 878 479 L
869 469 L
878 460 L
888 469 L
1544 726 M 1535 735 L
1525 726 L
1535 716 L
1544 726 L
819 682 M 810 691 L
800 682 L
810 672 L
819 682 L
773 576 M 763 585 L
754 575 L
763 566 L
773 576 L
1019 651 M 1009 660 L
1000 650 L
1009 641 L
1019 651 L
787 876 M 778 885 L
768 875 L
778 866 L
787 876 L
856 851 M 846 860 L
837 850 L
846 841 L
856 851 L
1332 588 M 1323 597 L
1313 588 L
1323 579 L
1332 588 L
1360 422 M 1351 432 L
1341 422 L
1351 413 L
1360 422 L
1193 522 M 1184 532 L
1174 522 L
1184 513 L
1193 522 L
1211 526 M 1202 535 L
1192 526 L
1202 516 L
1211 526 L
883 494 M 874 504 L
865 494 L
874 485 L
883 494 L
1282 585 M 1273 594 L
1263 585 L
1273 576 L
1282 585 L
996 779 M 987 788 L
978 779 L
987 769 L
996 779 L
953 597 M 943 607 L
934 597 L
943 588 L
953 597 L
1359 704 M 1349 713 L
1340 704 L
1349 694 L
1359 704 L
1144 554 M 1135 563 L
1126 554 L
1135 544 L
1144 554 L
1192 566 M 1183 576 L
1173 566 L
1183 557 L
1192 566 L
1124 763 M 1115 772 L
1105 763 L
1115 754 L
1124 763 L
1164 466 M 1154 476 L
1145 466 L
1155 457 L
1164 466 L
1307 463 M 1298 472 L
1289 463 L
1298 454 L
1307 463 L
1175 588 M 1166 597 L
1156 588 L
1166 579 L
1175 588 L
1234 538 M 1224 547 L
1215 538 L
1224 529 L
1234 538 L
1315 635 M 1306 644 L
1296 635 L
1306 626 L
1315 635 L
1433 426 M 1424 435 L
1414 426 L
1424 416 L
1433 426 L
1072 766 M 1062 775 L
1053 766 L
1062 757 L
1072 766 L
1145 435 M 1135 444 L
1126 435 L
1135 426 L
1145 435 L
1176 672 M 1166 682 L
1157 672 L
1166 663 L
1176 672 L
1493 641 M 1483 651 L
1474 641 L
1483 632 L
1493 641 L
1348 535 M 1339 544 L
1329 535 L
1339 526 L
1348 535 L
1720 613 M 1710 622 L
1701 613 L
1711 604 L
1720 613 L
2173 560 M 2164 569 L
2154 560 L
2164 551 L
2173 560 L
1260 829 M 1251 838 L
1241 829 L
1251 819 L
1260 829 L
1341 819 M 1331 829 L
1322 819 L
1332 810 L
1341 819 L
2020 519 M 2010 529 L
2001 519 L
2011 510 L
2020 519 L
1559 601 M 1550 610 L
1540 601 L
1550 591 L
1559 601 L
2095 791 M 2086 800 L
2076 791 L
2086 782 L
2095 791 L
1824 585 M 1815 594 L
1805 585 L
1815 576 L
1824 585 L
1948 882 M 1938 891 L
1929 882 L
1938 872 L
1948 882 L
 255 0 0 C
CS M 3 100 mul 72 div dup setlinewidth
/P [ /moveto cvx 0 5 -1 roll .05 add dup -2 div 0 exch /rmoveto cvx /rlineto cvx /stroke cvx ] cvx def
CS [] 0 setdash M
502 769 M 503 769 L
506 766 L
509 763 L
510 763 L
513 763 L
520 763 L
529 769 L
533 769 L
534 769 L
540 766 L
549 763 L
552 763 L
554 763 L
559 763 L
562 760 L
564 760 L
564 760 L
573 757 L
587 757 L
590 760 L
591 760 L
594 760 L
598 757 L
602 754 L
607 757 L
609 754 L
615 757 L
619 757 L
621 754 L
626 754 L
629 757 L
632 757 L
633 757 L
635 757 L
637 757 L
638 757 L
642 757 L
647 760 L
647 760 L
653 763 L
656 757 L
656 757 L
657 757 L
661 754 L
662 757 L
664 757 L
671 760 L
671 760 L
673 763 L
675 763 L
681 763 L
682 763 L
684 763 L
689 763 L
694 760 L
696 760 L
697 760 L
702 754 L
706 754 L
708 754 L
714 751 L
715 751 L
722 751 L
722 751 L
729 751 L
731 747 L
734 747 L
737 747 L
745 744 L
750 744 L
752 744 L
753 744 L
755 744 L
758 741 L
761 741 L
762 741 L
763 741 L
774 722 L
774 722 L
778 716 L
784 710 L
786 710 L
788 710 L
788 710 L
791 707 L
799 707 L
809 697 L
810 697 L
821 701 L
823 697 L
827 697 L
828 697 L
838 691 L
846 682 L
849 685 L
852 685 L
855 682 L
860 672 L
864 666 L
865 666 L
874 666 L
876 666 L
876 666 L
878 666 L
878 666 L
879 666 L
881 666 L
883 660 L
887 657 L
890 657 L
905 641 L
917 641 L
CS M
921 641 L
943 647 L
952 654 L
953 654 L
955 651 L
956 651 L
966 647 L
981 641 L
982 641 L
987 657 L
996 663 L
1009 676 L
1009 676 L
1012 676 L
1026 676 L
1028 666 L
1028 666 L
1030 663 L
1032 663 L
1033 663 L
1043 660 L
1043 660 L
1055 657 L
1062 672 L
1084 663 L
1106 644 L
1110 644 L
1115 644 L
1125 641 L
1129 641 L
1130 641 L
1135 647 L
1135 647 L
1147 647 L
1149 647 L
1155 635 L
1164 635 L
1166 632 L
1166 632 L
1167 632 L
1168 632 L
1176 622 L
1180 622 L
1183 622 L
1184 622 L
1195 616 L
1196 616 L
1201 613 L
1202 610 L
1204 610 L
1220 601 L
1223 597 L
1223 597 L
1224 604 L
1231 601 L
1251 597 L
1273 588 L
1282 576 L
1295 576 L
1298 576 L
1306 576 L
1307 576 L
1309 576 L
1323 554 L
1327 554 L
1332 538 L
1339 547 L
1349 566 L
1351 566 L
1372 554 L
1378 557 L
1407 560 L
1418 566 L
1424 566 L
1447 582 L
1452 585 L
 0 0 0 C
CS M 1 100 mul 72 div dup setlinewidth
/P [ /moveto cvx 0 5 -1 roll .05 add dup -2 div 0 exch /rmoveto cvx /rlineto cvx /stroke cvx ] cvx def
CS [6 12] 0 setdash M
502 679 M 503 679 L
506 676 L
509 672 L
510 672 L
513 676 L
520 676 L
529 682 L
533 676 L
534 676 L
540 669 L
549 669 L
552 669 L
554 666 L
559 669 L
562 666 L
564 663 L
564 663 L
573 660 L
587 660 L
590 663 L
591 663 L
594 663 L
598 660 L
602 657 L
607 663 L
609 660 L
615 663 L
619 663 L
621 660 L
626 660 L
629 666 L
632 666 L
633 666 L
635 666 L
637 666 L
638 666 L
642 663 L
647 669 L
647 669 L
653 672 L
656 663 L
656 663 L
657 663 L
661 663 L
662 666 L
664 666 L
671 666 L
671 666 L
673 669 L
675 669 L
681 669 L
682 669 L
684 669 L
689 669 L
694 663 L
696 663 L
697 663 L
702 651 L
706 651 L
708 651 L
714 644 L
715 644 L
722 647 L
722 647 L
729 644 L
731 638 L
734 635 L
737 635 L
745 635 L
750 635 L
752 635 L
753 635 L
755 638 L
758 635 L
761 635 L
762 632 L
763 632 L
774 607 L
774 607 L
778 597 L
784 588 L
786 588 L
788 588 L
788 588 L
791 585 L
799 585 L
809 579 L
810 576 L
821 579 L
823 576 L
827 576 L
828 576 L
838 569 L
846 554 L
849 560 L
852 560 L
855 557 L
860 544 L
864 541 L
865 541 L
874 541 L
876 541 L
876 541 L
878 541 L
878 541 L
879 541 L
881 541 L
883 535 L
887 535 L
890 538 L
905 522 L
917 522 L
921 522 L
943 526 L
952 535 L
953 535 L
955 532 L
956 532 L
966 532 L
981 526 L
982 526 L
987 541 L
996 551 L
1009 563 L
1009 563 L
1012 563 L
1026 566 L
1028 551 L
1028 551 L
1030 544 L
1032 544 L
1033 544 L
1043 541 L
1043 541 L
1055 532 L
1062 554 L
1084 544 L
1106 519 L
1110 519 L
1115 519 L
1125 519 L
1129 519 L
1130 519 L
1135 526 L
1135 526 L
1147 519 L
1149 519 L
1155 510 L
1164 510 L
1166 507 L
1166 507 L
1167 507 L
1168 507 L
1176 494 L
1180 494 L
1183 494 L
1184 494 L
1195 488 L
1196 488 L
1201 485 L
1202 482 L
1204 482 L
1220 479 L
1223 476 L
1223 476 L
1224 479 L
1231 476 L
1251 469 L
1273 463 L
1282 454 L
1295 447 L
1298 447 L
1306 460 L
1307 460 L
1309 457 L
1323 413 L
1327 413 L
1332 397 L
1339 397 L
1349 410 L
1351 410 L
1372 404 L
1378 410 L
1407 410 L
1418 407 L
1424 407 L
1447 416 L
1452 416 L
CS [6 12] 0 setdash M
502 860 M 503 860 L
506 857 L
509 854 L
510 854 L
513 851 L
520 851 L
529 857 L
533 863 L
534 863 L
540 863 L
549 857 L
552 857 L
554 860 L
559 857 L
562 854 L
564 857 L
564 857 L
573 854 L
587 854 L
590 857 L
591 857 L
594 857 L
598 854 L
602 851 L
607 851 L
609 847 L
615 851 L
619 851 L
621 847 L
626 847 L
629 847 L
632 847 L
633 847 L
635 847 L
637 847 L
638 847 L
CS M
642 851 L
647 851 L
647 851 L
653 854 L
656 851 L
656 851 L
657 851 L
661 844 L
662 847 L
664 847 L
671 854 L
671 854 L
673 857 L
675 857 L
681 857 L
682 857 L
684 857 L
689 857 L
694 857 L
696 857 L
697 857 L
702 857 L
706 857 L
708 857 L
714 857 L
715 857 L
722 854 L
722 854 L
729 857 L
731 857 L
734 860 L
737 860 L
745 854 L
750 854 L
752 854 L
753 854 L
755 851 L
758 847 L
761 847 L
762 851 L
763 851 L
774 838 L
774 838 L
778 835 L
784 832 L
786 832 L
788 832 L
788 832 L
791 829 L
799 829 L
809 816 L
810 819 L
821 822 L
823 819 L
827 819 L
828 819 L
838 813 L
846 810 L
849 810 L
852 810 L
855 807 L
860 801 L
864 791 L
865 791 L
874 791 L
876 791 L
876 791 L
878 791 L
878 791 L
879 791 L
881 791 L
883 785 L
887 779 L
890 776 L
905 760 L
917 760 L
921 760 L
943 769 L
952 772 L
953 772 L
955 769 L
956 769 L
966 763 L
981 757 L
982 757 L
987 772 L
996 776 L
1009 788 L
1009 788 L
1012 788 L
1026 785 L
1028 782 L
1028 782 L
1030 782 L
1032 782 L
1033 782 L
1043 779 L
1043 779 L
1055 782 L
1062 791 L
1084 782 L
1106 769 L
1110 769 L
1115 769 L
1125 763 L
1129 763 L
1130 763 L
1135 769 L
1135 769 L
1147 776 L
1149 776 L
1155 760 L
1164 760 L
1166 757 L
1166 757 L
1167 757 L
1168 757 L
1176 751 L
1180 751 L
1183 751 L
1184 751 L
1195 744 L
1196 744 L
1201 741 L
1202 738 L
1204 738 L
1220 722 L
1223 719 L
1223 719 L
1224 729 L
1231 726 L
1251 726 L
1273 713 L
1282 697 L
1295 704 L
1298 704 L
1306 691 L
1307 691 L
1309 694 L
1323 694 L
1327 694 L
1332 679 L
1339 697 L
1349 722 L
1351 722 L
1372 704 L
1378 704 L
1407 710 L
1418 726 L
1424 726 L
1447 747 L
1452 754 L
CS [] 0 setdash M
2183 835 M CS [] 0 setdash M
1808 815 M 1818 855 M 1818 815 L
1819 855 M 1831 820 L
1818 855 M 1831 815 L
1845 855 M 1831 815 L
1845 855 M 1845 815 L
1846 855 M 1846 815 L
1812 855 M 1819 855 L
1845 855 M 1852 855 L
1812 815 M 1823 815 L
1839 815 M 1852 815 L
1864 830 M 1887 830 L
1887 834 L
1885 838 L
1883 840 L
1879 842 L
1873 842 L
1868 840 L
1864 836 L
1862 830 L
1862 826 L
1864 820 L
1868 817 L
1873 815 L
1877 815 L
1883 817 L
1887 820 L
1885 830 M 1885 836 L
1883 840 L
1873 842 M 1870 840 L
1866 836 L
1864 830 L
1864 826 L
1866 820 L
1870 817 L
1873 815 L
1902 855 M 1902 822 L
1904 817 L
1908 815 L
1912 815 L
1916 817 L
1918 820 L
1904 855 M 1904 822 L
1906 817 L
1908 815 L
1896 842 M 1912 842 L
1931 838 M 1931 836 L
1929 836 L
1929 838 L
1931 840 L
1935 842 L
1943 842 L
1947 840 L
1948 838 L
1950 834 L
1950 820 L
1952 817 L
1954 815 L
1948 838 M 1948 820 L
1950 817 L
1954 815 L
1956 815 L
1948 834 M 1947 832 L
1935 830 L
1929 828 L
1927 824 L
1927 820 L
1929 817 L
1935 815 L
1941 815 L
1945 817 L
1948 820 L
1935 830 M 1931 828 L
1929 824 L
1929 820 L
1931 817 L
1935 815 L
1970 855 M 1970 815 L
1972 855 M 1972 815 L
1964 855 M 1972 855 L
1964 815 M 1977 815 L
1989 832 M 2024 832 L
2041 855 M 2041 815 L
2043 855 M 2043 815 L
2035 855 M 2058 855 L
2064 853 L
2066 851 L
2068 847 L
2068 842 L
2066 838 L
2064 836 L
2058 834 L
2043 834 L
2058 855 M 2062 853 L
2064 851 L
2066 847 L
2066 842 L
2064 838 L
2062 836 L
2058 834 L
2035 815 M 2049 815 L
2091 842 M 2085 840 L
2081 836 L
2079 830 L
2079 826 L
2081 820 L
2085 817 L
2091 815 L
2095 815 L
2100 817 L
2104 820 L
2106 826 L
2106 830 L
2104 836 L
2100 840 L
2095 842 L
2091 842 L
2087 840 L
2083 836 L
2081 830 L
2081 826 L
2083 820 L
2087 817 L
2091 815 L
2095 815 M 2099 817 L
2102 820 L
2104 826 L
2104 830 L
2102 836 L
2099 840 L
2095 842 L
2129 842 M 2124 840 L
2120 836 L
2118 830 L
2118 826 L
2120 820 L
2124 817 L
2129 815 L
2133 815 L
2139 817 L
2143 820 L
2145 826 L
2145 830 L
2143 836 L
2139 840 L
2133 842 L
2129 842 L
2125 840 L
2122 836 L
CS M
2120 830 L
2120 826 L
2122 820 L
2125 817 L
2129 815 L
2133 815 M 2137 817 L
2141 820 L
2143 826 L
2143 830 L
2141 836 L
2137 840 L
2133 842 L
2160 842 M 2160 815 L
2162 842 M 2162 815 L
2162 830 M 2164 836 L
2168 840 L
2172 842 L
2177 842 L
2179 840 L
2179 838 L
2177 836 L
2176 838 L
2177 840 L
2154 842 M 2162 842 L
2154 815 M 2168 815 L
2183 815 M CS [] 0 setdash M
stroke
grestore
showpage
end
