%!PS-Adobe-3.0 EPSF-3.0
%%Creator: SM
%%BoundingBox: 18 144 592 718
%%DocumentNeededResources: font Helvetica
%%LanguageLevel: 1
%%Pages: 1
%%EndComments
%%Page: 1 1
 20 dict begin
72 300 div dup scale
1 setlinejoin 0 setlinecap
/Helvetica findfont 55 scalefont setfont 
/B {CS newpath moveto} def
/F {moveto 0 setlinecap} def
/C {CS M 1 1 3 {pop 3 1 roll 255 div} for SET_COLOUR} def
/CS {currentpoint stroke} def
/CF {currentpoint eofill} def
/L {lineto} def /l {rlineto} def /M {moveto} def /m {rmoveto} def
/P {gsave 0 1 rlineto stroke grestore} def
/T {currentlinecap exch 1 setlinecap show setlinecap} def
errordict /nocurrentpoint {pop 0 0 M currentpoint} put
/SET_COLOUR statusdict begin /processcolors where
  {pop processcolors 1 gt} {false} ifelse
  {(setrgbcolor)} {(pop pop pop)} ifelse cvx end def
 80 600 translate
gsave
CS [] 0 setdash M
CS M 2 100 mul 72 div dup setlinewidth
/P [ /gsave cvx 0 5 -1 roll .05 add dup -2 div 0 exch /rmoveto cvx /rlineto cvx /stroke cvx /grestore cvx ] cvx def
 0 0 0 C
CS M 2 100 mul 72 div dup setlinewidth
/P [ /gsave cvx 0 5 -1 roll .05 add dup -2 div 0 exch /rmoveto cvx /rlineto cvx /stroke cvx /grestore cvx ] cvx def
CS [] 0 setdash M
438 583 M 1750 0 l
0 1459 l
438 2042 L
438 583 L
1750 0 l
438 583 M 1750 0 l
438 583 M 0 48 l
-74 -135 m 8 20 m 41 0 l
22 18 m 5 2 l
7 7 l
0 -47 l
-3 44 m 0 -44 l
-9 0 m 20 0 l
32 47 m -7 -3 l
-4 -6 l
-3 -12 l
0 -6 l
3 -11 l
4 -7 l
7 -2 l
4 0 l
7 2 l
5 7 l
2 11 l
0 6 l
-2 12 l
-5 6 l
-7 3 l
-4 0 l
-5 -3 l
-2 -2 l
-2 -4 l
-2 -12 l
0 -6 l
2 -11 l
2 -5 l
2 -2 l
5 -2 l
4 0 m 5 2 l
2 2 l
2 5 l
3 11 l
0 6 l
-3 12 l
-2 4 l
-2 2 l
-5 3 l
63 40 m 0 24 l
117 -24 m 0 24 l
117 -24 m 0 24 l
116 -24 m 0 24 l
117 -24 m 0 48 l
-74 -135 m 9 20 m 40 0 l
23 18 m 4 2 l
7 7 l
0 -47 l
-2 44 m 0 -44 l
-9 0 m 20 0 l
22 47 m -4 -23 l
4 5 l
7 2 l
7 0 l
7 -2 l
4 -5 l
2 -7 l
0 -4 l
-2 -7 l
-4 -4 l
-7 -2 l
-7 0 l
-7 2 l
-2 2 l
-2 5 l
0 2 l
2 2 l
2 -2 l
-2 -2 l
16 22 m 4 -2 l
5 -5 l
2 -7 l
0 -4 l
-2 -7 l
-5 -4 l
-4 -2 l
-14 47 m 23 0 l
-23 -3 m 12 0 l
11 3 l
54 40 m 0 24 l
117 -24 m 0 24 l
116 -24 m 0 24 l
117 -24 m 0 24 l
117 -24 m 0 48 l
-74 -135 m 8 20 m 41 0 l
18 18 m 2 -3 l
-2 -2 l
-2 2 l
0 3 l
2 4 l
2 2 l
7 3 l
9 0 l
6 -3 l
3 -2 l
2 -4 l
0 -5 l
-2 -4 l
-7 -5 l
-11 -4 l
-5 -3 l
-4 -4 l
-2 -7 l
0 -6 l
20 47 m 4 -3 l
2 -2 l
3 -4 l
0 -5 l
-3 -4 l
-6 -5 l
-9 -4 l
-11 -16 m 2 2 l
4 0 l
12 -4 l
6 0 l
5 2 l
2 2 l
-25 0 m 12 -6 l
8 0 l
3 2 l
2 4 l
0 5 l
27 36 m -7 -3 l
-4 -6 l
-3 -12 l
0 -6 l
3 -11 l
4 -7 l
7 -2 l
4 0 l
7 2 l
5 7 l
2 11 l
0 6 l
-2 12 l
-5 6 l
-7 3 l
-4 0 l
-5 -3 l
-2 -2 l
-2 -4 l
-2 -12 l
0 -6 l
2 -11 l
2 -5 l
2 -2 l
5 -2 l
4 0 m 5 2 l
2 2 l
2 5 l
3 11 l
0 6 l
-3 12 l
-2 4 l
-2 2 l
-5 3 l
63 40 m 0 24 l
117 -24 m 0 24 l
117 -24 m 0 24 l
116 -24 m 0 24 l
117 -24 m 0 48 l
-74 -135 m 9 20 m 40 0 l
18 18 m 3 -3 l
-3 -2 l
-2 2 l
0 3 l
2 4 l
3 2 l
6 3 l
9 0 l
7 -3 l
2 -2 l
3 -4 l
0 -5 l
-3 -4 l
-6 -5 l
-12 -4 l
-4 -3 l
-5 -4 l
-2 -7 l
0 -6 l
20 47 m 5 -3 l
2 -2 l
2 -4 l
0 -5 l
-2 -4 l
-7 -5 l
-9 -4 l
-11 -16 m 2 2 l
5 0 l
11 -4 l
7 0 l
4 2 l
3 2 l
-25 0 m 11 -6 l
9 0 l
2 2 l
3 4 l
0 5 l
17 36 m -4 -23 l
4 5 l
7 2 l
7 0 l
7 -2 l
4 -5 l
2 -7 l
0 -4 l
-2 -7 l
-4 -4 l
-7 -2 l
-7 0 l
-7 2 l
-2 2 l
-2 5 l
0 2 l
2 2 l
2 -2 l
-2 -2 l
16 22 m 4 -2 l
5 -5 l
2 -7 l
0 -4 l
-2 -7 l
-5 -4 l
-4 -2 l
-14 47 m 23 0 l
-23 -3 m 12 0 l
11 3 l
438 2042 M 1750 0 l
438 2042 M 0 -48 l
116 48 m 0 -24 l
117 24 m 0 -24 l
117 24 m 0 -24 l
116 24 m 0 -24 l
117 24 m 0 -48 l
117 48 m 0 -24 l
117 24 m 0 -24 l
116 24 m 0 -24 l
117 24 m 0 -24 l
117 24 m 0 -48 l
116 48 m 0 -24 l
117 24 m 0 -24 l
117 24 m 0 -24 l
116 24 m 0 -24 l
117 24 m 0 -48 l
438 583 M 0 1459 l
438 619 M 48 0 l
-134 -23 m 20 47 m -7 -3 l
-4 -6 l
-2 -12 l
0 -6 l
2 -11 l
4 -7 l
7 -2 l
5 0 l
6 2 l
5 7 l
2 11 l
0 6 l
-2 12 l
-5 6 l
-6 3 l
-5 0 l
-4 -3 l
-3 -2 l
-2 -4 l
-2 -12 l
0 -6 l
2 -11 l
2 -5 l
3 -2 l
4 -2 l
5 0 m 4 2 l
2 2 l
3 5 l
2 11 l
0 6 l
-2 12 l
-3 4 l
-2 2 l
-4 3 l
61 47 m 24 0 l
-24 71 m 24 0 l
-24 72 m 24 0 l
-24 71 m 24 0 l
-24 71 m 48 0 l
-179 -24 m 13 38 m 5 3 l
7 6 l
0 -47 l
-3 45 m 0 -45 l
-9 0 m 21 0 l
31 47 m -7 -2 l
CS M
-4 -7 l
-2 -11 l
0 -6 l
2 -12 l
4 -6 l
7 -3 l
5 0 l
6 3 l
5 6 l
2 12 l
0 6 l
-2 11 l
-5 7 l
-6 2 l
-5 0 l
-4 -2 l
-3 -2 l
-2 -5 l
-2 -11 l
0 -6 l
2 -12 l
2 -4 l
3 -2 l
4 -3 l
5 0 m 4 3 l
2 2 l
2 4 l
3 12 l
0 6 l
-3 11 l
-2 5 l
-2 2 l
-4 2 l
61 48 m 24 0 l
-24 71 m 24 0 l
-24 71 m 24 0 l
-24 71 m 24 0 l
-24 72 m 48 0 l
-179 -24 m 9 38 m 2 -2 l
-2 -2 l
-2 2 l
0 2 l
2 5 l
2 2 l
7 2 l
9 0 l
7 -2 l
2 -2 l
2 -5 l
0 -4 l
-2 -5 l
-7 -4 l
-11 -5 l
-5 -2 l
-4 -4 l
-2 -7 l
0 -7 l
20 47 m 4 -2 l
3 -2 l
2 -5 l
0 -4 l
-2 -5 l
-7 -4 l
-9 -5 l
-11 -15 m 2 2 l
4 0 l
12 -5 l
6 0 l
5 3 l
2 2 l
-25 0 m 12 -7 l
9 0 l
2 2 l
2 5 l
0 4 l
27 36 m -7 -2 l
-4 -7 l
-2 -11 l
0 -7 l
2 -11 l
4 -7 l
7 -2 l
5 0 l
6 2 l
5 7 l
2 11 l
0 7 l
-2 11 l
-5 7 l
-6 2 l
-5 0 l
-4 -2 l
-3 -2 l
-2 -5 l
-2 -11 l
0 -7 l
2 -11 l
2 -4 l
3 -3 l
4 -2 l
5 0 m 4 2 l
2 3 l
2 4 l
3 11 l
0 7 l
-3 11 l
-2 5 l
-2 2 l
-4 2 l
61 48 m 24 0 l
-24 71 m 24 0 l
-24 71 m 24 0 l
-24 71 m 24 0 l
-24 71 m 48 0 l
-179 -23 m 9 38 m 2 -2 l
-2 -2 l
-2 2 l
0 2 l
2 5 l
2 2 l
7 2 l
9 0 l
7 -2 l
2 -5 l
0 -6 l
-2 -5 l
-7 -2 l
-7 0 l
7 20 m 4 -2 l
3 -5 l
0 -6 l
-3 -5 l
-4 -2 l
4 -2 l
5 -5 l
2 -4 l
0 -7 l
-2 -5 l
-2 -2 l
-7 -2 l
-9 0 l
-7 2 l
-2 2 l
-2 5 l
0 2 l
2 2 l
2 -2 l
-2 -2 l
25 13 m 2 -6 l
0 -7 l
-2 -5 l
-3 -2 l
-4 -2 l
38 47 m -7 -2 l
-4 -7 l
-2 -11 l
0 -7 l
2 -11 l
4 -7 l
7 -2 l
5 0 l
6 2 l
5 7 l
2 11 l
0 7 l
-2 11 l
-5 7 l
-6 2 l
-5 0 l
-4 -2 l
-3 -2 l
-2 -5 l
-2 -11 l
0 -7 l
2 -11 l
2 -5 l
3 -2 l
4 -2 l
5 0 m 4 2 l
2 2 l
2 5 l
3 11 l
0 7 l
-3 11 l
-2 5 l
-2 2 l
-4 2 l
61 48 m 24 0 l
-24 71 m 24 0 l
-24 71 m 24 0 l
-24 71 m 24 0 l
-24 71 m 48 0 l
-179 -23 m 27 42 m 0 -42 l
2 47 m 0 -47 l
0 47 m -25 -34 l
36 0 l
-20 -13 m 16 0 l
29 47 m -7 -2 l
-4 -7 l
-2 -11 l
0 -7 l
2 -11 l
4 -7 l
7 -2 l
5 0 l
6 2 l
5 7 l
2 11 l
0 7 l
-2 11 l
-5 7 l
-6 2 l
-5 0 l
-4 -2 l
-3 -3 l
-2 -4 l
-2 -11 l
0 -7 l
2 -11 l
2 -5 l
3 -2 l
4 -2 l
5 0 m 4 2 l
2 2 l
2 5 l
3 11 l
0 7 l
-3 11 l
-2 4 l
-2 3 l
-4 2 l
2188 583 M 0 1459 l
2188 619 M -48 0 l
48 71 m -24 0 l
24 71 m -24 0 l
24 72 m -24 0 l
24 71 m -24 0 l
24 71 m -48 0 l
48 71 m -24 0 l
24 71 m -24 0 l
24 71 m -24 0 l
24 71 m -24 0 l
24 72 m -48 0 l
48 71 m -24 0 l
24 71 m -24 0 l
24 71 m -24 0 l
24 71 m -24 0 l
24 71 m -48 0 l
48 72 m -24 0 l
24 71 m -24 0 l
24 71 m -24 0 l
24 71 m -24 0 l
24 71 m -48 0 l
CS [] 0 setdash M
CS [] 0 setdash M
885 391 M 38 40 m 2 -7 l
0 14 l
-2 -7 l
-5 4 l
-7 3 l
-4 0 l
-7 -3 l
-4 -4 l
-3 -5 l
-2 -6 l
0 -12 l
2 -6 l
3 -5 l
4 -4 l
7 -2 l
4 0 l
7 2 l
5 4 l
-16 41 m -5 -3 l
-4 -4 l
-2 -5 l
-3 -6 l
0 -12 l
3 -6 l
2 -5 l
4 -4 l
5 -2 l
16 17 m 0 -17 l
2 17 m 0 -17 l
-9 17 m 16 0 l
15 9 m 0 -2 l
-2 0 l
0 2 l
2 3 l
5 2 l
9 0 l
4 -2 l
3 -3 l
2 -4 l
0 -16 l
2 -4 l
2 -2 l
-6 26 m 0 -20 l
2 -4 l
4 -2 l
3 0 l
-9 22 m -3 -2 l
CS M
-13 -3 l
-7 -2 l
-2 -4 l
0 -5 l
2 -4 l
7 -2 l
7 0 l
4 2 l
5 4 l
-16 11 m -5 -2 l
-2 -4 l
0 -5 l
2 -4 l
5 -2 l
40 47 m 0 -47 l
2 47 m 0 -47 l
-9 47 m 9 0 l
-9 -47 m 16 0 l
16 26 m 0 -2 l
-2 0 l
0 2 l
2 3 l
4 2 l
9 0 l
5 -2 l
2 -3 l
2 -4 l
0 -16 l
3 -4 l
2 -2 l
-7 26 m 0 -20 l
2 -4 l
5 -2 l
2 0 l
-9 22 m -2 -2 l
-14 -3 l
-6 -2 l
-3 -4 l
0 -5 l
3 -4 l
6 -2 l
7 0 l
5 2 l
4 4 l
-16 11 m -4 -2 l
-2 -4 l
0 -5 l
2 -4 l
4 -2 l
38 31 m 25 -31 l
-22 31 m 24 -31 l
0 31 m -27 -31 l
-4 31 m 13 0 l
9 0 m 14 0 l
-36 -31 m 13 0 l
9 0 m 14 0 l
13 31 m 14 -31 l
-11 31 m 11 -27 l
13 27 m -13 -31 l
-5 -10 l
-4 -4 l
-5 -2 l
-2 0 l
-2 2 l
2 2 l
2 -2 l
-4 45 m 13 0 l
9 0 m 14 0 l
49 16 m 0 -47 l
2 47 m 0 -47 l
-9 47 m 16 0 l
-16 -47 m 34 0 l
0 13 l
-2 -13 l
15 31 m 0 -25 l
3 -4 l
7 -2 l
4 0 l
7 2 l
4 4 l
-22 25 m 0 -25 l
2 -4 l
5 -2 l
15 31 m 0 -31 l
2 31 m 0 -31 l
-33 31 m 9 0 l
16 0 m 8 0 l
-2 -31 m 9 0 l
16 31 m 0 -31 l
2 31 m 0 -31 l
0 24 m 5 5 l
6 2 l
5 0 l
7 -2 l
2 -5 l
0 -24 l
-9 31 m 4 -2 l
3 -5 l
0 -24 l
2 24 m 4 5 l
7 2 l
5 0 l
6 -2 l
3 -5 l
0 -24 l
-9 31 m 4 -2 l
2 -5 l
0 -24 l
-56 31 m 9 0 l
-9 -31 m 16 0 l
9 0 m 16 0 l
9 0 m 15 0 l
16 47 m -2 -3 l
2 -2 l
2 2 l
-2 3 l
0 -16 m 0 -31 l
2 31 m 0 -31 l
-9 31 m 9 0 l
-9 -31 m 16 0 l
16 31 m 0 -31 l
2 31 m 0 -31 l
0 24 m 4 5 l
7 2 l
5 0 l
6 -2 l
3 -5 l
0 -24 l
-9 31 m 4 -2 l
2 -5 l
0 -24 l
-31 31 m 9 0 l
-9 -31 m 16 0 l
9 0 m 15 0 l
25 31 m -7 -2 l
-4 -5 l
-2 -7 l
0 -4 l
2 -7 l
4 -4 l
7 -2 l
4 0 l
7 2 l
5 4 l
2 7 l
0 4 l
-2 7 l
-5 5 l
-7 2 l
-4 0 l
-4 -2 l
-5 -5 l
-2 -7 l
0 -4 l
2 -7 l
5 -4 l
4 -2 l
4 0 m 5 2 l
4 4 l
3 7 l
0 4 l
-3 7 l
-4 5 l
-5 2 l
50 -5 m 2 5 l
0 -9 l
-2 4 l
-2 3 l
-5 2 l
-9 0 l
-4 -2 l
-3 -3 l
0 -4 l
3 -2 l
4 -3 l
11 -4 l
5 -2 l
2 -3 l
-25 16 m 3 -2 l
4 -2 l
11 -5 l
5 -2 l
2 -2 l
0 -7 l
-2 -2 l
-5 -2 l
-9 0 l
-4 2 l
-2 2 l
-3 4 l
0 -8 l
3 4 l
40 43 m -2 -3 l
2 -2 l
2 2 l
-2 3 l
0 -16 m 0 -31 l
2 31 m 0 -31 l
-9 31 m 9 0 l
-9 -31 m 16 0 l
16 47 m 0 -39 l
2 -6 l
4 -2 l
5 0 l
4 2 l
3 4 l
-16 41 m 0 -39 l
2 -6 l
2 -2 l
-13 31 m 18 0 l
20 0 m 14 -31 l
-12 31 m 12 -27 l
13 27 m -13 -31 l
-5 -10 l
-4 -4 l
-5 -2 l
-2 0 l
-2 2 l
2 2 l
2 -2 l
-4 45 m 13 0 l
9 0 m 14 0 l
49 16 m 0 -47 l
2 47 m 14 -41 l
-16 41 m 16 -47 l
15 47 m -15 -47 l
15 47 m 0 -47 l
3 47 m 0 -47 l
-41 47 m 9 0 l
29 0 m 9 0 l
-47 -47 m 14 0 l
18 0 m 15 0 l
9 6 m 9 -28 l
-8 28 m 8 -24 l
10 24 m -10 -28 l
-12 28 m 8 0 l
8 0 m 8 0 l
14 58 m 0 -29 l
1 29 m 0 -29 l
-9 29 m -2 -8 l
0 8 l
21 0 l
0 -8 l
-2 8 l
-13 -29 m 9 0 l
CS [] 0 setdash M
CS [] 0 setdash M
298 1528 M 3 6 l
0 -13 l
-3 7 l
-4 4 l
-7 2 l
-6 0 l
-7 -2 l
-5 -4 l
0 -5 l
3 -4 l
2 -3 l
4 -2 l
14 -4 l
4 -3 l
5 -4 l
-32 20 m 5 -4 l
4 -3 l
14 -4 l
4 -2 l
2 -3 l
3 -4 l
0 -9 l
-5 -5 l
-7 -2 l
-6 0 l
-7 2 l
-4 5 l
-3 7 l
0 -14 l
3 7 l
42 0 m 0 -28 l
1 28 m 17 -26 l
-17 23 m 17 -25 l
0 28 m 0 -28 l
-22 28 m 5 0 l
13 0 m 8 0 l
-26 -28 m 8 0 l
CS [] 0 setdash M
1076 782 M 6 -14 m 8 8 l
0 12 l
-8 8 l
-12 0 l
-8 -8 l
0 -12 l
8 -8 l
12 0 l
-15 48 m 6 -14 m 8 8 l
0 11 l
-8 9 l
-12 0 l
-8 -9 l
0 -11 l
8 -8 l
12 0 l
143 -98 m 6 -14 m 8 8 l
0 11 l
CS M
-8 8 l
-12 0 l
-8 -8 l
0 -11 l
8 -8 l
12 0 l
-21 -71 m 6 -14 m 8 8 l
0 12 l
-8 8 l
-11 0 l
-8 -8 l
0 -12 l
8 -8 l
11 0 l
534 74 m 6 -14 m 8 8 l
0 12 l
-8 8 l
-12 0 l
-8 -8 l
0 -12 l
8 -8 l
12 0 l
105 189 m 6 -14 m 8 8 l
0 12 l
-8 8 l
-12 0 l
-8 -8 l
0 -12 l
8 -8 l
12 0 l
-12 -186 m 6 -14 m 8 8 l
0 11 l
-8 8 l
-12 0 l
-8 -8 l
0 -11 l
8 -8 l
12 0 l
-70 7 m 6 -14 m 8 8 l
0 11 l
-8 9 l
-12 0 l
-8 -9 l
0 -11 l
8 -8 l
12 0 l
84 169 m 6 -14 m 8 8 l
0 12 l
-8 8 l
-11 0 l
-8 -8 l
0 -12 l
8 -8 l
11 0 l
-151 -115 m 5 -14 m 8 8 l
0 12 l
-8 8 l
-11 0 l
-8 -8 l
0 -12 l
8 -8 l
11 0 l
196 61 m 6 -14 m 8 8 l
0 12 l
-8 8 l
-12 0 l
-8 -8 l
0 -12 l
8 -8 l
12 0 l
-327 42 m 6 -14 m 8 8 l
0 12 l
-8 8 l
-12 0 l
-8 -8 l
0 -12 l
8 -8 l
12 0 l
306 118 m 6 -14 m 8 8 l
0 12 l
-8 8 l
-12 0 l
-8 -8 l
0 -12 l
8 -8 l
12 0 l
-420 -2 m 6 -14 m 8 8 l
0 11 l
-8 8 l
-12 0 l
-8 -8 l
0 -11 l
8 -8 l
12 0 l
96 -122 m 6 -13 m 8 8 l
0 11 l
-8 8 l
-12 0 l
-8 -8 l
0 -11 l
8 -8 l
12 0 l
128 -35 m 6 -13 m 8 8 l
0 11 l
-8 8 l
-12 0 l
-8 -8 l
0 -11 l
8 -8 l
12 0 l
-29 20 m 6 -14 m 8 9 l
0 11 l
-8 8 l
-12 0 l
-8 -8 l
0 -11 l
8 -9 l
12 0 l
-70 60 m 5 -14 m 8 8 l
0 12 l
-8 8 l
-11 0 l
-8 -8 l
0 -12 l
8 -8 l
11 0 l
21 -27 m 6 -14 m 8 8 l
0 11 l
-8 8 l
-12 0 l
-8 -8 l
0 -11 l
8 -8 l
12 0 l
17 33 m 6 -14 m 8 8 l
0 12 l
-8 8 l
-12 0 l
-8 -8 l
0 -12 l
8 -8 l
12 0 l
131 279 m 6 -14 m 8 8 l
0 12 l
-8 8 l
-11 0 l
-9 -8 l
0 -12 l
9 -8 l
11 0 l
-55 -252 m 5 -13 m 8 8 l
0 11 l
-8 8 l
-11 0 l
-8 -8 l
0 -11 l
8 -8 l
11 0 l
144 129 m 5 -14 m 8 8 l
0 11 l
-8 8 l
-11 0 l
-8 -8 l
0 -11 l
8 -8 l
11 0 l
-461 -23 m 6 -13 m 8 8 l
0 11 l
-8 8 l
-11 0 l
-8 -8 l
0 -11 l
8 -8 l
11 0 l
181 -79 m 6 -14 m 8 8 l
0 12 l
-8 8 l
-12 0 l
-8 -8 l
0 -12 l
8 -8 l
12 0 l
14 54 m 6 -14 m 8 8 l
0 12 l
-8 8 l
-11 0 l
-8 -8 l
0 -12 l
8 -8 l
11 0 l
-245 -27 m 6 -13 m 8 8 l
0 11 l
-8 8 l
-12 0 l
-8 -8 l
0 -11 l
8 -8 l
12 0 l
245 7 m 6 -14 m 8 8 l
0 11 l
-8 9 l
-12 0 l
-8 -9 l
0 -11 l
8 -8 l
12 0 l
9 7 m 6 -14 m 8 8 l
0 12 l
-8 8 l
-12 0 l
-8 -8 l
0 -12 l
8 -8 l
12 0 l
81 -12 m 6 -13 m 8 8 l
0 11 l
-8 8 l
-11 0 l
-9 -8 l
0 -11 l
9 -8 l
11 0 l
-327 7 m 6 -14 m 8 8 l
0 11 l
-8 8 l
-11 0 l
-8 -8 l
0 -11 l
8 -8 l
11 0 l
502 57 m 6 -14 m 8 9 l
0 11 l
-8 8 l
-12 0 l
-8 -8 l
0 -11 l
8 -9 l
12 0 l
-143 33 m 6 -14 m 8 8 l
0 11 l
-8 8 l
-12 0 l
-8 -8 l
0 -11 l
8 -8 l
12 0 l
26 30 m 6 -14 m 8 8 l
0 12 l
-8 8 l
-12 0 l
-8 -8 l
0 -12 l
8 -8 l
12 0 l
-146 -52 m 6 -13 m 8 8 l
0 11 l
-8 8 l
-12 0 l
-8 -8 l
0 -11 l
8 -8 l
12 0 l
87 37 m 6 -14 m 8 8 l
0 11 l
-8 8 l
-11 0 l
-9 -8 l
0 -11 l
9 -8 l
11 0 l
-306 4 m 5 -14 m 9 8 l
0 11 l
-9 8 l
-11 0 l
-8 -8 l
0 -11 l
8 -8 l
11 0 l
438 63 m 6 -14 m 8 8 l
0 11 l
-8 8 l
-12 0 l
-8 -8 l
0 -11 l
8 -8 l
12 0 l
-210 -1 m 6 -14 m 8 8 l
0 11 l
-8 8 l
-12 0 l
-8 -8 l
0 -11 l
8 -8 l
12 0 l
-266 41 m 6 -14 m 8 8 l
0 11 l
-8 9 l
-11 0 l
-8 -9 l
0 -11 l
CS M
8 -8 l
11 0 l
-195 111 m 5 -14 m 8 8 l
0 11 l
-8 8 l
-11 0 l
-8 -8 l
0 -11 l
8 -8 l
11 0 l
330 -72 m 6 -13 m 8 8 l
0 11 l
-8 8 l
-11 0 l
-9 -8 l
0 -11 l
9 -8 l
11 0 l
88 538 m 5 -14 m 8 9 l
0 11 l
-8 8 l
-11 0 l
-8 -8 l
0 -11 l
8 -9 l
11 0 l
27 -226 m 5 -14 m 8 8 l
0 12 l
-8 8 l
-11 0 l
-8 -8 l
0 -12 l
8 -8 l
11 0 l
24 705 m 6 -14 m 8 8 l
0 12 l
-8 8 l
-12 0 l
-8 -8 l
0 -12 l
8 -8 l
12 0 l
1861 766 M 5 -14 m 9 8 l
0 11 l
-9 8 l
-11 0 l
-8 -8 l
0 -11 l
8 -8 l
11 0 l
-268 -62 m 6 -14 m 8 8 l
0 12 l
-8 8 l
-12 0 l
-8 -8 l
0 -12 l
8 -8 l
12 0 l
105 -24 m 6 -13 m 8 8 l
0 11 l
-8 8 l
-12 0 l
-8 -8 l
0 -11 l
8 -8 l
12 0 l
268 -1 m 6 -14 m 8 9 l
0 11 l
-8 8 l
-12 0 l
-8 -8 l
0 -11 l
8 -9 l
12 0 l
-172 15 m 6 -14 m 8 9 l
0 11 l
-8 8 l
-12 0 l
-8 -8 l
0 -11 l
8 -9 l
12 0 l
-88 52 m 6 -14 m 8 8 l
0 11 l
-8 8 l
-11 0 l
-9 -8 l
0 -11 l
9 -8 l
11 0 l
99 -22 m 6 -14 m 8 8 l
0 12 l
-8 8 l
-11 0 l
-9 -8 l
0 -12 l
9 -8 l
11 0 l
-99 61 m 6 -14 m 8 8 l
0 12 l
-8 8 l
-12 0 l
-8 -8 l
0 -12 l
8 -8 l
12 0 l
219 182 m 5 -14 m 8 8 l
0 12 l
-8 8 l
-11 0 l
-8 -8 l
0 -12 l
8 -8 l
11 0 l
-107 -101 m 5 -14 m 8 8 l
0 12 l
-8 8 l
-11 0 l
-8 -8 l
0 -12 l
8 -8 l
11 0 l
-262 -55 m 5 -14 m 8 8 l
0 12 l
-8 8 l
-11 0 l
-8 -8 l
0 -12 l
8 -8 l
11 0 l
371 104 m 6 -14 m 8 8 l
0 11 l
-8 8 l
-12 0 l
-8 -8 l
0 -11 l
8 -8 l
12 0 l
-382 -71 m 5 -14 m 8 8 l
0 12 l
-8 8 l
-11 0 l
-8 -8 l
0 -12 l
8 -8 l
11 0 l
237 18 m 6 -14 m 8 8 l
0 11 l
-8 8 l
-12 0 l
-8 -8 l
0 -11 l
8 -8 l
12 0 l
-143 112 m 6 -14 m 8 8 l
0 12 l
-8 8 l
-12 0 l
-8 -8 l
0 -12 l
8 -8 l
12 0 l
-33 25 m 6 -14 m 8 8 l
0 12 l
-8 8 l
-11 0 l
-8 -8 l
0 -12 l
8 -8 l
11 0 l
-531 -150 m 6 -14 m 8 8 l
0 11 l
-8 9 l
-11 0 l
-9 -9 l
0 -11 l
9 -8 l
11 0 l
257 33 m 6 -14 m 8 8 l
0 11 l
-8 8 l
-12 0 l
-8 -8 l
0 -11 l
8 -8 l
12 0 l
443 121 m 6 -14 m 8 8 l
0 11 l
-8 9 l
-12 0 l
-8 -9 l
0 -11 l
8 -8 l
12 0 l
-3 55 m 6 -14 m 8 8 l
0 12 l
-8 8 l
-12 0 l
-8 -8 l
0 -12 l
8 -8 l
12 0 l
-368 -112 m 6 -13 m 8 8 l
0 11 l
-8 8 l
-11 0 l
-8 -8 l
0 -11 l
8 -8 l
11 0 l
356 79 m 6 -14 m 8 8 l
0 11 l
-8 8 l
-12 0 l
-8 -8 l
0 -11 l
8 -8 l
12 0 l
-321 -33 m 6 -14 m 8 9 l
0 11 l
-8 8 l
-12 0 l
-8 -8 l
0 -11 l
8 -9 l
12 0 l
-76 8 m 6 -14 m 8 8 l
0 11 l
-8 8 l
-12 0 l
-8 -8 l
0 -11 l
8 -8 l
12 0 l
-210 -47 m 6 -14 m 8 8 l
0 12 l
-8 8 l
-12 0 l
-8 -8 l
0 -12 l
8 -8 l
12 0 l
636 199 m 5 -13 m 8 8 l
0 11 l
-8 8 l
-11 0 l
-8 -8 l
0 -11 l
8 -8 l
11 0 l
-239 -109 m 6 -13 m 8 8 l
0 11 l
-8 8 l
-11 0 l
-9 -8 l
0 -11 l
9 -8 l
11 0 l
-125 -25 m 5 -14 m 8 8 l
0 12 l
-8 8 l
-11 0 l
-8 -8 l
0 -12 l
8 -8 l
11 0 l
-23 6 m 6 -13 m 8 8 l
0 11 l
-8 8 l
-12 0 l
-8 -8 l
0 -11 l
8 -8 l
12 0 l
341 414 m 6 -14 m 8 8 l
0 12 l
-8 8 l
-11 0 l
-9 -8 l
0 -12 l
9 -8 l
11 0 l
-464 -391 m 6 -14 m 8 8 l
0 12 l
-8 8 l
-12 0 l
-8 -8 l
0 -12 l
8 -8 l
12 0 l
-114 12 m 6 -14 m 8 8 l
0 12 l
-8 8 l
-11 0 l
-8 -8 l
0 -12 l
8 -8 l
11 0 l
140 30 m 6 -14 m 8 8 l
0 12 l
CS M
-8 8 l
-12 0 l
-8 -8 l
0 -12 l
8 -8 l
12 0 l
271 25 m 6 -13 m 8 8 l
0 11 l
-8 8 l
-11 0 l
-9 -8 l
0 -11 l
9 -8 l
11 0 l
-268 12 m 6 -14 m 8 8 l
0 11 l
-8 8 l
-12 0 l
-8 -8 l
0 -11 l
8 -8 l
12 0 l
140 250 m 5 -14 m 8 9 l
0 11 l
-8 8 l
-11 0 l
-8 -8 l
0 -11 l
8 -9 l
11 0 l
-52 -183 m 6 -14 m 8 8 l
0 11 l
-8 9 l
-12 0 l
-8 -9 l
0 -11 l
8 -8 l
12 0 l
119 78 m 6 -14 m 8 8 l
0 12 l
-8 8 l
-11 0 l
-8 -8 l
0 -12 l
8 -8 l
11 0 l
27 -43 m 5 -14 m 8 9 l
0 11 l
-8 8 l
-11 0 l
-8 -8 l
0 -11 l
8 -9 l
11 0 l
3 331 m 6 -14 m 8 9 l
0 11 l
-8 8 l
-11 0 l
-9 -8 l
0 -11 l
9 -9 l
11 0 l
111 -231 m 6 -14 m 8 8 l
0 11 l
-8 9 l
-12 0 l
-8 -9 l
0 -11 l
8 -8 l
12 0 l
-318 -48 m 6 -14 m 8 8 l
0 11 l
-8 8 l
-12 0 l
-8 -8 l
0 -11 l
8 -8 l
12 0 l
172 3 m 5 -14 m 9 8 l
0 12 l
-9 8 l
-11 0 l
-8 -8 l
0 -12 l
8 -8 l
11 0 l
-5 -43 m 5 -14 m 9 9 l
0 11 l
-9 8 l
-11 0 l
-8 -8 l
0 -11 l
8 -9 l
11 0 l
109 262 m 5 -14 m 8 9 l
0 11 l
-8 8 l
-11 0 l
-8 -8 l
0 -11 l
8 -9 l
11 0 l
103 -133 m 5 -14 m 8 8 l
0 12 l
-8 8 l
-11 0 l
-8 -8 l
0 -12 l
8 -8 l
11 0 l
-245 52 m 6 -14 m 8 8 l
0 11 l
-8 8 l
-11 0 l
-9 -8 l
0 -11 l
9 -8 l
11 0 l
269 139 m 5 -14 m 8 8 l
0 11 l
-8 8 l
-11 0 l
-8 -8 l
0 -11 l
8 -8 l
11 0 l
-356 -207 m 6 -14 m 8 8 l
0 12 l
-8 8 l
-11 0 l
-8 -8 l
0 -12 l
8 -8 l
11 0 l
64 110 m 6 -14 m 8 8 l
0 11 l
-8 8 l
-11 0 l
-8 -8 l
0 -11 l
8 -8 l
11 0 l
275 10 m 5 -14 m 8 8 l
0 12 l
-8 8 l
-11 0 l
-8 -8 l
0 -12 l
8 -8 l
11 0 l
-134 -93 m 6 -14 m 8 8 l
0 11 l
-8 8 l
-12 0 l
-8 -8 l
0 -11 l
8 -8 l
12 0 l
-9 2 m 6 -14 m 8 9 l
0 11 l
-8 8 l
-12 0 l
-8 -8 l
0 -11 l
8 -9 l
12 0 l
-131 118 m 5 -14 m 9 8 l
0 12 l
-9 8 l
-11 0 l
-8 -8 l
0 -12 l
8 -8 l
11 0 l
24 380 m 6 -14 m 8 8 l
0 12 l
-8 8 l
-12 0 l
-8 -8 l
0 -12 l
8 -8 l
12 0 l
84 -428 m 6 -14 m 8 8 l
0 12 l
-8 8 l
-11 0 l
-8 -8 l
0 -12 l
8 -8 l
11 0 l
-43 150 m 5 -14 m 8 8 l
0 12 l
-8 8 l
-11 0 l
-8 -8 l
0 -12 l
8 -8 l
11 0 l
30 -64 m 5 -13 m 8 8 l
0 11 l
-8 8 l
-11 0 l
-8 -8 l
0 -11 l
8 -8 l
11 0 l
-297 -35 m 5 -14 m 9 8 l
0 12 l
-9 8 l
-11 0 l
-8 -8 l
0 -12 l
8 -8 l
11 0 l
269 171 m 6 -14 m 8 8 l
0 12 l
-8 8 l
-12 0 l
-8 -8 l
0 -12 l
8 -8 l
12 0 l
-18 -139 m 6 -14 m 8 8 l
0 12 l
-8 8 l
-11 0 l
-9 -8 l
0 -12 l
9 -8 l
11 0 l
0 195 m 6 -14 m 8 8 l
0 11 l
-8 8 l
-12 0 l
-8 -8 l
0 -11 l
8 -8 l
12 0 l
108 -51 m 6 -14 m 8 8 l
0 12 l
-8 8 l
-12 0 l
-8 -8 l
0 -12 l
8 -8 l
12 0 l
-38 -58 m 6 -14 m 8 8 l
0 11 l
-8 8 l
-12 0 l
-8 -8 l
0 -11 l
8 -8 l
12 0 l
102 87 m 5 -13 m 9 8 l
0 11 l
-9 8 l
-11 0 l
-8 -8 l
0 -11 l
8 -8 l
11 0 l
-37 -116 m 5 -14 m 9 8 l
0 12 l
-9 8 l
-11 0 l
-8 -8 l
0 -12 l
8 -8 l
11 0 l
-99 -21 m 6 -14 m 8 8 l
0 12 l
-8 8 l
-11 0 l
-9 -8 l
0 -12 l
9 -8 l
11 0 l
-184 57 m 6 -14 m 8 8 l
0 11 l
-8 8 l
-11 0 l
-9 -8 l
0 -11 l
9 -8 l
11 0 l
21 133 m 5 -14 m 8 8 l
0 12 l
-8 8 l
-11 0 l
-8 -8 l
0 -12 l
8 -8 l
11 0 l
-20 10 m 6 -14 m 8 9 l
0 11 l
-8 8 l
-12 0 l
-8 -8 l
0 -11 l
CS M
8 -9 l
12 0 l
-82 -93 m 6 -14 m 8 8 l
0 11 l
-8 8 l
-12 0 l
-8 -8 l
0 -11 l
8 -8 l
12 0 l
225 27 m 5 -14 m 8 8 l
0 12 l
-8 8 l
-11 0 l
-8 -8 l
0 -12 l
8 -8 l
11 0 l
91 207 m 6 -14 m 8 8 l
0 12 l
-8 8 l
-12 0 l
-8 -8 l
0 -12 l
8 -8 l
12 0 l
-38 -216 m 6 -14 m 8 8 l
0 12 l
-8 8 l
-12 0 l
-8 -8 l
0 -12 l
8 -8 l
12 0 l
-126 65 m 6 -14 m 8 8 l
0 12 l
-8 8 l
-11 0 l
-9 -8 l
0 -12 l
9 -8 l
11 0 l
-440 -64 m 5 -14 m 8 8 l
0 11 l
-8 8 l
-11 0 l
-8 -8 l
0 -11 l
8 -8 l
11 0 l
158 4 m 6 -14 m 8 8 l
0 11 l
-8 8 l
-12 0 l
-8 -8 l
0 -11 l
8 -8 l
12 0 l
-202 44 m 6 -14 m 8 8 l
0 11 l
-8 8 l
-11 0 l
-8 -8 l
0 -11 l
8 -8 l
11 0 l
-198 -20 m 6 -14 m 8 8 l
0 11 l
-8 9 l
-12 0 l
-8 -9 l
0 -11 l
8 -8 l
12 0 l
-27 327 m 6 -14 m 8 8 l
0 12 l
-8 8 l
-11 0 l
-8 -8 l
0 -12 l
8 -8 l
11 0 l
155 -295 m 6 -14 m 8 8 l
0 12 l
-8 8 l
-12 0 l
-8 -8 l
0 -12 l
8 -8 l
12 0 l
-9 133 m 6 -14 m 8 8 l
0 12 l
-8 8 l
-12 0 l
-8 -8 l
0 -12 l
8 -8 l
12 0 l
20 49 m 6 -14 m 8 8 l
0 11 l
-8 9 l
-11 0 l
-9 -9 l
0 -11 l
9 -8 l
11 0 l
-125 -52 m 5 -14 m 8 8 l
0 12 l
-8 8 l
-11 0 l
-8 -8 l
0 -12 l
8 -8 l
11 0 l
82 -62 m 6 -14 m 8 8 l
0 12 l
-8 8 l
-12 0 l
-8 -8 l
0 -12 l
8 -8 l
12 0 l
-99 339 m 6 -14 m 8 8 l
0 11 l
-8 8 l
-12 0 l
-8 -8 l
0 -11 l
8 -8 l
12 0 l
140 -291 m 5 -14 m 8 8 l
0 11 l
-8 8 l
-11 0 l
-8 -8 l
0 -11 l
8 -8 l
11 0 l
-72 195 m 5 -14 m 8 8 l
0 11 l
-8 9 l
-11 0 l
-8 -9 l
0 -11 l
8 -8 l
11 0 l
-78 -174 m 5 -14 m 8 8 l
0 11 l
-8 8 l
-11 0 l
-8 -8 l
0 -11 l
8 -8 l
11 0 l
-140 200 m 6 -14 m 8 9 l
0 11 l
-8 8 l
-11 0 l
-8 -8 l
0 -11 l
8 -9 l
11 0 l
100 -58 m 5 -14 m 8 8 l
0 12 l
-8 8 l
-11 0 l
-8 -8 l
0 -12 l
8 -8 l
11 0 l
70 47 m 6 -14 m 8 8 l
0 12 l
-8 8 l
-11 0 l
-9 -8 l
0 -12 l
9 -8 l
11 0 l
-35 148 m 6 -14 m 8 8 l
0 12 l
-8 8 l
-12 0 l
-8 -8 l
0 -12 l
8 -8 l
12 0 l
-76 -216 m 6 -13 m 8 8 l
0 11 l
-8 8 l
-12 0 l
-8 -8 l
0 -11 l
8 -8 l
12 0 l
-41 -27 m 6 -14 m 8 8 l
0 12 l
-8 8 l
-12 0 l
-8 -8 l
0 -12 l
8 -8 l
12 0 l
178 74 m 6 -14 m 8 8 l
0 12 l
-8 8 l
-12 0 l
-8 -8 l
0 -12 l
8 -8 l
12 0 l
-38 -64 m 6 -14 m 8 8 l
0 12 l
-8 8 l
-12 0 l
-8 -8 l
0 -12 l
8 -8 l
12 0 l
0 67 m 5 -14 m 8 8 l
0 11 l
-8 9 l
-11 0 l
-8 -9 l
0 -11 l
8 -8 l
11 0 l
50 -38 m 6 -14 m 8 8 l
0 11 l
-8 8 l
-12 0 l
-8 -8 l
0 -11 l
8 -8 l
12 0 l
-178 63 m 6 -14 m 8 8 l
0 11 l
-8 8 l
-12 0 l
-8 -8 l
0 -11 l
8 -8 l
12 0 l
779 -19 m 5 -14 m 9 8 l
0 12 l
-9 8 l
-11 0 l
-8 -8 l
0 -12 l
8 -8 l
11 0 l
-151 39 m 6 -14 m 8 8 l
0 12 l
-8 8 l
-12 0 l
-8 -8 l
0 -12 l
8 -8 l
12 0 l
90 33 m 6 -14 m 8 8 l
0 11 l
-8 8 l
-12 0 l
-8 -8 l
0 -11 l
8 -8 l
12 0 l
-683 80 m 6 -14 m 8 8 l
0 12 l
-8 8 l
-11 0 l
-9 -8 l
0 -12 l
9 -8 l
11 0 l
56 35 m 5 -14 m 8 8 l
0 12 l
-8 8 l
-11 0 l
-8 -8 l
0 -12 l
8 -8 l
11 0 l
330 -141 m 6 -14 m 8 8 l
0 11 l
-8 8 l
-12 0 l
-8 -8 l
0 -11 l
8 -8 l
12 0 l
79 103 m 5 -14 m 9 8 l
0 12 l
-9 8 l
-11 0 l
-8 -8 l
0 -12 l
8 -8 l
11 0 l
-61 89 m 6 -14 m 8 8 l
0 12 l
CS M
-8 8 l
-11 0 l
-9 -8 l
0 -12 l
9 -8 l
11 0 l
-17 -36 m 5 -14 m 8 8 l
0 12 l
-8 8 l
-11 0 l
-8 -8 l
0 -12 l
8 -8 l
11 0 l
-35 -88 m 6 -14 m 8 8 l
0 12 l
-8 8 l
-11 0 l
-8 -8 l
0 -12 l
8 -8 l
11 0 l
76 41 m 6 -14 m 8 8 l
0 11 l
-8 9 l
-12 0 l
-8 -9 l
0 -11 l
8 -8 l
12 0 l
55 47 m 6 -14 m 8 8 l
0 12 l
-8 8 l
-11 0 l
-9 -8 l
0 -12 l
9 -8 l
11 0 l
-20 652 m 5 -14 m 9 8 l
0 12 l
-9 8 l
-11 0 l
-8 -8 l
0 -12 l
8 -8 l
11 0 l
205 -600 m 6 -13 m 8 8 l
0 11 l
-8 8 l
-12 0 l
-8 -8 l
0 -11 l
8 -8 l
12 0 l
787 1742 M 6 -14 m 8 8 l
0 11 l
-8 8 l
-12 0 l
-8 -8 l
0 -11 l
8 -8 l
12 0 l
99 -521 m 6 -14 m 8 8 l
0 12 l
-8 8 l
-12 0 l
-8 -8 l
0 -12 l
8 -8 l
12 0 l
1138 -365 m 5 -14 m 9 8 l
0 11 l
-9 8 l
-11 0 l
-8 -8 l
0 -11 l
8 -8 l
11 0 l
-29 59 m 6 -14 m 8 8 l
0 11 l
-8 8 l
-11 0 l
-8 -8 l
0 -11 l
8 -8 l
11 0 l
-55 33 m 6 -14 m 8 9 l
0 11 l
-8 8 l
-12 0 l
-8 -8 l
0 -11 l
8 -9 l
12 0 l
-62 -6 m 6 -14 m 8 8 l
0 12 l
-8 8 l
-11 0 l
-8 -8 l
0 -12 l
8 -8 l
11 0 l
181 -116 m 6 -14 m 8 8 l
0 12 l
-8 8 l
-12 0 l
-8 -8 l
0 -12 l
8 -8 l
12 0 l
-64 27 m 5 -14 m 9 9 l
0 11 l
-9 8 l
-11 0 l
-8 -8 l
0 -11 l
8 -9 l
11 0 l
892 1015 M 6 -14 m 8 8 l
0 11 l
-8 8 l
-12 0 l
-8 -8 l
0 -11 l
8 -8 l
12 0 l
537 -368 m 6 -14 m 8 8 l
0 11 l
-8 8 l
-12 0 l
-8 -8 l
0 -11 l
8 -8 l
12 0 l
-196 180 m 6 -13 m 8 8 l
0 11 l
-8 8 l
-12 0 l
-8 -8 l
0 -11 l
8 -8 l
12 0 l
169 -135 m 6 -14 m 8 8 l
0 11 l
-8 8 l
-12 0 l
-8 -8 l
0 -11 l
8 -8 l
12 0 l
-35 9 m 6 -14 m 8 8 l
0 11 l
-8 8 l
-12 0 l
-8 -8 l
0 -11 l
8 -8 l
12 0 l
685 170 m 6 -14 m 8 8 l
0 12 l
-8 8 l
-11 0 l
-8 -8 l
0 -12 l
8 -8 l
11 0 l
-41 180 m 6 -14 m 8 8 l
0 12 l
-8 8 l
-11 0 l
-8 -8 l
0 -12 l
8 -8 l
11 0 l
-58 -237 m 6 -14 m 8 8 l
0 11 l
-8 8 l
-12 0 l
-8 -8 l
0 -11 l
8 -8 l
12 0 l
-295 256 m 6 -14 m 8 8 l
0 12 l
-8 8 l
-12 0 l
-8 -8 l
0 -12 l
8 -8 l
12 0 l
242 -12 m 6 -14 m 8 8 l
0 12 l
-8 8 l
-12 0 l
-8 -8 l
0 -12 l
8 -8 l
12 0 l
6 69 m 5 -14 m 9 8 l
0 11 l
-9 8 l
-11 0 l
-8 -8 l
0 -11 l
8 -8 l
11 0 l
24 105 m 6 -14 m 8 8 l
0 11 l
-8 9 l
-12 0 l
-8 -9 l
0 -11 l
8 -8 l
12 0 l
-683 -379 m 6 -14 m 8 9 l
0 11 l
-8 8 l
-12 0 l
-8 -8 l
0 -11 l
8 -9 l
12 0 l
-589 559 m 5 -14 m 8 8 l
0 11 l
-8 8 l
-11 0 l
-8 -8 l
0 -11 l
8 -8 l
11 0 l
421 -504 m 5 -14 m 8 9 l
0 11 l
-8 8 l
-11 0 l
-8 -8 l
0 -11 l
8 -9 l
11 0 l
-81 23 m 5 -14 m 9 8 l
0 12 l
-9 8 l
-11 0 l
-8 -8 l
0 -12 l
8 -8 l
11 0 l
114 121 m 6 -14 m 8 8 l
0 12 l
-8 8 l
-11 0 l
-9 -8 l
0 -12 l
9 -8 l
11 0 l
-73 2 m 6 -14 m 8 8 l
0 12 l
-8 8 l
-12 0 l
-8 -8 l
0 -12 l
8 -8 l
12 0 l
85 -86 m 5 -14 m 8 8 l
0 11 l
-8 8 l
-11 0 l
-8 -8 l
0 -11 l
8 -8 l
11 0 l
-157 -84 m 6 -14 m 8 8 l
0 12 l
-8 8 l
-12 0 l
-8 -8 l
0 -12 l
8 -8 l
12 0 l
102 288 m 6 -14 m 8 9 l
0 11 l
-8 8 l
-12 0 l
-8 -8 l
0 -11 l
8 -9 l
12 0 l
26 -77 m 6 -14 m 8 8 l
0 12 l
-8 8 l
-12 0 l
-8 -8 l
0 -12 l
8 -8 l
12 0 l
-409 358 m 6 -14 m 8 8 l
0 11 l
-8 8 l
-11 0 l
-9 -8 l
0 -11 l
CS M
9 -8 l
11 0 l
388 -445 m 6 -14 m 8 8 l
0 11 l
-8 8 l
-12 0 l
-8 -8 l
0 -11 l
8 -8 l
12 0 l
-76 229 m 6 -14 m 8 8 l
0 12 l
-8 8 l
-12 0 l
-8 -8 l
0 -12 l
8 -8 l
12 0 l
-134 160 m 6 -14 m 8 8 l
0 12 l
-8 8 l
-12 0 l
-8 -8 l
0 -12 l
8 -8 l
12 0 l
-266 -415 m 6 -14 m 8 8 l
0 12 l
-8 8 l
-12 0 l
-8 -8 l
0 -12 l
8 -8 l
12 0 l
487 175 m 6 -14 m 8 8 l
0 12 l
-8 8 l
-11 0 l
-9 -8 l
0 -12 l
9 -8 l
11 0 l
47 -37 m 5 -14 m 8 8 l
0 11 l
-8 8 l
-11 0 l
-8 -8 l
0 -11 l
8 -8 l
11 0 l
-160 -15 m 6 -13 m 8 8 l
0 11 l
-8 8 l
-12 0 l
-8 -8 l
0 -11 l
8 -8 l
12 0 l
58 -51 m 6 -13 m 8 8 l
0 11 l
-8 8 l
-11 0 l
-9 -8 l
0 -11 l
9 -8 l
11 0 l
-379 1209 m 6 -14 m 8 8 l
0 12 l
-8 8 l
-12 0 l
-8 -8 l
0 -12 l
8 -8 l
12 0 l
306 -779 m 6 -14 m 8 8 l
0 11 l
-8 8 l
-12 0 l
-8 -8 l
0 -11 l
8 -8 l
12 0 l
-23 -177 m 5 -14 m 8 8 l
0 12 l
-8 8 l
-11 0 l
-8 -8 l
0 -12 l
8 -8 l
11 0 l
3 -65 m 6 -14 m 8 8 l
0 12 l
-8 8 l
-11 0 l
-9 -8 l
0 -12 l
9 -8 l
11 0 l
53 -103 m 5 -13 m 8 8 l
0 11 l
-8 8 l
-11 0 l
-8 -8 l
0 -11 l
8 -8 l
11 0 l
-81 152 m 6 -14 m 8 8 l
0 12 l
-8 8 l
-12 0 l
-8 -8 l
0 -12 l
8 -8 l
12 0 l
-313 -158 m 6 -14 m 8 8 l
0 12 l
-8 8 l
-11 0 l
-8 -8 l
0 -12 l
8 -8 l
11 0 l
452 104 m 6 -13 m 8 8 l
0 11 l
-8 8 l
-11 0 l
-8 -8 l
0 -11 l
8 -8 l
11 0 l
-43 99 m 5 -14 m 8 8 l
0 11 l
-8 9 l
-11 0 l
-8 -9 l
0 -11 l
8 -8 l
11 0 l
-70 -118 m 6 -14 m 8 8 l
0 11 l
-8 9 l
-11 0 l
-9 -9 l
0 -11 l
9 -8 l
11 0 l
35 21 m 6 -14 m 8 9 l
0 11 l
-8 8 l
-12 0 l
-8 -8 l
0 -11 l
8 -9 l
12 0 l
-67 -4 m 6 -13 m 8 8 l
0 11 l
-8 8 l
-12 0 l
-8 -8 l
0 -11 l
8 -8 l
12 0 l
20 -20 m 6 -14 m 8 8 l
0 12 l
-8 8 l
-12 0 l
-8 -8 l
0 -12 l
8 -8 l
12 0 l
90 92 m 6 -14 m 8 9 l
0 11 l
-8 8 l
-11 0 l
-8 -8 l
0 -11 l
8 -9 l
11 0 l
-414 1024 m 6 -14 m 8 8 l
0 12 l
-8 8 l
-12 0 l
-8 -8 l
0 -12 l
8 -8 l
12 0 l
257 -788 m 5 -13 m 8 8 l
0 11 l
-8 8 l
-11 0 l
-8 -8 l
0 -11 l
8 -8 l
11 0 l
-122 -158 m 6 -14 m 8 9 l
0 11 l
-8 8 l
-12 0 l
-8 -8 l
0 -11 l
8 -9 l
12 0 l
-169 496 m 5 -14 m 8 8 l
0 12 l
-8 8 l
-11 0 l
-8 -8 l
0 -12 l
8 -8 l
11 0 l
-73 722 m 6 -14 m 8 8 l
0 11 l
-8 8 l
-11 0 l
-8 -8 l
0 -11 l
8 -8 l
11 0 l
295 -912 m 6 -14 m 8 8 l
0 11 l
-8 8 l
-12 0 l
-8 -8 l
0 -11 l
8 -8 l
12 0 l
99 -180 m 6 -14 m 8 8 l
0 12 l
-8 8 l
-12 0 l
-8 -8 l
0 -12 l
8 -8 l
12 0 l
-286 316 m 6 -14 m 8 8 l
0 12 l
-8 8 l
-12 0 l
-8 -8 l
0 -12 l
8 -8 l
12 0 l
344 -114 m 6 -13 m 8 8 l
0 11 l
-8 8 l
-12 0 l
-8 -8 l
0 -11 l
8 -8 l
12 0 l
-53 -152 m 6 -14 m 8 8 l
0 11 l
-8 8 l
-11 0 l
-9 -8 l
0 -11 l
9 -8 l
11 0 l
-29 -25 m 6 -14 m 8 8 l
0 12 l
-8 8 l
-12 0 l
-8 -8 l
0 -12 l
8 -8 l
12 0 l
-64 -85 m 5 -14 m 8 8 l
0 12 l
-8 8 l
-11 0 l
-8 -8 l
0 -12 l
8 -8 l
11 0 l
744 51 m 6 -14 m 8 8 l
0 11 l
-8 8 l
-11 0 l
-8 -8 l
0 -11 l
8 -8 l
11 0 l
-6 214 m 6 -14 m 8 8 l
0 12 l
-8 8 l
-11 0 l
-8 -8 l
0 -12 l
8 -8 l
11 0 l
-919 -99 m 6 -14 m 8 8 l
0 11 l
-8 9 l
-12 0 l
-8 -9 l
0 -11 l
8 -8 l
12 0 l
239 -83 m 6 -14 m 8 8 l
0 12 l
CS M
-8 8 l
-11 0 l
-9 -8 l
0 -12 l
9 -8 l
11 0 l
-408 -69 m 5 -14 m 8 8 l
0 12 l
-8 8 l
-11 0 l
-8 -8 l
0 -12 l
8 -8 l
11 0 l
456 194 m 5 -14 m 8 8 l
0 11 l
-8 9 l
-11 0 l
-8 -9 l
0 -11 l
8 -8 l
11 0 l
88 -103 m 6 -13 m 8 8 l
0 11 l
-8 8 l
-12 0 l
-8 -8 l
0 -11 l
8 -8 l
12 0 l
-572 81 m 6 -14 m 8 8 l
0 12 l
-8 8 l
-12 0 l
-8 -8 l
0 -12 l
8 -8 l
12 0 l
397 -26 m 5 -14 m 8 8 l
0 12 l
-8 8 l
-11 0 l
-8 -8 l
0 -12 l
8 -8 l
11 0 l
-122 151 m 6 -13 m 8 8 l
0 11 l
-8 8 l
-12 0 l
-8 -8 l
0 -11 l
8 -8 l
12 0 l
-251 -119 m 6 -14 m 8 8 l
0 11 l
-8 8 l
-12 0 l
-8 -8 l
0 -11 l
8 -8 l
12 0 l
6 282 m 5 -14 m 8 8 l
0 12 l
-8 8 l
-11 0 l
-8 -8 l
0 -12 l
8 -8 l
11 0 l
100 -350 m 5 -14 m 8 8 l
0 12 l
-8 8 l
-11 0 l
-8 -8 l
0 -12 l
8 -8 l
11 0 l
-157 14 m 6 -14 m 8 8 l
0 12 l
-8 8 l
-12 0 l
-8 -8 l
0 -12 l
8 -8 l
12 0 l
169 310 m 6 -14 m 8 8 l
0 12 l
-8 8 l
-12 0 l
-8 -8 l
0 -12 l
8 -8 l
12 0 l
321 -193 m 5 -14 m 8 8 l
0 12 l
-8 8 l
-11 0 l
-8 -8 l
0 -12 l
8 -8 l
11 0 l
-227 412 m 6 -14 m 8 8 l
0 12 l
-8 8 l
-12 0 l
-8 -8 l
0 -12 l
8 -8 l
12 0 l
262 -415 m 6 -13 m 8 8 l
0 11 l
-8 8 l
-11 0 l
-8 -8 l
0 -11 l
8 -8 l
11 0 l
574 1830 M 6 -14 m 8 8 l
0 12 l
-8 8 l
-12 0 l
-8 -8 l
0 -12 l
8 -8 l
12 0 l
338 -602 m 6 -14 m 8 8 l
0 11 l
-8 8 l
-11 0 l
-8 -8 l
0 -11 l
8 -8 l
11 0 l
966 -469 m 6 -13 m 8 8 l
0 11 l
-8 8 l
-12 0 l
-8 -8 l
0 -11 l
8 -8 l
12 0 l
-3 0 m 5 -14 m 9 9 l
0 11 l
-9 8 l
-11 0 l
-8 -8 l
0 -11 l
8 -9 l
11 0 l
-49 166 m 6 -14 m 8 8 l
0 12 l
-8 8 l
-12 0 l
-8 -8 l
0 -12 l
8 -8 l
12 0 l
-697 30 m 5 -14 m 8 8 l
0 11 l
-8 8 l
-11 0 l
-8 -8 l
0 -11 l
8 -8 l
11 0 l
438 655 M CS [32 24] 0 setdash M
438 655 M 1750 0 l
CS [] 0 setdash M
 255 0 0 C
1718 708 M B
5 -12 m 1730 703 L
1730 713 L
1723 720 L
1713 720 L
1706 713 L
1706 703 L
1713 696 L
1723 696 L
CF M
97 137 m B
5 -12 m 1832 828 L
1832 838 L
1825 845 L
1815 845 L
1808 838 L
1808 828 L
1815 821 L
1825 821 L
CF M
59 -138 m B
5 -12 m 1896 678 L
1896 688 L
1889 695 L
1879 695 L
1872 688 L
1872 678 L
1879 671 L
1889 671 L
CF M
-151 9 m B
5 -12 m 1750 675 L
1750 685 L
1743 692 L
1733 692 L
1726 685 L
1726 675 L
1733 668 L
1743 668 L
CF M
-37 -12 m B
5 -12 m 1718 651 L
1718 661 L
1711 668 L
1701 668 L
1694 661 L
1694 651 L
1701 644 L
1711 644 L
CF M
264 -6 m B
5 -12 m 1987 633 L
1987 643 L
1980 650 L
1970 650 L
1962 643 L
1962 633 L
1970 626 L
1980 626 L
CF M
-186 73 m B
5 -12 m 1806 694 L
1806 704 L
1799 711 L
1789 711 L
1782 704 L
1782 694 L
1789 687 L
1799 687 L
CF M
-291 -2 m B
5 -12 m 1520 680 L
1520 690 L
1513 697 L
1503 697 L
1496 690 L
1496 680 L
1503 673 L
1513 673 L
CF M
269 -16 m B
5 -12 m 1794 652 L
1794 662 L
1787 669 L
1777 669 L
1770 662 L
1770 652 L
1777 645 L
1787 645 L
CF M
-326 51 m B
5 -13 m 1473 691 L
1473 701 L
1466 708 L
1456 708 L
1449 701 L
1449 691 L
1456 683 L
1466 683 L
CF M
4 96 m B
5 -12 m 1482 774 L
1482 784 L
1475 791 L
1465 791 L
1458 784 L
1458 774 L
1465 767 L
1475 767 L
CF M
120 -121 m B
5 -12 m 1607 641 L
1607 651 L
1600 659 L
1590 659 L
1583 651 L
1583 641 L
1590 634 L
1600 634 L
CF M
19 0 m B
5 -12 m 1631 629 L
1631 639 L
1624 646 L
1614 646 L
1606 639 L
1606 629 L
1614 622 L
1624 622 L
CF M
140 298 m B
5 -12 m 1776 915 L
1776 925 L
1769 932 L
1759 932 L
1752 925 L
1752 915 L
1759 908 L
1769 908 L
CF M
-293 -251 m B
5 -12 m 1488 652 L
1488 662 L
1481 669 L
1471 669 L
1464 662 L
1464 652 L
1471 645 L
1481 645 L
CF M
354 5 m B
4 -12 m 1847 645 L
1847 655 L
1840 662 L
1830 662 L
1822 655 L
1822 645 L
1830 638 L
1840 638 L
CF M
-163 -12 m B
5 -12 m 1689 621 L
1689 631 L
1682 638 L
1672 638 L
1665 631 L
1665 621 L
1672 614 L
1682 614 L
CF M
-186 25 m B
5 -12 m 1508 634 L
1508 644 L
1501 651 L
1491 651 L
1484 644 L
1484 634 L
1491 627 L
1501 627 L
CF M
243 58 m B
5 -13 m 1756 680 L
1756 690 L
1749 697 L
1739 697 L
1732 690 L
1732 680 L
1739 672 L
1749 672 L
CF M
-195 8 m B
5 -12 m 1567 675 L
1567 685 L
1559 692 L
1549 692 L
1542 685 L
1542 675 L
1549 668 L
1559 668 L
CF M
103 -22 m B
5 -12 m 1674 641 L
1674 651 L
1667 658 L
1657 658 L
1650 651 L
1650 641 L
1657 634 L
1667 634 L
CF M
65 37 m B
5 -12 m 1744 666 L
1744 676 L
1737 683 L
1727 683 L
1720 676 L
1720 666 L
1727 659 L
1737 659 L
CF M
-113 -10 m B
5 -12 m 1637 644 L
1637 654 L
1629 661 L
1619 661 L
1612 654 L
1612 644 L
1619 637 L
1629 637 L
CF M
302 160 m B
5 -12 m 1943 792 L
1943 802 L
1936 809 L
1926 809 L
1919 802 L
1919 792 L
1926 785 L
1936 785 L
CF M
-370 -152 m B
5 -12 m 1578 628 L
1578 638 L
1571 645 L
1561 645 L
1554 638 L
1554 628 L
1561 621 L
1571 621 L
CF M
208 52 m B
5 -12 m 1791 668 L
1791 678 L
1784 685 L
1774 685 L
1767 678 L
1767 668 L
1774 661 L
1784 661 L
CF M
-451 -3 m B
5 -12 m 1345 653 L
1345 663 L
1338 670 L
1328 670 L
1321 663 L
1321 653 L
1328 646 L
1338 646 L
CF M
164 -21 m B
5 -12 m 1514 620 L
1514 630 L
1507 637 L
1497 637 L
1490 630 L
1490 620 L
1497 613 L
1507 613 L
CF M
42 62 m B
4 -12 m 1561 670 L
1561 680 L
1554 687 L
1544 687 L
1536 680 L
1536 670 L
1544 663 L
1554 663 L
CF M
76 8 m B
5 -12 m 1642 666 L
1642 676 L
1635 683 L
1625 683 L
1618 676 L
1618 666 L
1625 659 L
1635 659 L
CF M
-25 27 m B
5 -13 m 1622 681 L
1622 691 L
1615 698 L
1605 698 L
1598 691 L
1598 681 L
1605 673 L
1615 673 L
CF M
-142 62 m B
5 -12 m 1485 730 L
1485 740 L
1478 747 L
1468 747 L
1461 740 L
1461 730 L
1468 723 L
1478 723 L
CF M
181 -57 m B
5 -12 m 1672 661 L
1672 671 L
1664 678 L
1654 678 L
1647 671 L
1647 661 L
1654 654 L
1664 654 L
CF M
-121 7 m B
5 -12 m 1555 656 L
1555 666 L
1548 673 L
1538 673 L
1531 666 L
1531 656 L
1538 649 L
1548 649 L
CF M
-17 2 m B
5 -12 m 1543 646 L
1543 656 L
1536 663 L
1526 663 L
1519 656 L
1519 646 L
1526 639 L
1536 639 L
CF M
331 30 m B
5 -12 m 1879 664 L
1879 674 L
1872 681 L
1862 681 L
1855 674 L
1855 664 L
1862 657 L
1872 657 L
CF M
-268 -12 m B
5 -12 m 1616 640 L
1616 650 L
1609 657 L
1599 657 L
1592 650 L
1592 640 L
1599 633 L
1609 633 L
CF M
-215 7 m B
5 -12 m 1406 635 L
1406 645 L
1399 652 L
1389 652 L
1382 645 L
1382 635 L
1389 628 L
1399 628 L
CF M
252 76 m B
5 -12 m 1663 699 L
1663 709 L
1656 716 L
1646 716 L
1639 709 L
1639 699 L
1646 692 L
1656 692 L
CF M
15 -35 m B
5 -12 m 1683 652 L
1683 662 L
1676 669 L
1666 669 L
1659 662 L
1659 652 L
1666 645 L
1676 645 L
CF M
-174 16 m B
5 -12 m 1514 656 L
1514 666 L
1507 673 L
1497 673 L
1490 666 L
1490 656 L
1497 649 L
1507 649 L
CF M
193 7 m B
5 -12 m 1712 651 L
1712 661 L
1705 668 L
1695 668 L
1688 661 L
1688 651 L
1695 644 L
1705 644 L
CF M
-267 9 m B
5 -12 m 1450 648 L
1450 658 L
1443 665 L
1433 665 L
1426 658 L
1426 648 L
1433 641 L
1443 641 L
CF M
114 38 m B
5 -12 m 1569 674 L
1569 684 L
1562 691 L
1552 691 L
1545 684 L
1545 674 L
1552 667 L
1562 667 L
CF M
-57 -32 m B
5 -12 m 1517 630 L
1517 640 L
1510 647 L
1500 647 L
1493 640 L
1493 630 L
1500 623 L
1510 623 L
CF M
-37 55 m B
5 -12 m 1485 673 L
1485 683 L
1478 691 L
1468 691 L
1461 683 L
1461 673 L
1468 666 L
1478 666 L
CF M
6 20 m B
5 -12 m 1496 681 L
1496 691 L
1489 698 L
1479 698 L
1472 691 L
1472 681 L
1479 674 L
1489 674 L
CF M
-25 33 m B
5 -12 m 1476 702 L
1476 712 L
1469 719 L
1459 719 L
1452 712 L
1452 702 L
1459 695 L
1469 695 L
CF M
313 -41 m B
5 -13 m 1794 649 L
1794 659 L
1787 666 L
1777 666 L
1770 659 L
1770 649 L
1777 641 L
1787 641 L
CF M
-291 4 m B
5 -12 m 1508 640 L
1508 650 L
1501 657 L
1491 657 L
1484 650 L
1484 640 L
1491 633 L
1501 633 L
CF M
33 38 m B
5 -12 m 1546 666 L
1546 676 L
1539 683 L
1529 683 L
1522 676 L
1522 666 L
1529 659 L
1539 659 L
CF M
106 -4 m B
5 -12 m 1657 650 L
1657 660 L
1650 667 L
1640 667 L
1633 660 L
1633 650 L
1640 643 L
1650 643 L
CF M
-90 7 m B
5 -12 m 1572 645 L
1572 655 L
1565 662 L
1555 662 L
1548 655 L
1548 645 L
1555 638 L
1565 638 L
CF M
170 -8 m B
5 -12 m 1747 625 L
1747 635 L
1740 642 L
1730 642 L
1723 635 L
1723 625 L
1730 618 L
1740 618 L
CF M
-142 28 m B
5 -12 m 1610 641 L
1610 651 L
1603 658 L
1593 658 L
1586 651 L
1586 641 L
1593 634 L
1603 634 L
CF M
13 5 m B
5 -12 m 1628 634 L
1628 644 L
1621 651 L
1611 651 L
1604 644 L
1604 634 L
1611 627 L
1621 627 L
CF M
44 16 m B
5 -12 m 1677 638 L
1677 648 L
1670 655 L
1660 655 L
1653 648 L
1653 638 L
1660 631 L
1670 631 L
CF M
132 6 m B
5 -12 m 1814 632 L
1814 642 L
1807 649 L
1797 649 L
1790 642 L
1790 632 L
1797 625 L
1807 625 L
CF M
-419 8 m B
5 -12 m 1400 628 L
1400 638 L
1393 645 L
1383 645 L
1376 638 L
1376 628 L
1383 621 L
1393 621 L
CF M
336 47 m B
5 -12 m 1742 663 L
1742 673 L
1734 680 L
1724 680 L
1717 673 L
1717 663 L
1724 656 L
1734 656 L
CF M
103 1080 m B
5 -13 m 1849 1731 L
1849 1741 L
1842 1748 L
1832 1748 L
1825 1741 L
1825 1731 L
1832 1723 L
1842 1723 L
CF M
1826 788 M B
5 -12 m 1838 783 L
1838 793 L
1831 800 L
1821 800 L
1814 793 L
1814 783 L
1821 776 L
1831 776 L
CF M
-131 -128 m B
5 -12 m 1712 643 L
1712 653 L
1705 660 L
1695 660 L
1688 653 L
1688 643 L
1695 636 L
1705 636 L
CF M
-151 67 m B
5 -12 m 1567 698 L
1567 708 L
1559 715 L
1549 715 L
1542 708 L
1542 698 L
1549 691 L
1559 691 L
CF M
-325 65 m B
4 -12 m 1246 751 L
1246 761 L
1239 768 L
1229 768 L
1221 761 L
1221 751 L
1229 744 L
1239 744 L
CF M
76 -50 m B
5 -12 m 1327 689 L
1327 699 L
1320 706 L
1310 706 L
1303 699 L
1303 689 L
1310 682 L
1320 682 L
CF M
-69 -10 m B
5 -12 m 1263 667 L
1263 677 L
1256 684 L
1246 684 L
1239 677 L
1239 667 L
1246 660 L
1256 660 L
CF M
10 93 m B
4 -12 m 1278 748 L
1278 758 L
1271 765 L
1261 765 L
1253 758 L
1253 748 L
1261 741 L
1271 741 L
CF M
41 -70 m B
5 -12 m 1324 666 L
1324 676 L
1317 683 L
1307 683 L
1300 676 L
1300 666 L
1307 659 L
1317 659 L
CF M
-75 -27 m B
5 -12 m 1254 627 L
1254 637 L
1247 644 L
1237 644 L
1230 637 L
1230 627 L
1237 620 L
1247 620 L
CF M
474 381 m B
5 -12 m 1733 996 L
1733 1006 L
1726 1014 L
1716 1014 L
1709 1006 L
1709 996 L
1716 989 L
1726 989 L
CF M
-2 -279 m B
5 -12 m 1736 705 L
1736 715 L
1729 722 L
1719 722 L
1712 715 L
1712 705 L
1719 698 L
1729 698 L
CF M
41 412 m B
5 -12 m 1782 1105 L
1782 1115 L
1775 1122 L
1765 1122 L
1758 1115 L
1758 1105 L
1765 1098 L
1775 1098 L
CF M
74 -242 m B
5 -12 m 1861 851 L
1861 861 L
1854 868 L
1844 868 L
1837 861 L
1837 851 L
1844 844 L
1854 844 L
CF M
-548 -214 m B
5 -12 m 1318 625 L
1318 635 L
1311 642 L
1301 642 L
1294 635 L
1294 625 L
1301 618 L
1311 618 L
CF M
-54 90 m B
5 -12 m 1269 703 L
1269 713 L
1262 720 L
1252 720 L
1245 713 L
1245 703 L
1252 696 L
1262 696 L
CF M
39 9 m B
5 -12 m 1313 700 L
1313 710 L
1306 717 L
1296 717 L
1289 710 L
1289 700 L
1296 693 L
1306 693 L
CF M
135 -26 m B
5 -12 m 1453 662 L
1453 672 L
1446 679 L
1436 679 L
1429 672 L
1429 662 L
1436 655 L
1446 655 L
CF M
-26 20 m B
5 -12 m 1432 670 L
1432 680 L
1425 687 L
1415 687 L
1408 680 L
1408 670 L
1415 663 L
1425 663 L
CF M
4 -21 m B
5 -12 m 1441 637 L
1441 647 L
1434 654 L
1424 654 L
1417 647 L
1417 637 L
1424 630 L
1434 630 L
CF M
118 21 m B
4 -12 m 1564 646 L
1564 656 L
1557 663 L
1547 663 L
1539 656 L
1539 646 L
1547 639 L
1557 639 L
CF M
-259 49 m B
5 -12 m 1310 683 L
1310 693 L
1303 700 L
1293 700 L
1286 693 L
1286 683 L
1293 676 L
1303 676 L
CF M
138 47 m B
5 -12 m 1453 718 L
1453 728 L
1446 735 L
1436 735 L
1429 728 L
1429 718 L
1436 711 L
1446 711 L
CF M
-195 8 m B
5 -12 m 1263 714 L
1263 724 L
1256 731 L
1246 731 L
1239 724 L
1239 714 L
1246 707 L
1256 707 L
CF M
24 9 m B
5 -12 m 1292 711 L
1292 721 L
1285 728 L
1275 728 L
1268 721 L
1268 711 L
1275 704 L
1285 704 L
CF M
-66 -22 m B
5 -12 m 1231 677 L
1231 687 L
1224 694 L
1214 694 L
1207 687 L
1207 677 L
1214 670 L
1224 670 L
CF M
-58 2 m B
5 -12 m 1178 667 L
1178 677 L
1171 684 L
1161 684 L
1154 677 L
1154 667 L
1161 660 L
1171 660 L
CF M
179 71 m B
5 -12 m 1362 726 L
1362 736 L
1355 743 L
1345 743 L
1338 736 L
1338 726 L
1345 719 L
1355 719 L
CF M
-51 -30 m B
4 -12 m 1316 684 L
1316 694 L
1309 701 L
1299 701 L
1291 694 L
1291 684 L
1299 677 L
1309 677 L
CF M
-17 -12 m B
5 -12 m 1304 660 L
1304 670 L
1297 677 L
1287 677 L
1280 670 L
1280 660 L
1287 653 L
1297 653 L
CF M
15 20 m B
5 -12 m 1324 668 L
1324 678 L
1317 685 L
1307 685 L
1300 678 L
1300 668 L
1307 661 L
1317 661 L
CF M
-16 25 m B
5 -12 m 1313 681 L
1313 691 L
1306 698 L
1296 698 L
1289 691 L
1289 681 L
1296 674 L
1306 674 L
CF M
15 142 m B
5 -12 m 1333 811 L
1333 821 L
1326 828 L
1316 828 L
1309 821 L
1309 811 L
1316 804 L
1326 804 L
CF M
30 -132 m B
5 -12 m 1368 667 L
1368 677 L
1361 684 L
1351 684 L
1344 677 L
1344 667 L
1351 660 L
1361 660 L
CF M
406 -20 m B
5 -12 m 1779 635 L
1779 645 L
1772 652 L
1762 652 L
1755 645 L
1755 635 L
1762 628 L
1772 628 L
CF M
 0 0 0 C
CS [32 24] 0 setdash M
CS [] 0 setdash M
 0 0 255 C
1461 659 M 11 -11 m -22 21 l
22 0 m -22 -21 l
0 21 m 294 3 m 10 -10 m -21 21 l
21 0 m -21 -21 l
0 21 m -269 0 m 10 -10 m -21 21 l
21 0 m -21 -21 l
0 21 m 271 -62 m 10 -11 m -21 21 l
21 0 m -21 -21 l
0 21 m -296 86 m 11 -11 m -21 21 l
21 0 m -21 -21 l
0 21 m 98 -52 m 10 -11 m -21 21 l
21 0 m -21 -21 l
0 21 m -7 -32 m 11 -11 m -21 21 l
21 0 m -21 -21 l
0 21 m -238 -17 m 11 -10 m -21 21 l
21 0 m -21 -21 l
0 21 m 538 -42 m 11 -11 m -21 21 l
21 0 m -21 -21 l
0 21 m -672 105 m 10 -11 m -21 22 l
21 0 m -21 -21 l
0 21 m 682 -111 m 10 -10 m -21 21 l
21 0 m -21 -21 l
0 21 m -634 55 m 10 -10 m -21 21 l
21 0 m -21 -21 l
0 21 m 475 -96 m 10 -10 m -21 21 l
21 0 m -21 -21 l
0 21 m -208 27 m 11 -11 m -21 21 l
21 0 m -21 -21 l
-1 21 m 84 3 m 10 -11 m -21 21 l
21 0 m -21 -21 l
0 21 m -9 -56 m 10 -10 m -21 21 l
21 0 m -21 -21 l
0 21 m 133 -2 m 11 -10 m -21 21 l
21 0 m -21 -21 l
0 21 m 60 23 m 10 -10 m -21 21 l
21 0 m -21 -21 l
0 21 m 101 -41 m 11 -11 m -21 22 l
21 0 m -21 -21 l
0 21 m 68 8 m 11 -11 m -21 21 l
21 0 m -21 -21 l
0 21 m -74 -42 m 10 -11 m -21 21 l
21 0 m -21 -21 l
0 21 m -278 51 m 11 -10 m -21 21 l
21 0 m -21 -21 l
-1 21 m 317 -15 m 11 -10 m -21 21 l
21 0 m -21 -21 l
0 21 m 92 -23 m 10 -11 m -21 22 l
21 0 m -21 -21 l
0 21 m -120 -1 m 10 -10 m -21 21 l
21 0 m -21 -21 l
0 21 m -36 -35 m 11 -11 m -21 21 l
21 0 m -21 -21 l
0 21 m -626 98 m 11 -10 m -21 21 l
21 0 m -21 -21 l
-1 21 m 898 -116 m 11 -11 m -21 21 l
21 0 m -21 -21 l
-1 21 m -485 100 m 10 -11 m -21 21 l
21 0 m -21 -21 l
0 21 m 128 -146 m 10 -11 m -21 22 l
21 0 m -21 -21 l
0 21 m 122 122 m 10 -10 m -21 21 l
21 0 m -21 -21 l
0 21 m 262 -145 m 10 -10 m -21 21 l
21 0 m -21 -21 l
0 21 m 63 70 m 10 -11 m -21 22 l
21 0 m -21 -21 l
0 21 m -421 -73 m 11 -11 m -21 21 l
21 0 m -21 -21 l
0 21 m 182 -27 m 11 -11 m -21 21 l
21 0 m -21 -21 l
0 21 m 115 58 m 11 -11 m -21 22 l
21 0 m -21 -21 l
0 21 m 54 -69 m 11 -10 m -21 21 l
21 0 m -21 -21 l
0 21 m -10 -32 m 10 -11 m -21 22 l
21 0 m -21 -21 l
0 21 m -637 53 m 11 -10 m -21 21 l
21 0 m -21 -21 l
-1 21 m 702 -66 m 11 -10 m -21 21 l
21 0 m -21 -21 l
0 21 m -115 20 m 11 -11 m -21 22 l
21 -1 m -21 -21 l
-1 21 m 218 -53 m 11 -10 m -21 21 l
21 0 m -21 -21 l
0 21 m -757 8 m 10 -10 m -21 21 l
21 0 m -21 -21 l
0 21 m 682 -23 m 10 -10 m -21 21 l
21 0 m -21 -21 l
0 21 m 66 -6 m 11 -10 m -21 21 l
21 0 m -21 -21 l
0 21 m -144 -7 m 10 -11 m -21 21 l
21 0 m -21 -21 l
0 21 m 110 67 m 10 -11 m -21 21 l
21 0 m -21 -21 l
0 21 m -211 -95 m 11 -10 m -21 21 l
21 0 m -21 -21 l
0 21 m 106 23 m 11 -10 m -21 21 l
21 0 m -21 -21 l
0 21 m -380 -9 m 10 -11 m -21 22 l
21 -1 m -21 -21 l
0 21 m 5 84 m 10 -11 m -21 22 l
21 -1 m -21 -21 l
0 21 m -4 -66 m 11 -11 m -21 21 l
21 0 m -21 -21 l
0 21 m 474 -69 m 10 -10 m -21 21 l
21 0 m -21 -21 l
0 21 m 90 -20 m 10 -10 m -21 21 l
21 0 m -21 -21 l
0 21 m -331 -2 m 11 -11 m -21 21 l
21 0 m -21 -21 l
0 21 m -170 -29 m 10 -11 m -21 21 l
21 0 m -21 -21 l
0 21 m 139 0 m 10 -10 m -21 21 l
21 0 m -21 -21 l
0 21 m 235 -20 m 11 -10 m -21 21 l
21 0 m -21 -21 l
0 21 m -395 11 m 10 -11 m -21 21 l
21 0 m -21 -21 l
0 21 m 23 34 m 10 -11 m -21 21 l
21 0 m -21 -21 l
0 21 m -71 55 m 10 -11 m -21 21 l
21 0 m -21 -21 l
0 21 m 209 -112 m 11 -11 m -21 21 l
21 0 m -21 -21 l
0 21 m 270 -20 m 11 -10 m -21 21 l
21 0 m -21 -21 l
-1 21 m -53 -27 m 10 -10 m -21 21 l
21 0 m -21 -21 l
0 21 m -520 30 m 10 -11 m -21 21 l
21 0 m -21 -21 l
0 21 m 40 -21 m 11 -10 m -21 21 l
21 0 m -21 -21 l
-1 21 m 26 21 m 10 -11 m -21 21 l
21 0 m -21 -21 l
0 21 m -214 566 m 10 -11 m -21 22 l
21 0 m -21 -21 l
0 21 m 96 -439 m 10 -11 m -21 22 l
21 0 m -21 -21 l
0 21 m 104 -127 m 10 -11 m -21 21 l
21 0 m -21 -21 l
0 21 m 96 -61 m 10 -10 m -21 21 l
21 0 m -21 -21 l
0 21 m 687 822 m 11 -10 m -21 21 l
21 0 m -21 -21 l
0 21 m -643 -696 m 10 -10 m -21 21 l
21 0 m -21 -21 l
0 21 m -10 -108 m 11 -11 m -21 22 l
21 -1 m -21 -21 l
0 21 m -13 44 m 11 -10 m -21 21 l
21 0 m -21 -21 l
0 21 m -80 154 m 10 -11 m -21 21 l
21 0 m -21 -21 l
0 21 m -65 23 m 10 -11 m -21 21 l
21 0 m -21 -21 l
0 21 m 294 -229 m 10 -10 m -21 21 l
21 0 m -21 -21 l
0 21 m -153 -56 m 11 -11 m -21 21 l
21 0 m -21 -21 l
0 21 m  0 0 0 C
stroke
grestore
showpage
end
%%Trailer
%%EOF
