%!PS-Adobe-3.0 EPSF-3.0
%%Title: /home/jv/Desktop/contour.eps
%%Creator: matplotlib version 1.1.1rc2, http://matplotlib.sourceforge.net/
%%CreationDate: Mon Feb  3 16:20:30 2014
%%Orientation: portrait
%%BoundingBox: 90 180 522 612
%%EndComments
%%BeginProlog
/mpldict 11 dict def
mpldict begin
/m { moveto } bind def
/l { lineto } bind def
/r { rlineto } bind def
/c { curveto } bind def
/cl { closepath } bind def
/box {
m
1 index 0 r
0 exch r
neg 0 r
cl
} bind def
/clipbox {
box
clip
newpath
} bind def
%!PS-Adobe-3.0 Resource-Font
%%Title: Bitstream Vera Sans
%%Copyright: Copyright (c) 2003 by Bitstream, Inc. All Rights Reserved.
%%Creator: Converted from TrueType to type 3 by PPR
25 dict begin
/_d{bind def}bind def
/_m{moveto}_d
/_l{lineto}_d
/_cl{closepath eofill}_d
/_c{curveto}_d
/_sc{7 -1 roll{setcachedevice}{pop pop pop pop pop pop}ifelse}_d
/_e{exec}_d
/FontName /BitstreamVeraSans-Roman def
/PaintType 0 def
/FontMatrix[.001 0 0 .001 0 0]def
/FontBBox[-183 -236 1287 928]def
/FontType 3 def
/Encoding [ /period /zero /one /two /three /five /minus ] def
/FontInfo 10 dict dup begin
/FamilyName (Bitstream Vera Sans) def
/FullName (Bitstream Vera Sans) def
/Notice (Copyright (c) 2003 by Bitstream, Inc. All Rights Reserved. Bitstream Vera is a trademark of Bitstream, Inc.) def
/Weight (Roman) def
/Version (Release 1.10) def
/ItalicAngle 0.0 def
/isFixedPitch false def
/UnderlinePosition -213 def
/UnderlineThickness 143 def
end readonly def
/CharStrings 7 dict dup begin
/period{318 0 107 0 210 124 _sc
107 124 _m
210 124 _l
210 0 _l
107 0 _l
107 124 _l
_cl}_d
/zero{636 0 66 -13 570 742 _sc
318 664 _m
267 664 229 639 203 589 _c
177 539 165 464 165 364 _c
165 264 177 189 203 139 _c
229 89 267 64 318 64 _c
369 64 407 89 433 139 _c
458 189 471 264 471 364 _c
471 464 458 539 433 589 _c
407 639 369 664 318 664 _c
318 742 _m
399 742 461 709 505 645 _c
548 580 570 486 570 364 _c
570 241 548 147 505 83 _c
461 19 399 -13 318 -13 _c
236 -13 173 19 130 83 _c
87 147 66 241 66 364 _c
66 486 87 580 130 645 _c
173 709 236 742 318 742 _c
_cl}_d
/one{636 0 110 0 544 729 _sc
124 83 _m
285 83 _l
285 639 _l
110 604 _l
110 694 _l
284 729 _l
383 729 _l
383 83 _l
544 83 _l
544 0 _l
124 0 _l
124 83 _l
_cl}_d
/two{{636 0 73 0 536 742 _sc
192 83 _m
536 83 _l
536 0 _l
73 0 _l
73 83 _l
110 121 161 173 226 239 _c
290 304 331 346 348 365 _c
380 400 402 430 414 455 _c
426 479 433 504 433 528 _c
433 566 419 598 392 622 _c
365 646 330 659 286 659 _c
255 659 222 653 188 643 _c
154 632 117 616 78 594 _c
78 694 _l
118 710 155 722 189 730 _c
223 738 255 742 284 742 _c
}_e{359 742 419 723 464 685 _c
509 647 532 597 532 534 _c
532 504 526 475 515 449 _c
504 422 484 390 454 354 _c
446 344 420 317 376 272 _c
332 227 271 164 192 83 _c
_cl}_e}_d
/three{{636 0 76 -13 556 742 _sc
406 393 _m
453 383 490 362 516 330 _c
542 298 556 258 556 212 _c
556 140 531 84 482 45 _c
432 6 362 -13 271 -13 _c
240 -13 208 -10 176 -4 _c
144 1 110 10 76 22 _c
76 117 _l
103 101 133 89 166 81 _c
198 73 232 69 268 69 _c
330 69 377 81 409 105 _c
441 129 458 165 458 212 _c
458 254 443 288 413 312 _c
383 336 341 349 287 349 _c
}_e{202 349 _l
202 430 _l
291 430 _l
339 430 376 439 402 459 _c
428 478 441 506 441 543 _c
441 580 427 609 401 629 _c
374 649 336 659 287 659 _c
260 659 231 656 200 650 _c
169 644 135 635 98 623 _c
98 711 _l
135 721 170 729 203 734 _c
235 739 266 742 296 742 _c
370 742 429 725 473 691 _c
517 657 539 611 539 553 _c
539 513 527 479 504 451 _c
481 423 448 403 406 393 _c
_cl}_e}_d
/five{{636 0 77 -13 549 729 _sc
108 729 _m
495 729 _l
495 646 _l
198 646 _l
198 467 _l
212 472 227 476 241 478 _c
255 480 270 482 284 482 _c
365 482 429 459 477 415 _c
525 370 549 310 549 234 _c
549 155 524 94 475 51 _c
426 8 357 -13 269 -13 _c
238 -13 207 -10 175 -6 _c
143 -1 111 6 77 17 _c
77 116 _l
106 100 136 88 168 80 _c
199 72 232 69 267 69 _c
}_e{323 69 368 83 401 113 _c
433 143 450 183 450 234 _c
450 284 433 324 401 354 _c
368 384 323 399 267 399 _c
241 399 214 396 188 390 _c
162 384 135 375 108 363 _c
108 729 _l
_cl}_e}_d
/minus{838 0 106 272 732 355 _sc
106 355 _m
732 355 _l
732 272 _l
106 272 _l
106 355 _l
_cl}_d
end readonly def

/BuildGlyph
 {exch begin
 CharStrings exch
 2 copy known not{pop /.notdef}if
 true 3 1 roll get exec
 end}_d

/BuildChar {
 1 index /Encoding get exch get
 1 index /BuildGlyph get exec
}_d

FontName currentdict end definefont pop
%!PS-Adobe-3.0 Resource-Font
%%Title: cmsy10
%%Copyright: Copyright (C) 1994, Basil K. Malyshev. All Rights Reserved.012BaKoMa Fonts Collection, Level-B.
%%Creator: Converted from TrueType to type 3 by PPR
25 dict begin
/_d{bind def}bind def
/_m{moveto}_d
/_l{lineto}_d
/_cl{closepath eofill}_d
/_c{curveto}_d
/_sc{7 -1 roll{setcachedevice}{pop pop pop pop pop pop}ifelse}_d
/_e{exec}_d
/FontName /Cmsy10 def
/PaintType 0 def
/FontMatrix[.001 0 0 .001 0 0]def
/FontBBox[-29 -960 1123 779]def
/FontType 3 def
/Encoding [ /minus ] def
/FontInfo 10 dict dup begin
/FamilyName (cmsy10) def
/FullName (cmsy10) def
/Notice (Copyright (C) 1994, Basil K. Malyshev. All Rights Reserved.012BaKoMa Fonts Collection, Level-B. ) def
/Weight (Regular) def
/Version (1.1/12-Nov-94) def
/ItalicAngle 0.0 def
/isFixedPitch false def
/UnderlinePosition -133 def
/UnderlineThickness 20 def
end readonly def
/CharStrings 1 dict dup begin
/minus{777 0 83 230 694 270 _sc
102 230 _m
96 230 92 232 88 236 _c
84 240 83 245 83 250 _c
83 254 84 259 88 263 _c
92 267 96 270 102 270 _c
676 270 _l
681 270 685 267 689 263 _c
692 259 694 254 694 250 _c
694 245 692 240 689 236 _c
685 232 681 230 676 230 _c
102 230 _l
_cl}_d
end readonly def

/BuildGlyph
 {exch begin
 CharStrings exch
 2 copy known not{pop /.notdef}if
 true 3 1 roll get exec
 end}_d

/BuildChar {
 1 index /Encoding get exch get
 1 index /BuildGlyph get exec
}_d

FontName currentdict end definefont pop
%!PS-Adobe-3.0 Resource-Font
%%Title: cmmi10
%%Copyright: Copyright (C) 1994, Basil K. Malyshev. All Rights Reserved.012BaKoMa Fonts Collection, Level-B.
%%Creator: Converted from TrueType to type 3 by PPR
25 dict begin
/_d{bind def}bind def
/_m{moveto}_d
/_l{lineto}_d
/_cl{closepath eofill}_d
/_c{curveto}_d
/_sc{7 -1 roll{setcachedevice}{pop pop pop pop pop pop}ifelse}_d
/_e{exec}_d
/FontName /Cmmi10 def
/PaintType 0 def
/FontMatrix[.001 0 0 .001 0 0]def
/FontBBox[-34 -250 1048 750]def
/FontType 3 def
/Encoding [ /sigma /gamma ] def
/FontInfo 10 dict dup begin
/FamilyName (cmmi10) def
/FullName (cmmi10) def
/Notice (Copyright (C) 1994, Basil K. Malyshev. All Rights Reserved.012BaKoMa Fonts Collection, Level-B. ) def
/Weight (Regular) def
/Version (1.1/12-Nov-94) def
/ItalicAngle 0.0 def
/isFixedPitch false def
/UnderlinePosition -133 def
/UnderlineThickness 20 def
end readonly def
/CharStrings 2 dict dup begin
/sigma{{571 0 36 -10 568 431 _sc
187 -10 _m
157 -10 131 -3 108 10 _c
85 24 67 43 55 67 _c
42 91 36 118 36 147 _c
36 177 43 210 57 244 _c
71 278 90 310 114 338 _c
138 366 166 389 197 406 _c
227 422 259 431 291 431 _c
543 431 _l
549 431 555 428 560 424 _c
565 419 568 413 568 406 _c
568 396 564 387 557 380 _c
550 372 542 369 532 369 _c
410 369 _l
}_e{429 340 439 305 439 265 _c
439 231 432 198 419 166 _c
406 133 388 103 365 77 _c
342 50 315 29 284 13 _c
253 -2 221 -10 187 -10 _c
188 15 _m
224 15 257 29 285 58 _c
313 86 334 121 349 162 _c
364 203 372 241 372 277 _c
372 305 364 328 348 344 _c
332 360 310 369 282 369 _c
243 369 210 356 183 330 _c
156 304 136 271 122 232 _c
108 192 102 154 102 118 _c
}_e{102 89 109 65 124 45 _c
139 25 160 15 188 15 _c
_cl}_e}_d
/gamma{{517 0 16 -215 542 442 _sc
295 -195 _m
295 -179 298 -157 305 -129 _c
311 -100 319 -70 329 -38 _c
339 -6 347 20 354 41 _c
356 74 358 99 358 116 _c
358 159 353 199 345 236 _c
337 273 321 304 297 329 _c
273 353 241 366 199 366 _c
177 366 155 361 133 352 _c
111 342 92 329 76 312 _c
60 295 50 276 44 255 _c
42 251 40 249 36 249 _c
24 249 _l
18 249 16 252 16 258 _c
}_e{16 261 _l
23 291 36 320 55 348 _c
74 376 97 398 125 416 _c
153 433 182 442 213 442 _c
244 442 271 431 294 410 _c
316 388 334 361 348 329 _c
362 297 372 264 378 231 _c
384 197 387 166 387 137 _c
421 228 458 314 500 396 _c
515 428 _l
517 430 519 431 522 431 _c
534 431 _l
539 431 542 428 542 422 _c
542 420 541 418 540 416 _c
525 385 _l
495 327 469 268 445 209 _c
}_e{421 150 400 93 383 38 _c
380 15 375 -15 368 -54 _c
360 -92 351 -128 341 -162 _c
331 -196 320 -213 310 -215 _c
300 -215 295 -208 295 -195 _c
_cl}_e}_d
end readonly def

/BuildGlyph
 {exch begin
 CharStrings exch
 2 copy known not{pop /.notdef}if
 true 3 1 roll get exec
 end}_d

/BuildChar {
 1 index /Encoding get exch get
 1 index /BuildGlyph get exec
}_d

FontName currentdict end definefont pop
%!PS-Adobe-3.0 Resource-Font
%%Title: cmr10
%%Copyright: Copyright (C) 1994, Basil K. Malyshev. All Rights Reserved.012BaKoMa Fonts Collection, Level-B.
%%Creator: Converted from TrueType to type 3 by PPR
25 dict begin
/_d{bind def}bind def
/_m{moveto}_d
/_l{lineto}_d
/_cl{closepath eofill}_d
/_c{curveto}_d
/_sc{7 -1 roll{setcachedevice}{pop pop pop pop pop pop}ifelse}_d
/_e{exec}_d
/FontName /Cmr10 def
/PaintType 0 def
/FontMatrix[.001 0 0 .001 0 0]def
/FontBBox[-44 -250 1009 750]def
/FontType 3 def
/Encoding [ /zero /k /m /bracketleft /bracketright /s /one ] def
/FontInfo 10 dict dup begin
/FamilyName (cmr10) def
/FullName (cmr10) def
/Notice (Copyright (C) 1994, Basil K. Malyshev. All Rights Reserved.012BaKoMa Fonts Collection, Level-B. ) def
/Weight (Regular) def
/Version (1.1/12-Nov-94) def
/ItalicAngle 0.0 def
/isFixedPitch false def
/UnderlinePosition -133 def
/UnderlineThickness 20 def
end readonly def
/CharStrings 7 dict dup begin
/zero{{500 0 39 -21 460 666 _sc
250 -21 _m
168 -21 112 12 83 79 _c
53 146 39 226 39 319 _c
39 377 44 431 55 482 _c
65 533 86 576 118 612 _c
149 648 193 666 250 666 _c
294 666 330 655 358 634 _c
386 612 407 585 422 551 _c
436 517 446 480 452 441 _c
457 402 460 361 460 319 _c
460 261 454 208 444 158 _c
433 108 412 65 381 31 _c
350 -3 306 -21 250 -21 _c
250 4 _m
}_e{287 4 315 23 333 61 _c
351 99 362 141 366 187 _c
370 233 373 283 373 335 _c
373 385 370 431 366 473 _c
362 515 351 554 333 588 _c
315 622 287 640 250 640 _c
212 640 184 622 166 588 _c
148 554 136 515 132 473 _c
128 431 126 385 126 335 _c
126 297 126 262 128 230 _c
130 197 135 163 143 128 _c
151 93 163 64 181 40 _c
198 16 221 4 250 4 _c
_cl}_e}_d
/k{{527 0 26 0 511 694 _sc
26 0 _m
26 35 _l
48 35 67 36 82 40 _c
96 44 104 53 104 67 _c
104 592 _l
104 610 101 623 96 631 _c
90 639 83 643 73 645 _c
63 647 47 648 26 648 _c
26 683 _l
174 694 _l
174 219 _l
308 337 _l
321 349 328 361 328 372 _c
328 380 325 386 320 390 _c
314 394 308 396 300 396 _c
300 431 _l
488 431 _l
488 396 _l
}_e{442 396 397 376 352 337 _c
281 275 _l
408 94 _l
426 69 440 53 452 46 _c
464 38 483 35 511 35 _c
511 0 _l
312 0 _l
312 35 _l
334 35 346 42 346 56 _c
346 66 340 78 328 94 _c
232 231 _l
171 178 _l
171 67 _l
171 53 178 44 193 40 _c
207 36 226 35 249 35 _c
249 0 _l
26 0 _l
_cl}_e}_d
/m{{833 0 30 0 815 442 _sc
30 0 _m
30 35 _l
52 35 71 36 86 40 _c
100 44 108 53 108 67 _c
108 340 _l
108 358 105 371 100 379 _c
94 387 87 391 77 393 _c
67 395 51 396 30 396 _c
30 431 _l
175 442 _l
175 344 _l
188 372 208 396 234 414 _c
260 432 288 442 320 442 _c
396 442 441 410 455 348 _c
468 376 487 398 513 416 _c
539 433 567 442 598 442 _c
}_e{628 442 654 437 675 427 _c
695 417 711 403 721 383 _c
731 363 737 337 737 307 _c
737 67 _l
737 53 744 44 759 40 _c
773 36 792 35 815 35 _c
815 0 _l
586 0 _l
586 35 _l
608 35 627 36 642 40 _c
656 44 664 53 664 67 _c
664 304 _l
664 337 659 364 650 385 _c
640 405 621 416 592 416 _c
553 416 521 400 496 369 _c
471 338 459 303 459 264 _c
459 67 _l
}_e{459 53 466 44 481 40 _c
495 36 514 35 537 35 _c
537 0 _l
308 0 _l
308 35 _l
330 35 349 36 364 40 _c
378 44 386 53 386 67 _c
386 304 _l
386 336 381 363 372 384 _c
362 405 343 416 314 416 _c
275 416 243 400 218 369 _c
193 338 181 303 181 264 _c
181 67 _l
181 53 188 44 203 40 _c
217 36 236 35 259 35 _c
259 0 _l
30 0 _l
_cl}_e}_d
/bracketleft{277 0 118 -249 255 750 _sc
118 -249 _m
118 750 _l
255 750 _l
255 710 _l
158 710 _l
158 -209 _l
255 -209 _l
255 -249 _l
118 -249 _l
_cl}_d
/bracketright{277 0 22 -249 159 750 _sc
22 -249 _m
22 -209 _l
119 -209 _l
119 710 _l
22 710 _l
22 750 _l
159 750 _l
159 -249 _l
22 -249 _l
_cl}_d
/s{{394 0 33 -10 360 448 _sc
33 -2 _m
33 160 _l
33 165 36 168 42 168 _c
54 168 _l
58 168 60 165 62 160 _c
80 63 125 15 197 15 _c
228 15 254 22 276 36 _c
297 50 308 73 308 103 _c
308 124 299 142 283 158 _c
266 173 246 183 224 189 _c
157 202 _l
135 206 114 214 96 224 _c
77 234 62 248 50 265 _c
38 281 33 301 33 323 _c
33 352 40 376 56 395 _c
}_e{72 413 92 427 117 435 _c
141 443 168 448 197 448 _c
231 448 260 439 286 421 _c
315 446 _l
315 447 316 448 320 448 _c
327 448 _l
329 448 330 447 332 445 _c
334 443 335 442 335 440 _c
335 309 _l
335 303 332 300 327 300 _c
315 300 _l
309 300 306 303 306 309 _c
306 343 296 371 277 393 _c
257 414 230 425 196 425 _c
166 425 140 419 118 408 _c
96 397 85 378 85 351 _c
}_e{85 332 92 317 108 305 _c
124 293 142 285 164 280 _c
232 267 _l
254 261 275 252 295 240 _c
315 228 330 212 342 194 _c
354 175 360 154 360 130 _c
360 106 355 85 347 67 _c
339 49 327 35 313 23 _c
298 11 280 2 260 -2 _c
240 -7 219 -10 197 -10 _c
155 -10 119 3 90 31 _c
53 -8 _l
53 -9 51 -10 48 -10 _c
42 -10 _l
36 -10 33 -7 33 -2 _c
_cl}_e}_d
/one{500 0 87 0 421 666 _sc
93 0 _m
93 35 _l
176 35 218 45 218 67 _c
218 592 _l
183 575 139 567 87 567 _c
87 602 _l
168 602 230 623 272 666 _c
286 666 _l
288 666 291 665 293 663 _c
295 661 296 659 296 657 _c
296 67 _l
296 45 337 35 421 35 _c
421 0 _l
93 0 _l
_cl}_d
end readonly def

/BuildGlyph
 {exch begin
 CharStrings exch
 2 copy known not{pop /.notdef}if
 true 3 1 roll get exec
 end}_d

/BuildChar {
 1 index /Encoding get exch get
 1 index /BuildGlyph get exec
}_d

FontName currentdict end definefont pop
end
%%EndProlog
mpldict begin
90 180 translate
432 432 0 0 clipbox
gsave
0 0 m
432 0 l
432 432 l
0 432 l
cl
1.000 setgray
fill
grestore
gsave
54 43.2 m
388.8 43.2 l
388.8 388.8 l
54 388.8 l
cl
1.000 setgray
fill
grestore
/p0_0 {
newpath
translate
1.3692e-16 2.23607 m
-0.502029 0.690983 l
-2.12663 0.690983 l
-0.812299 -0.263932 l
-1.31433 -1.80902 l
-1.56896e-16 -0.854102 l
1.31433 -1.80902 l
0.812299 -0.263932 l
2.12663 0.690983 l
0.502029 0.690983 l
cl
} bind def
1.000 setlinewidth
1 setlinejoin
0 setlinecap
[] 0 setdash
0.000 setgray
gsave
334.8 345.6 54 43.2 clipbox
143.28 224.64 p0_0
gsave
0.000 0.000 1.000 setrgbcolor
fill
grestore
stroke
grestore
/p1_0 {
newpath
translate
171.18 184.694 m
174.21 185.76 l
176.715 190.08 l
176.247 194.4 l
175.107 198.72 l
173.613 203.04 l
171.757 207.36 l
171.18 208.455 l
169.698 211.68 l
167.517 216 l
165.6 219.274 l
165.057 220.32 l
162.671 224.64 l
160.02 228.826 l
159.943 228.96 l
157.389 233.28 l
154.481 237.6 l
154.44 237.658 l
151.741 241.92 l
148.86 245.968 l
148.671 246.24 l
145.711 250.56 l
143.28 253.804 l
142.447 254.88 l
139.175 259.2 l
137.7 261.063 l
135.52 263.52 l
132.12 267.504 l
131.699 267.84 l
127.115 272.16 l
126.54 272.755 l
120.96 275.273 l
118.547 272.16 l
117.696 267.84 l
117.825 263.52 l
118.392 259.2 l
119.26 254.88 l
120.441 250.56 l
120.96 249.103 l
121.905 246.24 l
123.407 241.92 l
125.107 237.6 l
126.54 234.6 l
127.135 233.28 l
129.141 228.96 l
131.435 224.64 l
132.12 223.503 l
133.932 220.32 l
136.564 216 l
137.7 214.332 l
139.541 211.68 l
142.669 207.36 l
143.28 206.568 l
146.216 203.04 l
148.86 199.942 l
150.141 198.72 l
154.398 194.4 l
154.44 194.356 l
159.667 190.08 l
160.02 189.768 l
165.6 186.378 l
167.961 185.76 l
171.18 184.694 l
} bind def
gsave
334.8 345.6 54 43.2 clipbox
0 0 p1_0
stroke
grestore
/p2_0 {
newpath
translate
193.5 149.356 m
199.08 148.011 l
204.66 147.831 l
210.24 150.238 l
211.125 151.2 l
212.814 155.52 l
212.915 159.84 l
212.187 164.16 l
210.852 168.48 l
210.24 169.878 l
209.275 172.8 l
207.509 177.12 l
205.275 181.44 l
204.66 182.452 l
203.159 185.76 l
200.797 190.08 l
199.08 192.681 l
198.233 194.4 l
195.803 198.72 l
193.5 202.008 l
192.962 203.04 l
190.477 207.36 l
187.92 210.857 l
187.473 211.68 l
184.925 216 l
182.34 219.423 l
181.838 220.32 l
179.209 224.64 l
176.76 227.803 l
176.098 228.96 l
173.362 233.28 l
171.18 236.046 l
170.275 237.6 l
167.401 241.92 l
165.6 244.169 l
164.375 246.24 l
161.328 250.56 l
160.02 252.175 l
158.395 254.88 l
155.131 259.2 l
154.44 260.045 l
152.315 263.52 l
148.86 267.772 l
148.817 267.84 l
146.098 272.16 l
143.28 275.586 l
142.69 276.48 l
139.675 280.8 l
137.7 283.169 l
136.345 285.12 l
132.916 289.44 l
132.12 290.379 l
129.602 293.76 l
126.54 297.274 l
125.832 298.08 l
122.07 302.4 l
120.96 303.618 l
117.714 306.72 l
115.38 309.006 l
111.968 311.04 l
109.8 312.613 l
104.22 312.073 l
103.569 311.04 l
101.829 306.72 l
101.055 302.4 l
100.797 298.08 l
100.846 293.76 l
101.113 289.44 l
101.573 285.12 l
102.249 280.8 l
103.213 276.48 l
104.22 273.227 l
104.392 272.16 l
105.152 267.84 l
106.055 263.52 l
107.229 259.2 l
108.887 254.88 l
109.8 252.997 l
110.38 250.56 l
111.561 246.24 l
113.191 241.92 l
115.38 237.987 l
115.497 237.6 l
116.838 233.28 l
118.731 228.96 l
120.96 225.455 l
121.265 224.64 l
122.98 220.32 l
125.585 216 l
126.54 214.672 l
127.878 211.68 l
130.464 207.36 l
132.12 205.201 l
133.272 203.04 l
136.139 198.72 l
137.7 196.82 l
139.213 194.4 l
142.7 190.08 l
143.28 189.422 l
145.924 185.76 l
148.86 182.585 l
149.835 181.44 l
153.898 177.12 l
154.44 176.574 l
158.06 172.8 l
160.02 170.949 l
162.773 168.48 l
165.6 166.004 l
167.987 164.16 l
171.18 161.594 l
173.817 159.84 l
176.76 157.694 l
180.565 155.52 l
182.34 154.358 l
187.92 151.604 l
189.117 151.2 l
193.5 149.356 l
} bind def
gsave
334.8 345.6 54 43.2 clipbox
0 0 p2_0
stroke
grestore
/p3_0 {
newpath
translate
221.4 125.05 m
226.98 124.66 l
231.483 125.28 l
232.56 125.474 l
238.14 129.034 l
238.623 129.6 l
240.402 133.92 l
240.648 138.24 l
240.022 142.56 l
238.737 146.88 l
238.14 148.251 l
237.206 151.2 l
235.446 155.52 l
233.15 159.84 l
232.56 160.78 l
231.009 164.16 l
228.539 168.48 l
226.98 170.736 l
225.937 172.8 l
223.343 177.12 l
221.4 179.751 l
220.49 181.44 l
217.766 185.76 l
215.82 188.272 l
214.802 190.08 l
211.919 194.4 l
210.24 196.493 l
208.95 198.72 l
205.86 203.04 l
204.66 204.498 l
202.972 207.36 l
199.621 211.68 l
199.08 212.326 l
196.89 216 l
193.5 220.09 l
193.364 220.32 l
190.716 224.64 l
187.92 227.968 l
187.333 228.96 l
184.454 233.28 l
182.34 235.772 l
181.257 237.6 l
178.104 241.92 l
176.76 243.494 l
175.137 246.24 l
171.665 250.56 l
171.18 251.125 l
168.968 254.88 l
165.6 258.851 l
165.395 259.2 l
162.745 263.52 l
160.02 266.722 l
159.361 267.84 l
156.456 272.16 l
154.44 274.523 l
153.283 276.48 l
150.08 280.8 l
148.86 282.227 l
147.137 285.12 l
143.582 289.44 l
143.28 289.793 l
140.885 293.76 l
137.7 297.494 l
137.328 298.08 l
134.457 302.4 l
132.12 305.121 l
131.061 306.72 l
127.728 311.04 l
126.54 312.409 l
124.456 315.36 l
120.96 319.303 l
120.649 319.68 l
117.155 324 l
115.38 325.931 l
113.053 328.32 l
109.8 331.544 l
108.182 332.64 l
104.22 335.742 l
98.64 336.907 l
94.7869 332.64 l
93.1769 328.32 l
93.06 327.707 l
92.4381 324 l
92.0846 319.68 l
92.0263 315.36 l
92.2269 311.04 l
92.6952 306.72 l
93.06 304.634 l
93.2084 302.4 l
93.5511 298.08 l
93.9545 293.76 l
94.4508 289.44 l
95.0968 285.12 l
95.9913 280.8 l
97.3097 276.48 l
98.64 273.39 l
98.8079 272.16 l
99.4444 267.84 l
100.301 263.52 l
101.576 259.2 l
103.66 254.88 l
104.22 253.906 l
104.829 250.56 l
105.884 246.24 l
107.594 241.92 l
109.8 238.415 l
109.99 237.6 l
111.077 233.28 l
112.879 228.96 l
115.38 225.344 l
115.584 224.64 l
116.932 220.32 l
119.321 216 l
120.96 213.841 l
121.715 211.68 l
123.766 207.36 l
126.54 203.862 l
126.889 203.04 l
128.938 198.72 l
132.12 194.905 l
132.374 194.4 l
134.691 190.08 l
137.7 186.661 l
138.23 185.76 l
141.152 181.44 l
143.28 179.151 l
144.655 177.12 l
148.764 172.8 l
148.86 172.703 l
152.101 168.48 l
154.44 166.184 l
156.24 164.16 l
160.02 160.616 l
160.813 159.84 l
165.6 155.585 l
165.675 155.52 l
170.575 151.2 l
171.18 150.689 l
176.003 146.88 l
176.76 146.276 l
182.048 142.56 l
182.34 142.341 l
187.92 138.642 l
188.685 138.24 l
193.5 135.235 l
196.308 133.92 l
199.08 132.325 l
204.66 129.934 l
205.695 129.6 l
210.24 127.689 l
215.82 126.105 l
220.445 125.28 l
221.4 125.05 l
} bind def
gsave
334.8 345.6 54 43.2 clipbox
0 0 p3_0
stroke
grestore
[1 3] 0 setdash
gsave
334.8 345.6 54 43.2 clipbox
54 302.4 m
388.8 302.4 l
stroke
grestore
1.500 setlinewidth
[] 0 setdash
gsave
/o {
gsave
newpath
translate
1.5 setlinewidth
1 setlinejoin
0 setlinecap
0 0 m
0 5.5 l
gsave
0.000 setgray
fill
grestore
stroke
grestore
} bind def
54 43.2 o
grestore
gsave
/o {
gsave
newpath
translate
1.5 setlinewidth
1 setlinejoin
0 setlinecap
0 0 m
0 -5.5 l
gsave
0.000 setgray
fill
grestore
stroke
grestore
} bind def
54 388.8 o
grestore
/BitstreamVeraSans-Roman findfont
12.000 scalefont
setfont
gsave
47.218750 30.121875 translate
0.000000 rotate
0.000000 0.171875 m /five glyphshow
7.634766 0.171875 m /zero glyphshow
grestore
gsave
/o {
gsave
newpath
translate
1.5 setlinewidth
1 setlinejoin
0 setlinecap
0 0 m
0 5.5 l
gsave
0.000 setgray
fill
grestore
stroke
grestore
} bind def
109.8 43.2 o
grestore
gsave
/o {
gsave
newpath
translate
1.5 setlinewidth
1 setlinejoin
0 setlinecap
0 0 m
0 -5.5 l
gsave
0.000 setgray
fill
grestore
stroke
grestore
} bind def
109.8 388.8 o
grestore
gsave
99.393750 30.121875 translate
0.000000 rotate
0.000000 0.171875 m /one glyphshow
7.634766 0.171875 m /zero glyphshow
15.269531 0.171875 m /zero glyphshow
grestore
gsave
/o {
gsave
newpath
translate
1.5 setlinewidth
1 setlinejoin
0 setlinecap
0 0 m
0 5.5 l
gsave
0.000 setgray
fill
grestore
stroke
grestore
} bind def
165.6 43.2 o
grestore
gsave
/o {
gsave
newpath
translate
1.5 setlinewidth
1 setlinejoin
0 setlinecap
0 0 m
0 -5.5 l
gsave
0.000 setgray
fill
grestore
stroke
grestore
} bind def
165.6 388.8 o
grestore
gsave
155.193750 30.121875 translate
0.000000 rotate
0.000000 0.171875 m /one glyphshow
7.634766 0.171875 m /five glyphshow
15.269531 0.171875 m /zero glyphshow
grestore
gsave
/o {
gsave
newpath
translate
1.5 setlinewidth
1 setlinejoin
0 setlinecap
0 0 m
0 5.5 l
gsave
0.000 setgray
fill
grestore
stroke
grestore
} bind def
221.4 43.2 o
grestore
gsave
/o {
gsave
newpath
translate
1.5 setlinewidth
1 setlinejoin
0 setlinecap
0 0 m
0 -5.5 l
gsave
0.000 setgray
fill
grestore
stroke
grestore
} bind def
221.4 388.8 o
grestore
gsave
210.775000 30.121875 translate
0.000000 rotate
0.000000 0.171875 m /two glyphshow
7.634766 0.171875 m /zero glyphshow
15.269531 0.171875 m /zero glyphshow
grestore
gsave
/o {
gsave
newpath
translate
1.5 setlinewidth
1 setlinejoin
0 setlinecap
0 0 m
0 5.5 l
gsave
0.000 setgray
fill
grestore
stroke
grestore
} bind def
277.2 43.2 o
grestore
gsave
/o {
gsave
newpath
translate
1.5 setlinewidth
1 setlinejoin
0 setlinecap
0 0 m
0 -5.5 l
gsave
0.000 setgray
fill
grestore
stroke
grestore
} bind def
277.2 388.8 o
grestore
gsave
266.575000 30.121875 translate
0.000000 rotate
0.000000 0.171875 m /two glyphshow
7.634766 0.171875 m /five glyphshow
15.269531 0.171875 m /zero glyphshow
grestore
gsave
/o {
gsave
newpath
translate
1.5 setlinewidth
1 setlinejoin
0 setlinecap
0 0 m
0 5.5 l
gsave
0.000 setgray
fill
grestore
stroke
grestore
} bind def
333 43.2 o
grestore
gsave
/o {
gsave
newpath
translate
1.5 setlinewidth
1 setlinejoin
0 setlinecap
0 0 m
0 -5.5 l
gsave
0.000 setgray
fill
grestore
stroke
grestore
} bind def
333 388.8 o
grestore
gsave
322.398438 30.121875 translate
0.000000 rotate
0.000000 0.171875 m /three glyphshow
7.634766 0.171875 m /zero glyphshow
15.269531 0.171875 m /zero glyphshow
grestore
gsave
/o {
gsave
newpath
translate
1.5 setlinewidth
1 setlinejoin
0 setlinecap
0 0 m
0 5.5 l
gsave
0.000 setgray
fill
grestore
stroke
grestore
} bind def
388.8 43.2 o
grestore
gsave
/o {
gsave
newpath
translate
1.5 setlinewidth
1 setlinejoin
0 setlinecap
0 0 m
0 -5.5 l
gsave
0.000 setgray
fill
grestore
stroke
grestore
} bind def
388.8 388.8 o
grestore
gsave
378.198438 30.121875 translate
0.000000 rotate
0.000000 0.171875 m /three glyphshow
7.634766 0.171875 m /five glyphshow
15.269531 0.171875 m /zero glyphshow
grestore
1.200 setlinewidth
gsave
/o {
gsave
newpath
translate
1.2 setlinewidth
1 setlinejoin
0 setlinecap
0 0 m
0 3.5 l
gsave
0.000 setgray
fill
grestore
stroke
grestore
} bind def
54 43.2 o
grestore
gsave
/o {
gsave
newpath
translate
1.2 setlinewidth
1 setlinejoin
0 setlinecap
0 0 m
0 -3.5 l
gsave
0.000 setgray
fill
grestore
stroke
grestore
} bind def
54 388.8 o
grestore
gsave
/o {
gsave
newpath
translate
1.2 setlinewidth
1 setlinejoin
0 setlinecap
0 0 m
0 3.5 l
gsave
0.000 setgray
fill
grestore
stroke
grestore
} bind def
65.16 43.2 o
grestore
gsave
/o {
gsave
newpath
translate
1.2 setlinewidth
1 setlinejoin
0 setlinecap
0 0 m
0 -3.5 l
gsave
0.000 setgray
fill
grestore
stroke
grestore
} bind def
65.16 388.8 o
grestore
gsave
/o {
gsave
newpath
translate
1.2 setlinewidth
1 setlinejoin
0 setlinecap
0 0 m
0 3.5 l
gsave
0.000 setgray
fill
grestore
stroke
grestore
} bind def
76.32 43.2 o
grestore
gsave
/o {
gsave
newpath
translate
1.2 setlinewidth
1 setlinejoin
0 setlinecap
0 0 m
0 -3.5 l
gsave
0.000 setgray
fill
grestore
stroke
grestore
} bind def
76.32 388.8 o
grestore
gsave
/o {
gsave
newpath
translate
1.2 setlinewidth
1 setlinejoin
0 setlinecap
0 0 m
0 3.5 l
gsave
0.000 setgray
fill
grestore
stroke
grestore
} bind def
87.48 43.2 o
grestore
gsave
/o {
gsave
newpath
translate
1.2 setlinewidth
1 setlinejoin
0 setlinecap
0 0 m
0 -3.5 l
gsave
0.000 setgray
fill
grestore
stroke
grestore
} bind def
87.48 388.8 o
grestore
gsave
/o {
gsave
newpath
translate
1.2 setlinewidth
1 setlinejoin
0 setlinecap
0 0 m
0 3.5 l
gsave
0.000 setgray
fill
grestore
stroke
grestore
} bind def
98.64 43.2 o
grestore
gsave
/o {
gsave
newpath
translate
1.2 setlinewidth
1 setlinejoin
0 setlinecap
0 0 m
0 -3.5 l
gsave
0.000 setgray
fill
grestore
stroke
grestore
} bind def
98.64 388.8 o
grestore
gsave
/o {
gsave
newpath
translate
1.2 setlinewidth
1 setlinejoin
0 setlinecap
0 0 m
0 3.5 l
gsave
0.000 setgray
fill
grestore
stroke
grestore
} bind def
109.8 43.2 o
grestore
gsave
/o {
gsave
newpath
translate
1.2 setlinewidth
1 setlinejoin
0 setlinecap
0 0 m
0 -3.5 l
gsave
0.000 setgray
fill
grestore
stroke
grestore
} bind def
109.8 388.8 o
grestore
gsave
/o {
gsave
newpath
translate
1.2 setlinewidth
1 setlinejoin
0 setlinecap
0 0 m
0 3.5 l
gsave
0.000 setgray
fill
grestore
stroke
grestore
} bind def
120.96 43.2 o
grestore
gsave
/o {
gsave
newpath
translate
1.2 setlinewidth
1 setlinejoin
0 setlinecap
0 0 m
0 -3.5 l
gsave
0.000 setgray
fill
grestore
stroke
grestore
} bind def
120.96 388.8 o
grestore
gsave
/o {
gsave
newpath
translate
1.2 setlinewidth
1 setlinejoin
0 setlinecap
0 0 m
0 3.5 l
gsave
0.000 setgray
fill
grestore
stroke
grestore
} bind def
132.12 43.2 o
grestore
gsave
/o {
gsave
newpath
translate
1.2 setlinewidth
1 setlinejoin
0 setlinecap
0 0 m
0 -3.5 l
gsave
0.000 setgray
fill
grestore
stroke
grestore
} bind def
132.12 388.8 o
grestore
gsave
/o {
gsave
newpath
translate
1.2 setlinewidth
1 setlinejoin
0 setlinecap
0 0 m
0 3.5 l
gsave
0.000 setgray
fill
grestore
stroke
grestore
} bind def
143.28 43.2 o
grestore
gsave
/o {
gsave
newpath
translate
1.2 setlinewidth
1 setlinejoin
0 setlinecap
0 0 m
0 -3.5 l
gsave
0.000 setgray
fill
grestore
stroke
grestore
} bind def
143.28 388.8 o
grestore
gsave
/o {
gsave
newpath
translate
1.2 setlinewidth
1 setlinejoin
0 setlinecap
0 0 m
0 3.5 l
gsave
0.000 setgray
fill
grestore
stroke
grestore
} bind def
154.44 43.2 o
grestore
gsave
/o {
gsave
newpath
translate
1.2 setlinewidth
1 setlinejoin
0 setlinecap
0 0 m
0 -3.5 l
gsave
0.000 setgray
fill
grestore
stroke
grestore
} bind def
154.44 388.8 o
grestore
gsave
/o {
gsave
newpath
translate
1.2 setlinewidth
1 setlinejoin
0 setlinecap
0 0 m
0 3.5 l
gsave
0.000 setgray
fill
grestore
stroke
grestore
} bind def
165.6 43.2 o
grestore
gsave
/o {
gsave
newpath
translate
1.2 setlinewidth
1 setlinejoin
0 setlinecap
0 0 m
0 -3.5 l
gsave
0.000 setgray
fill
grestore
stroke
grestore
} bind def
165.6 388.8 o
grestore
gsave
/o {
gsave
newpath
translate
1.2 setlinewidth
1 setlinejoin
0 setlinecap
0 0 m
0 3.5 l
gsave
0.000 setgray
fill
grestore
stroke
grestore
} bind def
176.76 43.2 o
grestore
gsave
/o {
gsave
newpath
translate
1.2 setlinewidth
1 setlinejoin
0 setlinecap
0 0 m
0 -3.5 l
gsave
0.000 setgray
fill
grestore
stroke
grestore
} bind def
176.76 388.8 o
grestore
gsave
/o {
gsave
newpath
translate
1.2 setlinewidth
1 setlinejoin
0 setlinecap
0 0 m
0 3.5 l
gsave
0.000 setgray
fill
grestore
stroke
grestore
} bind def
187.92 43.2 o
grestore
gsave
/o {
gsave
newpath
translate
1.2 setlinewidth
1 setlinejoin
0 setlinecap
0 0 m
0 -3.5 l
gsave
0.000 setgray
fill
grestore
stroke
grestore
} bind def
187.92 388.8 o
grestore
gsave
/o {
gsave
newpath
translate
1.2 setlinewidth
1 setlinejoin
0 setlinecap
0 0 m
0 3.5 l
gsave
0.000 setgray
fill
grestore
stroke
grestore
} bind def
199.08 43.2 o
grestore
gsave
/o {
gsave
newpath
translate
1.2 setlinewidth
1 setlinejoin
0 setlinecap
0 0 m
0 -3.5 l
gsave
0.000 setgray
fill
grestore
stroke
grestore
} bind def
199.08 388.8 o
grestore
gsave
/o {
gsave
newpath
translate
1.2 setlinewidth
1 setlinejoin
0 setlinecap
0 0 m
0 3.5 l
gsave
0.000 setgray
fill
grestore
stroke
grestore
} bind def
210.24 43.2 o
grestore
gsave
/o {
gsave
newpath
translate
1.2 setlinewidth
1 setlinejoin
0 setlinecap
0 0 m
0 -3.5 l
gsave
0.000 setgray
fill
grestore
stroke
grestore
} bind def
210.24 388.8 o
grestore
gsave
/o {
gsave
newpath
translate
1.2 setlinewidth
1 setlinejoin
0 setlinecap
0 0 m
0 3.5 l
gsave
0.000 setgray
fill
grestore
stroke
grestore
} bind def
221.4 43.2 o
grestore
gsave
/o {
gsave
newpath
translate
1.2 setlinewidth
1 setlinejoin
0 setlinecap
0 0 m
0 -3.5 l
gsave
0.000 setgray
fill
grestore
stroke
grestore
} bind def
221.4 388.8 o
grestore
gsave
/o {
gsave
newpath
translate
1.2 setlinewidth
1 setlinejoin
0 setlinecap
0 0 m
0 3.5 l
gsave
0.000 setgray
fill
grestore
stroke
grestore
} bind def
232.56 43.2 o
grestore
gsave
/o {
gsave
newpath
translate
1.2 setlinewidth
1 setlinejoin
0 setlinecap
0 0 m
0 -3.5 l
gsave
0.000 setgray
fill
grestore
stroke
grestore
} bind def
232.56 388.8 o
grestore
gsave
/o {
gsave
newpath
translate
1.2 setlinewidth
1 setlinejoin
0 setlinecap
0 0 m
0 3.5 l
gsave
0.000 setgray
fill
grestore
stroke
grestore
} bind def
243.72 43.2 o
grestore
gsave
/o {
gsave
newpath
translate
1.2 setlinewidth
1 setlinejoin
0 setlinecap
0 0 m
0 -3.5 l
gsave
0.000 setgray
fill
grestore
stroke
grestore
} bind def
243.72 388.8 o
grestore
gsave
/o {
gsave
newpath
translate
1.2 setlinewidth
1 setlinejoin
0 setlinecap
0 0 m
0 3.5 l
gsave
0.000 setgray
fill
grestore
stroke
grestore
} bind def
254.88 43.2 o
grestore
gsave
/o {
gsave
newpath
translate
1.2 setlinewidth
1 setlinejoin
0 setlinecap
0 0 m
0 -3.5 l
gsave
0.000 setgray
fill
grestore
stroke
grestore
} bind def
254.88 388.8 o
grestore
gsave
/o {
gsave
newpath
translate
1.2 setlinewidth
1 setlinejoin
0 setlinecap
0 0 m
0 3.5 l
gsave
0.000 setgray
fill
grestore
stroke
grestore
} bind def
266.04 43.2 o
grestore
gsave
/o {
gsave
newpath
translate
1.2 setlinewidth
1 setlinejoin
0 setlinecap
0 0 m
0 -3.5 l
gsave
0.000 setgray
fill
grestore
stroke
grestore
} bind def
266.04 388.8 o
grestore
gsave
/o {
gsave
newpath
translate
1.2 setlinewidth
1 setlinejoin
0 setlinecap
0 0 m
0 3.5 l
gsave
0.000 setgray
fill
grestore
stroke
grestore
} bind def
277.2 43.2 o
grestore
gsave
/o {
gsave
newpath
translate
1.2 setlinewidth
1 setlinejoin
0 setlinecap
0 0 m
0 -3.5 l
gsave
0.000 setgray
fill
grestore
stroke
grestore
} bind def
277.2 388.8 o
grestore
gsave
/o {
gsave
newpath
translate
1.2 setlinewidth
1 setlinejoin
0 setlinecap
0 0 m
0 3.5 l
gsave
0.000 setgray
fill
grestore
stroke
grestore
} bind def
288.36 43.2 o
grestore
gsave
/o {
gsave
newpath
translate
1.2 setlinewidth
1 setlinejoin
0 setlinecap
0 0 m
0 -3.5 l
gsave
0.000 setgray
fill
grestore
stroke
grestore
} bind def
288.36 388.8 o
grestore
gsave
/o {
gsave
newpath
translate
1.2 setlinewidth
1 setlinejoin
0 setlinecap
0 0 m
0 3.5 l
gsave
0.000 setgray
fill
grestore
stroke
grestore
} bind def
299.52 43.2 o
grestore
gsave
/o {
gsave
newpath
translate
1.2 setlinewidth
1 setlinejoin
0 setlinecap
0 0 m
0 -3.5 l
gsave
0.000 setgray
fill
grestore
stroke
grestore
} bind def
299.52 388.8 o
grestore
gsave
/o {
gsave
newpath
translate
1.2 setlinewidth
1 setlinejoin
0 setlinecap
0 0 m
0 3.5 l
gsave
0.000 setgray
fill
grestore
stroke
grestore
} bind def
310.68 43.2 o
grestore
gsave
/o {
gsave
newpath
translate
1.2 setlinewidth
1 setlinejoin
0 setlinecap
0 0 m
0 -3.5 l
gsave
0.000 setgray
fill
grestore
stroke
grestore
} bind def
310.68 388.8 o
grestore
gsave
/o {
gsave
newpath
translate
1.2 setlinewidth
1 setlinejoin
0 setlinecap
0 0 m
0 3.5 l
gsave
0.000 setgray
fill
grestore
stroke
grestore
} bind def
321.84 43.2 o
grestore
gsave
/o {
gsave
newpath
translate
1.2 setlinewidth
1 setlinejoin
0 setlinecap
0 0 m
0 -3.5 l
gsave
0.000 setgray
fill
grestore
stroke
grestore
} bind def
321.84 388.8 o
grestore
gsave
/o {
gsave
newpath
translate
1.2 setlinewidth
1 setlinejoin
0 setlinecap
0 0 m
0 3.5 l
gsave
0.000 setgray
fill
grestore
stroke
grestore
} bind def
333 43.2 o
grestore
gsave
/o {
gsave
newpath
translate
1.2 setlinewidth
1 setlinejoin
0 setlinecap
0 0 m
0 -3.5 l
gsave
0.000 setgray
fill
grestore
stroke
grestore
} bind def
333 388.8 o
grestore
gsave
/o {
gsave
newpath
translate
1.2 setlinewidth
1 setlinejoin
0 setlinecap
0 0 m
0 3.5 l
gsave
0.000 setgray
fill
grestore
stroke
grestore
} bind def
344.16 43.2 o
grestore
gsave
/o {
gsave
newpath
translate
1.2 setlinewidth
1 setlinejoin
0 setlinecap
0 0 m
0 -3.5 l
gsave
0.000 setgray
fill
grestore
stroke
grestore
} bind def
344.16 388.8 o
grestore
gsave
/o {
gsave
newpath
translate
1.2 setlinewidth
1 setlinejoin
0 setlinecap
0 0 m
0 3.5 l
gsave
0.000 setgray
fill
grestore
stroke
grestore
} bind def
355.32 43.2 o
grestore
gsave
/o {
gsave
newpath
translate
1.2 setlinewidth
1 setlinejoin
0 setlinecap
0 0 m
0 -3.5 l
gsave
0.000 setgray
fill
grestore
stroke
grestore
} bind def
355.32 388.8 o
grestore
gsave
/o {
gsave
newpath
translate
1.2 setlinewidth
1 setlinejoin
0 setlinecap
0 0 m
0 3.5 l
gsave
0.000 setgray
fill
grestore
stroke
grestore
} bind def
366.48 43.2 o
grestore
gsave
/o {
gsave
newpath
translate
1.2 setlinewidth
1 setlinejoin
0 setlinecap
0 0 m
0 -3.5 l
gsave
0.000 setgray
fill
grestore
stroke
grestore
} bind def
366.48 388.8 o
grestore
gsave
/o {
gsave
newpath
translate
1.2 setlinewidth
1 setlinejoin
0 setlinecap
0 0 m
0 3.5 l
gsave
0.000 setgray
fill
grestore
stroke
grestore
} bind def
377.64 43.2 o
grestore
gsave
/o {
gsave
newpath
translate
1.2 setlinewidth
1 setlinejoin
0 setlinecap
0 0 m
0 -3.5 l
gsave
0.000 setgray
fill
grestore
stroke
grestore
} bind def
377.64 388.8 o
grestore
gsave
/o {
gsave
newpath
translate
1.2 setlinewidth
1 setlinejoin
0 setlinecap
0 0 m
0 3.5 l
gsave
0.000 setgray
fill
grestore
stroke
grestore
} bind def
388.8 43.2 o
grestore
gsave
/o {
gsave
newpath
translate
1.2 setlinewidth
1 setlinejoin
0 setlinecap
0 0 m
0 -3.5 l
gsave
0.000 setgray
fill
grestore
stroke
grestore
} bind def
388.8 388.8 o
grestore
gsave
192.400000 10.121875 translate
0.000000 rotate
/Cmmi10 findfont
12.0 scalefont
setfont
0.000000 4.180000 moveto
/sigma glyphshow

/Cmr10 findfont
8.4 scalefont
setfont
6.849609 1.118875 moveto
/zero glyphshow

/Cmr10 findfont
12.0 scalefont
setfont
14.210156 4.180000 moveto
/bracketleft glyphshow

17.532422 4.180000 moveto
/k glyphshow

23.854687 4.180000 moveto
/m glyphshow

36.849609 4.180000 moveto
/s glyphshow

/Cmsy10 findfont
8.4 scalefont
setfont
41.578125 9.400000 moveto
/minus glyphshow

/Cmr10 findfont
8.4 scalefont
setfont
48.103711 9.400000 moveto
/one glyphshow

/Cmr10 findfont
12.0 scalefont
setfont
54.391711 4.180000 moveto
/bracketright glyphshow


grestore
1.500 setlinewidth
gsave
/o {
gsave
newpath
translate
1.5 setlinewidth
1 setlinejoin
0 setlinecap
0 0 m
5.5 0 l
gsave
0.000 setgray
fill
grestore
stroke
grestore
} bind def
54 43.2 o
grestore
gsave
/o {
gsave
newpath
translate
1.5 setlinewidth
1 setlinejoin
0 setlinecap
0 0 m
-5.5 0 l
gsave
0.000 setgray
fill
grestore
stroke
grestore
} bind def
388.8 43.2 o
grestore
gsave
23.156250 38.739062 translate
0.000000 rotate
0.000000 0.171875 m /minus glyphshow
10.054688 0.171875 m /one glyphshow
17.689453 0.171875 m /period glyphshow
21.503906 0.171875 m /five glyphshow
grestore
gsave
/o {
gsave
newpath
translate
1.5 setlinewidth
1 setlinejoin
0 setlinecap
0 0 m
5.5 0 l
gsave
0.000 setgray
fill
grestore
stroke
grestore
} bind def
54 129.6 o
grestore
gsave
/o {
gsave
newpath
translate
1.5 setlinewidth
1 setlinejoin
0 setlinecap
0 0 m
-5.5 0 l
gsave
0.000 setgray
fill
grestore
stroke
grestore
} bind def
388.8 129.6 o
grestore
gsave
22.906250 125.060938 translate
0.000000 rotate
0.000000 0.171875 m /minus glyphshow
10.054688 0.171875 m /one glyphshow
17.689453 0.171875 m /period glyphshow
21.503906 0.171875 m /zero glyphshow
grestore
gsave
/o {
gsave
newpath
translate
1.5 setlinewidth
1 setlinejoin
0 setlinecap
0 0 m
5.5 0 l
gsave
0.000 setgray
fill
grestore
stroke
grestore
} bind def
54 216 o
grestore
gsave
/o {
gsave
newpath
translate
1.5 setlinewidth
1 setlinejoin
0 setlinecap
0 0 m
-5.5 0 l
gsave
0.000 setgray
fill
grestore
stroke
grestore
} bind def
388.8 216 o
grestore
gsave
23.156250 211.460938 translate
0.000000 rotate
0.000000 0.171875 m /minus glyphshow
10.054688 0.171875 m /zero glyphshow
17.689453 0.171875 m /period glyphshow
21.503906 0.171875 m /five glyphshow
grestore
gsave
/o {
gsave
newpath
translate
1.5 setlinewidth
1 setlinejoin
0 setlinecap
0 0 m
5.5 0 l
gsave
0.000 setgray
fill
grestore
stroke
grestore
} bind def
54 302.4 o
grestore
gsave
/o {
gsave
newpath
translate
1.5 setlinewidth
1 setlinejoin
0 setlinecap
0 0 m
-5.5 0 l
gsave
0.000 setgray
fill
grestore
stroke
grestore
} bind def
388.8 302.4 o
grestore
gsave
32.500000 297.860938 translate
0.000000 rotate
0.000000 0.171875 m /zero glyphshow
7.634766 0.171875 m /period glyphshow
11.449219 0.171875 m /zero glyphshow
grestore
gsave
/o {
gsave
newpath
translate
1.5 setlinewidth
1 setlinejoin
0 setlinecap
0 0 m
5.5 0 l
gsave
0.000 setgray
fill
grestore
stroke
grestore
} bind def
54 388.8 o
grestore
gsave
/o {
gsave
newpath
translate
1.5 setlinewidth
1 setlinejoin
0 setlinecap
0 0 m
-5.5 0 l
gsave
0.000 setgray
fill
grestore
stroke
grestore
} bind def
388.8 388.8 o
grestore
gsave
32.750000 384.260938 translate
0.000000 rotate
0.000000 0.171875 m /zero glyphshow
7.634766 0.171875 m /period glyphshow
11.449219 0.171875 m /five glyphshow
grestore
1.200 setlinewidth
gsave
/o {
gsave
newpath
translate
1.2 setlinewidth
1 setlinejoin
0 setlinecap
0 0 m
3.5 0 l
gsave
0.000 setgray
fill
grestore
stroke
grestore
} bind def
54 43.2 o
grestore
gsave
/o {
gsave
newpath
translate
1.2 setlinewidth
1 setlinejoin
0 setlinecap
0 0 m
-3.5 0 l
gsave
0.000 setgray
fill
grestore
stroke
grestore
} bind def
388.8 43.2 o
grestore
gsave
/o {
gsave
newpath
translate
1.2 setlinewidth
1 setlinejoin
0 setlinecap
0 0 m
3.5 0 l
gsave
0.000 setgray
fill
grestore
stroke
grestore
} bind def
54 60.48 o
grestore
gsave
/o {
gsave
newpath
translate
1.2 setlinewidth
1 setlinejoin
0 setlinecap
0 0 m
-3.5 0 l
gsave
0.000 setgray
fill
grestore
stroke
grestore
} bind def
388.8 60.48 o
grestore
gsave
/o {
gsave
newpath
translate
1.2 setlinewidth
1 setlinejoin
0 setlinecap
0 0 m
3.5 0 l
gsave
0.000 setgray
fill
grestore
stroke
grestore
} bind def
54 77.76 o
grestore
gsave
/o {
gsave
newpath
translate
1.2 setlinewidth
1 setlinejoin
0 setlinecap
0 0 m
-3.5 0 l
gsave
0.000 setgray
fill
grestore
stroke
grestore
} bind def
388.8 77.76 o
grestore
gsave
/o {
gsave
newpath
translate
1.2 setlinewidth
1 setlinejoin
0 setlinecap
0 0 m
3.5 0 l
gsave
0.000 setgray
fill
grestore
stroke
grestore
} bind def
54 95.04 o
grestore
gsave
/o {
gsave
newpath
translate
1.2 setlinewidth
1 setlinejoin
0 setlinecap
0 0 m
-3.5 0 l
gsave
0.000 setgray
fill
grestore
stroke
grestore
} bind def
388.8 95.04 o
grestore
gsave
/o {
gsave
newpath
translate
1.2 setlinewidth
1 setlinejoin
0 setlinecap
0 0 m
3.5 0 l
gsave
0.000 setgray
fill
grestore
stroke
grestore
} bind def
54 112.32 o
grestore
gsave
/o {
gsave
newpath
translate
1.2 setlinewidth
1 setlinejoin
0 setlinecap
0 0 m
-3.5 0 l
gsave
0.000 setgray
fill
grestore
stroke
grestore
} bind def
388.8 112.32 o
grestore
gsave
/o {
gsave
newpath
translate
1.2 setlinewidth
1 setlinejoin
0 setlinecap
0 0 m
3.5 0 l
gsave
0.000 setgray
fill
grestore
stroke
grestore
} bind def
54 129.6 o
grestore
gsave
/o {
gsave
newpath
translate
1.2 setlinewidth
1 setlinejoin
0 setlinecap
0 0 m
-3.5 0 l
gsave
0.000 setgray
fill
grestore
stroke
grestore
} bind def
388.8 129.6 o
grestore
gsave
/o {
gsave
newpath
translate
1.2 setlinewidth
1 setlinejoin
0 setlinecap
0 0 m
3.5 0 l
gsave
0.000 setgray
fill
grestore
stroke
grestore
} bind def
54 146.88 o
grestore
gsave
/o {
gsave
newpath
translate
1.2 setlinewidth
1 setlinejoin
0 setlinecap
0 0 m
-3.5 0 l
gsave
0.000 setgray
fill
grestore
stroke
grestore
} bind def
388.8 146.88 o
grestore
gsave
/o {
gsave
newpath
translate
1.2 setlinewidth
1 setlinejoin
0 setlinecap
0 0 m
3.5 0 l
gsave
0.000 setgray
fill
grestore
stroke
grestore
} bind def
54 164.16 o
grestore
gsave
/o {
gsave
newpath
translate
1.2 setlinewidth
1 setlinejoin
0 setlinecap
0 0 m
-3.5 0 l
gsave
0.000 setgray
fill
grestore
stroke
grestore
} bind def
388.8 164.16 o
grestore
gsave
/o {
gsave
newpath
translate
1.2 setlinewidth
1 setlinejoin
0 setlinecap
0 0 m
3.5 0 l
gsave
0.000 setgray
fill
grestore
stroke
grestore
} bind def
54 181.44 o
grestore
gsave
/o {
gsave
newpath
translate
1.2 setlinewidth
1 setlinejoin
0 setlinecap
0 0 m
-3.5 0 l
gsave
0.000 setgray
fill
grestore
stroke
grestore
} bind def
388.8 181.44 o
grestore
gsave
/o {
gsave
newpath
translate
1.2 setlinewidth
1 setlinejoin
0 setlinecap
0 0 m
3.5 0 l
gsave
0.000 setgray
fill
grestore
stroke
grestore
} bind def
54 198.72 o
grestore
gsave
/o {
gsave
newpath
translate
1.2 setlinewidth
1 setlinejoin
0 setlinecap
0 0 m
-3.5 0 l
gsave
0.000 setgray
fill
grestore
stroke
grestore
} bind def
388.8 198.72 o
grestore
gsave
/o {
gsave
newpath
translate
1.2 setlinewidth
1 setlinejoin
0 setlinecap
0 0 m
3.5 0 l
gsave
0.000 setgray
fill
grestore
stroke
grestore
} bind def
54 216 o
grestore
gsave
/o {
gsave
newpath
translate
1.2 setlinewidth
1 setlinejoin
0 setlinecap
0 0 m
-3.5 0 l
gsave
0.000 setgray
fill
grestore
stroke
grestore
} bind def
388.8 216 o
grestore
gsave
/o {
gsave
newpath
translate
1.2 setlinewidth
1 setlinejoin
0 setlinecap
0 0 m
3.5 0 l
gsave
0.000 setgray
fill
grestore
stroke
grestore
} bind def
54 233.28 o
grestore
gsave
/o {
gsave
newpath
translate
1.2 setlinewidth
1 setlinejoin
0 setlinecap
0 0 m
-3.5 0 l
gsave
0.000 setgray
fill
grestore
stroke
grestore
} bind def
388.8 233.28 o
grestore
gsave
/o {
gsave
newpath
translate
1.2 setlinewidth
1 setlinejoin
0 setlinecap
0 0 m
3.5 0 l
gsave
0.000 setgray
fill
grestore
stroke
grestore
} bind def
54 250.56 o
grestore
gsave
/o {
gsave
newpath
translate
1.2 setlinewidth
1 setlinejoin
0 setlinecap
0 0 m
-3.5 0 l
gsave
0.000 setgray
fill
grestore
stroke
grestore
} bind def
388.8 250.56 o
grestore
gsave
/o {
gsave
newpath
translate
1.2 setlinewidth
1 setlinejoin
0 setlinecap
0 0 m
3.5 0 l
gsave
0.000 setgray
fill
grestore
stroke
grestore
} bind def
54 267.84 o
grestore
gsave
/o {
gsave
newpath
translate
1.2 setlinewidth
1 setlinejoin
0 setlinecap
0 0 m
-3.5 0 l
gsave
0.000 setgray
fill
grestore
stroke
grestore
} bind def
388.8 267.84 o
grestore
gsave
/o {
gsave
newpath
translate
1.2 setlinewidth
1 setlinejoin
0 setlinecap
0 0 m
3.5 0 l
gsave
0.000 setgray
fill
grestore
stroke
grestore
} bind def
54 285.12 o
grestore
gsave
/o {
gsave
newpath
translate
1.2 setlinewidth
1 setlinejoin
0 setlinecap
0 0 m
-3.5 0 l
gsave
0.000 setgray
fill
grestore
stroke
grestore
} bind def
388.8 285.12 o
grestore
gsave
/o {
gsave
newpath
translate
1.2 setlinewidth
1 setlinejoin
0 setlinecap
0 0 m
3.5 0 l
gsave
0.000 setgray
fill
grestore
stroke
grestore
} bind def
54 302.4 o
grestore
gsave
/o {
gsave
newpath
translate
1.2 setlinewidth
1 setlinejoin
0 setlinecap
0 0 m
-3.5 0 l
gsave
0.000 setgray
fill
grestore
stroke
grestore
} bind def
388.8 302.4 o
grestore
gsave
/o {
gsave
newpath
translate
1.2 setlinewidth
1 setlinejoin
0 setlinecap
0 0 m
3.5 0 l
gsave
0.000 setgray
fill
grestore
stroke
grestore
} bind def
54 319.68 o
grestore
gsave
/o {
gsave
newpath
translate
1.2 setlinewidth
1 setlinejoin
0 setlinecap
0 0 m
-3.5 0 l
gsave
0.000 setgray
fill
grestore
stroke
grestore
} bind def
388.8 319.68 o
grestore
gsave
/o {
gsave
newpath
translate
1.2 setlinewidth
1 setlinejoin
0 setlinecap
0 0 m
3.5 0 l
gsave
0.000 setgray
fill
grestore
stroke
grestore
} bind def
54 336.96 o
grestore
gsave
/o {
gsave
newpath
translate
1.2 setlinewidth
1 setlinejoin
0 setlinecap
0 0 m
-3.5 0 l
gsave
0.000 setgray
fill
grestore
stroke
grestore
} bind def
388.8 336.96 o
grestore
gsave
/o {
gsave
newpath
translate
1.2 setlinewidth
1 setlinejoin
0 setlinecap
0 0 m
3.5 0 l
gsave
0.000 setgray
fill
grestore
stroke
grestore
} bind def
54 354.24 o
grestore
gsave
/o {
gsave
newpath
translate
1.2 setlinewidth
1 setlinejoin
0 setlinecap
0 0 m
-3.5 0 l
gsave
0.000 setgray
fill
grestore
stroke
grestore
} bind def
388.8 354.24 o
grestore
gsave
/o {
gsave
newpath
translate
1.2 setlinewidth
1 setlinejoin
0 setlinecap
0 0 m
3.5 0 l
gsave
0.000 setgray
fill
grestore
stroke
grestore
} bind def
54 371.52 o
grestore
gsave
/o {
gsave
newpath
translate
1.2 setlinewidth
1 setlinejoin
0 setlinecap
0 0 m
-3.5 0 l
gsave
0.000 setgray
fill
grestore
stroke
grestore
} bind def
388.8 371.52 o
grestore
gsave
/o {
gsave
newpath
translate
1.2 setlinewidth
1 setlinejoin
0 setlinecap
0 0 m
3.5 0 l
gsave
0.000 setgray
fill
grestore
stroke
grestore
} bind def
54 388.8 o
grestore
gsave
/o {
gsave
newpath
translate
1.2 setlinewidth
1 setlinejoin
0 setlinecap
0 0 m
-3.5 0 l
gsave
0.000 setgray
fill
grestore
stroke
grestore
} bind def
388.8 388.8 o
grestore
gsave
17.906250 212.500000 translate
90.000000 rotate
/Cmmi10 findfont
12.0 scalefont
setfont
0.000000 3.703125 moveto
/gamma glyphshow


grestore
1.000 setlinewidth
2 setlinecap
gsave
54 388.8 m
388.8 388.8 l
stroke
grestore
gsave
388.8 43.2 m
388.8 388.8 l
stroke
grestore
gsave
54 43.2 m
388.8 43.2 l
stroke
grestore
gsave
54 43.2 m
54 388.8 l
stroke
grestore

end
showpage
