%!PS-Adobe-3.0 EPSF-3.0
%%Title: /home/jv/Desktop/superpower.eps
%%Creator: matplotlib version 1.1.1rc2, http://matplotlib.sourceforge.net/
%%CreationDate: Sun Mar 23 12:25:40 2014
%%Orientation: portrait
%%BoundingBox: 23 186 588 605
%%EndComments
%%BeginProlog
/mpldict 11 dict def
mpldict begin
/m { moveto } bind def
/l { lineto } bind def
/r { rlineto } bind def
/c { curveto } bind def
/cl { closepath } bind def
/box {
m
1 index 0 r
0 exch r
neg 0 r
cl
} bind def
/clipbox {
box
clip
newpath
} bind def
%!PS-Adobe-3.0 Resource-Font
%%Title: cmsy10
%%Copyright: Copyright (C) 1994, Basil K. Malyshev. All Rights Reserved.012BaKoMa Fonts Collection, Level-B.
%%Creator: Converted from TrueType to type 3 by PPR
25 dict begin
/_d{bind def}bind def
/_m{moveto}_d
/_l{lineto}_d
/_cl{closepath eofill}_d
/_c{curveto}_d
/_sc{7 -1 roll{setcachedevice}{pop pop pop pop pop pop}ifelse}_d
/_e{exec}_d
/FontName /Cmsy10 def
/PaintType 0 def
/FontMatrix[.001 0 0 .001 0 0]def
/FontBBox[-29 -960 1123 779]def
/FontType 3 def
/Encoding [ /minus ] def
/FontInfo 10 dict dup begin
/FamilyName (cmsy10) def
/FullName (cmsy10) def
/Notice (Copyright (C) 1994, Basil K. Malyshev. All Rights Reserved.012BaKoMa Fonts Collection, Level-B. ) def
/Weight (Regular) def
/Version (1.1/12-Nov-94) def
/ItalicAngle 0.0 def
/isFixedPitch false def
/UnderlinePosition -133 def
/UnderlineThickness 20 def
end readonly def
/CharStrings 1 dict dup begin
/minus{777 0 83 230 694 270 _sc
102 230 _m
96 230 92 232 88 236 _c
84 240 83 245 83 250 _c
83 254 84 259 88 263 _c
92 267 96 270 102 270 _c
676 270 _l
681 270 685 267 689 263 _c
692 259 694 254 694 250 _c
694 245 692 240 689 236 _c
685 232 681 230 676 230 _c
102 230 _l
_cl}_d
end readonly def

/BuildGlyph
 {exch begin
 CharStrings exch
 2 copy known not{pop /.notdef}if
 true 3 1 roll get exec
 end}_d

/BuildChar {
 1 index /Encoding get exch get
 1 index /BuildGlyph get exec
}_d

FontName currentdict end definefont pop
%!PS-Adobe-3.0 Resource-Font
%%Title: cmmi10
%%Copyright: Copyright (C) 1994, Basil K. Malyshev. All Rights Reserved.012BaKoMa Fonts Collection, Level-B.
%%Creator: Converted from TrueType to type 3 by PPR
25 dict begin
/_d{bind def}bind def
/_m{moveto}_d
/_l{lineto}_d
/_cl{closepath eofill}_d
/_c{curveto}_d
/_sc{7 -1 roll{setcachedevice}{pop pop pop pop pop pop}ifelse}_d
/_e{exec}_d
/FontName /Cmmi10 def
/PaintType 0 def
/FontMatrix[.001 0 0 .001 0 0]def
/FontBBox[-34 -250 1048 750]def
/FontType 3 def
/Encoding [ /theta /sigma /gamma /A ] def
/FontInfo 10 dict dup begin
/FamilyName (cmmi10) def
/FullName (cmmi10) def
/Notice (Copyright (C) 1994, Basil K. Malyshev. All Rights Reserved.012BaKoMa Fonts Collection, Level-B. ) def
/Weight (Regular) def
/Version (1.1/12-Nov-94) def
/ItalicAngle 0.0 def
/isFixedPitch false def
/UnderlinePosition -133 def
/UnderlineThickness 20 def
end readonly def
/CharStrings 4 dict dup begin
/theta{{469 0 40 -10 457 705 _sc
161 -10 _m
131 -10 106 0 88 22 _c
70 44 57 70 50 102 _c
43 133 40 164 40 195 _c
40 196 _l
40 229 43 263 49 299 _c
55 335 65 370 77 406 _c
89 442 102 474 116 502 _c
126 521 138 543 154 567 _c
169 591 186 614 205 635 _c
224 656 245 673 267 686 _c
289 698 311 705 334 705 _c
335 705 _l
359 705 379 698 395 685 _c
}_e{411 671 423 654 432 634 _c
441 613 447 591 451 567 _c
455 543 457 520 457 499 _c
457 448 450 396 436 344 _c
422 292 404 241 380 192 _c
370 173 358 151 342 126 _c
326 101 309 79 291 59 _c
273 39 252 22 230 9 _c
207 -3 184 -10 162 -10 _c
161 -10 _l
163 15 _m
185 15 206 26 226 50 _c
246 74 264 102 280 136 _c
295 170 308 204 320 240 _c
332 275 340 305 346 330 _c
}_e{142 330 _l
131 288 123 251 117 221 _c
111 191 109 161 109 132 _c
109 54 127 15 163 15 _c
150 365 _m
355 365 _l
362 394 368 418 372 438 _c
376 458 379 479 382 501 _c
385 523 387 543 387 562 _c
387 640 369 679 334 679 _c
292 679 255 645 224 577 _c
193 509 168 438 150 365 _c
_cl}_e}_d
/sigma{{571 0 36 -10 568 431 _sc
187 -10 _m
157 -10 131 -3 108 10 _c
85 24 67 43 55 67 _c
42 91 36 118 36 147 _c
36 177 43 210 57 244 _c
71 278 90 310 114 338 _c
138 366 166 389 197 406 _c
227 422 259 431 291 431 _c
543 431 _l
549 431 555 428 560 424 _c
565 419 568 413 568 406 _c
568 396 564 387 557 380 _c
550 372 542 369 532 369 _c
410 369 _l
}_e{429 340 439 305 439 265 _c
439 231 432 198 419 166 _c
406 133 388 103 365 77 _c
342 50 315 29 284 13 _c
253 -2 221 -10 187 -10 _c
188 15 _m
224 15 257 29 285 58 _c
313 86 334 121 349 162 _c
364 203 372 241 372 277 _c
372 305 364 328 348 344 _c
332 360 310 369 282 369 _c
243 369 210 356 183 330 _c
156 304 136 271 122 232 _c
108 192 102 154 102 118 _c
}_e{102 89 109 65 124 45 _c
139 25 160 15 188 15 _c
_cl}_e}_d
/gamma{{517 0 16 -215 542 442 _sc
295 -195 _m
295 -179 298 -157 305 -129 _c
311 -100 319 -70 329 -38 _c
339 -6 347 20 354 41 _c
356 74 358 99 358 116 _c
358 159 353 199 345 236 _c
337 273 321 304 297 329 _c
273 353 241 366 199 366 _c
177 366 155 361 133 352 _c
111 342 92 329 76 312 _c
60 295 50 276 44 255 _c
42 251 40 249 36 249 _c
24 249 _l
18 249 16 252 16 258 _c
}_e{16 261 _l
23 291 36 320 55 348 _c
74 376 97 398 125 416 _c
153 433 182 442 213 442 _c
244 442 271 431 294 410 _c
316 388 334 361 348 329 _c
362 297 372 264 378 231 _c
384 197 387 166 387 137 _c
421 228 458 314 500 396 _c
515 428 _l
517 430 519 431 522 431 _c
534 431 _l
539 431 542 428 542 422 _c
542 420 541 418 540 416 _c
525 385 _l
495 327 469 268 445 209 _c
}_e{421 150 400 93 383 38 _c
380 15 375 -15 368 -54 _c
360 -92 351 -128 341 -162 _c
331 -196 320 -213 310 -215 _c
300 -215 295 -208 295 -195 _c
_cl}_e}_d
/A{{750 0 35 0 723 716 _sc
45 0 _m
38 0 35 4 35 13 _c
37 27 42 35 48 35 _c
74 35 97 40 117 51 _c
137 61 154 78 169 101 _c
170 102 171 103 171 103 _c
528 705 _l
533 712 539 716 547 716 _c
560 716 _l
562 716 564 715 566 714 _c
568 713 569 712 571 710 _c
572 708 573 707 573 705 _c
634 59 _l
634 56 635 52 638 46 _c
644 38 669 35 713 35 _c
}_e{719 35 723 30 723 22 _c
721 13 719 7 717 4 _c
715 1 712 0 706 0 _c
456 0 _l
450 0 447 4 447 13 _c
450 27 454 35 460 35 _c
512 35 540 44 544 62 _c
529 227 _l
282 227 _l
202 93 _l
197 85 195 77 195 68 _c
195 56 200 47 212 42 _c
223 37 235 35 249 35 _c
255 35 259 30 259 22 _c
256 12 254 6 253 4 _c
251 1 248 0 242 0 _c
}_e{45 0 _l
302 262 _m
525 262 _l
495 586 _l
302 262 _l
_cl}_e}_d
end readonly def

/BuildGlyph
 {exch begin
 CharStrings exch
 2 copy known not{pop /.notdef}if
 true 3 1 roll get exec
 end}_d

/BuildChar {
 1 index /Encoding get exch get
 1 index /BuildGlyph get exec
}_d

FontName currentdict end definefont pop
%!PS-Adobe-3.0 Resource-Font
%%Title: cmr10
%%Copyright: Copyright (C) 1994, Basil K. Malyshev. All Rights Reserved.012BaKoMa Fonts Collection, Level-B.
%%Creator: Converted from TrueType to type 3 by PPR
25 dict begin
/_d{bind def}bind def
/_m{moveto}_d
/_l{lineto}_d
/_cl{closepath eofill}_d
/_c{curveto}_d
/_sc{7 -1 roll{setcachedevice}{pop pop pop pop pop pop}ifelse}_d
/_e{exec}_d
/FontName /Cmr10 def
/PaintType 0 def
/FontMatrix[.001 0 0 .001 0 0]def
/FontBBox[-44 -250 1009 750]def
/FontType 3 def
/Encoding [ /zero /one ] def
/FontInfo 10 dict dup begin
/FamilyName (cmr10) def
/FullName (cmr10) def
/Notice (Copyright (C) 1994, Basil K. Malyshev. All Rights Reserved.012BaKoMa Fonts Collection, Level-B. ) def
/Weight (Regular) def
/Version (1.1/12-Nov-94) def
/ItalicAngle 0.0 def
/isFixedPitch false def
/UnderlinePosition -133 def
/UnderlineThickness 20 def
end readonly def
/CharStrings 2 dict dup begin
/zero{{500 0 39 -21 460 666 _sc
250 -21 _m
168 -21 112 12 83 79 _c
53 146 39 226 39 319 _c
39 377 44 431 55 482 _c
65 533 86 576 118 612 _c
149 648 193 666 250 666 _c
294 666 330 655 358 634 _c
386 612 407 585 422 551 _c
436 517 446 480 452 441 _c
457 402 460 361 460 319 _c
460 261 454 208 444 158 _c
433 108 412 65 381 31 _c
350 -3 306 -21 250 -21 _c
250 4 _m
}_e{287 4 315 23 333 61 _c
351 99 362 141 366 187 _c
370 233 373 283 373 335 _c
373 385 370 431 366 473 _c
362 515 351 554 333 588 _c
315 622 287 640 250 640 _c
212 640 184 622 166 588 _c
148 554 136 515 132 473 _c
128 431 126 385 126 335 _c
126 297 126 262 128 230 _c
130 197 135 163 143 128 _c
151 93 163 64 181 40 _c
198 16 221 4 250 4 _c
_cl}_e}_d
/one{500 0 87 0 421 666 _sc
93 0 _m
93 35 _l
176 35 218 45 218 67 _c
218 592 _l
183 575 139 567 87 567 _c
87 602 _l
168 602 230 623 272 666 _c
286 666 _l
288 666 291 665 293 663 _c
295 661 296 659 296 657 _c
296 67 _l
296 45 337 35 421 35 _c
421 0 _l
93 0 _l
_cl}_d
end readonly def

/BuildGlyph
 {exch begin
 CharStrings exch
 2 copy known not{pop /.notdef}if
 true 3 1 roll get exec
 end}_d

/BuildChar {
 1 index /Encoding get exch get
 1 index /BuildGlyph get exec
}_d

FontName currentdict end definefont pop
%!PS-Adobe-3.0 Resource-Font
%%Title: Bitstream Vera Sans
%%Copyright: Copyright (c) 2003 by Bitstream, Inc. All Rights Reserved.
%%Creator: Converted from TrueType to type 3 by PPR
25 dict begin
/_d{bind def}bind def
/_m{moveto}_d
/_l{lineto}_d
/_cl{closepath eofill}_d
/_c{curveto}_d
/_sc{7 -1 roll{setcachedevice}{pop pop pop pop pop pop}ifelse}_d
/_e{exec}_d
/FontName /BitstreamVeraSans-Roman def
/PaintType 0 def
/FontMatrix[.001 0 0 .001 0 0]def
/FontBBox[-183 -236 1287 928]def
/FontType 3 def
/Encoding [ /space /period /zero /one /two /three /four /five /six /seven /eight /nine /P /bracketleft /bracketright /a /b /d /e /g /i /k /l /m /o /p /r /s /t /y /minus ] def
/FontInfo 10 dict dup begin
/FamilyName (Bitstream Vera Sans) def
/FullName (Bitstream Vera Sans) def
/Notice (Copyright (c) 2003 by Bitstream, Inc. All Rights Reserved. Bitstream Vera is a trademark of Bitstream, Inc.) def
/Weight (Roman) def
/Version (Release 1.10) def
/ItalicAngle 0.0 def
/isFixedPitch false def
/UnderlinePosition -213 def
/UnderlineThickness 143 def
end readonly def
/CharStrings 31 dict dup begin
/space{318 0 0 0 0 0 _sc
}_d
/period{318 0 107 0 210 124 _sc
107 124 _m
210 124 _l
210 0 _l
107 0 _l
107 124 _l
_cl}_d
/zero{636 0 66 -13 570 742 _sc
318 664 _m
267 664 229 639 203 589 _c
177 539 165 464 165 364 _c
165 264 177 189 203 139 _c
229 89 267 64 318 64 _c
369 64 407 89 433 139 _c
458 189 471 264 471 364 _c
471 464 458 539 433 589 _c
407 639 369 664 318 664 _c
318 742 _m
399 742 461 709 505 645 _c
548 580 570 486 570 364 _c
570 241 548 147 505 83 _c
461 19 399 -13 318 -13 _c
236 -13 173 19 130 83 _c
87 147 66 241 66 364 _c
66 486 87 580 130 645 _c
173 709 236 742 318 742 _c
_cl}_d
/one{636 0 110 0 544 729 _sc
124 83 _m
285 83 _l
285 639 _l
110 604 _l
110 694 _l
284 729 _l
383 729 _l
383 83 _l
544 83 _l
544 0 _l
124 0 _l
124 83 _l
_cl}_d
/two{{636 0 73 0 536 742 _sc
192 83 _m
536 83 _l
536 0 _l
73 0 _l
73 83 _l
110 121 161 173 226 239 _c
290 304 331 346 348 365 _c
380 400 402 430 414 455 _c
426 479 433 504 433 528 _c
433 566 419 598 392 622 _c
365 646 330 659 286 659 _c
255 659 222 653 188 643 _c
154 632 117 616 78 594 _c
78 694 _l
118 710 155 722 189 730 _c
223 738 255 742 284 742 _c
}_e{359 742 419 723 464 685 _c
509 647 532 597 532 534 _c
532 504 526 475 515 449 _c
504 422 484 390 454 354 _c
446 344 420 317 376 272 _c
332 227 271 164 192 83 _c
_cl}_e}_d
/three{{636 0 76 -13 556 742 _sc
406 393 _m
453 383 490 362 516 330 _c
542 298 556 258 556 212 _c
556 140 531 84 482 45 _c
432 6 362 -13 271 -13 _c
240 -13 208 -10 176 -4 _c
144 1 110 10 76 22 _c
76 117 _l
103 101 133 89 166 81 _c
198 73 232 69 268 69 _c
330 69 377 81 409 105 _c
441 129 458 165 458 212 _c
458 254 443 288 413 312 _c
383 336 341 349 287 349 _c
}_e{202 349 _l
202 430 _l
291 430 _l
339 430 376 439 402 459 _c
428 478 441 506 441 543 _c
441 580 427 609 401 629 _c
374 649 336 659 287 659 _c
260 659 231 656 200 650 _c
169 644 135 635 98 623 _c
98 711 _l
135 721 170 729 203 734 _c
235 739 266 742 296 742 _c
370 742 429 725 473 691 _c
517 657 539 611 539 553 _c
539 513 527 479 504 451 _c
481 423 448 403 406 393 _c
_cl}_e}_d
/four{636 0 49 0 580 729 _sc
378 643 _m
129 254 _l
378 254 _l
378 643 _l
352 729 _m
476 729 _l
476 254 _l
580 254 _l
580 172 _l
476 172 _l
476 0 _l
378 0 _l
378 172 _l
49 172 _l
49 267 _l
352 729 _l
_cl}_d
/five{{636 0 77 -13 549 729 _sc
108 729 _m
495 729 _l
495 646 _l
198 646 _l
198 467 _l
212 472 227 476 241 478 _c
255 480 270 482 284 482 _c
365 482 429 459 477 415 _c
525 370 549 310 549 234 _c
549 155 524 94 475 51 _c
426 8 357 -13 269 -13 _c
238 -13 207 -10 175 -6 _c
143 -1 111 6 77 17 _c
77 116 _l
106 100 136 88 168 80 _c
199 72 232 69 267 69 _c
}_e{323 69 368 83 401 113 _c
433 143 450 183 450 234 _c
450 284 433 324 401 354 _c
368 384 323 399 267 399 _c
241 399 214 396 188 390 _c
162 384 135 375 108 363 _c
108 729 _l
_cl}_e}_d
/six{{636 0 70 -13 573 742 _sc
330 404 _m
286 404 251 388 225 358 _c
199 328 186 286 186 234 _c
186 181 199 139 225 109 _c
251 79 286 64 330 64 _c
374 64 409 79 435 109 _c
461 139 474 181 474 234 _c
474 286 461 328 435 358 _c
409 388 374 404 330 404 _c
526 713 _m
526 623 _l
501 635 476 644 451 650 _c
425 656 400 659 376 659 _c
310 659 260 637 226 593 _c
}_e{192 549 172 482 168 394 _c
187 422 211 444 240 459 _c
269 474 301 482 336 482 _c
409 482 467 459 509 415 _c
551 371 573 310 573 234 _c
573 159 550 99 506 54 _c
462 9 403 -13 330 -13 _c
246 -13 181 19 137 83 _c
92 147 70 241 70 364 _c
70 479 97 571 152 639 _c
206 707 280 742 372 742 _c
396 742 421 739 447 735 _c
472 730 498 723 526 713 _c
_cl}_e}_d
/seven{636 0 82 0 551 729 _sc
82 729 _m
551 729 _l
551 687 _l
286 0 _l
183 0 _l
432 646 _l
82 646 _l
82 729 _l
_cl}_d
/eight{{636 0 68 -13 568 742 _sc
318 346 _m
271 346 234 333 207 308 _c
180 283 167 249 167 205 _c
167 161 180 126 207 101 _c
234 76 271 64 318 64 _c
364 64 401 76 428 102 _c
455 127 469 161 469 205 _c
469 249 455 283 429 308 _c
402 333 365 346 318 346 _c
219 388 _m
177 398 144 418 120 447 _c
96 476 85 511 85 553 _c
85 611 105 657 147 691 _c
188 725 245 742 318 742 _c
}_e{390 742 447 725 489 691 _c
530 657 551 611 551 553 _c
551 511 539 476 515 447 _c
491 418 459 398 417 388 _c
464 377 501 355 528 323 _c
554 291 568 251 568 205 _c
568 134 546 80 503 43 _c
459 5 398 -13 318 -13 _c
237 -13 175 5 132 43 _c
89 80 68 134 68 205 _c
68 251 81 291 108 323 _c
134 355 171 377 219 388 _c
183 544 _m
183 506 194 476 218 455 _c
}_e{242 434 275 424 318 424 _c
360 424 393 434 417 455 _c
441 476 453 506 453 544 _c
453 582 441 611 417 632 _c
393 653 360 664 318 664 _c
275 664 242 653 218 632 _c
194 611 183 582 183 544 _c
_cl}_e}_d
/nine{{636 0 63 -13 566 742 _sc
110 15 _m
110 105 _l
134 93 159 84 185 78 _c
210 72 235 69 260 69 _c
324 69 374 90 408 134 _c
442 178 462 244 468 334 _c
448 306 424 284 396 269 _c
367 254 335 247 300 247 _c
226 247 168 269 126 313 _c
84 357 63 417 63 494 _c
63 568 85 628 129 674 _c
173 719 232 742 306 742 _c
390 742 455 709 499 645 _c
543 580 566 486 566 364 _c
}_e{566 248 538 157 484 89 _c
429 21 356 -13 264 -13 _c
239 -13 214 -10 189 -6 _c
163 -2 137 5 110 15 _c
306 324 _m
350 324 385 339 411 369 _c
437 399 450 441 450 494 _c
450 546 437 588 411 618 _c
385 648 350 664 306 664 _c
262 664 227 648 201 618 _c
175 588 162 546 162 494 _c
162 441 175 399 201 369 _c
227 339 262 324 306 324 _c
_cl}_e}_d
/P{603 0 98 0 569 729 _sc
197 648 _m
197 374 _l
321 374 _l
367 374 402 385 427 409 _c
452 433 465 467 465 511 _c
465 555 452 588 427 612 _c
402 636 367 648 321 648 _c
197 648 _l
98 729 _m
321 729 _l
402 729 464 710 506 673 _c
548 636 569 582 569 511 _c
569 439 548 384 506 348 _c
464 311 402 293 321 293 _c
197 293 _l
197 0 _l
98 0 _l
98 729 _l
_cl}_d
/bracketleft{390 0 86 -131 293 760 _sc
86 760 _m
293 760 _l
293 690 _l
176 690 _l
176 -61 _l
293 -61 _l
293 -131 _l
86 -131 _l
86 760 _l
_cl}_d
/bracketright{390 0 97 -131 304 760 _sc
304 760 _m
304 -131 _l
97 -131 _l
97 -61 _l
214 -61 _l
214 690 _l
97 690 _l
97 760 _l
304 760 _l
_cl}_d
/a{{613 0 60 -13 522 560 _sc
343 275 _m
270 275 220 266 192 250 _c
164 233 150 205 150 165 _c
150 133 160 107 181 89 _c
202 70 231 61 267 61 _c
317 61 357 78 387 114 _c
417 149 432 196 432 255 _c
432 275 _l
343 275 _l
522 312 _m
522 0 _l
432 0 _l
432 83 _l
411 49 385 25 355 10 _c
325 -5 287 -13 243 -13 _c
187 -13 142 2 109 33 _c
76 64 60 106 60 159 _c
}_e{60 220 80 266 122 298 _c
163 329 224 345 306 345 _c
432 345 _l
432 354 _l
432 395 418 427 391 450 _c
364 472 326 484 277 484 _c
245 484 215 480 185 472 _c
155 464 127 453 100 439 _c
100 522 _l
132 534 164 544 195 550 _c
226 556 256 560 286 560 _c
365 560 424 539 463 498 _c
502 457 522 395 522 312 _c
_cl}_e}_d
/b{{635 0 91 -13 580 760 _sc
487 273 _m
487 339 473 390 446 428 _c
418 466 381 485 334 485 _c
286 485 249 466 222 428 _c
194 390 181 339 181 273 _c
181 207 194 155 222 117 _c
249 79 286 61 334 61 _c
381 61 418 79 446 117 _c
473 155 487 207 487 273 _c
181 464 _m
199 496 223 520 252 536 _c
281 552 316 560 356 560 _c
422 560 476 533 518 481 _c
559 428 580 359 580 273 _c
}_e{580 187 559 117 518 65 _c
476 13 422 -13 356 -13 _c
316 -13 281 -5 252 10 _c
223 25 199 49 181 82 _c
181 0 _l
91 0 _l
91 760 _l
181 760 _l
181 464 _l
_cl}_e}_d
/d{{635 0 55 -13 544 760 _sc
454 464 _m
454 760 _l
544 760 _l
544 0 _l
454 0 _l
454 82 _l
435 49 411 25 382 10 _c
353 -5 319 -13 279 -13 _c
213 -13 159 13 117 65 _c
75 117 55 187 55 273 _c
55 359 75 428 117 481 _c
159 533 213 560 279 560 _c
319 560 353 552 382 536 _c
411 520 435 496 454 464 _c
148 273 _m
148 207 161 155 188 117 _c
215 79 253 61 301 61 _c
}_e{348 61 385 79 413 117 _c
440 155 454 207 454 273 _c
454 339 440 390 413 428 _c
385 466 348 485 301 485 _c
253 485 215 466 188 428 _c
161 390 148 339 148 273 _c
_cl}_e}_d
/e{{615 0 55 -13 562 560 _sc
562 296 _m
562 252 _l
149 252 _l
153 190 171 142 205 110 _c
238 78 284 62 344 62 _c
378 62 412 66 444 74 _c
476 82 509 95 541 113 _c
541 28 _l
509 14 476 3 442 -3 _c
408 -9 373 -13 339 -13 _c
251 -13 182 12 131 62 _c
80 112 55 181 55 268 _c
55 357 79 428 127 481 _c
175 533 241 560 323 560 _c
397 560 455 536 498 489 _c
}_e{540 441 562 377 562 296 _c
472 322 _m
471 371 457 410 431 440 _c
404 469 368 484 324 484 _c
274 484 234 469 204 441 _c
174 413 156 373 152 322 _c
472 322 _l
_cl}_e}_d
/g{{635 0 55 -207 544 560 _sc
454 280 _m
454 344 440 395 414 431 _c
387 467 349 485 301 485 _c
253 485 215 467 188 431 _c
161 395 148 344 148 280 _c
148 215 161 165 188 129 _c
215 93 253 75 301 75 _c
349 75 387 93 414 129 _c
440 165 454 215 454 280 _c
544 68 _m
544 -24 523 -93 482 -139 _c
440 -184 377 -207 292 -207 _c
260 -207 231 -204 203 -200 _c
175 -195 147 -188 121 -178 _c
}_e{121 -91 _l
147 -105 173 -115 199 -122 _c
225 -129 251 -133 278 -133 _c
336 -133 380 -117 410 -87 _c
439 -56 454 -10 454 52 _c
454 96 _l
435 64 411 40 382 24 _c
353 8 319 0 279 0 _c
211 0 157 25 116 76 _c
75 127 55 195 55 280 _c
55 364 75 432 116 483 _c
157 534 211 560 279 560 _c
319 560 353 552 382 536 _c
411 520 435 496 454 464 _c
454 547 _l
544 547 _l
}_e{544 68 _l
_cl}_e}_d
/i{278 0 94 0 184 760 _sc
94 547 _m
184 547 _l
184 0 _l
94 0 _l
94 547 _l
94 760 _m
184 760 _l
184 646 _l
94 646 _l
94 760 _l
_cl}_d
/k{579 0 91 0 576 760 _sc
91 760 _m
181 760 _l
181 311 _l
449 547 _l
564 547 _l
274 291 _l
576 0 _l
459 0 _l
181 267 _l
181 0 _l
91 0 _l
91 760 _l
_cl}_d
/l{278 0 94 0 184 760 _sc
94 760 _m
184 760 _l
184 0 _l
94 0 _l
94 760 _l
_cl}_d
/m{{974 0 91 0 889 560 _sc
520 442 _m
542 482 569 511 600 531 _c
631 550 668 560 711 560 _c
767 560 811 540 842 500 _c
873 460 889 403 889 330 _c
889 0 _l
799 0 _l
799 327 _l
799 379 789 418 771 444 _c
752 469 724 482 686 482 _c
639 482 602 466 575 435 _c
548 404 535 362 535 309 _c
535 0 _l
445 0 _l
445 327 _l
445 379 435 418 417 444 _c
398 469 369 482 331 482 _c
}_e{285 482 248 466 221 435 _c
194 404 181 362 181 309 _c
181 0 _l
91 0 _l
91 547 _l
181 547 _l
181 462 _l
201 495 226 520 255 536 _c
283 552 317 560 357 560 _c
397 560 430 550 458 530 _c
486 510 506 480 520 442 _c
_cl}_e}_d
/o{612 0 55 -13 557 560 _sc
306 484 _m
258 484 220 465 192 427 _c
164 389 150 338 150 273 _c
150 207 163 156 191 118 _c
219 80 257 62 306 62 _c
354 62 392 80 420 118 _c
448 156 462 207 462 273 _c
462 337 448 389 420 427 _c
392 465 354 484 306 484 _c
306 560 _m
384 560 445 534 490 484 _c
534 433 557 363 557 273 _c
557 183 534 113 490 63 _c
445 12 384 -13 306 -13 _c
227 -13 165 12 121 63 _c
77 113 55 183 55 273 _c
55 363 77 433 121 484 _c
165 534 227 560 306 560 _c
_cl}_d
/p{{635 0 91 -207 580 560 _sc
181 82 _m
181 -207 _l
91 -207 _l
91 547 _l
181 547 _l
181 464 _l
199 496 223 520 252 536 _c
281 552 316 560 356 560 _c
422 560 476 533 518 481 _c
559 428 580 359 580 273 _c
580 187 559 117 518 65 _c
476 13 422 -13 356 -13 _c
316 -13 281 -5 252 10 _c
223 25 199 49 181 82 _c
487 273 _m
487 339 473 390 446 428 _c
418 466 381 485 334 485 _c
}_e{286 485 249 466 222 428 _c
194 390 181 339 181 273 _c
181 207 194 155 222 117 _c
249 79 286 61 334 61 _c
381 61 418 79 446 117 _c
473 155 487 207 487 273 _c
_cl}_e}_d
/r{411 0 91 0 411 560 _sc
411 463 _m
401 469 390 473 378 476 _c
366 478 353 480 339 480 _c
288 480 249 463 222 430 _c
194 397 181 350 181 288 _c
181 0 _l
91 0 _l
91 547 _l
181 547 _l
181 462 _l
199 495 224 520 254 536 _c
284 552 321 560 365 560 _c
371 560 378 559 386 559 _c
393 558 401 557 411 555 _c
411 463 _l
_cl}_d
/s{{521 0 54 -13 472 560 _sc
443 531 _m
443 446 _l
417 458 391 468 364 475 _c
336 481 308 485 279 485 _c
234 485 200 478 178 464 _c
156 450 145 430 145 403 _c
145 382 153 366 169 354 _c
185 342 217 330 265 320 _c
296 313 _l
360 299 405 279 432 255 _c
458 230 472 195 472 151 _c
472 100 452 60 412 31 _c
372 1 316 -13 246 -13 _c
216 -13 186 -10 154 -5 _c
}_e{122 0 89 8 54 20 _c
54 113 _l
87 95 120 82 152 74 _c
184 65 216 61 248 61 _c
290 61 323 68 346 82 _c
368 96 380 117 380 144 _c
380 168 371 187 355 200 _c
339 213 303 226 247 238 _c
216 245 _l
160 257 119 275 95 299 _c
70 323 58 356 58 399 _c
58 450 76 490 112 518 _c
148 546 200 560 268 560 _c
301 560 332 557 362 552 _c
391 547 418 540 443 531 _c
}_e{_cl}_e}_d
/t{392 0 27 0 368 702 _sc
183 702 _m
183 547 _l
368 547 _l
368 477 _l
183 477 _l
183 180 _l
183 135 189 106 201 94 _c
213 81 238 75 276 75 _c
368 75 _l
368 0 _l
276 0 _l
206 0 158 13 132 39 _c
106 65 93 112 93 180 _c
93 477 _l
27 477 _l
27 547 _l
93 547 _l
93 702 _l
183 702 _l
_cl}_d
/y{592 0 30 -207 562 547 _sc
322 -50 _m
296 -114 271 -157 247 -177 _c
223 -197 191 -207 151 -207 _c
79 -207 _l
79 -132 _l
132 -132 _l
156 -132 175 -126 189 -114 _c
203 -102 218 -75 235 -31 _c
251 9 _l
30 547 _l
125 547 _l
296 119 _l
467 547 _l
562 547 _l
322 -50 _l
_cl}_d
/minus{838 0 106 272 732 355 _sc
106 355 _m
732 355 _l
732 272 _l
106 272 _l
106 355 _l
_cl}_d
end readonly def

/BuildGlyph
 {exch begin
 CharStrings exch
 2 copy known not{pop /.notdef}if
 true 3 1 roll get exec
 end}_d

/BuildChar {
 1 index /Encoding get exch get
 1 index /BuildGlyph get exec
}_d

FontName currentdict end definefont pop
end
%%EndProlog
mpldict begin
23.805 186.526 translate
564.389 418.947 0 0 clipbox
gsave
0 0 m
564.389 0 l
564.389 418.947 l
0 418.947 l
cl
1.000 setgray
fill
grestore
gsave
53.0906 248.898 m
265.46 248.898 l
265.46 407.208 l
53.0906 407.208 l
cl
1.000 setgray
fill
grestore
0.900 setlinewidth
1 setlinejoin
0 setlinecap
[1 3] 0 setdash
0.000 setgray
gsave
212.4 158.3 53.09 248.9 clipbox
144.232 248.898 m
144.232 404.131 l
stroke
grestore
0.700 setlinewidth
2 setlinecap
[] 0 setdash
0.000 0.000 1.000 setrgbcolor
gsave
212.4 158.3 53.09 248.9 clipbox
125.621 248.898 m
125.621 341.625 l
stroke
grestore
gsave
212.4 158.3 53.09 248.9 clipbox
162.78 248.898 m
162.78 342.582 l
stroke
grestore
2.000 setlinewidth
0.000 setgray
gsave
212.4 158.3 53.09 248.9 clipbox
53.0906 248.908 m
56.2762 248.91 l
59.4617 248.914 l
62.6473 248.924 l
65.8328 248.941 l
69.0184 248.972 l
72.2039 249.026 l
75.3895 249.12 l
78.575 249.277 l
81.7606 249.539 l
84.9461 249.964 l
88.1316 250.639 l
91.3172 251.686 l
94.5027 253.268 l
97.6883 255.596 l
100.874 258.921 l
104.059 263.528 l
107.245 269.71 l
110.43 277.727 l
113.616 287.756 l
116.802 299.832 l
119.987 313.785 l
123.173 329.2 l
126.358 345.401 l
129.544 361.48 l
132.729 376.364 l
135.915 388.934 l
139.1 398.164 l
142.286 403.261 l
145.472 403.778 l
148.657 399.684 l
151.843 391.365 l
155.028 379.562 l
158.214 365.261 l
161.399 349.554 l
164.585 333.507 l
167.77 318.041 l
170.956 303.86 l
174.141 291.42 l
177.327 280.937 l
180.513 272.423 l
183.698 265.744 l
186.884 260.671 l
190.069 256.934 l
193.255 254.26 l
196.44 252.398 l
199.626 251.135 l
202.811 250.299 l
205.997 249.759 l
209.182 249.417 l
212.368 249.206 l
215.554 249.077 l
218.739 249.001 l
221.925 248.956 l
225.11 248.931 l
228.296 248.916 l
231.481 248.908 l
234.667 248.903 l
237.852 248.901 l
241.038 248.9 l
244.223 248.899 l
247.409 248.899 l
250.595 248.898 l
253.78 248.898 l
256.966 248.898 l
260.151 248.898 l
263.337 248.898 l
stroke
grestore
0.500 setlinewidth
0 setlinecap
gsave
/o {
gsave
newpath
translate
0.5 setlinewidth
1 setlinejoin
0 setlinecap
0 0 m
0 4 l
gsave
0.000 setgray
fill
grestore
stroke
grestore
} bind def
53.0906 248.898 o
grestore
gsave
/o {
gsave
newpath
translate
0.5 setlinewidth
1 setlinejoin
0 setlinecap
0 0 m
0 -4 l
gsave
0.000 setgray
fill
grestore
stroke
grestore
} bind def
53.0906 407.208 o
grestore
/BitstreamVeraSans-Roman findfont
12.000 scalefont
setfont
gsave
50.067188 235.820000 translate
0.000000 rotate
0.000000 0.171875 m /zero glyphshow
grestore
gsave
/o {
gsave
newpath
translate
0.5 setlinewidth
1 setlinejoin
0 setlinecap
0 0 m
0 4 l
gsave
0.000 setgray
fill
grestore
stroke
grestore
} bind def
106.183 248.898 o
grestore
gsave
/o {
gsave
newpath
translate
0.5 setlinewidth
1 setlinejoin
0 setlinecap
0 0 m
0 -4 l
gsave
0.000 setgray
fill
grestore
stroke
grestore
} bind def
106.183 407.208 o
grestore
gsave
99.401836 235.820000 translate
0.000000 rotate
0.000000 0.171875 m /five glyphshow
7.634766 0.171875 m /zero glyphshow
grestore
gsave
/o {
gsave
newpath
translate
0.5 setlinewidth
1 setlinejoin
0 setlinecap
0 0 m
0 4 l
gsave
0.000 setgray
fill
grestore
stroke
grestore
} bind def
159.276 248.898 o
grestore
gsave
/o {
gsave
newpath
translate
0.5 setlinewidth
1 setlinejoin
0 setlinecap
0 0 m
0 -4 l
gsave
0.000 setgray
fill
grestore
stroke
grestore
} bind def
159.276 407.208 o
grestore
gsave
148.869297 235.820000 translate
0.000000 rotate
0.000000 0.171875 m /one glyphshow
7.634766 0.171875 m /zero glyphshow
15.269531 0.171875 m /zero glyphshow
grestore
gsave
/o {
gsave
newpath
translate
0.5 setlinewidth
1 setlinejoin
0 setlinecap
0 0 m
0 4 l
gsave
0.000 setgray
fill
grestore
stroke
grestore
} bind def
212.368 248.898 o
grestore
gsave
/o {
gsave
newpath
translate
0.5 setlinewidth
1 setlinejoin
0 setlinecap
0 0 m
0 -4 l
gsave
0.000 setgray
fill
grestore
stroke
grestore
} bind def
212.368 407.208 o
grestore
gsave
201.961758 235.820000 translate
0.000000 rotate
0.000000 0.171875 m /one glyphshow
7.634766 0.171875 m /five glyphshow
15.269531 0.171875 m /zero glyphshow
grestore
gsave
/o {
gsave
newpath
translate
0.5 setlinewidth
1 setlinejoin
0 setlinecap
0 0 m
0 4 l
gsave
0.000 setgray
fill
grestore
stroke
grestore
} bind def
265.46 248.898 o
grestore
gsave
/o {
gsave
newpath
translate
0.5 setlinewidth
1 setlinejoin
0 setlinecap
0 0 m
0 -4 l
gsave
0.000 setgray
fill
grestore
stroke
grestore
} bind def
265.46 407.208 o
grestore
gsave
254.835470 235.820000 translate
0.000000 rotate
0.000000 0.171875 m /two glyphshow
7.634766 0.171875 m /zero glyphshow
15.269531 0.171875 m /zero glyphshow
grestore
gsave
127.275547 217.820000 translate
0.000000 rotate
/Cmmi10 findfont
12.0 scalefont
setfont
0.000000 2.298125 moveto
/A glyphshow

/BitstreamVeraSans-Roman findfont
12.0 scalefont
setfont
9.000000 2.298125 moveto
/space glyphshow

12.814453 2.298125 moveto
/bracketleft glyphshow

17.496094 2.298125 moveto
/k glyphshow

24.445312 2.298125 moveto
/m glyphshow

36.134766 2.298125 moveto
/space glyphshow

39.949219 2.298125 moveto
/s glyphshow

/Cmsy10 findfont
8.4 scalefont
setfont
46.201172 7.400000 moveto
/minus glyphshow

/Cmr10 findfont
8.4 scalefont
setfont
52.726758 7.400000 moveto
/one glyphshow

/BitstreamVeraSans-Roman findfont
12.0 scalefont
setfont
58.967508 2.298125 moveto
/bracketright glyphshow


grestore
gsave
/o {
gsave
newpath
translate
0.5 setlinewidth
1 setlinejoin
0 setlinecap
0 0 m
4 0 l
gsave
0.000 setgray
fill
grestore
stroke
grestore
} bind def
53.0906 248.898 o
grestore
gsave
/o {
gsave
newpath
translate
0.5 setlinewidth
1 setlinejoin
0 setlinecap
0 0 m
-4 0 l
gsave
0.000 setgray
fill
grestore
stroke
grestore
} bind def
265.46 248.898 o
grestore
gsave
23.950000 244.359063 translate
0.000000 rotate
0.000000 0.171875 m /zero glyphshow
7.634766 0.171875 m /period glyphshow
11.449219 0.171875 m /zero glyphshow
19.083984 0.171875 m /zero glyphshow
grestore
gsave
/o {
gsave
newpath
translate
0.5 setlinewidth
1 setlinejoin
0 setlinecap
0 0 m
4 0 l
gsave
0.000 setgray
fill
grestore
stroke
grestore
} bind def
53.0906 271.514 o
grestore
gsave
/o {
gsave
newpath
translate
0.5 setlinewidth
1 setlinejoin
0 setlinecap
0 0 m
-4 0 l
gsave
0.000 setgray
fill
grestore
stroke
grestore
} bind def
265.46 271.514 o
grestore
gsave
24.262500 266.974777 translate
0.000000 rotate
0.000000 0.171875 m /zero glyphshow
7.634766 0.171875 m /period glyphshow
11.449219 0.171875 m /zero glyphshow
19.083984 0.171875 m /one glyphshow
grestore
gsave
/o {
gsave
newpath
translate
0.5 setlinewidth
1 setlinejoin
0 setlinecap
0 0 m
4 0 l
gsave
0.000 setgray
fill
grestore
stroke
grestore
} bind def
53.0906 294.13 o
grestore
gsave
/o {
gsave
newpath
translate
0.5 setlinewidth
1 setlinejoin
0 setlinecap
0 0 m
-4 0 l
gsave
0.000 setgray
fill
grestore
stroke
grestore
} bind def
265.46 294.13 o
grestore
gsave
24.356250 289.590491 translate
0.000000 rotate
0.000000 0.171875 m /zero glyphshow
7.634766 0.171875 m /period glyphshow
11.449219 0.171875 m /zero glyphshow
19.083984 0.171875 m /two glyphshow
grestore
gsave
/o {
gsave
newpath
translate
0.5 setlinewidth
1 setlinejoin
0 setlinecap
0 0 m
4 0 l
gsave
0.000 setgray
fill
grestore
stroke
grestore
} bind def
53.0906 316.745 o
grestore
gsave
/o {
gsave
newpath
translate
0.5 setlinewidth
1 setlinejoin
0 setlinecap
0 0 m
-4 0 l
gsave
0.000 setgray
fill
grestore
stroke
grestore
} bind def
265.46 316.745 o
grestore
gsave
24.121875 312.206205 translate
0.000000 rotate
0.000000 0.171875 m /zero glyphshow
7.634766 0.171875 m /period glyphshow
11.449219 0.171875 m /zero glyphshow
19.083984 0.171875 m /three glyphshow
grestore
gsave
/o {
gsave
newpath
translate
0.5 setlinewidth
1 setlinejoin
0 setlinecap
0 0 m
4 0 l
gsave
0.000 setgray
fill
grestore
stroke
grestore
} bind def
53.0906 339.361 o
grestore
gsave
/o {
gsave
newpath
translate
0.5 setlinewidth
1 setlinejoin
0 setlinecap
0 0 m
-4 0 l
gsave
0.000 setgray
fill
grestore
stroke
grestore
} bind def
265.46 339.361 o
grestore
gsave
23.825000 334.821920 translate
0.000000 rotate
0.000000 0.171875 m /zero glyphshow
7.634766 0.171875 m /period glyphshow
11.449219 0.171875 m /zero glyphshow
19.083984 0.171875 m /four glyphshow
grestore
gsave
/o {
gsave
newpath
translate
0.5 setlinewidth
1 setlinejoin
0 setlinecap
0 0 m
4 0 l
gsave
0.000 setgray
fill
grestore
stroke
grestore
} bind def
53.0906 361.977 o
grestore
gsave
/o {
gsave
newpath
translate
0.5 setlinewidth
1 setlinejoin
0 setlinecap
0 0 m
-4 0 l
gsave
0.000 setgray
fill
grestore
stroke
grestore
} bind def
265.46 361.977 o
grestore
gsave
24.200000 357.437634 translate
0.000000 rotate
0.000000 0.171875 m /zero glyphshow
7.634766 0.171875 m /period glyphshow
11.449219 0.171875 m /zero glyphshow
19.083984 0.171875 m /five glyphshow
grestore
gsave
/o {
gsave
newpath
translate
0.5 setlinewidth
1 setlinejoin
0 setlinecap
0 0 m
4 0 l
gsave
0.000 setgray
fill
grestore
stroke
grestore
} bind def
53.0906 384.592 o
grestore
gsave
/o {
gsave
newpath
translate
0.5 setlinewidth
1 setlinejoin
0 setlinecap
0 0 m
-4 0 l
gsave
0.000 setgray
fill
grestore
stroke
grestore
} bind def
265.46 384.592 o
grestore
gsave
23.918750 380.053348 translate
0.000000 rotate
0.000000 0.171875 m /zero glyphshow
7.634766 0.171875 m /period glyphshow
11.449219 0.171875 m /zero glyphshow
19.083984 0.171875 m /six glyphshow
grestore
gsave
/o {
gsave
newpath
translate
0.5 setlinewidth
1 setlinejoin
0 setlinecap
0 0 m
4 0 l
gsave
0.000 setgray
fill
grestore
stroke
grestore
} bind def
53.0906 407.208 o
grestore
gsave
/o {
gsave
newpath
translate
0.5 setlinewidth
1 setlinejoin
0 setlinecap
0 0 m
-4 0 l
gsave
0.000 setgray
fill
grestore
stroke
grestore
} bind def
265.46 407.208 o
grestore
gsave
24.184375 402.669063 translate
0.000000 rotate
0.000000 0.171875 m /zero glyphshow
7.634766 0.171875 m /period glyphshow
11.449219 0.171875 m /zero glyphshow
19.083984 0.171875 m /seven glyphshow
grestore
gsave
18.825000 267.748438 translate
90.000000 rotate
0.000000 2.500000 m /P glyphshow
6.861328 2.500000 m /o glyphshow
14.203125 2.500000 m /s glyphshow
20.455078 2.500000 m /t glyphshow
25.160156 2.500000 m /e glyphshow
32.542969 2.500000 m /r glyphshow
37.476562 2.500000 m /i glyphshow
40.810547 2.500000 m /o glyphshow
48.152344 2.500000 m /r glyphshow
53.085938 2.500000 m /space glyphshow
56.900391 2.500000 m /p glyphshow
64.517578 2.500000 m /r glyphshow
69.201172 2.500000 m /o glyphshow
76.542969 2.500000 m /b glyphshow
84.160156 2.500000 m /a glyphshow
91.513672 2.500000 m /b glyphshow
99.130859 2.500000 m /i glyphshow
102.464844 2.500000 m /l glyphshow
105.798828 2.500000 m /i glyphshow
109.132812 2.500000 m /t glyphshow
113.837891 2.500000 m /y glyphshow
grestore
1.000 setlinewidth
2 setlinecap
gsave
53.0906 407.208 m
265.46 407.208 l
stroke
grestore
gsave
265.46 248.898 m
265.46 407.208 l
stroke
grestore
gsave
53.0906 248.898 m
265.46 248.898 l
stroke
grestore
gsave
53.0906 248.898 m
53.0906 407.208 l
stroke
grestore
gsave
334.98 248.898 m
547.35 248.898 l
547.35 407.208 l
334.98 407.208 l
cl
1.000 setgray
fill
grestore
0.900 setlinewidth
0 setlinecap
[1 3] 0 setdash
gsave
212.4 158.3 335 248.9 clipbox
519.903 248.898 m
519.903 380.355 l
stroke
grestore
0.700 setlinewidth
2 setlinecap
[] 0 setdash
0.000 0.000 1.000 setrgbcolor
gsave
212.4 158.3 335 248.9 clipbox
513.266 248.898 m
513.266 321.554 l
stroke
grestore
gsave
212.4 158.3 335 248.9 clipbox
526.408 248.898 m
526.408 329.02 l
stroke
grestore
2.000 setlinewidth
0.000 setgray
gsave
212.4 158.3 335 248.9 clipbox
334.98 249.425 m
338.351 249.101 l
341.722 248.978 l
345.093 248.931 l
348.464 248.912 l
351.835 248.905 l
355.206 248.901 l
358.576 248.9 l
361.947 248.899 l
365.318 248.899 l
368.689 248.899 l
372.06 248.898 l
375.431 248.898 l
378.802 248.898 l
382.173 248.898 l
385.544 248.898 l
388.915 248.898 l
392.286 248.898 l
395.657 248.898 l
399.028 248.898 l
402.399 248.898 l
405.77 248.898 l
409.141 248.898 l
412.512 248.898 l
415.883 248.898 l
419.254 248.898 l
422.625 248.898 l
425.995 248.898 l
429.366 248.898 l
432.737 248.898 l
436.108 248.898 l
439.479 248.898 l
442.85 248.898 l
446.221 248.898 l
449.592 248.898 l
452.963 248.898 l
456.334 248.898 l
459.705 248.898 l
463.076 248.898 l
466.447 248.898 l
469.818 248.898 l
473.189 248.898 l
476.56 248.899 l
479.931 248.899 l
483.302 248.899 l
486.673 248.901 l
490.044 248.908 l
493.414 248.935 l
496.785 249.067 l
500.156 249.696 l
503.527 252.411 l
506.898 261.853 l
510.269 285.843 l
513.64 326.524 l
517.011 366.924 l
520.382 379.968 l
523.753 358.459 l
527.124 320.865 l
530.495 287.886 l
533.866 267.168 l
537.237 256.631 l
540.608 251.967 l
543.979 250.076 l
547.35 249.346 l
stroke
grestore
0.500 setlinewidth
0 setlinecap
gsave
/o {
gsave
newpath
translate
0.5 setlinewidth
1 setlinejoin
0 setlinecap
0 0 m
0 4 l
gsave
0.000 setgray
fill
grestore
stroke
grestore
} bind def
334.98 248.898 o
grestore
gsave
/o {
gsave
newpath
translate
0.5 setlinewidth
1 setlinejoin
0 setlinecap
0 0 m
0 -4 l
gsave
0.000 setgray
fill
grestore
stroke
grestore
} bind def
334.98 407.208 o
grestore
gsave
319.518907 235.820000 translate
0.000000 rotate
0.000000 0.171875 m /minus glyphshow
10.054688 0.171875 m /one glyphshow
17.689453 0.171875 m /eight glyphshow
25.324219 0.171875 m /zero glyphshow
grestore
gsave
/o {
gsave
newpath
translate
0.5 setlinewidth
1 setlinejoin
0 setlinecap
0 0 m
0 4 l
gsave
0.000 setgray
fill
grestore
stroke
grestore
} bind def
387.931 248.898 o
grestore
gsave
/o {
gsave
newpath
translate
0.5 setlinewidth
1 setlinejoin
0 setlinecap
0 0 m
0 -4 l
gsave
0.000 setgray
fill
grestore
stroke
grestore
} bind def
387.931 407.208 o
grestore
gsave
376.289977 235.820000 translate
0.000000 rotate
0.000000 0.171875 m /minus glyphshow
10.054688 0.171875 m /nine glyphshow
17.689453 0.171875 m /zero glyphshow
grestore
gsave
/o {
gsave
newpath
translate
0.5 setlinewidth
1 setlinejoin
0 setlinecap
0 0 m
0 4 l
gsave
0.000 setgray
fill
grestore
stroke
grestore
} bind def
440.881 248.898 o
grestore
gsave
/o {
gsave
newpath
translate
0.5 setlinewidth
1 setlinejoin
0 setlinecap
0 0 m
0 -4 l
gsave
0.000 setgray
fill
grestore
stroke
grestore
} bind def
440.881 407.208 o
grestore
gsave
437.857922 235.820000 translate
0.000000 rotate
0.000000 0.171875 m /zero glyphshow
grestore
gsave
/o {
gsave
newpath
translate
0.5 setlinewidth
1 setlinejoin
0 setlinecap
0 0 m
0 4 l
gsave
0.000 setgray
fill
grestore
stroke
grestore
} bind def
493.832 248.898 o
grestore
gsave
/o {
gsave
newpath
translate
0.5 setlinewidth
1 setlinejoin
0 setlinecap
0 0 m
0 -4 l
gsave
0.000 setgray
fill
grestore
stroke
grestore
} bind def
493.832 407.208 o
grestore
gsave
486.964929 235.820000 translate
0.000000 rotate
0.000000 0.171875 m /nine glyphshow
7.634766 0.171875 m /zero glyphshow
grestore
gsave
/o {
gsave
newpath
translate
0.5 setlinewidth
1 setlinejoin
0 setlinecap
0 0 m
0 4 l
gsave
0.000 setgray
fill
grestore
stroke
grestore
} bind def
546.783 248.898 o
grestore
gsave
/o {
gsave
newpath
translate
0.5 setlinewidth
1 setlinejoin
0 setlinecap
0 0 m
0 -4 l
gsave
0.000 setgray
fill
grestore
stroke
grestore
} bind def
546.783 407.208 o
grestore
gsave
536.376624 235.820000 translate
0.000000 rotate
0.000000 0.171875 m /one glyphshow
7.634766 0.171875 m /eight glyphshow
15.269531 0.171875 m /zero glyphshow
grestore
gsave
418.164767 216.820000 translate
0.000000 rotate
/Cmmi10 findfont
12.0 scalefont
setfont
0.000000 4.875000 moveto
/theta glyphshow

/Cmr10 findfont
8.4 scalefont
setfont
5.630859 1.813875 moveto
/zero glyphshow

/BitstreamVeraSans-Roman findfont
12.0 scalefont
setfont
9.830859 4.875000 moveto
/space glyphshow

13.645312 4.875000 moveto
/bracketleft glyphshow

18.326953 4.875000 moveto
/d glyphshow

25.944141 4.875000 moveto
/e glyphshow

33.326953 4.875000 moveto
/g glyphshow

40.944141 4.875000 moveto
/bracketright glyphshow


grestore
gsave
/o {
gsave
newpath
translate
0.5 setlinewidth
1 setlinejoin
0 setlinecap
0 0 m
4 0 l
gsave
0.000 setgray
fill
grestore
stroke
grestore
} bind def
334.98 248.898 o
grestore
gsave
/o {
gsave
newpath
translate
0.5 setlinewidth
1 setlinejoin
0 setlinecap
0 0 m
-4 0 l
gsave
0.000 setgray
fill
grestore
stroke
grestore
} bind def
547.35 248.898 o
grestore
gsave
305.839220 244.359063 translate
0.000000 rotate
0.000000 0.171875 m /zero glyphshow
7.634766 0.171875 m /period glyphshow
11.449219 0.171875 m /zero glyphshow
19.083984 0.171875 m /zero glyphshow
grestore
gsave
/o {
gsave
newpath
translate
0.5 setlinewidth
1 setlinejoin
0 setlinecap
0 0 m
4 0 l
gsave
0.000 setgray
fill
grestore
stroke
grestore
} bind def
334.98 280.56 o
grestore
gsave
/o {
gsave
newpath
translate
0.5 setlinewidth
1 setlinejoin
0 setlinecap
0 0 m
-4 0 l
gsave
0.000 setgray
fill
grestore
stroke
grestore
} bind def
547.35 280.56 o
grestore
gsave
306.089220 276.021063 translate
0.000000 rotate
0.000000 0.171875 m /zero glyphshow
7.634766 0.171875 m /period glyphshow
11.449219 0.171875 m /zero glyphshow
19.083984 0.171875 m /five glyphshow
grestore
gsave
/o {
gsave
newpath
translate
0.5 setlinewidth
1 setlinejoin
0 setlinecap
0 0 m
4 0 l
gsave
0.000 setgray
fill
grestore
stroke
grestore
} bind def
334.98 312.222 o
grestore
gsave
/o {
gsave
newpath
translate
0.5 setlinewidth
1 setlinejoin
0 setlinecap
0 0 m
-4 0 l
gsave
0.000 setgray
fill
grestore
stroke
grestore
} bind def
547.35 312.222 o
grestore
gsave
305.839220 307.683063 translate
0.000000 rotate
0.000000 0.171875 m /zero glyphshow
7.634766 0.171875 m /period glyphshow
11.449219 0.171875 m /one glyphshow
19.083984 0.171875 m /zero glyphshow
grestore
gsave
/o {
gsave
newpath
translate
0.5 setlinewidth
1 setlinejoin
0 setlinecap
0 0 m
4 0 l
gsave
0.000 setgray
fill
grestore
stroke
grestore
} bind def
334.98 343.884 o
grestore
gsave
/o {
gsave
newpath
translate
0.5 setlinewidth
1 setlinejoin
0 setlinecap
0 0 m
-4 0 l
gsave
0.000 setgray
fill
grestore
stroke
grestore
} bind def
547.35 343.884 o
grestore
gsave
306.089220 339.345063 translate
0.000000 rotate
0.000000 0.171875 m /zero glyphshow
7.634766 0.171875 m /period glyphshow
11.449219 0.171875 m /one glyphshow
19.083984 0.171875 m /five glyphshow
grestore
gsave
/o {
gsave
newpath
translate
0.5 setlinewidth
1 setlinejoin
0 setlinecap
0 0 m
4 0 l
gsave
0.000 setgray
fill
grestore
stroke
grestore
} bind def
334.98 375.546 o
grestore
gsave
/o {
gsave
newpath
translate
0.5 setlinewidth
1 setlinejoin
0 setlinecap
0 0 m
-4 0 l
gsave
0.000 setgray
fill
grestore
stroke
grestore
} bind def
547.35 375.546 o
grestore
gsave
305.839220 371.007063 translate
0.000000 rotate
0.000000 0.171875 m /zero glyphshow
7.634766 0.171875 m /period glyphshow
11.449219 0.171875 m /two glyphshow
19.083984 0.171875 m /zero glyphshow
grestore
gsave
/o {
gsave
newpath
translate
0.5 setlinewidth
1 setlinejoin
0 setlinecap
0 0 m
4 0 l
gsave
0.000 setgray
fill
grestore
stroke
grestore
} bind def
334.98 407.208 o
grestore
gsave
/o {
gsave
newpath
translate
0.5 setlinewidth
1 setlinejoin
0 setlinecap
0 0 m
-4 0 l
gsave
0.000 setgray
fill
grestore
stroke
grestore
} bind def
547.35 407.208 o
grestore
gsave
306.089220 402.669063 translate
0.000000 rotate
0.000000 0.171875 m /zero glyphshow
7.634766 0.171875 m /period glyphshow
11.449219 0.171875 m /two glyphshow
19.083984 0.171875 m /five glyphshow
grestore
gsave
300.839220 267.748438 translate
90.000000 rotate
0.000000 2.500000 m /P glyphshow
6.861328 2.500000 m /o glyphshow
14.203125 2.500000 m /s glyphshow
20.455078 2.500000 m /t glyphshow
25.160156 2.500000 m /e glyphshow
32.542969 2.500000 m /r glyphshow
37.476562 2.500000 m /i glyphshow
40.810547 2.500000 m /o glyphshow
48.152344 2.500000 m /r glyphshow
53.085938 2.500000 m /space glyphshow
56.900391 2.500000 m /p glyphshow
64.517578 2.500000 m /r glyphshow
69.201172 2.500000 m /o glyphshow
76.542969 2.500000 m /b glyphshow
84.160156 2.500000 m /a glyphshow
91.513672 2.500000 m /b glyphshow
99.130859 2.500000 m /i glyphshow
102.464844 2.500000 m /l glyphshow
105.798828 2.500000 m /i glyphshow
109.132812 2.500000 m /t glyphshow
113.837891 2.500000 m /y glyphshow
grestore
1.000 setlinewidth
2 setlinecap
gsave
334.98 407.208 m
547.35 407.208 l
stroke
grestore
gsave
547.35 248.898 m
547.35 407.208 l
stroke
grestore
gsave
334.98 248.898 m
547.35 248.898 l
stroke
grestore
gsave
334.98 248.898 m
334.98 407.208 l
stroke
grestore
gsave
53.0906 40.2781 m
265.46 40.2781 l
265.46 198.588 l
53.0906 198.588 l
cl
1.000 setgray
fill
grestore
0.900 setlinewidth
0 setlinecap
[1 3] 0 setdash
gsave
212.4 158.3 53.09 40.28 clipbox
114.288 40.2781 m
114.288 175.328 l
stroke
grestore
0.700 setlinewidth
2 setlinecap
[] 0 setdash
0.000 0.000 1.000 setrgbcolor
gsave
212.4 158.3 53.09 40.28 clipbox
100.399 40.2781 m
100.399 160.805 l
stroke
grestore
gsave
212.4 158.3 53.09 40.28 clipbox
135.001 40.2781 m
135.001 89.745 l
stroke
grestore
2.000 setlinewidth
0.000 setgray
gsave
212.4 158.3 53.09 40.28 clipbox
53.0906 40.2781 m
56.6301 40.2781 l
60.1696 40.2781 l
63.7091 40.2792 l
67.2486 40.2984 l
70.7881 40.4546 l
74.3276 41.2114 l
77.8671 43.7201 l
81.4066 49.8783 l
84.9461 61.6736 l
88.4856 79.9792 l
92.0251 103.623 l
95.5646 129.444 l
99.1041 153.327 l
102.644 171.566 l
106.183 181.879 l
109.723 183.74 l
113.262 178.108 l
116.802 166.843 l
120.341 152.099 l
123.881 135.865 l
127.42 119.711 l
130.96 104.707 l
134.499 91.4616 l
138.039 80.2205 l
141.578 70.975 l
145.118 63.5625 l
148.657 57.7431 l
152.197 53.2535 l
155.736 49.84 l
159.276 47.2762 l
162.815 45.3703 l
166.355 43.9655 l
169.894 42.9377 l
173.434 42.1901 l
176.973 41.6491 l
180.513 41.2591 l
184.052 40.979 l
187.592 40.7783 l
191.131 40.6349 l
194.671 40.5324 l
198.21 40.4594 l
201.75 40.4074 l
205.289 40.3703 l
208.829 40.3439 l
212.368 40.3251 l
215.908 40.3117 l
219.447 40.3022 l
222.987 40.2953 l
226.526 40.2905 l
230.065 40.287 l
233.605 40.2845 l
237.144 40.2827 l
240.684 40.2814 l
244.223 40.2805 l
247.763 40.2798 l
251.302 40.2793 l
254.842 40.279 l
258.381 40.2787 l
261.921 40.2785 l
stroke
grestore
0.500 setlinewidth
0 setlinecap
gsave
/o {
gsave
newpath
translate
0.5 setlinewidth
1 setlinejoin
0 setlinecap
0 0 m
0 4 l
gsave
0.000 setgray
fill
grestore
stroke
grestore
} bind def
53.0906 40.2781 o
grestore
gsave
/o {
gsave
newpath
translate
0.5 setlinewidth
1 setlinejoin
0 setlinecap
0 0 m
0 -4 l
gsave
0.000 setgray
fill
grestore
stroke
grestore
} bind def
53.0906 198.588 o
grestore
gsave
46.309375 27.200000 translate
0.000000 rotate
0.000000 0.171875 m /five glyphshow
7.634766 0.171875 m /zero glyphshow
grestore
gsave
/o {
gsave
newpath
translate
0.5 setlinewidth
1 setlinejoin
0 setlinecap
0 0 m
0 4 l
gsave
0.000 setgray
fill
grestore
stroke
grestore
} bind def
88.4856 40.2781 o
grestore
gsave
/o {
gsave
newpath
translate
0.5 setlinewidth
1 setlinejoin
0 setlinecap
0 0 m
0 -4 l
gsave
0.000 setgray
fill
grestore
stroke
grestore
} bind def
88.4856 198.588 o
grestore
gsave
78.079349 27.200000 translate
0.000000 rotate
0.000000 0.171875 m /one glyphshow
7.634766 0.171875 m /zero glyphshow
15.269531 0.171875 m /zero glyphshow
grestore
gsave
/o {
gsave
newpath
translate
0.5 setlinewidth
1 setlinejoin
0 setlinecap
0 0 m
0 4 l
gsave
0.000 setgray
fill
grestore
stroke
grestore
} bind def
123.881 40.2781 o
grestore
gsave
/o {
gsave
newpath
translate
0.5 setlinewidth
1 setlinejoin
0 setlinecap
0 0 m
0 -4 l
gsave
0.000 setgray
fill
grestore
stroke
grestore
} bind def
123.881 198.588 o
grestore
gsave
113.474323 27.200000 translate
0.000000 rotate
0.000000 0.171875 m /one glyphshow
7.634766 0.171875 m /five glyphshow
15.269531 0.171875 m /zero glyphshow
grestore
gsave
/o {
gsave
newpath
translate
0.5 setlinewidth
1 setlinejoin
0 setlinecap
0 0 m
0 4 l
gsave
0.000 setgray
fill
grestore
stroke
grestore
} bind def
159.276 40.2781 o
grestore
gsave
/o {
gsave
newpath
translate
0.5 setlinewidth
1 setlinejoin
0 setlinecap
0 0 m
0 -4 l
gsave
0.000 setgray
fill
grestore
stroke
grestore
} bind def
159.276 198.588 o
grestore
gsave
148.650547 27.200000 translate
0.000000 rotate
0.000000 0.171875 m /two glyphshow
7.634766 0.171875 m /zero glyphshow
15.269531 0.171875 m /zero glyphshow
grestore
gsave
/o {
gsave
newpath
translate
0.5 setlinewidth
1 setlinejoin
0 setlinecap
0 0 m
0 4 l
gsave
0.000 setgray
fill
grestore
stroke
grestore
} bind def
194.671 40.2781 o
grestore
gsave
/o {
gsave
newpath
translate
0.5 setlinewidth
1 setlinejoin
0 setlinecap
0 0 m
0 -4 l
gsave
0.000 setgray
fill
grestore
stroke
grestore
} bind def
194.671 198.588 o
grestore
gsave
184.045521 27.200000 translate
0.000000 rotate
0.000000 0.171875 m /two glyphshow
7.634766 0.171875 m /five glyphshow
15.269531 0.171875 m /zero glyphshow
grestore
gsave
/o {
gsave
newpath
translate
0.5 setlinewidth
1 setlinejoin
0 setlinecap
0 0 m
0 4 l
gsave
0.000 setgray
fill
grestore
stroke
grestore
} bind def
230.065 40.2781 o
grestore
gsave
/o {
gsave
newpath
translate
0.5 setlinewidth
1 setlinejoin
0 setlinecap
0 0 m
0 -4 l
gsave
0.000 setgray
fill
grestore
stroke
grestore
} bind def
230.065 198.588 o
grestore
gsave
219.463933 27.200000 translate
0.000000 rotate
0.000000 0.171875 m /three glyphshow
7.634766 0.171875 m /zero glyphshow
15.269531 0.171875 m /zero glyphshow
grestore
gsave
/o {
gsave
newpath
translate
0.5 setlinewidth
1 setlinejoin
0 setlinecap
0 0 m
0 4 l
gsave
0.000 setgray
fill
grestore
stroke
grestore
} bind def
265.46 40.2781 o
grestore
gsave
/o {
gsave
newpath
translate
0.5 setlinewidth
1 setlinejoin
0 setlinecap
0 0 m
0 -4 l
gsave
0.000 setgray
fill
grestore
stroke
grestore
} bind def
265.46 198.588 o
grestore
gsave
254.858907 27.200000 translate
0.000000 rotate
0.000000 0.171875 m /three glyphshow
7.634766 0.171875 m /five glyphshow
15.269531 0.171875 m /zero glyphshow
grestore
gsave
126.275547 7.200000 translate
0.000000 rotate
/Cmmi10 findfont
12.0 scalefont
setfont
0.000000 4.298125 moveto
/sigma glyphshow

/Cmr10 findfont
8.4 scalefont
setfont
6.849609 1.237000 moveto
/zero glyphshow

/BitstreamVeraSans-Roman findfont
12.0 scalefont
setfont
11.049609 4.298125 moveto
/space glyphshow

14.864062 4.298125 moveto
/bracketleft glyphshow

19.545703 4.298125 moveto
/k glyphshow

26.494922 4.298125 moveto
/m glyphshow

38.184375 4.298125 moveto
/space glyphshow

41.998828 4.298125 moveto
/s glyphshow

/Cmsy10 findfont
8.4 scalefont
setfont
48.250781 9.400000 moveto
/minus glyphshow

/Cmr10 findfont
8.4 scalefont
setfont
54.776367 9.400000 moveto
/one glyphshow

/BitstreamVeraSans-Roman findfont
12.0 scalefont
setfont
61.017117 4.298125 moveto
/bracketright glyphshow


grestore
gsave
/o {
gsave
newpath
translate
0.5 setlinewidth
1 setlinejoin
0 setlinecap
0 0 m
4 0 l
gsave
0.000 setgray
fill
grestore
stroke
grestore
} bind def
53.0906 40.2781 o
grestore
gsave
/o {
gsave
newpath
translate
0.5 setlinewidth
1 setlinejoin
0 setlinecap
0 0 m
-4 0 l
gsave
0.000 setgray
fill
grestore
stroke
grestore
} bind def
265.46 40.2781 o
grestore
gsave
23.950000 35.739063 translate
0.000000 rotate
0.000000 0.171875 m /zero glyphshow
7.634766 0.171875 m /period glyphshow
11.449219 0.171875 m /zero glyphshow
19.083984 0.171875 m /zero glyphshow
grestore
gsave
/o {
gsave
newpath
translate
0.5 setlinewidth
1 setlinejoin
0 setlinecap
0 0 m
4 0 l
gsave
0.000 setgray
fill
grestore
stroke
grestore
} bind def
53.0906 71.9401 o
grestore
gsave
/o {
gsave
newpath
translate
0.5 setlinewidth
1 setlinejoin
0 setlinecap
0 0 m
-4 0 l
gsave
0.000 setgray
fill
grestore
stroke
grestore
} bind def
265.46 71.9401 o
grestore
gsave
24.356250 67.401062 translate
0.000000 rotate
0.000000 0.171875 m /zero glyphshow
7.634766 0.171875 m /period glyphshow
11.449219 0.171875 m /zero glyphshow
19.083984 0.171875 m /two glyphshow
grestore
gsave
/o {
gsave
newpath
translate
0.5 setlinewidth
1 setlinejoin
0 setlinecap
0 0 m
4 0 l
gsave
0.000 setgray
fill
grestore
stroke
grestore
} bind def
53.0906 103.602 o
grestore
gsave
/o {
gsave
newpath
translate
0.5 setlinewidth
1 setlinejoin
0 setlinecap
0 0 m
-4 0 l
gsave
0.000 setgray
fill
grestore
stroke
grestore
} bind def
265.46 103.602 o
grestore
gsave
23.825000 99.063063 translate
0.000000 rotate
0.000000 0.171875 m /zero glyphshow
7.634766 0.171875 m /period glyphshow
11.449219 0.171875 m /zero glyphshow
19.083984 0.171875 m /four glyphshow
grestore
gsave
/o {
gsave
newpath
translate
0.5 setlinewidth
1 setlinejoin
0 setlinecap
0 0 m
4 0 l
gsave
0.000 setgray
fill
grestore
stroke
grestore
} bind def
53.0906 135.264 o
grestore
gsave
/o {
gsave
newpath
translate
0.5 setlinewidth
1 setlinejoin
0 setlinecap
0 0 m
-4 0 l
gsave
0.000 setgray
fill
grestore
stroke
grestore
} bind def
265.46 135.264 o
grestore
gsave
23.918750 130.725062 translate
0.000000 rotate
0.000000 0.171875 m /zero glyphshow
7.634766 0.171875 m /period glyphshow
11.449219 0.171875 m /zero glyphshow
19.083984 0.171875 m /six glyphshow
grestore
gsave
/o {
gsave
newpath
translate
0.5 setlinewidth
1 setlinejoin
0 setlinecap
0 0 m
4 0 l
gsave
0.000 setgray
fill
grestore
stroke
grestore
} bind def
53.0906 166.926 o
grestore
gsave
/o {
gsave
newpath
translate
0.5 setlinewidth
1 setlinejoin
0 setlinecap
0 0 m
-4 0 l
gsave
0.000 setgray
fill
grestore
stroke
grestore
} bind def
265.46 166.926 o
grestore
gsave
23.981250 162.387063 translate
0.000000 rotate
0.000000 0.171875 m /zero glyphshow
7.634766 0.171875 m /period glyphshow
11.449219 0.171875 m /zero glyphshow
19.083984 0.171875 m /eight glyphshow
grestore
gsave
/o {
gsave
newpath
translate
0.5 setlinewidth
1 setlinejoin
0 setlinecap
0 0 m
4 0 l
gsave
0.000 setgray
fill
grestore
stroke
grestore
} bind def
53.0906 198.588 o
grestore
gsave
/o {
gsave
newpath
translate
0.5 setlinewidth
1 setlinejoin
0 setlinecap
0 0 m
-4 0 l
gsave
0.000 setgray
fill
grestore
stroke
grestore
} bind def
265.46 198.588 o
grestore
gsave
23.950000 194.049062 translate
0.000000 rotate
0.000000 0.171875 m /zero glyphshow
7.634766 0.171875 m /period glyphshow
11.449219 0.171875 m /one glyphshow
19.083984 0.171875 m /zero glyphshow
grestore
gsave
18.825000 59.128438 translate
90.000000 rotate
0.000000 2.500000 m /P glyphshow
6.861328 2.500000 m /o glyphshow
14.203125 2.500000 m /s glyphshow
20.455078 2.500000 m /t glyphshow
25.160156 2.500000 m /e glyphshow
32.542969 2.500000 m /r glyphshow
37.476562 2.500000 m /i glyphshow
40.810547 2.500000 m /o glyphshow
48.152344 2.500000 m /r glyphshow
53.085938 2.500000 m /space glyphshow
56.900391 2.500000 m /p glyphshow
64.517578 2.500000 m /r glyphshow
69.201172 2.500000 m /o glyphshow
76.542969 2.500000 m /b glyphshow
84.160156 2.500000 m /a glyphshow
91.513672 2.500000 m /b glyphshow
99.130859 2.500000 m /i glyphshow
102.464844 2.500000 m /l glyphshow
105.798828 2.500000 m /i glyphshow
109.132812 2.500000 m /t glyphshow
113.837891 2.500000 m /y glyphshow
grestore
1.000 setlinewidth
2 setlinecap
gsave
53.0906 198.588 m
265.46 198.588 l
stroke
grestore
gsave
265.46 40.2781 m
265.46 198.588 l
stroke
grestore
gsave
53.0906 40.2781 m
265.46 40.2781 l
stroke
grestore
gsave
53.0906 40.2781 m
53.0906 198.588 l
stroke
grestore
gsave
334.98 40.2781 m
547.35 40.2781 l
547.35 198.588 l
334.98 198.588 l
cl
1.000 setgray
fill
grestore
0.900 setlinewidth
0 setlinecap
[1 3] 0 setdash
gsave
212.4 158.3 335 40.28 clipbox
446.684 40.2781 m
446.684 185.927 l
stroke
grestore
0.700 setlinewidth
2 setlinecap
[] 0 setdash
0.000 0.000 1.000 setrgbcolor
gsave
212.4 158.3 335 40.28 clipbox
423.609 40.2781 m
423.609 127.989 l
stroke
grestore
gsave
212.4 158.3 335 40.28 clipbox
469.733 40.2781 m
469.733 128.466 l
stroke
grestore
2.000 setlinewidth
0.000 setgray
gsave
212.4 158.3 335 40.28 clipbox
334.98 40.2794 m
337.634 40.2803 l
340.289 40.282 l
342.944 40.2847 l
345.598 40.289 l
348.253 40.2958 l
350.908 40.3064 l
353.562 40.3228 l
356.217 40.3479 l
358.871 40.3856 l
361.526 40.4418 l
364.181 40.5244 l
366.835 40.6441 l
369.49 40.8157 l
372.145 41.0582 l
374.799 41.3965 l
377.454 41.862 l
380.108 42.4938 l
382.763 43.3394 l
385.418 44.4552 l
388.072 45.9065 l
390.727 47.7668 l
393.382 50.1158 l
396.036 53.0371 l
398.691 56.6142 l
401.345 60.925 l
404 66.0358 l
406.655 71.9943 l
409.309 78.8217 l
411.964 86.505 l
414.619 94.9911 l
417.273 104.181 l
419.928 113.926 l
422.582 124.032 l
425.237 134.259 l
427.892 144.33 l
430.546 153.944 l
433.201 162.788 l
435.856 170.557 l
438.51 176.967 l
441.165 181.777 l
443.819 184.801 l
446.474 185.921 l
449.129 185.096 l
451.783 182.361 l
454.438 177.83 l
457.093 171.682 l
459.747 164.155 l
462.402 155.525 l
465.056 146.095 l
467.711 136.172 l
470.366 126.053 l
473.02 116.014 l
475.675 106.294 l
478.329 97.0887 l
480.984 88.5493 l
483.639 80.7789 l
486.293 73.8362 l
488.948 67.7402 l
491.603 62.4763 l
494.257 58.0037 l
496.912 54.262 l
499.566 51.1788 l
502.221 48.6752 l
504.876 46.6712 l
507.53 45.0893 l
510.185 43.8575 l
512.84 42.9111 l
515.494 42.1933 l
518.149 41.6559 l
520.803 41.2585 l
523.458 40.9683 l
526.113 40.7588 l
528.767 40.6094 l
531.422 40.5041 l
534.077 40.4307 l
536.731 40.3801 l
539.386 40.3456 l
542.04 40.3224 l
544.695 40.3069 l
547.35 40.2966 l
stroke
grestore
0.500 setlinewidth
0 setlinecap
gsave
/o {
gsave
newpath
translate
0.5 setlinewidth
1 setlinejoin
0 setlinecap
0 0 m
0 4 l
gsave
0.000 setgray
fill
grestore
stroke
grestore
} bind def
334.98 40.2781 o
grestore
gsave
/o {
gsave
newpath
translate
0.5 setlinewidth
1 setlinejoin
0 setlinecap
0 0 m
0 -4 l
gsave
0.000 setgray
fill
grestore
stroke
grestore
} bind def
334.98 198.588 o
grestore
gsave
321.557970 27.356250 translate
0.000000 rotate
0.000000 0.171875 m /minus glyphshow
10.054688 0.171875 m /one glyphshow
17.689453 0.171875 m /period glyphshow
21.503906 0.171875 m /five glyphshow
grestore
gsave
/o {
gsave
newpath
translate
0.5 setlinewidth
1 setlinejoin
0 setlinecap
0 0 m
0 4 l
gsave
0.000 setgray
fill
grestore
stroke
grestore
} bind def
388.072 40.2781 o
grestore
gsave
/o {
gsave
newpath
translate
0.5 setlinewidth
1 setlinejoin
0 setlinecap
0 0 m
0 -4 l
gsave
0.000 setgray
fill
grestore
stroke
grestore
} bind def
388.072 198.588 o
grestore
gsave
374.525431 27.200000 translate
0.000000 rotate
0.000000 0.171875 m /minus glyphshow
10.054688 0.171875 m /one glyphshow
17.689453 0.171875 m /period glyphshow
21.503906 0.171875 m /zero glyphshow
grestore
gsave
/o {
gsave
newpath
translate
0.5 setlinewidth
1 setlinejoin
0 setlinecap
0 0 m
0 4 l
gsave
0.000 setgray
fill
grestore
stroke
grestore
} bind def
441.165 40.2781 o
grestore
gsave
/o {
gsave
newpath
translate
0.5 setlinewidth
1 setlinejoin
0 setlinecap
0 0 m
0 -4 l
gsave
0.000 setgray
fill
grestore
stroke
grestore
} bind def
441.165 198.588 o
grestore
gsave
427.742892 27.200000 translate
0.000000 rotate
0.000000 0.171875 m /minus glyphshow
10.054688 0.171875 m /zero glyphshow
17.689453 0.171875 m /period glyphshow
21.503906 0.171875 m /five glyphshow
grestore
gsave
/o {
gsave
newpath
translate
0.5 setlinewidth
1 setlinejoin
0 setlinecap
0 0 m
0 4 l
gsave
0.000 setgray
fill
grestore
stroke
grestore
} bind def
494.257 40.2781 o
grestore
gsave
/o {
gsave
newpath
translate
0.5 setlinewidth
1 setlinejoin
0 setlinecap
0 0 m
0 -4 l
gsave
0.000 setgray
fill
grestore
stroke
grestore
} bind def
494.257 198.588 o
grestore
gsave
485.507228 27.200000 translate
0.000000 rotate
0.000000 0.171875 m /zero glyphshow
7.634766 0.171875 m /period glyphshow
11.449219 0.171875 m /zero glyphshow
grestore
gsave
/o {
gsave
newpath
translate
0.5 setlinewidth
1 setlinejoin
0 setlinecap
0 0 m
0 4 l
gsave
0.000 setgray
fill
grestore
stroke
grestore
} bind def
547.35 40.2781 o
grestore
gsave
/o {
gsave
newpath
translate
0.5 setlinewidth
1 setlinejoin
0 setlinecap
0 0 m
0 -4 l
gsave
0.000 setgray
fill
grestore
stroke
grestore
} bind def
547.35 198.588 o
grestore
gsave
538.724689 27.200000 translate
0.000000 rotate
0.000000 0.171875 m /zero glyphshow
7.634766 0.171875 m /period glyphshow
11.449219 0.171875 m /five glyphshow
grestore
gsave
437.664767 13.200000 translate
0.000000 rotate
/Cmmi10 findfont
12.0 scalefont
setfont
0.000000 3.703125 moveto
/gamma glyphshow


grestore
gsave
/o {
gsave
newpath
translate
0.5 setlinewidth
1 setlinejoin
0 setlinecap
0 0 m
4 0 l
gsave
0.000 setgray
fill
grestore
stroke
grestore
} bind def
334.98 40.2781 o
grestore
gsave
/o {
gsave
newpath
translate
0.5 setlinewidth
1 setlinejoin
0 setlinecap
0 0 m
-4 0 l
gsave
0.000 setgray
fill
grestore
stroke
grestore
} bind def
547.35 40.2781 o
grestore
gsave
305.839220 35.739063 translate
0.000000 rotate
0.000000 0.171875 m /zero glyphshow
7.634766 0.171875 m /period glyphshow
11.449219 0.171875 m /zero glyphshow
19.083984 0.171875 m /zero glyphshow
grestore
gsave
/o {
gsave
newpath
translate
0.5 setlinewidth
1 setlinejoin
0 setlinecap
0 0 m
4 0 l
gsave
0.000 setgray
fill
grestore
stroke
grestore
} bind def
334.98 71.9401 o
grestore
gsave
/o {
gsave
newpath
translate
0.5 setlinewidth
1 setlinejoin
0 setlinecap
0 0 m
-4 0 l
gsave
0.000 setgray
fill
grestore
stroke
grestore
} bind def
547.35 71.9401 o
grestore
gsave
306.151720 67.401062 translate
0.000000 rotate
0.000000 0.171875 m /zero glyphshow
7.634766 0.171875 m /period glyphshow
11.449219 0.171875 m /zero glyphshow
19.083984 0.171875 m /one glyphshow
grestore
gsave
/o {
gsave
newpath
translate
0.5 setlinewidth
1 setlinejoin
0 setlinecap
0 0 m
4 0 l
gsave
0.000 setgray
fill
grestore
stroke
grestore
} bind def
334.98 103.602 o
grestore
gsave
/o {
gsave
newpath
translate
0.5 setlinewidth
1 setlinejoin
0 setlinecap
0 0 m
-4 0 l
gsave
0.000 setgray
fill
grestore
stroke
grestore
} bind def
547.35 103.602 o
grestore
gsave
306.245470 99.063063 translate
0.000000 rotate
0.000000 0.171875 m /zero glyphshow
7.634766 0.171875 m /period glyphshow
11.449219 0.171875 m /zero glyphshow
19.083984 0.171875 m /two glyphshow
grestore
gsave
/o {
gsave
newpath
translate
0.5 setlinewidth
1 setlinejoin
0 setlinecap
0 0 m
4 0 l
gsave
0.000 setgray
fill
grestore
stroke
grestore
} bind def
334.98 135.264 o
grestore
gsave
/o {
gsave
newpath
translate
0.5 setlinewidth
1 setlinejoin
0 setlinecap
0 0 m
-4 0 l
gsave
0.000 setgray
fill
grestore
stroke
grestore
} bind def
547.35 135.264 o
grestore
gsave
306.011095 130.725062 translate
0.000000 rotate
0.000000 0.171875 m /zero glyphshow
7.634766 0.171875 m /period glyphshow
11.449219 0.171875 m /zero glyphshow
19.083984 0.171875 m /three glyphshow
grestore
gsave
/o {
gsave
newpath
translate
0.5 setlinewidth
1 setlinejoin
0 setlinecap
0 0 m
4 0 l
gsave
0.000 setgray
fill
grestore
stroke
grestore
} bind def
334.98 166.926 o
grestore
gsave
/o {
gsave
newpath
translate
0.5 setlinewidth
1 setlinejoin
0 setlinecap
0 0 m
-4 0 l
gsave
0.000 setgray
fill
grestore
stroke
grestore
} bind def
547.35 166.926 o
grestore
gsave
305.714220 162.387063 translate
0.000000 rotate
0.000000 0.171875 m /zero glyphshow
7.634766 0.171875 m /period glyphshow
11.449219 0.171875 m /zero glyphshow
19.083984 0.171875 m /four glyphshow
grestore
gsave
/o {
gsave
newpath
translate
0.5 setlinewidth
1 setlinejoin
0 setlinecap
0 0 m
4 0 l
gsave
0.000 setgray
fill
grestore
stroke
grestore
} bind def
334.98 198.588 o
grestore
gsave
/o {
gsave
newpath
translate
0.5 setlinewidth
1 setlinejoin
0 setlinecap
0 0 m
-4 0 l
gsave
0.000 setgray
fill
grestore
stroke
grestore
} bind def
547.35 198.588 o
grestore
gsave
306.089220 194.049062 translate
0.000000 rotate
0.000000 0.171875 m /zero glyphshow
7.634766 0.171875 m /period glyphshow
11.449219 0.171875 m /zero glyphshow
19.083984 0.171875 m /five glyphshow
grestore
gsave
300.714220 59.128438 translate
90.000000 rotate
0.000000 2.500000 m /P glyphshow
6.861328 2.500000 m /o glyphshow
14.203125 2.500000 m /s glyphshow
20.455078 2.500000 m /t glyphshow
25.160156 2.500000 m /e glyphshow
32.542969 2.500000 m /r glyphshow
37.476562 2.500000 m /i glyphshow
40.810547 2.500000 m /o glyphshow
48.152344 2.500000 m /r glyphshow
53.085938 2.500000 m /space glyphshow
56.900391 2.500000 m /p glyphshow
64.517578 2.500000 m /r glyphshow
69.201172 2.500000 m /o glyphshow
76.542969 2.500000 m /b glyphshow
84.160156 2.500000 m /a glyphshow
91.513672 2.500000 m /b glyphshow
99.130859 2.500000 m /i glyphshow
102.464844 2.500000 m /l glyphshow
105.798828 2.500000 m /i glyphshow
109.132812 2.500000 m /t glyphshow
113.837891 2.500000 m /y glyphshow
grestore
1.000 setlinewidth
2 setlinecap
gsave
334.98 198.588 m
547.35 198.588 l
stroke
grestore
gsave
547.35 40.2781 m
547.35 198.588 l
stroke
grestore
gsave
334.98 40.2781 m
547.35 40.2781 l
stroke
grestore
gsave
334.98 40.2781 m
334.98 198.588 l
stroke
grestore

end
showpage
