%!PS-Adobe-3.0 EPSF-3.0
%%Title: /Users/Jovan/Desktop/SWCgradient.eps
%%Creator: matplotlib version 1.3.1, http://matplotlib.org/
%%CreationDate: Sun Mar 23 15:11:29 2014
%%Orientation: portrait
%%BoundingBox: 42 194 569 597
%%EndComments
%%BeginProlog
/mpldict 11 dict def
mpldict begin
/m { moveto } bind def
/l { lineto } bind def
/r { rlineto } bind def
/c { curveto } bind def
/cl { closepath } bind def
/box {
m
1 index 0 r
0 exch r
neg 0 r
cl
} bind def
/clipbox {
box
clip
newpath
} bind def
%!PS-Adobe-3.0 Resource-Font
%%Title: cmr10
%%Copyright: Copyright (C) 1994, Basil K. Malyshev. All Rights Reserved.012BaKoMa Fonts Collection, Level-B.
%%Creator: Converted from TrueType to type 3 by PPR
25 dict begin
/_d{bind def}bind def
/_m{moveto}_d
/_l{lineto}_d
/_cl{closepath eofill}_d
/_c{curveto}_d
/_sc{7 -1 roll{setcachedevice}{pop pop pop pop pop pop}ifelse}_d
/_e{exec}_d
/FontName /Cmr10 def
/PaintType 0 def
/FontMatrix[.001 0 0 .001 0 0]def
/FontBBox[-44 -250 1009 750]def
/FontType 3 def
/Encoding [ /M /o /one /three /c /r ] def
/FontInfo 10 dict dup begin
/FamilyName (cmr10) def
/FullName (cmr10) def
/Notice (Copyright (C) 1994, Basil K. Malyshev. All Rights Reserved.012BaKoMa Fonts Collection, Level-B. ) def
/Weight (Regular) def
/Version (1.1/12-Nov-94) def
/ItalicAngle 0.0 def
/isFixedPitch false def
/UnderlinePosition -133 def
/UnderlineThickness 20 def
end readonly def
/CharStrings 6 dict dup begin
/M{{916 0 35 0 881 683 _sc
35 0 _m
35 35 _l
103 35 138 54 138 94 _c
138 616 _l
138 637 103 648 35 648 _c
35 683 _l
224 683 _l
232 683 237 679 240 672 _c
458 106 _l
676 672 _l
678 679 684 683 692 683 _c
881 683 _l
881 648 _l
812 648 778 637 778 616 _c
778 67 _l
778 45 812 35 881 35 _c
881 0 _l
590 0 _l
590 35 _l
658 35 693 45 693 67 _c
693 649 _l
}_e{447 11 _l
443 3 438 0 430 0 _c
421 0 415 3 413 11 _c
170 641 _l
170 94 _l
170 54 204 35 273 35 _c
273 0 _l
35 0 _l
_cl}_e}_d
/o{{500 0 28 -10 471 448 _sc
250 -10 _m
210 -10 172 0 138 20 _c
104 40 77 67 57 101 _c
37 135 28 172 28 213 _c
28 243 33 273 44 301 _c
55 329 71 355 91 377 _c
111 399 135 417 162 429 _c
189 441 218 448 250 448 _c
291 448 328 437 362 415 _c
396 393 422 364 442 328 _c
461 292 471 253 471 213 _c
471 173 461 135 441 101 _c
421 67 395 40 361 20 _c
}_e{327 0 290 -10 250 -10 _c
250 18 _m
303 18 339 37 357 76 _c
375 114 384 164 384 224 _c
384 257 382 285 378 307 _c
374 329 367 349 355 367 _c
347 378 338 388 326 396 _c
314 404 302 411 290 415 _c
277 419 264 422 250 422 _c
229 422 209 417 191 408 _c
172 398 156 385 144 367 _c
131 348 123 327 120 305 _c
116 282 115 255 115 224 _c
115 186 118 153 125 123 _c
}_e{131 93 144 68 164 48 _c
184 28 212 18 250 18 _c
_cl}_e}_d
/one{500 0 87 0 421 666 _sc
93 0 _m
93 35 _l
176 35 218 45 218 67 _c
218 592 _l
183 575 139 567 87 567 _c
87 602 _l
168 602 230 623 272 666 _c
286 666 _l
288 666 291 665 293 663 _c
295 661 296 659 296 657 _c
296 67 _l
296 45 337 35 421 35 _c
421 0 _l
93 0 _l
_cl}_d
/three{{500 0 42 -21 457 666 _sc
95 77 _m
111 54 132 37 158 26 _c
184 15 213 10 243 10 _c
281 10 309 26 325 59 _c
341 92 350 130 350 172 _c
350 190 348 209 345 228 _c
341 247 335 265 327 281 _c
319 297 308 310 294 320 _c
280 330 262 335 242 335 _c
176 335 _l
170 335 167 338 167 344 _c
167 353 _l
167 358 170 361 176 361 _c
231 365 _l
254 365 273 373 289 391 _c
}_e{305 409 316 430 323 456 _c
330 481 334 505 334 528 _c
334 560 326 586 311 606 _c
296 626 273 637 243 637 _c
217 637 193 632 170 622 _c
147 612 129 598 115 579 _c
116 579 117 580 118 580 _c
119 580 120 580 122 580 _c
137 580 150 574 160 564 _c
170 554 175 541 175 527 _c
175 512 170 499 160 489 _c
150 479 137 474 122 474 _c
107 474 94 479 84 489 _c
}_e{74 499 69 512 69 527 _c
69 555 77 580 95 601 _c
112 622 134 638 161 649 _c
188 660 215 666 243 666 _c
263 666 284 663 307 657 _c
329 651 350 642 368 631 _c
386 619 401 605 413 588 _c
424 570 430 550 430 528 _c
430 500 423 474 411 450 _c
399 426 382 406 360 389 _c
338 371 314 358 288 350 _c
317 344 345 333 371 317 _c
397 301 417 280 433 255 _c
}_e{449 229 457 202 457 173 _c
457 136 446 103 426 73 _c
406 43 379 19 347 3 _c
314 -13 279 -21 243 -21 _c
211 -21 180 -15 149 -3 _c
117 8 92 25 72 49 _c
52 73 42 101 42 135 _c
42 151 47 165 58 176 _c
69 187 83 193 100 193 _c
110 193 120 190 129 185 _c
138 180 145 173 150 164 _c
155 154 158 145 158 135 _c
158 118 152 104 141 93 _c
}_e{129 82 116 77 100 77 _c
95 77 _l
_cl}_e}_d
/c{{444 0 33 -10 415 448 _sc
249 -10 _m
208 -10 171 0 139 21 _c
106 41 80 69 61 104 _c
42 139 33 176 33 216 _c
33 255 42 293 61 329 _c
79 365 105 393 138 415 _c
171 437 208 448 249 448 _c
288 448 324 440 356 425 _c
388 409 404 384 404 350 _c
404 337 399 326 390 316 _c
380 306 369 302 356 302 _c
342 302 331 306 322 316 _c
312 326 308 337 308 350 _c
}_e{308 362 311 372 319 381 _c
327 389 336 395 347 397 _c
324 411 292 419 250 419 _c
218 419 192 408 173 387 _c
153 365 140 339 132 308 _c
124 277 120 246 120 216 _c
120 183 124 152 134 122 _c
144 92 159 67 181 47 _c
202 27 229 18 261 18 _c
293 18 320 27 342 47 _c
364 66 379 91 387 123 _c
387 127 389 129 395 129 _c
407 129 _l
409 129 410 128 412 126 _c
}_e{414 124 415 122 415 120 _c
415 117 _l
405 77 385 46 355 24 _c
325 1 289 -10 249 -10 _c
_cl}_e}_d
/r{{391 0 26 0 364 442 _sc
26 0 _m
26 35 _l
48 35 67 36 82 40 _c
96 44 104 53 104 67 _c
104 340 _l
104 358 101 371 96 379 _c
90 387 83 391 73 393 _c
63 395 47 396 26 396 _c
26 431 _l
169 442 _l
169 344 _l
179 373 195 397 215 415 _c
235 433 259 442 287 442 _c
307 442 324 436 340 424 _c
356 412 364 397 364 378 _c
364 366 359 355 351 346 _c
}_e{342 337 331 333 319 333 _c
306 333 295 337 287 346 _c
278 354 274 365 274 378 _c
274 396 280 408 293 416 _c
287 416 _l
260 416 238 406 221 386 _c
203 366 191 342 184 314 _c
177 285 174 257 174 231 _c
174 67 _l
174 45 206 35 271 35 _c
271 0 _l
26 0 _l
_cl}_e}_d
end readonly def

/BuildGlyph
 {exch begin
 CharStrings exch
 2 copy known not{pop /.notdef}if
 true 3 1 roll get exec
 end}_d

/BuildChar {
 1 index /Encoding get exch get
 1 index /BuildGlyph get exec
}_d

FontName currentdict end definefont pop
%!PS-Adobe-3.0 Resource-Font
%%Title: cmsy10
%%Copyright: Copyright (C) 1994, Basil K. Malyshev. All Rights Reserved.012BaKoMa Fonts Collection, Level-B.
%%Creator: Converted from TrueType to type 3 by PPR
25 dict begin
/_d{bind def}bind def
/_m{moveto}_d
/_l{lineto}_d
/_cl{closepath eofill}_d
/_c{curveto}_d
/_sc{7 -1 roll{setcachedevice}{pop pop pop pop pop pop}ifelse}_d
/_e{exec}_d
/FontName /Cmsy10 def
/PaintType 0 def
/FontMatrix[.001 0 0 .001 0 0]def
/FontBBox[-29 -960 1123 779]def
/FontType 3 def
/Encoding [ /minus ] def
/FontInfo 10 dict dup begin
/FamilyName (cmsy10) def
/FullName (cmsy10) def
/Notice (Copyright (C) 1994, Basil K. Malyshev. All Rights Reserved.012BaKoMa Fonts Collection, Level-B. ) def
/Weight (Regular) def
/Version (1.1/12-Nov-94) def
/ItalicAngle 0.0 def
/isFixedPitch false def
/UnderlinePosition -133 def
/UnderlineThickness 20 def
end readonly def
/CharStrings 1 dict dup begin
/minus{777 0 83 230 694 270 _sc
102 230 _m
96 230 92 232 88 236 _c
84 240 83 245 83 250 _c
83 254 84 259 88 263 _c
92 267 96 270 102 270 _c
676 270 _l
681 270 685 267 689 263 _c
692 259 694 254 694 250 _c
694 245 692 240 689 236 _c
685 232 681 230 676 230 _c
102 230 _l
_cl}_d
end readonly def

/BuildGlyph
 {exch begin
 CharStrings exch
 2 copy known not{pop /.notdef}if
 true 3 1 roll get exec
 end}_d

/BuildChar {
 1 index /Encoding get exch get
 1 index /BuildGlyph get exec
}_d

FontName currentdict end definefont pop
%!PS-Adobe-3.0 Resource-Font
%%Title: cmmi10
%%Copyright: Copyright (C) 1994, Basil K. Malyshev. All Rights Reserved.012BaKoMa Fonts Collection, Level-B.
%%Creator: Converted from TrueType to type 3 by PPR
25 dict begin
/_d{bind def}bind def
/_m{moveto}_d
/_l{lineto}_d
/_cl{closepath eofill}_d
/_c{curveto}_d
/_sc{7 -1 roll{setcachedevice}{pop pop pop pop pop pop}ifelse}_d
/_e{exec}_d
/FontName /Cmmi10 def
/PaintType 0 def
/FontMatrix[.001 0 0 .001 0 0]def
/FontBBox[-34 -250 1048 750]def
/FontType 3 def
/Encoding [ /V ] def
/FontInfo 10 dict dup begin
/FamilyName (cmmi10) def
/FullName (cmmi10) def
/Notice (Copyright (C) 1994, Basil K. Malyshev. All Rights Reserved.012BaKoMa Fonts Collection, Level-B. ) def
/Weight (Regular) def
/Version (1.1/12-Nov-94) def
/ItalicAngle 0.0 def
/isFixedPitch false def
/UnderlinePosition -133 def
/UnderlineThickness 20 def
end readonly def
/CharStrings 1 dict dup begin
/V{{583 0 55 -21 769 683 _sc
220 -10 _m
140 626 _l
135 640 110 648 65 648 _c
58 648 55 652 55 661 _c
56 668 58 673 60 677 _c
62 681 66 683 72 683 _c
316 683 _l
319 683 321 681 323 679 _c
325 676 326 673 326 670 _c
323 655 319 648 313 648 _c
261 648 233 639 230 621 _c
296 98 _l
604 590 _l
610 600 613 609 613 616 _c
613 628 607 636 597 641 _c
586 645 574 648 560 648 _c
}_e{553 648 550 652 550 661 _c
551 666 552 670 553 673 _c
554 676 556 678 558 680 _c
560 682 563 683 567 683 _c
760 683 _l
766 683 769 678 769 670 _c
766 655 762 648 756 648 _c
706 648 666 626 638 582 _c
636 580 635 580 635 580 _c
266 -10 _l
261 -17 255 -21 247 -21 _c
233 -21 _l
225 -21 221 -17 220 -10 _c
_cl}_e}_d
end readonly def

/BuildGlyph
 {exch begin
 CharStrings exch
 2 copy known not{pop /.notdef}if
 true 3 1 roll get exec
 end}_d

/BuildChar {
 1 index /Encoding get exch get
 1 index /BuildGlyph get exec
}_d

FontName currentdict end definefont pop
%!PS-Adobe-3.0 Resource-Font
%%Title: Bitstream Vera Sans
%%Copyright: Copyright (c) 2003 by Bitstream, Inc. All Rights Reserved.
%%Creator: Converted from TrueType to type 3 by PPR
25 dict begin
/_d{bind def}bind def
/_m{moveto}_d
/_l{lineto}_d
/_cl{closepath eofill}_d
/_c{curveto}_d
/_sc{7 -1 roll{setcachedevice}{pop pop pop pop pop pop}ifelse}_d
/_e{exec}_d
/FontName /BitstreamVeraSans-Roman def
/PaintType 0 def
/FontMatrix[.001 0 0 .001 0 0]def
/FontBBox[-183 -236 1287 928]def
/FontType 3 def
/Encoding [ /space /comma /hyphen /period /zero /one /two /three /four /five /six /seven /eight /A /C /G /P /S /bracketleft /bracketright /a /b /c /d /e /f /g /h /i /k /l /m /n /o /r /s /t /v /minus ] def
/FontInfo 10 dict dup begin
/FamilyName (Bitstream Vera Sans) def
/FullName (Bitstream Vera Sans) def
/Notice (Copyright (c) 2003 by Bitstream, Inc. All Rights Reserved. Bitstream Vera is a trademark of Bitstream, Inc.) def
/Weight (Roman) def
/Version (Release 1.10) def
/ItalicAngle 0.0 def
/isFixedPitch false def
/UnderlinePosition -213 def
/UnderlineThickness 143 def
end readonly def
/CharStrings 39 dict dup begin
/space{318 0 0 0 0 0 _sc
}_d
/comma{318 0 77 -115 220 124 _sc
117 124 _m
220 124 _l
220 40 _l
140 -115 _l
77 -115 _l
117 40 _l
117 124 _l
_cl}_d
/hyphen{361 0 49 234 312 314 _sc
49 314 _m
312 314 _l
312 234 _l
49 234 _l
49 314 _l
_cl}_d
/period{318 0 107 0 210 124 _sc
107 124 _m
210 124 _l
210 0 _l
107 0 _l
107 124 _l
_cl}_d
/zero{636 0 66 -13 570 742 _sc
318 664 _m
267 664 229 639 203 589 _c
177 539 165 464 165 364 _c
165 264 177 189 203 139 _c
229 89 267 64 318 64 _c
369 64 407 89 433 139 _c
458 189 471 264 471 364 _c
471 464 458 539 433 589 _c
407 639 369 664 318 664 _c
318 742 _m
399 742 461 709 505 645 _c
548 580 570 486 570 364 _c
570 241 548 147 505 83 _c
461 19 399 -13 318 -13 _c
236 -13 173 19 130 83 _c
87 147 66 241 66 364 _c
66 486 87 580 130 645 _c
173 709 236 742 318 742 _c
_cl}_d
/one{636 0 110 0 544 729 _sc
124 83 _m
285 83 _l
285 639 _l
110 604 _l
110 694 _l
284 729 _l
383 729 _l
383 83 _l
544 83 _l
544 0 _l
124 0 _l
124 83 _l
_cl}_d
/two{{636 0 73 0 536 742 _sc
192 83 _m
536 83 _l
536 0 _l
73 0 _l
73 83 _l
110 121 161 173 226 239 _c
290 304 331 346 348 365 _c
380 400 402 430 414 455 _c
426 479 433 504 433 528 _c
433 566 419 598 392 622 _c
365 646 330 659 286 659 _c
255 659 222 653 188 643 _c
154 632 117 616 78 594 _c
78 694 _l
118 710 155 722 189 730 _c
223 738 255 742 284 742 _c
}_e{359 742 419 723 464 685 _c
509 647 532 597 532 534 _c
532 504 526 475 515 449 _c
504 422 484 390 454 354 _c
446 344 420 317 376 272 _c
332 227 271 164 192 83 _c
_cl}_e}_d
/three{{636 0 76 -13 556 742 _sc
406 393 _m
453 383 490 362 516 330 _c
542 298 556 258 556 212 _c
556 140 531 84 482 45 _c
432 6 362 -13 271 -13 _c
240 -13 208 -10 176 -4 _c
144 1 110 10 76 22 _c
76 117 _l
103 101 133 89 166 81 _c
198 73 232 69 268 69 _c
330 69 377 81 409 105 _c
441 129 458 165 458 212 _c
458 254 443 288 413 312 _c
383 336 341 349 287 349 _c
}_e{202 349 _l
202 430 _l
291 430 _l
339 430 376 439 402 459 _c
428 478 441 506 441 543 _c
441 580 427 609 401 629 _c
374 649 336 659 287 659 _c
260 659 231 656 200 650 _c
169 644 135 635 98 623 _c
98 711 _l
135 721 170 729 203 734 _c
235 739 266 742 296 742 _c
370 742 429 725 473 691 _c
517 657 539 611 539 553 _c
539 513 527 479 504 451 _c
481 423 448 403 406 393 _c
_cl}_e}_d
/four{636 0 49 0 580 729 _sc
378 643 _m
129 254 _l
378 254 _l
378 643 _l
352 729 _m
476 729 _l
476 254 _l
580 254 _l
580 172 _l
476 172 _l
476 0 _l
378 0 _l
378 172 _l
49 172 _l
49 267 _l
352 729 _l
_cl}_d
/five{{636 0 77 -13 549 729 _sc
108 729 _m
495 729 _l
495 646 _l
198 646 _l
198 467 _l
212 472 227 476 241 478 _c
255 480 270 482 284 482 _c
365 482 429 459 477 415 _c
525 370 549 310 549 234 _c
549 155 524 94 475 51 _c
426 8 357 -13 269 -13 _c
238 -13 207 -10 175 -6 _c
143 -1 111 6 77 17 _c
77 116 _l
106 100 136 88 168 80 _c
199 72 232 69 267 69 _c
}_e{323 69 368 83 401 113 _c
433 143 450 183 450 234 _c
450 284 433 324 401 354 _c
368 384 323 399 267 399 _c
241 399 214 396 188 390 _c
162 384 135 375 108 363 _c
108 729 _l
_cl}_e}_d
/six{{636 0 70 -13 573 742 _sc
330 404 _m
286 404 251 388 225 358 _c
199 328 186 286 186 234 _c
186 181 199 139 225 109 _c
251 79 286 64 330 64 _c
374 64 409 79 435 109 _c
461 139 474 181 474 234 _c
474 286 461 328 435 358 _c
409 388 374 404 330 404 _c
526 713 _m
526 623 _l
501 635 476 644 451 650 _c
425 656 400 659 376 659 _c
310 659 260 637 226 593 _c
}_e{192 549 172 482 168 394 _c
187 422 211 444 240 459 _c
269 474 301 482 336 482 _c
409 482 467 459 509 415 _c
551 371 573 310 573 234 _c
573 159 550 99 506 54 _c
462 9 403 -13 330 -13 _c
246 -13 181 19 137 83 _c
92 147 70 241 70 364 _c
70 479 97 571 152 639 _c
206 707 280 742 372 742 _c
396 742 421 739 447 735 _c
472 730 498 723 526 713 _c
_cl}_e}_d
/seven{636 0 82 0 551 729 _sc
82 729 _m
551 729 _l
551 687 _l
286 0 _l
183 0 _l
432 646 _l
82 646 _l
82 729 _l
_cl}_d
/eight{{636 0 68 -13 568 742 _sc
318 346 _m
271 346 234 333 207 308 _c
180 283 167 249 167 205 _c
167 161 180 126 207 101 _c
234 76 271 64 318 64 _c
364 64 401 76 428 102 _c
455 127 469 161 469 205 _c
469 249 455 283 429 308 _c
402 333 365 346 318 346 _c
219 388 _m
177 398 144 418 120 447 _c
96 476 85 511 85 553 _c
85 611 105 657 147 691 _c
188 725 245 742 318 742 _c
}_e{390 742 447 725 489 691 _c
530 657 551 611 551 553 _c
551 511 539 476 515 447 _c
491 418 459 398 417 388 _c
464 377 501 355 528 323 _c
554 291 568 251 568 205 _c
568 134 546 80 503 43 _c
459 5 398 -13 318 -13 _c
237 -13 175 5 132 43 _c
89 80 68 134 68 205 _c
68 251 81 291 108 323 _c
134 355 171 377 219 388 _c
183 544 _m
183 506 194 476 218 455 _c
}_e{242 434 275 424 318 424 _c
360 424 393 434 417 455 _c
441 476 453 506 453 544 _c
453 582 441 611 417 632 _c
393 653 360 664 318 664 _c
275 664 242 653 218 632 _c
194 611 183 582 183 544 _c
_cl}_e}_d
/A{684 0 8 0 676 729 _sc
342 632 _m
208 269 _l
476 269 _l
342 632 _l
286 729 _m
398 729 _l
676 0 _l
573 0 _l
507 187 _l
178 187 _l
112 0 _l
8 0 _l
286 729 _l
_cl}_d
/C{{698 0 56 -13 644 742 _sc
644 673 _m
644 569 _l
610 599 575 622 537 638 _c
499 653 460 661 418 661 _c
334 661 270 635 226 584 _c
182 533 160 460 160 364 _c
160 268 182 194 226 143 _c
270 92 334 67 418 67 _c
460 67 499 74 537 90 _c
575 105 610 128 644 159 _c
644 56 _l
609 32 572 15 534 4 _c
496 -7 455 -13 412 -13 _c
302 -13 215 20 151 87 _c
}_e{87 154 56 246 56 364 _c
56 481 87 573 151 641 _c
215 708 302 742 412 742 _c
456 742 497 736 535 725 _c
573 713 610 696 644 673 _c
_cl}_e}_d
/G{{775 0 56 -13 693 742 _sc
595 104 _m
595 300 _l
434 300 _l
434 381 _l
693 381 _l
693 68 _l
655 40 613 20 567 7 _c
521 -6 472 -13 420 -13 _c
306 -13 216 20 152 86 _c
88 152 56 245 56 364 _c
56 482 88 575 152 642 _c
216 708 306 742 420 742 _c
467 742 512 736 555 724 _c
598 712 638 695 674 673 _c
674 568 _l
637 598 598 621 557 637 _c
516 653 473 661 428 661 _c
}_e{338 661 271 636 227 586 _c
182 536 160 462 160 364 _c
160 265 182 191 227 141 _c
271 91 338 67 428 67 _c
462 67 493 70 521 76 _c
549 82 573 91 595 104 _c
_cl}_e}_d
/P{603 0 98 0 569 729 _sc
197 648 _m
197 374 _l
321 374 _l
367 374 402 385 427 409 _c
452 433 465 467 465 511 _c
465 555 452 588 427 612 _c
402 636 367 648 321 648 _c
197 648 _l
98 729 _m
321 729 _l
402 729 464 710 506 673 _c
548 636 569 582 569 511 _c
569 439 548 384 506 348 _c
464 311 402 293 321 293 _c
197 293 _l
197 0 _l
98 0 _l
98 729 _l
_cl}_d
/S{{635 0 66 -13 579 742 _sc
535 705 _m
535 609 _l
497 627 462 640 429 649 _c
395 657 363 662 333 662 _c
279 662 237 651 208 631 _c
179 610 165 580 165 542 _c
165 510 174 485 194 469 _c
213 452 250 439 304 429 _c
364 417 _l
437 403 491 378 526 343 _c
561 307 579 260 579 201 _c
579 130 555 77 508 41 _c
460 5 391 -13 300 -13 _c
265 -13 228 -9 189 -2 _c
}_e{150 5 110 16 69 32 _c
69 134 _l
109 111 148 94 186 83 _c
224 71 262 66 300 66 _c
356 66 399 77 430 99 _c
460 121 476 152 476 194 _c
476 230 465 258 443 278 _c
421 298 385 313 335 323 _c
275 335 _l
201 349 148 372 115 404 _c
82 435 66 478 66 534 _c
66 598 88 649 134 686 _c
179 723 242 742 322 742 _c
356 742 390 739 426 733 _c
461 727 497 717 535 705 _c
}_e{_cl}_e}_d
/bracketleft{390 0 86 -131 293 760 _sc
86 760 _m
293 760 _l
293 690 _l
176 690 _l
176 -61 _l
293 -61 _l
293 -131 _l
86 -131 _l
86 760 _l
_cl}_d
/bracketright{390 0 97 -131 304 760 _sc
304 760 _m
304 -131 _l
97 -131 _l
97 -61 _l
214 -61 _l
214 690 _l
97 690 _l
97 760 _l
304 760 _l
_cl}_d
/a{{613 0 60 -13 522 560 _sc
343 275 _m
270 275 220 266 192 250 _c
164 233 150 205 150 165 _c
150 133 160 107 181 89 _c
202 70 231 61 267 61 _c
317 61 357 78 387 114 _c
417 149 432 196 432 255 _c
432 275 _l
343 275 _l
522 312 _m
522 0 _l
432 0 _l
432 83 _l
411 49 385 25 355 10 _c
325 -5 287 -13 243 -13 _c
187 -13 142 2 109 33 _c
76 64 60 106 60 159 _c
}_e{60 220 80 266 122 298 _c
163 329 224 345 306 345 _c
432 345 _l
432 354 _l
432 395 418 427 391 450 _c
364 472 326 484 277 484 _c
245 484 215 480 185 472 _c
155 464 127 453 100 439 _c
100 522 _l
132 534 164 544 195 550 _c
226 556 256 560 286 560 _c
365 560 424 539 463 498 _c
502 457 522 395 522 312 _c
_cl}_e}_d
/b{{635 0 91 -13 580 760 _sc
487 273 _m
487 339 473 390 446 428 _c
418 466 381 485 334 485 _c
286 485 249 466 222 428 _c
194 390 181 339 181 273 _c
181 207 194 155 222 117 _c
249 79 286 61 334 61 _c
381 61 418 79 446 117 _c
473 155 487 207 487 273 _c
181 464 _m
199 496 223 520 252 536 _c
281 552 316 560 356 560 _c
422 560 476 533 518 481 _c
559 428 580 359 580 273 _c
}_e{580 187 559 117 518 65 _c
476 13 422 -13 356 -13 _c
316 -13 281 -5 252 10 _c
223 25 199 49 181 82 _c
181 0 _l
91 0 _l
91 760 _l
181 760 _l
181 464 _l
_cl}_e}_d
/c{{550 0 55 -13 488 560 _sc
488 526 _m
488 442 _l
462 456 437 466 411 473 _c
385 480 360 484 334 484 _c
276 484 230 465 198 428 _c
166 391 150 339 150 273 _c
150 206 166 154 198 117 _c
230 80 276 62 334 62 _c
360 62 385 65 411 72 _c
437 79 462 90 488 104 _c
488 21 _l
462 9 436 0 410 -5 _c
383 -10 354 -13 324 -13 _c
242 -13 176 12 128 64 _c
}_e{79 115 55 185 55 273 _c
55 362 79 432 128 483 _c
177 534 244 560 330 560 _c
358 560 385 557 411 551 _c
437 545 463 537 488 526 _c
_cl}_e}_d
/d{{635 0 55 -13 544 760 _sc
454 464 _m
454 760 _l
544 760 _l
544 0 _l
454 0 _l
454 82 _l
435 49 411 25 382 10 _c
353 -5 319 -13 279 -13 _c
213 -13 159 13 117 65 _c
75 117 55 187 55 273 _c
55 359 75 428 117 481 _c
159 533 213 560 279 560 _c
319 560 353 552 382 536 _c
411 520 435 496 454 464 _c
148 273 _m
148 207 161 155 188 117 _c
215 79 253 61 301 61 _c
}_e{348 61 385 79 413 117 _c
440 155 454 207 454 273 _c
454 339 440 390 413 428 _c
385 466 348 485 301 485 _c
253 485 215 466 188 428 _c
161 390 148 339 148 273 _c
_cl}_e}_d
/e{{615 0 55 -13 562 560 _sc
562 296 _m
562 252 _l
149 252 _l
153 190 171 142 205 110 _c
238 78 284 62 344 62 _c
378 62 412 66 444 74 _c
476 82 509 95 541 113 _c
541 28 _l
509 14 476 3 442 -3 _c
408 -9 373 -13 339 -13 _c
251 -13 182 12 131 62 _c
80 112 55 181 55 268 _c
55 357 79 428 127 481 _c
175 533 241 560 323 560 _c
397 560 455 536 498 489 _c
}_e{540 441 562 377 562 296 _c
472 322 _m
471 371 457 410 431 440 _c
404 469 368 484 324 484 _c
274 484 234 469 204 441 _c
174 413 156 373 152 322 _c
472 322 _l
_cl}_e}_d
/f{352 0 23 0 371 760 _sc
371 760 _m
371 685 _l
285 685 _l
253 685 230 678 218 665 _c
205 652 199 629 199 595 _c
199 547 _l
347 547 _l
347 477 _l
199 477 _l
199 0 _l
109 0 _l
109 477 _l
23 477 _l
23 547 _l
109 547 _l
109 585 _l
109 645 123 690 151 718 _c
179 746 224 760 286 760 _c
371 760 _l
_cl}_d
/g{{635 0 55 -207 544 560 _sc
454 280 _m
454 344 440 395 414 431 _c
387 467 349 485 301 485 _c
253 485 215 467 188 431 _c
161 395 148 344 148 280 _c
148 215 161 165 188 129 _c
215 93 253 75 301 75 _c
349 75 387 93 414 129 _c
440 165 454 215 454 280 _c
544 68 _m
544 -24 523 -93 482 -139 _c
440 -184 377 -207 292 -207 _c
260 -207 231 -204 203 -200 _c
175 -195 147 -188 121 -178 _c
}_e{121 -91 _l
147 -105 173 -115 199 -122 _c
225 -129 251 -133 278 -133 _c
336 -133 380 -117 410 -87 _c
439 -56 454 -10 454 52 _c
454 96 _l
435 64 411 40 382 24 _c
353 8 319 0 279 0 _c
211 0 157 25 116 76 _c
75 127 55 195 55 280 _c
55 364 75 432 116 483 _c
157 534 211 560 279 560 _c
319 560 353 552 382 536 _c
411 520 435 496 454 464 _c
454 547 _l
544 547 _l
}_e{544 68 _l
_cl}_e}_d
/h{634 0 91 0 549 760 _sc
549 330 _m
549 0 _l
459 0 _l
459 327 _l
459 379 448 417 428 443 _c
408 469 378 482 338 482 _c
289 482 251 466 223 435 _c
195 404 181 362 181 309 _c
181 0 _l
91 0 _l
91 760 _l
181 760 _l
181 462 _l
202 494 227 519 257 535 _c
286 551 320 560 358 560 _c
420 560 468 540 500 501 _c
532 462 549 405 549 330 _c
_cl}_d
/i{278 0 94 0 184 760 _sc
94 547 _m
184 547 _l
184 0 _l
94 0 _l
94 547 _l
94 760 _m
184 760 _l
184 646 _l
94 646 _l
94 760 _l
_cl}_d
/k{579 0 91 0 576 760 _sc
91 760 _m
181 760 _l
181 311 _l
449 547 _l
564 547 _l
274 291 _l
576 0 _l
459 0 _l
181 267 _l
181 0 _l
91 0 _l
91 760 _l
_cl}_d
/l{278 0 94 0 184 760 _sc
94 760 _m
184 760 _l
184 0 _l
94 0 _l
94 760 _l
_cl}_d
/m{{974 0 91 0 889 560 _sc
520 442 _m
542 482 569 511 600 531 _c
631 550 668 560 711 560 _c
767 560 811 540 842 500 _c
873 460 889 403 889 330 _c
889 0 _l
799 0 _l
799 327 _l
799 379 789 418 771 444 _c
752 469 724 482 686 482 _c
639 482 602 466 575 435 _c
548 404 535 362 535 309 _c
535 0 _l
445 0 _l
445 327 _l
445 379 435 418 417 444 _c
398 469 369 482 331 482 _c
}_e{285 482 248 466 221 435 _c
194 404 181 362 181 309 _c
181 0 _l
91 0 _l
91 547 _l
181 547 _l
181 462 _l
201 495 226 520 255 536 _c
283 552 317 560 357 560 _c
397 560 430 550 458 530 _c
486 510 506 480 520 442 _c
_cl}_e}_d
/n{634 0 91 0 549 560 _sc
549 330 _m
549 0 _l
459 0 _l
459 327 _l
459 379 448 417 428 443 _c
408 469 378 482 338 482 _c
289 482 251 466 223 435 _c
195 404 181 362 181 309 _c
181 0 _l
91 0 _l
91 547 _l
181 547 _l
181 462 _l
202 494 227 519 257 535 _c
286 551 320 560 358 560 _c
420 560 468 540 500 501 _c
532 462 549 405 549 330 _c
_cl}_d
/o{612 0 55 -13 557 560 _sc
306 484 _m
258 484 220 465 192 427 _c
164 389 150 338 150 273 _c
150 207 163 156 191 118 _c
219 80 257 62 306 62 _c
354 62 392 80 420 118 _c
448 156 462 207 462 273 _c
462 337 448 389 420 427 _c
392 465 354 484 306 484 _c
306 560 _m
384 560 445 534 490 484 _c
534 433 557 363 557 273 _c
557 183 534 113 490 63 _c
445 12 384 -13 306 -13 _c
227 -13 165 12 121 63 _c
77 113 55 183 55 273 _c
55 363 77 433 121 484 _c
165 534 227 560 306 560 _c
_cl}_d
/r{411 0 91 0 411 560 _sc
411 463 _m
401 469 390 473 378 476 _c
366 478 353 480 339 480 _c
288 480 249 463 222 430 _c
194 397 181 350 181 288 _c
181 0 _l
91 0 _l
91 547 _l
181 547 _l
181 462 _l
199 495 224 520 254 536 _c
284 552 321 560 365 560 _c
371 560 378 559 386 559 _c
393 558 401 557 411 555 _c
411 463 _l
_cl}_d
/s{{521 0 54 -13 472 560 _sc
443 531 _m
443 446 _l
417 458 391 468 364 475 _c
336 481 308 485 279 485 _c
234 485 200 478 178 464 _c
156 450 145 430 145 403 _c
145 382 153 366 169 354 _c
185 342 217 330 265 320 _c
296 313 _l
360 299 405 279 432 255 _c
458 230 472 195 472 151 _c
472 100 452 60 412 31 _c
372 1 316 -13 246 -13 _c
216 -13 186 -10 154 -5 _c
}_e{122 0 89 8 54 20 _c
54 113 _l
87 95 120 82 152 74 _c
184 65 216 61 248 61 _c
290 61 323 68 346 82 _c
368 96 380 117 380 144 _c
380 168 371 187 355 200 _c
339 213 303 226 247 238 _c
216 245 _l
160 257 119 275 95 299 _c
70 323 58 356 58 399 _c
58 450 76 490 112 518 _c
148 546 200 560 268 560 _c
301 560 332 557 362 552 _c
391 547 418 540 443 531 _c
}_e{_cl}_e}_d
/t{392 0 27 0 368 702 _sc
183 702 _m
183 547 _l
368 547 _l
368 477 _l
183 477 _l
183 180 _l
183 135 189 106 201 94 _c
213 81 238 75 276 75 _c
368 75 _l
368 0 _l
276 0 _l
206 0 158 13 132 39 _c
106 65 93 112 93 180 _c
93 477 _l
27 477 _l
27 547 _l
93 547 _l
93 702 _l
183 702 _l
_cl}_d
/v{592 0 30 0 562 547 _sc
30 547 _m
125 547 _l
296 88 _l
467 547 _l
562 547 _l
357 0 _l
235 0 _l
30 547 _l
_cl}_d
/minus{838 0 106 272 732 355 _sc
106 355 _m
732 355 _l
732 272 _l
106 272 _l
106 355 _l
_cl}_d
end readonly def

/BuildGlyph
 {exch begin
 CharStrings exch
 2 copy known not{pop /.notdef}if
 true 3 1 roll get exec
 end}_d

/BuildChar {
 1 index /Encoding get exch get
 1 index /BuildGlyph get exec
}_d

FontName currentdict end definefont pop
end
%%EndProlog
mpldict begin
42.432 194.801 translate
527.136 402.398 0 0 clipbox
gsave
0 1.11022e-16 m
527.136 1.11022e-16 l
527.136 402.398 l
0 402.398 l
cl
1.000 setgray
fill
grestore
gsave
60.2625 42.3406 m
506.662 42.3406 l
506.662 387.941 l
60.2625 387.941 l
cl
1.000 setgray
fill
grestore
/p0_0 {
newpath
translate
114.419 280.354 m
114.419 329.573 l
} bind def
/p0_1 {
newpath
translate
475.693 83.6339 m
475.693 127.564 l
} bind def
/p0_2 {
newpath
translate
339.697 166.862 m
339.697 190.833 l
} bind def
1.000 setlinewidth
1 setlinejoin
0 setlinecap
[] 0 setdash
0.000 setgray
gsave
446.4 345.6 60.26 42.34 clipbox
0 0 p0_0
stroke
grestore
gsave
446.4 345.6 60.26 42.34 clipbox
0 0 p0_1
stroke
grestore
gsave
446.4 345.6 60.26 42.34 clipbox
0 0 p0_2
stroke
grestore
/p1_0 {
newpath
translate
70.349 275.3 m
70.349 295.124 l
} bind def
gsave
446.4 345.6 60.26 42.34 clipbox
0 0 p1_0
stroke
grestore
2.000 setlinewidth
2 setlinecap
gsave
446.4 345.6 60.26 42.34 clipbox
82.5825 322.115 m
484.343 100.086 l
484.343 100.086 l
stroke
grestore
0.500 setlinewidth
0 setlinecap
gsave
446.4 345.6 60.26 42.34 clipbox
/o {
gsave
newpath
translate
0.5 setlinewidth
1 setlinejoin
0 setlinecap
3 -1.83697e-16 m
-3 1.83697e-16 l
gsave
0.000 setgray
fill
grestore
stroke
grestore
} bind def
114.419 280.354 o
475.693 83.6339 o
339.697 166.862 o
grestore
gsave
446.4 345.6 60.26 42.34 clipbox
/o {
gsave
newpath
translate
0.5 setlinewidth
1 setlinejoin
0 setlinecap
3 -1.83697e-16 m
-3 1.83697e-16 l
gsave
0.000 setgray
fill
grestore
stroke
grestore
} bind def
114.419 329.573 o
475.693 127.564 o
339.697 190.833 o
grestore
gsave
446.4 345.6 60.26 42.34 clipbox
/o {
gsave
newpath
translate
0.5 setlinewidth
1 setlinejoin
0 setlinecap
0 -3 m
0.795609 -3 1.55874 -2.6839 2.12132 -2.12132 c
2.6839 -1.55874 3 -0.795609 3 0 c
3 0.795609 2.6839 1.55874 2.12132 2.12132 c
1.55874 2.6839 0.795609 3 0 3 c
-0.795609 3 -1.55874 2.6839 -2.12132 2.12132 c
-2.6839 1.55874 -3 0.795609 -3 0 c
-3 -0.795609 -2.6839 -1.55874 -2.12132 -2.12132 c
-1.55874 -2.6839 -0.795609 -3 0 -3 c
cl
gsave
0.000 setgray
fill
grestore
stroke
grestore
} bind def
114.419 304.964 o
475.693 105.599 o
339.697 178.847 o
grestore
gsave
446.4 345.6 60.26 42.34 clipbox
/o {
gsave
newpath
translate
0.5 setlinewidth
1 setlinejoin
0 setlinecap
3 -1.83697e-16 m
-3 1.83697e-16 l
gsave
0.000 setgray
fill
grestore
stroke
grestore
} bind def
70.349 275.3 o
grestore
gsave
446.4 345.6 60.26 42.34 clipbox
/o {
gsave
newpath
translate
0.5 setlinewidth
1 setlinejoin
0 setlinecap
3 -1.83697e-16 m
-3 1.83697e-16 l
gsave
0.000 setgray
fill
grestore
stroke
grestore
} bind def
70.349 295.124 o
grestore
2 setlinejoin
gsave
446.4 345.6 60.26 42.34 clipbox
/o {
gsave
newpath
translate
0.5 setlinewidth
2 setlinejoin
0 setlinecap
2.14313e-16 3.5 m
-0.785799 1.08156 l
-3.3287 1.08156 l
-1.27145 -0.413119 l
-2.05725 -2.83156 l
-2.45581e-16 -1.33688 l
2.05725 -2.83156 l
1.27145 -0.413119 l
3.3287 1.08156 l
0.785799 1.08156 l
cl
gsave
0.000 setgray
fill
grestore
stroke
grestore
} bind def
70.349 285.212 o
grestore
2.300 setlinewidth
1 setlinejoin
gsave
/o {
gsave
newpath
translate
2.3 setlinewidth
1 setlinejoin
0 setlinecap
0 0 m
0 5.5 l
gsave
0.000 setgray
fill
grestore
stroke
grestore
} bind def
60.2625 42.3406 o
grestore
gsave
/o {
gsave
newpath
translate
2.3 setlinewidth
1 setlinejoin
0 setlinecap
0 0 m
0 -5.5 l
gsave
0.000 setgray
fill
grestore
stroke
grestore
} bind def
60.2625 387.941 o
grestore
/BitstreamVeraSans-Roman findfont
15.000 scalefont
setfont
gsave
46.989062 26.950000 translate
0.000000 rotate
0.000000 0.000000 m /two glyphshow
9.543457 0.000000 m /two glyphshow
19.086914 0.000000 m /zero glyphshow
grestore
gsave
/o {
gsave
newpath
translate
2.3 setlinewidth
1 setlinejoin
0 setlinecap
0 0 m
0 5.5 l
gsave
0.000 setgray
fill
grestore
stroke
grestore
} bind def
116.062 42.3406 o
grestore
gsave
/o {
gsave
newpath
translate
2.3 setlinewidth
1 setlinejoin
0 setlinecap
0 0 m
0 -5.5 l
gsave
0.000 setgray
fill
grestore
stroke
grestore
} bind def
116.062 387.941 o
grestore
gsave
102.945312 26.950000 translate
0.000000 rotate
0.000000 0.000000 m /two glyphshow
9.543457 0.000000 m /two glyphshow
19.086914 0.000000 m /five glyphshow
grestore
gsave
/o {
gsave
newpath
translate
2.3 setlinewidth
1 setlinejoin
0 setlinecap
0 0 m
0 5.5 l
gsave
0.000 setgray
fill
grestore
stroke
grestore
} bind def
171.863 42.3406 o
grestore
gsave
/o {
gsave
newpath
translate
2.3 setlinewidth
1 setlinejoin
0 setlinecap
0 0 m
0 -5.5 l
gsave
0.000 setgray
fill
grestore
stroke
grestore
} bind def
171.863 387.941 o
grestore
gsave
158.589063 26.950000 translate
0.000000 rotate
0.000000 0.000000 m /two glyphshow
9.543457 0.000000 m /three glyphshow
19.086914 0.000000 m /zero glyphshow
grestore
gsave
/o {
gsave
newpath
translate
2.3 setlinewidth
1 setlinejoin
0 setlinecap
0 0 m
0 5.5 l
gsave
0.000 setgray
fill
grestore
stroke
grestore
} bind def
227.662 42.3406 o
grestore
gsave
/o {
gsave
newpath
translate
2.3 setlinewidth
1 setlinejoin
0 setlinecap
0 0 m
0 -5.5 l
gsave
0.000 setgray
fill
grestore
stroke
grestore
} bind def
227.662 387.941 o
grestore
gsave
214.545312 26.950000 translate
0.000000 rotate
0.000000 0.000000 m /two glyphshow
9.543457 0.000000 m /three glyphshow
19.086914 0.000000 m /five glyphshow
grestore
gsave
/o {
gsave
newpath
translate
2.3 setlinewidth
1 setlinejoin
0 setlinecap
0 0 m
0 5.5 l
gsave
0.000 setgray
fill
grestore
stroke
grestore
} bind def
283.463 42.3406 o
grestore
gsave
/o {
gsave
newpath
translate
2.3 setlinewidth
1 setlinejoin
0 setlinecap
0 0 m
0 -5.5 l
gsave
0.000 setgray
fill
grestore
stroke
grestore
} bind def
283.463 387.941 o
grestore
gsave
270.189063 26.950000 translate
0.000000 rotate
0.000000 0.000000 m /two glyphshow
9.543457 0.000000 m /four glyphshow
19.086914 0.000000 m /zero glyphshow
grestore
gsave
/o {
gsave
newpath
translate
2.3 setlinewidth
1 setlinejoin
0 setlinecap
0 0 m
0 5.5 l
gsave
0.000 setgray
fill
grestore
stroke
grestore
} bind def
339.262 42.3406 o
grestore
gsave
/o {
gsave
newpath
translate
2.3 setlinewidth
1 setlinejoin
0 setlinecap
0 0 m
0 -5.5 l
gsave
0.000 setgray
fill
grestore
stroke
grestore
} bind def
339.262 387.941 o
grestore
gsave
326.145312 26.950000 translate
0.000000 rotate
0.000000 0.000000 m /two glyphshow
9.543457 0.000000 m /four glyphshow
19.086914 0.000000 m /five glyphshow
grestore
gsave
/o {
gsave
newpath
translate
2.3 setlinewidth
1 setlinejoin
0 setlinecap
0 0 m
0 5.5 l
gsave
0.000 setgray
fill
grestore
stroke
grestore
} bind def
395.062 42.3406 o
grestore
gsave
/o {
gsave
newpath
translate
2.3 setlinewidth
1 setlinejoin
0 setlinecap
0 0 m
0 -5.5 l
gsave
0.000 setgray
fill
grestore
stroke
grestore
} bind def
395.062 387.941 o
grestore
gsave
381.789062 26.950000 translate
0.000000 rotate
0.000000 0.000000 m /two glyphshow
9.543457 0.000000 m /five glyphshow
19.086914 0.000000 m /zero glyphshow
grestore
gsave
/o {
gsave
newpath
translate
2.3 setlinewidth
1 setlinejoin
0 setlinecap
0 0 m
0 5.5 l
gsave
0.000 setgray
fill
grestore
stroke
grestore
} bind def
450.863 42.3406 o
grestore
gsave
/o {
gsave
newpath
translate
2.3 setlinewidth
1 setlinejoin
0 setlinecap
0 0 m
0 -5.5 l
gsave
0.000 setgray
fill
grestore
stroke
grestore
} bind def
450.863 387.941 o
grestore
gsave
437.745313 26.950000 translate
0.000000 rotate
0.000000 0.000000 m /two glyphshow
9.543457 0.000000 m /five glyphshow
19.086914 0.000000 m /five glyphshow
grestore
gsave
/o {
gsave
newpath
translate
2.3 setlinewidth
1 setlinejoin
0 setlinecap
0 0 m
0 5.5 l
gsave
0.000 setgray
fill
grestore
stroke
grestore
} bind def
506.662 42.3406 o
grestore
gsave
/o {
gsave
newpath
translate
2.3 setlinewidth
1 setlinejoin
0 setlinecap
0 0 m
0 -5.5 l
gsave
0.000 setgray
fill
grestore
stroke
grestore
} bind def
506.662 387.941 o
grestore
gsave
493.389062 26.950000 translate
0.000000 rotate
0.000000 0.000000 m /two glyphshow
9.543457 0.000000 m /six glyphshow
19.086914 0.000000 m /zero glyphshow
grestore
1.700 setlinewidth
gsave
/o {
gsave
newpath
translate
1.7 setlinewidth
1 setlinejoin
0 setlinecap
0 0 m
0 3.5 l
gsave
0.000 setgray
fill
grestore
stroke
grestore
} bind def
60.2625 42.3406 o
grestore
gsave
/o {
gsave
newpath
translate
1.7 setlinewidth
1 setlinejoin
0 setlinecap
0 0 m
0 -3.5 l
gsave
0.000 setgray
fill
grestore
stroke
grestore
} bind def
60.2625 387.941 o
grestore
gsave
/o {
gsave
newpath
translate
1.7 setlinewidth
1 setlinejoin
0 setlinecap
0 0 m
0 3.5 l
gsave
0.000 setgray
fill
grestore
stroke
grestore
} bind def
74.2125 42.3406 o
grestore
gsave
/o {
gsave
newpath
translate
1.7 setlinewidth
1 setlinejoin
0 setlinecap
0 0 m
0 -3.5 l
gsave
0.000 setgray
fill
grestore
stroke
grestore
} bind def
74.2125 387.941 o
grestore
gsave
/o {
gsave
newpath
translate
1.7 setlinewidth
1 setlinejoin
0 setlinecap
0 0 m
0 3.5 l
gsave
0.000 setgray
fill
grestore
stroke
grestore
} bind def
88.1625 42.3406 o
grestore
gsave
/o {
gsave
newpath
translate
1.7 setlinewidth
1 setlinejoin
0 setlinecap
0 0 m
0 -3.5 l
gsave
0.000 setgray
fill
grestore
stroke
grestore
} bind def
88.1625 387.941 o
grestore
gsave
/o {
gsave
newpath
translate
1.7 setlinewidth
1 setlinejoin
0 setlinecap
0 0 m
0 3.5 l
gsave
0.000 setgray
fill
grestore
stroke
grestore
} bind def
102.113 42.3406 o
grestore
gsave
/o {
gsave
newpath
translate
1.7 setlinewidth
1 setlinejoin
0 setlinecap
0 0 m
0 -3.5 l
gsave
0.000 setgray
fill
grestore
stroke
grestore
} bind def
102.113 387.941 o
grestore
gsave
/o {
gsave
newpath
translate
1.7 setlinewidth
1 setlinejoin
0 setlinecap
0 0 m
0 3.5 l
gsave
0.000 setgray
fill
grestore
stroke
grestore
} bind def
116.062 42.3406 o
grestore
gsave
/o {
gsave
newpath
translate
1.7 setlinewidth
1 setlinejoin
0 setlinecap
0 0 m
0 -3.5 l
gsave
0.000 setgray
fill
grestore
stroke
grestore
} bind def
116.062 387.941 o
grestore
gsave
/o {
gsave
newpath
translate
1.7 setlinewidth
1 setlinejoin
0 setlinecap
0 0 m
0 3.5 l
gsave
0.000 setgray
fill
grestore
stroke
grestore
} bind def
130.012 42.3406 o
grestore
gsave
/o {
gsave
newpath
translate
1.7 setlinewidth
1 setlinejoin
0 setlinecap
0 0 m
0 -3.5 l
gsave
0.000 setgray
fill
grestore
stroke
grestore
} bind def
130.012 387.941 o
grestore
gsave
/o {
gsave
newpath
translate
1.7 setlinewidth
1 setlinejoin
0 setlinecap
0 0 m
0 3.5 l
gsave
0.000 setgray
fill
grestore
stroke
grestore
} bind def
143.963 42.3406 o
grestore
gsave
/o {
gsave
newpath
translate
1.7 setlinewidth
1 setlinejoin
0 setlinecap
0 0 m
0 -3.5 l
gsave
0.000 setgray
fill
grestore
stroke
grestore
} bind def
143.963 387.941 o
grestore
gsave
/o {
gsave
newpath
translate
1.7 setlinewidth
1 setlinejoin
0 setlinecap
0 0 m
0 3.5 l
gsave
0.000 setgray
fill
grestore
stroke
grestore
} bind def
157.912 42.3406 o
grestore
gsave
/o {
gsave
newpath
translate
1.7 setlinewidth
1 setlinejoin
0 setlinecap
0 0 m
0 -3.5 l
gsave
0.000 setgray
fill
grestore
stroke
grestore
} bind def
157.912 387.941 o
grestore
gsave
/o {
gsave
newpath
translate
1.7 setlinewidth
1 setlinejoin
0 setlinecap
0 0 m
0 3.5 l
gsave
0.000 setgray
fill
grestore
stroke
grestore
} bind def
171.863 42.3406 o
grestore
gsave
/o {
gsave
newpath
translate
1.7 setlinewidth
1 setlinejoin
0 setlinecap
0 0 m
0 -3.5 l
gsave
0.000 setgray
fill
grestore
stroke
grestore
} bind def
171.863 387.941 o
grestore
gsave
/o {
gsave
newpath
translate
1.7 setlinewidth
1 setlinejoin
0 setlinecap
0 0 m
0 3.5 l
gsave
0.000 setgray
fill
grestore
stroke
grestore
} bind def
185.812 42.3406 o
grestore
gsave
/o {
gsave
newpath
translate
1.7 setlinewidth
1 setlinejoin
0 setlinecap
0 0 m
0 -3.5 l
gsave
0.000 setgray
fill
grestore
stroke
grestore
} bind def
185.812 387.941 o
grestore
gsave
/o {
gsave
newpath
translate
1.7 setlinewidth
1 setlinejoin
0 setlinecap
0 0 m
0 3.5 l
gsave
0.000 setgray
fill
grestore
stroke
grestore
} bind def
199.762 42.3406 o
grestore
gsave
/o {
gsave
newpath
translate
1.7 setlinewidth
1 setlinejoin
0 setlinecap
0 0 m
0 -3.5 l
gsave
0.000 setgray
fill
grestore
stroke
grestore
} bind def
199.762 387.941 o
grestore
gsave
/o {
gsave
newpath
translate
1.7 setlinewidth
1 setlinejoin
0 setlinecap
0 0 m
0 3.5 l
gsave
0.000 setgray
fill
grestore
stroke
grestore
} bind def
213.713 42.3406 o
grestore
gsave
/o {
gsave
newpath
translate
1.7 setlinewidth
1 setlinejoin
0 setlinecap
0 0 m
0 -3.5 l
gsave
0.000 setgray
fill
grestore
stroke
grestore
} bind def
213.713 387.941 o
grestore
gsave
/o {
gsave
newpath
translate
1.7 setlinewidth
1 setlinejoin
0 setlinecap
0 0 m
0 3.5 l
gsave
0.000 setgray
fill
grestore
stroke
grestore
} bind def
227.662 42.3406 o
grestore
gsave
/o {
gsave
newpath
translate
1.7 setlinewidth
1 setlinejoin
0 setlinecap
0 0 m
0 -3.5 l
gsave
0.000 setgray
fill
grestore
stroke
grestore
} bind def
227.662 387.941 o
grestore
gsave
/o {
gsave
newpath
translate
1.7 setlinewidth
1 setlinejoin
0 setlinecap
0 0 m
0 3.5 l
gsave
0.000 setgray
fill
grestore
stroke
grestore
} bind def
241.613 42.3406 o
grestore
gsave
/o {
gsave
newpath
translate
1.7 setlinewidth
1 setlinejoin
0 setlinecap
0 0 m
0 -3.5 l
gsave
0.000 setgray
fill
grestore
stroke
grestore
} bind def
241.613 387.941 o
grestore
gsave
/o {
gsave
newpath
translate
1.7 setlinewidth
1 setlinejoin
0 setlinecap
0 0 m
0 3.5 l
gsave
0.000 setgray
fill
grestore
stroke
grestore
} bind def
255.562 42.3406 o
grestore
gsave
/o {
gsave
newpath
translate
1.7 setlinewidth
1 setlinejoin
0 setlinecap
0 0 m
0 -3.5 l
gsave
0.000 setgray
fill
grestore
stroke
grestore
} bind def
255.562 387.941 o
grestore
gsave
/o {
gsave
newpath
translate
1.7 setlinewidth
1 setlinejoin
0 setlinecap
0 0 m
0 3.5 l
gsave
0.000 setgray
fill
grestore
stroke
grestore
} bind def
269.512 42.3406 o
grestore
gsave
/o {
gsave
newpath
translate
1.7 setlinewidth
1 setlinejoin
0 setlinecap
0 0 m
0 -3.5 l
gsave
0.000 setgray
fill
grestore
stroke
grestore
} bind def
269.512 387.941 o
grestore
gsave
/o {
gsave
newpath
translate
1.7 setlinewidth
1 setlinejoin
0 setlinecap
0 0 m
0 3.5 l
gsave
0.000 setgray
fill
grestore
stroke
grestore
} bind def
283.463 42.3406 o
grestore
gsave
/o {
gsave
newpath
translate
1.7 setlinewidth
1 setlinejoin
0 setlinecap
0 0 m
0 -3.5 l
gsave
0.000 setgray
fill
grestore
stroke
grestore
} bind def
283.463 387.941 o
grestore
gsave
/o {
gsave
newpath
translate
1.7 setlinewidth
1 setlinejoin
0 setlinecap
0 0 m
0 3.5 l
gsave
0.000 setgray
fill
grestore
stroke
grestore
} bind def
297.412 42.3406 o
grestore
gsave
/o {
gsave
newpath
translate
1.7 setlinewidth
1 setlinejoin
0 setlinecap
0 0 m
0 -3.5 l
gsave
0.000 setgray
fill
grestore
stroke
grestore
} bind def
297.412 387.941 o
grestore
gsave
/o {
gsave
newpath
translate
1.7 setlinewidth
1 setlinejoin
0 setlinecap
0 0 m
0 3.5 l
gsave
0.000 setgray
fill
grestore
stroke
grestore
} bind def
311.363 42.3406 o
grestore
gsave
/o {
gsave
newpath
translate
1.7 setlinewidth
1 setlinejoin
0 setlinecap
0 0 m
0 -3.5 l
gsave
0.000 setgray
fill
grestore
stroke
grestore
} bind def
311.363 387.941 o
grestore
gsave
/o {
gsave
newpath
translate
1.7 setlinewidth
1 setlinejoin
0 setlinecap
0 0 m
0 3.5 l
gsave
0.000 setgray
fill
grestore
stroke
grestore
} bind def
325.312 42.3406 o
grestore
gsave
/o {
gsave
newpath
translate
1.7 setlinewidth
1 setlinejoin
0 setlinecap
0 0 m
0 -3.5 l
gsave
0.000 setgray
fill
grestore
stroke
grestore
} bind def
325.312 387.941 o
grestore
gsave
/o {
gsave
newpath
translate
1.7 setlinewidth
1 setlinejoin
0 setlinecap
0 0 m
0 3.5 l
gsave
0.000 setgray
fill
grestore
stroke
grestore
} bind def
339.262 42.3406 o
grestore
gsave
/o {
gsave
newpath
translate
1.7 setlinewidth
1 setlinejoin
0 setlinecap
0 0 m
0 -3.5 l
gsave
0.000 setgray
fill
grestore
stroke
grestore
} bind def
339.262 387.941 o
grestore
gsave
/o {
gsave
newpath
translate
1.7 setlinewidth
1 setlinejoin
0 setlinecap
0 0 m
0 3.5 l
gsave
0.000 setgray
fill
grestore
stroke
grestore
} bind def
353.213 42.3406 o
grestore
gsave
/o {
gsave
newpath
translate
1.7 setlinewidth
1 setlinejoin
0 setlinecap
0 0 m
0 -3.5 l
gsave
0.000 setgray
fill
grestore
stroke
grestore
} bind def
353.213 387.941 o
grestore
gsave
/o {
gsave
newpath
translate
1.7 setlinewidth
1 setlinejoin
0 setlinecap
0 0 m
0 3.5 l
gsave
0.000 setgray
fill
grestore
stroke
grestore
} bind def
367.162 42.3406 o
grestore
gsave
/o {
gsave
newpath
translate
1.7 setlinewidth
1 setlinejoin
0 setlinecap
0 0 m
0 -3.5 l
gsave
0.000 setgray
fill
grestore
stroke
grestore
} bind def
367.162 387.941 o
grestore
gsave
/o {
gsave
newpath
translate
1.7 setlinewidth
1 setlinejoin
0 setlinecap
0 0 m
0 3.5 l
gsave
0.000 setgray
fill
grestore
stroke
grestore
} bind def
381.113 42.3406 o
grestore
gsave
/o {
gsave
newpath
translate
1.7 setlinewidth
1 setlinejoin
0 setlinecap
0 0 m
0 -3.5 l
gsave
0.000 setgray
fill
grestore
stroke
grestore
} bind def
381.113 387.941 o
grestore
gsave
/o {
gsave
newpath
translate
1.7 setlinewidth
1 setlinejoin
0 setlinecap
0 0 m
0 3.5 l
gsave
0.000 setgray
fill
grestore
stroke
grestore
} bind def
395.062 42.3406 o
grestore
gsave
/o {
gsave
newpath
translate
1.7 setlinewidth
1 setlinejoin
0 setlinecap
0 0 m
0 -3.5 l
gsave
0.000 setgray
fill
grestore
stroke
grestore
} bind def
395.062 387.941 o
grestore
gsave
/o {
gsave
newpath
translate
1.7 setlinewidth
1 setlinejoin
0 setlinecap
0 0 m
0 3.5 l
gsave
0.000 setgray
fill
grestore
stroke
grestore
} bind def
409.012 42.3406 o
grestore
gsave
/o {
gsave
newpath
translate
1.7 setlinewidth
1 setlinejoin
0 setlinecap
0 0 m
0 -3.5 l
gsave
0.000 setgray
fill
grestore
stroke
grestore
} bind def
409.012 387.941 o
grestore
gsave
/o {
gsave
newpath
translate
1.7 setlinewidth
1 setlinejoin
0 setlinecap
0 0 m
0 3.5 l
gsave
0.000 setgray
fill
grestore
stroke
grestore
} bind def
422.963 42.3406 o
grestore
gsave
/o {
gsave
newpath
translate
1.7 setlinewidth
1 setlinejoin
0 setlinecap
0 0 m
0 -3.5 l
gsave
0.000 setgray
fill
grestore
stroke
grestore
} bind def
422.963 387.941 o
grestore
gsave
/o {
gsave
newpath
translate
1.7 setlinewidth
1 setlinejoin
0 setlinecap
0 0 m
0 3.5 l
gsave
0.000 setgray
fill
grestore
stroke
grestore
} bind def
436.912 42.3406 o
grestore
gsave
/o {
gsave
newpath
translate
1.7 setlinewidth
1 setlinejoin
0 setlinecap
0 0 m
0 -3.5 l
gsave
0.000 setgray
fill
grestore
stroke
grestore
} bind def
436.912 387.941 o
grestore
gsave
/o {
gsave
newpath
translate
1.7 setlinewidth
1 setlinejoin
0 setlinecap
0 0 m
0 3.5 l
gsave
0.000 setgray
fill
grestore
stroke
grestore
} bind def
450.863 42.3406 o
grestore
gsave
/o {
gsave
newpath
translate
1.7 setlinewidth
1 setlinejoin
0 setlinecap
0 0 m
0 -3.5 l
gsave
0.000 setgray
fill
grestore
stroke
grestore
} bind def
450.863 387.941 o
grestore
gsave
/o {
gsave
newpath
translate
1.7 setlinewidth
1 setlinejoin
0 setlinecap
0 0 m
0 3.5 l
gsave
0.000 setgray
fill
grestore
stroke
grestore
} bind def
464.812 42.3406 o
grestore
gsave
/o {
gsave
newpath
translate
1.7 setlinewidth
1 setlinejoin
0 setlinecap
0 0 m
0 -3.5 l
gsave
0.000 setgray
fill
grestore
stroke
grestore
} bind def
464.812 387.941 o
grestore
gsave
/o {
gsave
newpath
translate
1.7 setlinewidth
1 setlinejoin
0 setlinecap
0 0 m
0 3.5 l
gsave
0.000 setgray
fill
grestore
stroke
grestore
} bind def
478.762 42.3406 o
grestore
gsave
/o {
gsave
newpath
translate
1.7 setlinewidth
1 setlinejoin
0 setlinecap
0 0 m
0 -3.5 l
gsave
0.000 setgray
fill
grestore
stroke
grestore
} bind def
478.762 387.941 o
grestore
gsave
/o {
gsave
newpath
translate
1.7 setlinewidth
1 setlinejoin
0 setlinecap
0 0 m
0 3.5 l
gsave
0.000 setgray
fill
grestore
stroke
grestore
} bind def
492.713 42.3406 o
grestore
gsave
/o {
gsave
newpath
translate
1.7 setlinewidth
1 setlinejoin
0 setlinecap
0 0 m
0 -3.5 l
gsave
0.000 setgray
fill
grestore
stroke
grestore
} bind def
492.713 387.941 o
grestore
gsave
/o {
gsave
newpath
translate
1.7 setlinewidth
1 setlinejoin
0 setlinecap
0 0 m
0 3.5 l
gsave
0.000 setgray
fill
grestore
stroke
grestore
} bind def
506.662 42.3406 o
grestore
gsave
/o {
gsave
newpath
translate
1.7 setlinewidth
1 setlinejoin
0 setlinecap
0 0 m
0 -3.5 l
gsave
0.000 setgray
fill
grestore
stroke
grestore
} bind def
506.662 387.941 o
grestore
/BitstreamVeraSans-Roman findfont
12.000 scalefont
setfont
gsave
258.720312 9.700000 translate
0.000000 rotate
0.000000 0.000000 m /P glyphshow
6.486328 0.000000 m /A glyphshow
14.695312 0.000000 m /space glyphshow
18.509766 0.000000 m /bracketleft glyphshow
23.191406 0.000000 m /d glyphshow
30.808594 0.000000 m /e glyphshow
38.191406 0.000000 m /g glyphshow
45.808594 0.000000 m /bracketright glyphshow
grestore
2.300 setlinewidth
gsave
/o {
gsave
newpath
translate
2.3 setlinewidth
1 setlinejoin
0 setlinecap
0 0 m
5.5 0 l
gsave
0.000 setgray
fill
grestore
stroke
grestore
} bind def
60.2625 68.9252 o
grestore
gsave
/o {
gsave
newpath
translate
2.3 setlinewidth
1 setlinejoin
0 setlinecap
0 0 m
-5.5 0 l
gsave
0.000 setgray
fill
grestore
stroke
grestore
} bind def
506.662 68.9252 o
grestore
/BitstreamVeraSans-Roman findfont
15.000 scalefont
setfont
gsave
27.200000 64.792428 translate
0.000000 rotate
0.000000 0.000000 m /minus glyphshow
12.568359 0.000000 m /six glyphshow
22.111816 0.000000 m /zero glyphshow
grestore
gsave
/o {
gsave
newpath
translate
2.3 setlinewidth
1 setlinejoin
0 setlinecap
0 0 m
5.5 0 l
gsave
0.000 setgray
fill
grestore
stroke
grestore
} bind def
60.2625 122.094 o
grestore
gsave
/o {
gsave
newpath
translate
2.3 setlinewidth
1 setlinejoin
0 setlinecap
0 0 m
-5.5 0 l
gsave
0.000 setgray
fill
grestore
stroke
grestore
} bind def
506.662 122.094 o
grestore
gsave
27.200000 117.961659 translate
0.000000 rotate
0.000000 0.000000 m /minus glyphshow
12.568359 0.000000 m /four glyphshow
22.111816 0.000000 m /zero glyphshow
grestore
gsave
/o {
gsave
newpath
translate
2.3 setlinewidth
1 setlinejoin
0 setlinecap
0 0 m
5.5 0 l
gsave
0.000 setgray
fill
grestore
stroke
grestore
} bind def
60.2625 175.264 o
grestore
gsave
/o {
gsave
newpath
translate
2.3 setlinewidth
1 setlinejoin
0 setlinecap
0 0 m
-5.5 0 l
gsave
0.000 setgray
fill
grestore
stroke
grestore
} bind def
506.662 175.264 o
grestore
gsave
27.200000 171.130889 translate
0.000000 rotate
0.000000 0.000000 m /minus glyphshow
12.568359 0.000000 m /two glyphshow
22.111816 0.000000 m /zero glyphshow
grestore
gsave
/o {
gsave
newpath
translate
2.3 setlinewidth
1 setlinejoin
0 setlinecap
0 0 m
5.5 0 l
gsave
0.000 setgray
fill
grestore
stroke
grestore
} bind def
60.2625 228.433 o
grestore
gsave
/o {
gsave
newpath
translate
2.3 setlinewidth
1 setlinejoin
0 setlinecap
0 0 m
-5.5 0 l
gsave
0.000 setgray
fill
grestore
stroke
grestore
} bind def
506.662 228.433 o
grestore
gsave
48.700000 224.300120 translate
0.000000 rotate
0.000000 0.000000 m /zero glyphshow
grestore
gsave
/o {
gsave
newpath
translate
2.3 setlinewidth
1 setlinejoin
0 setlinecap
0 0 m
5.5 0 l
gsave
0.000 setgray
fill
grestore
stroke
grestore
} bind def
60.2625 281.602 o
grestore
gsave
/o {
gsave
newpath
translate
2.3 setlinewidth
1 setlinejoin
0 setlinecap
0 0 m
-5.5 0 l
gsave
0.000 setgray
fill
grestore
stroke
grestore
} bind def
506.662 281.602 o
grestore
gsave
39.262500 277.469351 translate
0.000000 rotate
0.000000 0.000000 m /two glyphshow
9.543457 0.000000 m /zero glyphshow
grestore
gsave
/o {
gsave
newpath
translate
2.3 setlinewidth
1 setlinejoin
0 setlinecap
0 0 m
5.5 0 l
gsave
0.000 setgray
fill
grestore
stroke
grestore
} bind def
60.2625 334.771 o
grestore
gsave
/o {
gsave
newpath
translate
2.3 setlinewidth
1 setlinejoin
0 setlinecap
0 0 m
-5.5 0 l
gsave
0.000 setgray
fill
grestore
stroke
grestore
} bind def
506.662 334.771 o
grestore
gsave
38.903125 330.638582 translate
0.000000 rotate
0.000000 0.000000 m /four glyphshow
9.543457 0.000000 m /zero glyphshow
grestore
gsave
/o {
gsave
newpath
translate
2.3 setlinewidth
1 setlinejoin
0 setlinecap
0 0 m
5.5 0 l
gsave
0.000 setgray
fill
grestore
stroke
grestore
} bind def
60.2625 387.941 o
grestore
gsave
/o {
gsave
newpath
translate
2.3 setlinewidth
1 setlinejoin
0 setlinecap
0 0 m
-5.5 0 l
gsave
0.000 setgray
fill
grestore
stroke
grestore
} bind def
506.662 387.941 o
grestore
gsave
39.215625 383.807813 translate
0.000000 rotate
0.000000 0.000000 m /six glyphshow
9.543457 0.000000 m /zero glyphshow
grestore
1.700 setlinewidth
gsave
/o {
gsave
newpath
translate
1.7 setlinewidth
1 setlinejoin
0 setlinecap
0 0 m
3.5 0 l
gsave
0.000 setgray
fill
grestore
stroke
grestore
} bind def
60.2625 42.3406 o
grestore
gsave
/o {
gsave
newpath
translate
1.7 setlinewidth
1 setlinejoin
0 setlinecap
0 0 m
-3.5 0 l
gsave
0.000 setgray
fill
grestore
stroke
grestore
} bind def
506.662 42.3406 o
grestore
gsave
/o {
gsave
newpath
translate
1.7 setlinewidth
1 setlinejoin
0 setlinecap
0 0 m
3.5 0 l
gsave
0.000 setgray
fill
grestore
stroke
grestore
} bind def
60.2625 55.6329 o
grestore
gsave
/o {
gsave
newpath
translate
1.7 setlinewidth
1 setlinejoin
0 setlinecap
0 0 m
-3.5 0 l
gsave
0.000 setgray
fill
grestore
stroke
grestore
} bind def
506.662 55.6329 o
grestore
gsave
/o {
gsave
newpath
translate
1.7 setlinewidth
1 setlinejoin
0 setlinecap
0 0 m
3.5 0 l
gsave
0.000 setgray
fill
grestore
stroke
grestore
} bind def
60.2625 68.9252 o
grestore
gsave
/o {
gsave
newpath
translate
1.7 setlinewidth
1 setlinejoin
0 setlinecap
0 0 m
-3.5 0 l
gsave
0.000 setgray
fill
grestore
stroke
grestore
} bind def
506.662 68.9252 o
grestore
gsave
/o {
gsave
newpath
translate
1.7 setlinewidth
1 setlinejoin
0 setlinecap
0 0 m
3.5 0 l
gsave
0.000 setgray
fill
grestore
stroke
grestore
} bind def
60.2625 82.2175 o
grestore
gsave
/o {
gsave
newpath
translate
1.7 setlinewidth
1 setlinejoin
0 setlinecap
0 0 m
-3.5 0 l
gsave
0.000 setgray
fill
grestore
stroke
grestore
} bind def
506.662 82.2175 o
grestore
gsave
/o {
gsave
newpath
translate
1.7 setlinewidth
1 setlinejoin
0 setlinecap
0 0 m
3.5 0 l
gsave
0.000 setgray
fill
grestore
stroke
grestore
} bind def
60.2625 95.5099 o
grestore
gsave
/o {
gsave
newpath
translate
1.7 setlinewidth
1 setlinejoin
0 setlinecap
0 0 m
-3.5 0 l
gsave
0.000 setgray
fill
grestore
stroke
grestore
} bind def
506.662 95.5099 o
grestore
gsave
/o {
gsave
newpath
translate
1.7 setlinewidth
1 setlinejoin
0 setlinecap
0 0 m
3.5 0 l
gsave
0.000 setgray
fill
grestore
stroke
grestore
} bind def
60.2625 108.802 o
grestore
gsave
/o {
gsave
newpath
translate
1.7 setlinewidth
1 setlinejoin
0 setlinecap
0 0 m
-3.5 0 l
gsave
0.000 setgray
fill
grestore
stroke
grestore
} bind def
506.662 108.802 o
grestore
gsave
/o {
gsave
newpath
translate
1.7 setlinewidth
1 setlinejoin
0 setlinecap
0 0 m
3.5 0 l
gsave
0.000 setgray
fill
grestore
stroke
grestore
} bind def
60.2625 122.094 o
grestore
gsave
/o {
gsave
newpath
translate
1.7 setlinewidth
1 setlinejoin
0 setlinecap
0 0 m
-3.5 0 l
gsave
0.000 setgray
fill
grestore
stroke
grestore
} bind def
506.662 122.094 o
grestore
gsave
/o {
gsave
newpath
translate
1.7 setlinewidth
1 setlinejoin
0 setlinecap
0 0 m
3.5 0 l
gsave
0.000 setgray
fill
grestore
stroke
grestore
} bind def
60.2625 135.387 o
grestore
gsave
/o {
gsave
newpath
translate
1.7 setlinewidth
1 setlinejoin
0 setlinecap
0 0 m
-3.5 0 l
gsave
0.000 setgray
fill
grestore
stroke
grestore
} bind def
506.662 135.387 o
grestore
gsave
/o {
gsave
newpath
translate
1.7 setlinewidth
1 setlinejoin
0 setlinecap
0 0 m
3.5 0 l
gsave
0.000 setgray
fill
grestore
stroke
grestore
} bind def
60.2625 148.679 o
grestore
gsave
/o {
gsave
newpath
translate
1.7 setlinewidth
1 setlinejoin
0 setlinecap
0 0 m
-3.5 0 l
gsave
0.000 setgray
fill
grestore
stroke
grestore
} bind def
506.662 148.679 o
grestore
gsave
/o {
gsave
newpath
translate
1.7 setlinewidth
1 setlinejoin
0 setlinecap
0 0 m
3.5 0 l
gsave
0.000 setgray
fill
grestore
stroke
grestore
} bind def
60.2625 161.971 o
grestore
gsave
/o {
gsave
newpath
translate
1.7 setlinewidth
1 setlinejoin
0 setlinecap
0 0 m
-3.5 0 l
gsave
0.000 setgray
fill
grestore
stroke
grestore
} bind def
506.662 161.971 o
grestore
gsave
/o {
gsave
newpath
translate
1.7 setlinewidth
1 setlinejoin
0 setlinecap
0 0 m
3.5 0 l
gsave
0.000 setgray
fill
grestore
stroke
grestore
} bind def
60.2625 175.264 o
grestore
gsave
/o {
gsave
newpath
translate
1.7 setlinewidth
1 setlinejoin
0 setlinecap
0 0 m
-3.5 0 l
gsave
0.000 setgray
fill
grestore
stroke
grestore
} bind def
506.662 175.264 o
grestore
gsave
/o {
gsave
newpath
translate
1.7 setlinewidth
1 setlinejoin
0 setlinecap
0 0 m
3.5 0 l
gsave
0.000 setgray
fill
grestore
stroke
grestore
} bind def
60.2625 188.556 o
grestore
gsave
/o {
gsave
newpath
translate
1.7 setlinewidth
1 setlinejoin
0 setlinecap
0 0 m
-3.5 0 l
gsave
0.000 setgray
fill
grestore
stroke
grestore
} bind def
506.662 188.556 o
grestore
gsave
/o {
gsave
newpath
translate
1.7 setlinewidth
1 setlinejoin
0 setlinecap
0 0 m
3.5 0 l
gsave
0.000 setgray
fill
grestore
stroke
grestore
} bind def
60.2625 201.848 o
grestore
gsave
/o {
gsave
newpath
translate
1.7 setlinewidth
1 setlinejoin
0 setlinecap
0 0 m
-3.5 0 l
gsave
0.000 setgray
fill
grestore
stroke
grestore
} bind def
506.662 201.848 o
grestore
gsave
/o {
gsave
newpath
translate
1.7 setlinewidth
1 setlinejoin
0 setlinecap
0 0 m
3.5 0 l
gsave
0.000 setgray
fill
grestore
stroke
grestore
} bind def
60.2625 215.141 o
grestore
gsave
/o {
gsave
newpath
translate
1.7 setlinewidth
1 setlinejoin
0 setlinecap
0 0 m
-3.5 0 l
gsave
0.000 setgray
fill
grestore
stroke
grestore
} bind def
506.662 215.141 o
grestore
gsave
/o {
gsave
newpath
translate
1.7 setlinewidth
1 setlinejoin
0 setlinecap
0 0 m
3.5 0 l
gsave
0.000 setgray
fill
grestore
stroke
grestore
} bind def
60.2625 228.433 o
grestore
gsave
/o {
gsave
newpath
translate
1.7 setlinewidth
1 setlinejoin
0 setlinecap
0 0 m
-3.5 0 l
gsave
0.000 setgray
fill
grestore
stroke
grestore
} bind def
506.662 228.433 o
grestore
gsave
/o {
gsave
newpath
translate
1.7 setlinewidth
1 setlinejoin
0 setlinecap
0 0 m
3.5 0 l
gsave
0.000 setgray
fill
grestore
stroke
grestore
} bind def
60.2625 241.725 o
grestore
gsave
/o {
gsave
newpath
translate
1.7 setlinewidth
1 setlinejoin
0 setlinecap
0 0 m
-3.5 0 l
gsave
0.000 setgray
fill
grestore
stroke
grestore
} bind def
506.662 241.725 o
grestore
gsave
/o {
gsave
newpath
translate
1.7 setlinewidth
1 setlinejoin
0 setlinecap
0 0 m
3.5 0 l
gsave
0.000 setgray
fill
grestore
stroke
grestore
} bind def
60.2625 255.018 o
grestore
gsave
/o {
gsave
newpath
translate
1.7 setlinewidth
1 setlinejoin
0 setlinecap
0 0 m
-3.5 0 l
gsave
0.000 setgray
fill
grestore
stroke
grestore
} bind def
506.662 255.018 o
grestore
gsave
/o {
gsave
newpath
translate
1.7 setlinewidth
1 setlinejoin
0 setlinecap
0 0 m
3.5 0 l
gsave
0.000 setgray
fill
grestore
stroke
grestore
} bind def
60.2625 268.31 o
grestore
gsave
/o {
gsave
newpath
translate
1.7 setlinewidth
1 setlinejoin
0 setlinecap
0 0 m
-3.5 0 l
gsave
0.000 setgray
fill
grestore
stroke
grestore
} bind def
506.662 268.31 o
grestore
gsave
/o {
gsave
newpath
translate
1.7 setlinewidth
1 setlinejoin
0 setlinecap
0 0 m
3.5 0 l
gsave
0.000 setgray
fill
grestore
stroke
grestore
} bind def
60.2625 281.602 o
grestore
gsave
/o {
gsave
newpath
translate
1.7 setlinewidth
1 setlinejoin
0 setlinecap
0 0 m
-3.5 0 l
gsave
0.000 setgray
fill
grestore
stroke
grestore
} bind def
506.662 281.602 o
grestore
gsave
/o {
gsave
newpath
translate
1.7 setlinewidth
1 setlinejoin
0 setlinecap
0 0 m
3.5 0 l
gsave
0.000 setgray
fill
grestore
stroke
grestore
} bind def
60.2625 294.894 o
grestore
gsave
/o {
gsave
newpath
translate
1.7 setlinewidth
1 setlinejoin
0 setlinecap
0 0 m
-3.5 0 l
gsave
0.000 setgray
fill
grestore
stroke
grestore
} bind def
506.662 294.894 o
grestore
gsave
/o {
gsave
newpath
translate
1.7 setlinewidth
1 setlinejoin
0 setlinecap
0 0 m
3.5 0 l
gsave
0.000 setgray
fill
grestore
stroke
grestore
} bind def
60.2625 308.187 o
grestore
gsave
/o {
gsave
newpath
translate
1.7 setlinewidth
1 setlinejoin
0 setlinecap
0 0 m
-3.5 0 l
gsave
0.000 setgray
fill
grestore
stroke
grestore
} bind def
506.662 308.187 o
grestore
gsave
/o {
gsave
newpath
translate
1.7 setlinewidth
1 setlinejoin
0 setlinecap
0 0 m
3.5 0 l
gsave
0.000 setgray
fill
grestore
stroke
grestore
} bind def
60.2625 321.479 o
grestore
gsave
/o {
gsave
newpath
translate
1.7 setlinewidth
1 setlinejoin
0 setlinecap
0 0 m
-3.5 0 l
gsave
0.000 setgray
fill
grestore
stroke
grestore
} bind def
506.662 321.479 o
grestore
gsave
/o {
gsave
newpath
translate
1.7 setlinewidth
1 setlinejoin
0 setlinecap
0 0 m
3.5 0 l
gsave
0.000 setgray
fill
grestore
stroke
grestore
} bind def
60.2625 334.771 o
grestore
gsave
/o {
gsave
newpath
translate
1.7 setlinewidth
1 setlinejoin
0 setlinecap
0 0 m
-3.5 0 l
gsave
0.000 setgray
fill
grestore
stroke
grestore
} bind def
506.662 334.771 o
grestore
gsave
/o {
gsave
newpath
translate
1.7 setlinewidth
1 setlinejoin
0 setlinecap
0 0 m
3.5 0 l
gsave
0.000 setgray
fill
grestore
stroke
grestore
} bind def
60.2625 348.064 o
grestore
gsave
/o {
gsave
newpath
translate
1.7 setlinewidth
1 setlinejoin
0 setlinecap
0 0 m
-3.5 0 l
gsave
0.000 setgray
fill
grestore
stroke
grestore
} bind def
506.662 348.064 o
grestore
gsave
/o {
gsave
newpath
translate
1.7 setlinewidth
1 setlinejoin
0 setlinecap
0 0 m
3.5 0 l
gsave
0.000 setgray
fill
grestore
stroke
grestore
} bind def
60.2625 361.356 o
grestore
gsave
/o {
gsave
newpath
translate
1.7 setlinewidth
1 setlinejoin
0 setlinecap
0 0 m
-3.5 0 l
gsave
0.000 setgray
fill
grestore
stroke
grestore
} bind def
506.662 361.356 o
grestore
gsave
/o {
gsave
newpath
translate
1.7 setlinewidth
1 setlinejoin
0 setlinecap
0 0 m
3.5 0 l
gsave
0.000 setgray
fill
grestore
stroke
grestore
} bind def
60.2625 374.648 o
grestore
gsave
/o {
gsave
newpath
translate
1.7 setlinewidth
1 setlinejoin
0 setlinecap
0 0 m
-3.5 0 l
gsave
0.000 setgray
fill
grestore
stroke
grestore
} bind def
506.662 374.648 o
grestore
gsave
/o {
gsave
newpath
translate
1.7 setlinewidth
1 setlinejoin
0 setlinecap
0 0 m
3.5 0 l
gsave
0.000 setgray
fill
grestore
stroke
grestore
} bind def
60.2625 387.941 o
grestore
gsave
/o {
gsave
newpath
translate
1.7 setlinewidth
1 setlinejoin
0 setlinecap
0 0 m
-3.5 0 l
gsave
0.000 setgray
fill
grestore
stroke
grestore
} bind def
506.662 387.941 o
grestore
gsave
18.200000 112.640625 translate
90.000000 rotate
/BitstreamVeraSans-Roman findfont
12.0 scalefont
setfont
0.000000 0.298125 moveto
/r glyphshow

4.933594 0.298125 moveto
/o glyphshow

12.275391 0.298125 moveto
/t glyphshow

16.980469 0.298125 moveto
/a glyphshow

24.333984 0.298125 moveto
/t glyphshow

29.039062 0.298125 moveto
/i glyphshow

32.373047 0.298125 moveto
/o glyphshow

39.714844 0.298125 moveto
/n glyphshow

47.320312 0.298125 moveto
/space glyphshow

51.134766 0.298125 moveto
/c glyphshow

57.732422 0.298125 moveto
/o glyphshow

65.074219 0.298125 moveto
/r glyphshow

70.007812 0.298125 moveto
/r glyphshow

74.941406 0.298125 moveto
/e glyphshow

82.324219 0.298125 moveto
/c glyphshow

88.921875 0.298125 moveto
/t glyphshow

93.626953 0.298125 moveto
/e glyphshow

101.009766 0.298125 moveto
/d glyphshow

108.626953 0.298125 moveto
/space glyphshow

/Cmmi10 findfont
12.0 scalefont
setfont
112.441406 0.298125 moveto
/V glyphshow

/Cmr10 findfont
8.4 scalefont
setfont
119.437500 -2.763000 moveto
/M glyphshow

127.132031 -2.763000 moveto
/three glyphshow

131.332031 -2.763000 moveto
/one glyphshow

135.532031 -2.763000 moveto
/c glyphshow

139.260352 -2.763000 moveto
/o glyphshow

143.460352 -2.763000 moveto
/r glyphshow

146.745703 -2.763000 moveto
/r glyphshow

/BitstreamVeraSans-Roman findfont
12.0 scalefont
setfont
150.031055 0.298125 moveto
/space glyphshow

153.845508 0.298125 moveto
/bracketleft glyphshow

158.527148 0.298125 moveto
/k glyphshow

165.476367 0.298125 moveto
/m glyphshow

177.165820 0.298125 moveto
/space glyphshow

180.980273 0.298125 moveto
/s glyphshow

/Cmsy10 findfont
8.4 scalefont
setfont
187.232227 5.400000 moveto
/minus glyphshow

/Cmr10 findfont
8.4 scalefont
setfont
193.757812 5.400000 moveto
/one glyphshow

/BitstreamVeraSans-Roman findfont
12.0 scalefont
setfont
199.998562 0.298125 moveto
/bracketright glyphshow


grestore
1.000 setlinewidth
gsave
60.2625 387.941 m
506.662 387.941 l
stroke
grestore
gsave
506.662 42.3406 m
506.662 387.941 l
stroke
grestore
gsave
60.2625 42.3406 m
506.662 42.3406 l
stroke
grestore
gsave
60.2625 42.3406 m
60.2625 387.941 l
stroke
grestore
/BitstreamVeraSans-Roman findfont
10.000 scalefont
setfont
gsave
116.062500 306.857548 translate
0.000000 rotate
0.000000 0.000000 m /P glyphshow
5.405273 0.000000 m /A glyphshow
12.246094 0.000000 m /n glyphshow
18.583984 0.000000 m /d glyphshow
24.931641 0.000000 m /A glyphshow
31.772461 0.000000 m /S glyphshow
38.120117 0.000000 m /hyphen glyphshow
41.728516 0.000000 m /one glyphshow
48.090820 0.000000 m /four glyphshow
grestore
gsave
417.382500 94.180625 translate
0.000000 rotate
0.000000 0.000000 m /P glyphshow
5.405273 0.000000 m /A glyphshow
12.246094 0.000000 m /n glyphshow
18.583984 0.000000 m /d glyphshow
24.931641 0.000000 m /A glyphshow
31.772461 0.000000 m /S glyphshow
38.120117 0.000000 m /hyphen glyphshow
41.728516 0.000000 m /zero glyphshow
48.090820 0.000000 m /seven glyphshow
grestore
gsave
339.262500 188.290163 translate
0.000000 rotate
0.000000 0.000000 m /P glyphshow
5.405273 0.000000 m /A glyphshow
12.246094 0.000000 m /n glyphshow
18.583984 0.000000 m /d glyphshow
24.931641 0.000000 m /A glyphshow
31.772461 0.000000 m /S glyphshow
38.120117 0.000000 m /hyphen glyphshow
41.728516 0.000000 m /zero glyphshow
48.090820 0.000000 m /eight glyphshow
grestore
gsave
64.2625 46.3406 m
207.344 46.3406 l
207.344 83.9906 l
64.2625 83.9906 l
64.2625 46.3406 l
cl
gsave
1.000 setgray
fill
grestore
stroke
grestore
2.000 setlinewidth
2 setlinecap
gsave
67.4625 77.5125 m
83.4625 77.5125 l
stroke
grestore
/BitstreamVeraSans-Roman findfont
8.000 scalefont
setfont
gsave
89.862500 74.712500 translate
0.000000 rotate
0.000000 0.000000 m /l glyphshow
2.222656 0.000000 m /i glyphshow
4.445312 0.000000 m /n glyphshow
9.515625 0.000000 m /e glyphshow
14.437500 0.000000 m /a glyphshow
19.339844 0.000000 m /r glyphshow
22.628906 0.000000 m /space glyphshow
25.171875 0.000000 m /f glyphshow
27.988281 0.000000 m /i glyphshow
30.210938 0.000000 m /t glyphshow
grestore
/p2_0 {
newpath
translate
75.4625 61.7625 m
75.4625 69.7625 l
} bind def
1.000 setlinewidth
0 setlinecap
gsave
0 0 p2_0
stroke
grestore
0.500 setlinewidth
gsave
/o {
gsave
newpath
translate
0.5 setlinewidth
1 setlinejoin
0 setlinecap
3 -1.83697e-16 m
-3 1.83697e-16 l
gsave
0.000 setgray
fill
grestore
stroke
grestore
} bind def
75.4625 61.7625 o
grestore
gsave
/o {
gsave
newpath
translate
0.5 setlinewidth
1 setlinejoin
0 setlinecap
3 -1.83697e-16 m
-3 1.83697e-16 l
gsave
0.000 setgray
fill
grestore
stroke
grestore
} bind def
75.4625 69.7625 o
grestore
gsave
/o {
gsave
newpath
translate
0.5 setlinewidth
1 setlinejoin
0 setlinecap
0 -3 m
0.795609 -3 1.55874 -2.6839 2.12132 -2.12132 c
2.6839 -1.55874 3 -0.795609 3 0 c
3 0.795609 2.6839 1.55874 2.12132 2.12132 c
1.55874 2.6839 0.795609 3 0 3 c
-0.795609 3 -1.55874 2.6839 -2.12132 2.12132 c
-2.6839 1.55874 -3 0.795609 -3 0 c
-3 -0.795609 -2.6839 -1.55874 -2.12132 -2.12132 c
-1.55874 -2.6839 -0.795609 -3 0 -3 c
cl
gsave
0.000 setgray
fill
grestore
stroke
grestore
} bind def
75.4625 65.7625 o
grestore
gsave
89.862500 62.962500 translate
0.000000 rotate
0.000000 0.000000 m /G glyphshow
6.199219 0.000000 m /C glyphshow
11.785156 0.000000 m /space glyphshow
14.328125 0.000000 m /v glyphshow
19.062500 0.000000 m /e glyphshow
23.984375 0.000000 m /l glyphshow
26.207031 0.000000 m /o glyphshow
31.101562 0.000000 m /c glyphshow
35.500000 0.000000 m /i glyphshow
37.722656 0.000000 m /t glyphshow
40.859375 0.000000 m /i glyphshow
43.082031 0.000000 m /e glyphshow
48.003906 0.000000 m /s glyphshow
grestore
/p3_0 {
newpath
translate
75.4625 50.0125 m
75.4625 58.0125 l
} bind def
1.000 setlinewidth
gsave
0 0 p3_0
stroke
grestore
0.500 setlinewidth
gsave
/o {
gsave
newpath
translate
0.5 setlinewidth
1 setlinejoin
0 setlinecap
3 -1.83697e-16 m
-3 1.83697e-16 l
gsave
0.000 setgray
fill
grestore
stroke
grestore
} bind def
75.4625 50.0125 o
grestore
gsave
/o {
gsave
newpath
translate
0.5 setlinewidth
1 setlinejoin
0 setlinecap
3 -1.83697e-16 m
-3 1.83697e-16 l
gsave
0.000 setgray
fill
grestore
stroke
grestore
} bind def
75.4625 58.0125 o
grestore
2 setlinejoin
gsave
/o {
gsave
newpath
translate
0.5 setlinewidth
2 setlinejoin
0 setlinecap
2.14313e-16 3.5 m
-0.785799 1.08156 l
-3.3287 1.08156 l
-1.27145 -0.413119 l
-2.05725 -2.83156 l
-2.45581e-16 -1.33688 l
2.05725 -2.83156 l
1.27145 -0.413119 l
3.3287 1.08156 l
0.785799 1.08156 l
cl
gsave
0.000 setgray
fill
grestore
stroke
grestore
} bind def
75.4625 54.0125 o
grestore
gsave
89.862500 51.212500 translate
0.000000 rotate
0.000000 0.000000 m /h glyphshow
5.070312 0.000000 m /a glyphshow
9.972656 0.000000 m /l glyphshow
12.195312 0.000000 m /o glyphshow
17.089844 0.000000 m /space glyphshow
19.632812 0.000000 m /f glyphshow
22.449219 0.000000 m /i glyphshow
24.671875 0.000000 m /e glyphshow
29.593750 0.000000 m /l glyphshow
31.816406 0.000000 m /d glyphshow
36.894531 0.000000 m /comma glyphshow
39.437500 0.000000 m /space glyphshow
41.980469 0.000000 m /G glyphshow
48.179688 0.000000 m /i glyphshow
50.402344 0.000000 m /l glyphshow
52.625000 0.000000 m /b glyphshow
57.703125 0.000000 m /e glyphshow
62.625000 0.000000 m /r glyphshow
65.914062 0.000000 m /t glyphshow
69.050781 0.000000 m /space glyphshow
71.593750 0.000000 m /e glyphshow
76.515625 0.000000 m /t glyphshow
79.652344 0.000000 m /space glyphshow
82.195312 0.000000 m /a glyphshow
87.097656 0.000000 m /l glyphshow
89.320312 0.000000 m /period glyphshow
91.863281 0.000000 m /space glyphshow
94.406250 0.000000 m /two glyphshow
99.496094 0.000000 m /zero glyphshow
104.585938 0.000000 m /one glyphshow
109.675781 0.000000 m /zero glyphshow
grestore

end
showpage
