\addvspace {10\p@ }
\addvspace {10\p@ }
\addvspace {10\p@ }
\addvspace {10\p@ }
\addvspace {10\p@ }
\contentsline {table}{\numberline {(1.1)}{\ignorespaces Kinematics of the Milky Way GC system}}{9}{table.caption.17}
\addvspace {10\p@ }
\contentsline {table}{\numberline {(2.1)}{\ignorespaces Log of spectroscopic observations}}{43}{table.caption.36}
\contentsline {table}{\numberline {(2.2)}{\ignorespaces Radial velocity standard stars and GC templates observations}}{51}{table.caption.40}
\contentsline {table}{\numberline {(2.3)}{\ignorespaces Literature radial velocities for clusters in the presented sample}}{54}{table.caption.42}
\contentsline {table}{\numberline {(2.4)}{\ignorespaces Globular cluster radial velocity measurements}}{58}{table.caption.45}
\addvspace {10\p@ }
\contentsline {table}{\numberline {(3.1)}{\ignorespaces The Bayes factor scale}}{61}{table.caption.47}
\contentsline {table}{\numberline {(3.2)}{\ignorespaces Results of the Bayesian kinematic analysis}}{65}{table.caption.48}
\contentsline {table}{\numberline {(3.3)}{\ignorespaces Recent literature estimates of the M31 mass}}{82}{table.caption.56}
\contentsline {table}{\numberline {(3.4)}{\ignorespaces M31 dynamical mass estimates}}{84}{table.caption.57}
\addvspace {10\p@ }
\contentsline {table}{\numberline {(4.1)}{\ignorespaces Basic properties of NGC\nobreakspace {}147 and NGC\nobreakspace {}185}}{89}{table.caption.58}
\contentsline {table}{\numberline {(4.2)}{\ignorespaces Spectroscopic observations log for NGC\nobreakspace {}147 and NGC\nobreakspace {}185 GCs}}{91}{table.caption.59}
\contentsline {table}{\numberline {(4.3)}{\ignorespaces Coordinates of the GCs in NGC\nobreakspace {}147 and NGC\nobreakspace {}185}}{96}{table.caption.62}
\contentsline {table}{\numberline {(4.4)}{\ignorespaces Magnitudes of the GCs in NGC147 and NGC\nobreakspace {}185}}{99}{table.caption.64}
\contentsline {table}{\numberline {(4.5)}{\ignorespaces Colours of the GCs in NGC\nobreakspace {}147 and NGC\nobreakspace {}185}}{100}{table.caption.65}
\contentsline {table}{\numberline {(4.6)}{\ignorespaces Empirical ${\rm [Fe/H]}$ values for the GCs in NGC\nobreakspace {}147 and NGC\nobreakspace {}185}}{105}{table.caption.67}
\contentsline {table}{\numberline {(4.7)}{\ignorespaces $V_{\rm helio}$ of the GCs around NGC\nobreakspace {}147 and NGC\nobreakspace {}185 }}{107}{table.caption.68}
\contentsline {table}{\numberline {(4.8)}{\ignorespaces Dynamical masses of NGC\nobreakspace {}147 and NGC\nobreakspace {}185}}{114}{table.caption.71}
\addvspace {10\p@ }
\contentsline {table}{\numberline {(5.1)}{\ignorespaces Coordinates of the GCs in NGC\nobreakspace {}6822}}{123}{table.caption.75}
\contentsline {table}{\numberline {(5.2)}{\ignorespaces Log of spectroscopic observations of NGC\nobreakspace {}6822 GCs}}{126}{table.caption.77}
\contentsline {table}{\numberline {(5.3)}{\ignorespaces Magnitudes of the GCs hosted by NGC\nobreakspace {}6822}}{128}{table.caption.79}
\contentsline {table}{\numberline {(5.4)}{\ignorespaces Photometry of the NGC\nobreakspace {}6822 GCs in the Johnson/Cousis system }}{128}{table.caption.79}
\contentsline {table}{\numberline {(5.5)}{\ignorespaces Empirical ${\rm [Fe/H]}$ values for the GCs in NGC\nobreakspace {}6822}}{131}{table.caption.81}
\contentsline {table}{\numberline {(5.6)}{\ignorespaces $V_{\rm helio}$ of the GCs around NGC\nobreakspace {}6822 }}{133}{table.caption.82}
\contentsline {table}{\numberline {(5.7)}{\ignorespaces The dynamical mass of NGC\nobreakspace {}6822}}{137}{table.caption.84}
\addvspace {10\p@ }
\addvspace {10\p@ }
\contentsline {table}{\numberline {(A.1)}{\ignorespaces \ Comparing the $\chi ^2$ and cross-correlation velocity techniques }}{147}{table.caption.86}
\addvspace {10\p@ }
\contentsfinish 
