\relax 
\providecommand\hyper@newdestlabel[2]{}
\providecommand\HyperFirstAtBeginDocument{\AtBeginDocument}
\HyperFirstAtBeginDocument{\ifx\hyper@anchor\@undefined
\global\let\oldcontentsline\contentsline
\gdef\contentsline#1#2#3#4{\oldcontentsline{#1}{#2}{#3}}
\global\let\oldnewlabel\newlabel
\gdef\newlabel#1#2{\newlabelxx{#1}#2}
\gdef\newlabelxx#1#2#3#4#5#6{\oldnewlabel{#1}{{#2}{#3}}}
\AtEndDocument{\ifx\hyper@anchor\@undefined
\let\contentsline\oldcontentsline
\let\newlabel\oldnewlabel
\fi}
\fi}
\global\let\hyper@last\relax 
\gdef\HyperFirstAtBeginDocument#1{#1}
\providecommand*\HyPL@Entry[1]{}
\HyPL@Entry{0<</S/D>>}
\HyPL@Entry{1<</S/r>>}
\@writefile{toc}{\contentsline {chapter}{Lay Summary}{i}{chapter*.2}}
\@writefile{lof}{\addvspace {10\p@ }}
\@writefile{lot}{\addvspace {10\p@ }}
\@writefile{toc}{\contentsline {chapter}{Abstract}{iii}{chapter*.3}}
\@writefile{lof}{\addvspace {10\p@ }}
\@writefile{lot}{\addvspace {10\p@ }}
\@writefile{toc}{\contentsline {chapter}{Declaration}{v}{chapter*.4}}
\@writefile{lof}{\addvspace {10\p@ }}
\@writefile{lot}{\addvspace {10\p@ }}
\@writefile{toc}{\contentsline {chapter}{Acknowledgements}{vi}{chapter*.5}}
\@writefile{lof}{\addvspace {10\p@ }}
\@writefile{lot}{\addvspace {10\p@ }}
\citation{Oliphant07}
\citation{Hunter07}
\citation{Perez07}
\@writefile{toc}{\contentsline {chapter}{Contents}{ix}{section*.6}}
\@writefile{toc}{\contentsline {chapter}{List of Figures}{xiii}{section*.8}}
\@writefile{toc}{\contentsline {chapter}{List of Tables}{xvi}{section*.10}}
\@input{Introduction/Intro.aux}
\HyPL@Entry{18<</S/D>>}
\@input{Data/ObsAndDataRed.aux}
\@input{Kinematics/Kinematics.aux}
\@input{N147185/N147185.aux}
\@input{N6822/N6822.aux}
\@input{Summary/Summary.aux}
\@input{Data/Appendix.aux}
\@writefile{toc}{\tocappendix }
\@input{N147185/GChistory.aux}
\bibstyle{mn2e}
\bibdata{masterRef}
\bibcite{Abadi06}{{1}{2006}{{{Abadi} et~al.}}{{{Abadi}, {Navarro} \& {Steinmetz}}}}
\bibcite{Alloin76}{{2}{1976}{{{Alloin} et~al.}}{{{Alloin}, {Pelat} \& {Bijaoui}}}}
\bibcite{Alves-Brito09}{{3}{2009}{{{Alves-Brito} et~al.}}{{{Alves-Brito}, {Forbes}, {Mendel}, {Hau} \& {Murphy}}}}
\bibcite{Anderson08}{{4}{2008}{{{Anderson} et~al.}}{{{Anderson} et~al.,}}}
\bibcite{Armandroff89}{{5}{1989}{{{Armandroff}}}{{{Armandroff}}}}
\bibcite{Ashman93}{{6}{1993}{{{Ashman} \& {Bird}}}{{{Ashman} \& {Bird}}}}
\bibcite{Ashman94}{{7}{1994}{{{Ashman} et~al.}}{{{Ashman}, {Bird} \& {Zepf}}}}
\bibcite{AshmanCarr88}{{8}{1988}{{{Ashman} \& {Carr}}}{{{Ashman} \& {Carr}}}}
\bibcite{AshmanZepf02}{{9}{1992}{{{Ashman} \& {Zepf}}}{{{Ashman} \& {Zepf}}}}
\bibcite{GCbook98}{{10}{1998}{{{Ashman} \& {Zepf}}}{{{Ashman} \& {Zepf}}}}
\bibcite{Auriere92}{{11}{1992}{{{Auriere} et~al.}}{{{Auriere}, {Coupinot} \& {Hecquet}}}}
\bibcite{Baade44}{{12}{1944}{{{Baade}}}{{{Baade}}}}
\bibcite{Baade64}{{13}{1964}{{{Baade} \& {Arp}}}{{{Baade} \& {Arp}}}}
\bibcite{Barmby01}{{14}{2001}{{{Barmby} \& {Huchra}}}{{{Barmby} \& {Huchra}}}}
\bibcite{Barmby00}{{15}{2000}{{{Barmby} et~al.}}{{{Barmby}, {Huchra}, {Brodie}, {Forbes}, {Schroder} \& {Grillmair}}}}
\bibcite{Barnard84}{{16}{1884}{{{Barnard}}}{{{Barnard}}}}
\bibcite{Barnes95}{{17}{1996}{{{Barnes} \& {Hernquist}}}{{{Barnes} \& {Hernquist}}}}
\bibcite{Bate13}{{18}{2013}{{{Bate} et~al.}}{{{Bate} et~al.,}}}
\bibcite{BattinelliDemers04}{{19}{2004}{{{Battinelli} \& {Demers}}}{{{Battinelli} \& {Demers}}}}
\bibcite{Battinelli06}{{20}{2006}{{{Battinelli} et~al.}}{{{Battinelli}, {Demers} \& {Kunkel}}}}
\bibcite{Battistini87}{{21}{1987}{{{Battistini} et~al.}}{{{Battistini}, {Bonoli}, {Braccesi}, {Federici}, {Fusi Pecci}, {Marano} \& {Borngen}}}}
\bibcite{Battistini93}{{22}{1993}{{{Battistini} et~al.}}{{{Battistini}, {Bonoli}, {Casavecchia}, {Ciotti}, {Federici} \& {Fusi-Pecci}}}}
\bibcite{Beasley04}{{23}{2004}{{{Beasley} et~al.}}{{{Beasley}, {Forbes}, {Brodie} \& {Kissler-Patig}}}}
\bibcite{Beers90}{{24}{1990}{{{Beers} et~al.}}{{{Beers}, {Flynn} \& {Gebhardt}}}}
\bibcite{Bekki10}{{25}{2010}{{{Bekki}}}{{{Bekki}}}}
\bibcite{Bekki02}{{26}{2002}{{{Bekki} et~al.}}{{{Bekki}, {Forbes}, {Beasley} \& {Couch}}}}
\bibcite{Bellazzini03}{{27}{2003}{{{Bellazzini} et~al.}}{{{Bellazzini}, {Ferraro} \& {Ibata}}}}
\bibcite{Belokurov06}{{28}{2006}{{{Belokurov} et~al.}}{{{Belokurov} et~al.,}}}
\@writefile{toc}{\contentsline {chapter}{Bibliography}{152}{section*.88}}
\bibcite{Bender91}{{29}{1991}{{{Bender} et~al.}}{{{Bender}, {Paquet} \& {Nieto}}}}
\bibcite{Bertin09}{{30}{2009}{{{Bertin}}}{{{Bertin}}}}
\bibcite{BT87}{{31}{1987}{{{Binney} \& {Tremaine}}}{{{Binney} \& {Tremaine}}}}
\bibcite{Blackman58}{{32}{1958}{{{Blackman} \& {Tukey}}}{{{Blackman} \& {Tukey}}}}
\bibcite{Blakeslee}{{33}{2010}{{{Blakeslee} et~al.}}{{{Blakeslee}, {Cantiello} \& {Peng}}}}
\bibcite{Blom12}{{34}{2012}{{{Blom} et~al.}}{{{Blom}, {Forbes}, {Brodie}, {Foster}, {Romanowsky}, {Spitler} \& {Strader}}}}
\bibcite{Boulade03}{{35}{2003}{{{Boulade} et~al.}}{{{Boulade} et~al.,}}}
\bibcite{Bressan12}{{36}{2012}{{{Bressan} et~al.}}{{{Bressan}, {Marigo}, {Girardi}, {Salasnich}, {Dal Cero}, {Rubele} \& {Nanni}}}}
\bibcite{GCreview06}{{37}{2006}{{{Brodie} \& {Strader}}}{{{Brodie} \& {Strader}}}}
\bibcite{Brodie12}{{38}{2012}{{{Brodie} et~al.}}{{{Brodie}, {Usher}, {Conroy}, {Strader}, {Arnold}, {Forbes} \& {Romanowsky}}}}
\bibcite{BruzualCharlot03}{{39}{2003}{{{Bruzual} \& {Charlot}}}{{{Bruzual} \& {Charlot}}}}
\bibcite{Burkert97}{{40}{1997}{{{Burkert} \& {Smith}}}{{{Burkert} \& {Smith}}}}
\bibcite{Burkert10}{{41}{2010}{{{Burkert} \& {Tremaine}}}{{{Burkert} \& {Tremaine}}}}
\bibcite{Butler05}{{42}{2005}{{{Butler} \& {Mart{\'{\i }}nez-Delgado}}}{{{Butler} \& {Mart{\'{\i }}nez-Delgado}}}}
\bibcite{Caldwell11}{{43}{2011}{{{Caldwell} et~al.}}{{{Caldwell}, {Schiavon}, {Morrison}, {Rose} \& {Harding}}}}
\bibcite{Cannon12}{{44}{2012}{{{Cannon} et~al.}}{{{Cannon} et~al.,}}}
\bibcite{Carigi06}{{45}{2006}{{{Carigi} et~al.}}{{{Carigi}, {Col{\'{\i }}n} \& {Peimbert}}}}
\bibcite{Carretta09}{{46}{2009}{{{Carretta} et~al.}}{{{Carretta}, {Bragaglia}, {Gratton}, {D'Orazi} \& {Lucatello}}}}
\bibcite{Casali07}{{47}{2007}{{{Casali} et~al.}}{{{Casali} et~al.,}}}
\bibcite{Chandar00}{{48}{2000}{{{Chandar} et~al.}}{{{Chandar}, {Bianchi} \& {Ford}}}}
\bibcite{Chandar04}{{49}{2004}{{{Chandar} et~al.}}{{{Chandar}, {Whitmore} \& {Lee}}}}
\bibcite{Chapman08}{{50}{2008}{{{Chapman} et~al.}}{{{Chapman} et~al.,}}}
\bibcite{Chapman06}{{51}{2006}{{{Chapman} et~al.}}{{{Chapman}, {Ibata}, {Lewis}, {Ferguson}, {Irwin}, {McConnachie} \& {Tanvir}}}}
\bibcite{Santos11}{{52}{2011}{{{Chies-Santos} et~al.}}{{{Chies-Santos}, {Larsen}, {Kuntschner}, {Anders}, {Wehner}, {Strader}, {Brodie} \& {Santos}}}}
\bibcite{Cioni08}{{53}{2008}{{{Cioni} et~al.}}{{{Cioni} et~al.,}}}
\bibcite{Cohen04}{{54}{2004}{{{Cohen}}}{{{Cohen}}}}
\bibcite{Cohen98}{{55}{1998}{{{Cohen} \& {Blakeslee}}}{{{Cohen} \& {Blakeslee}}}}
\bibcite{Cohen03}{{56}{2003}{{{Cohen} et~al.}}{{{Cohen}, {Blakeslee} \& {C{\^o}t{\'e}}}}}
\bibcite{Collins11}{{57}{2011}{{{Collins} et~al.}}{{{Collins} et~al.,}}}
\bibcite{Collins09}{{58}{2009}{{{Collins} et~al.}}{{{Collins} et~al.,}}}
\bibcite{Collins13}{{59}{2013}{{{Collins} et~al.}}{{{Collins} et~al.,}}}
\bibcite{Collins14}{{60}{2014}{{{Collins} et~al.}}{{{Collins} et~al.,}}}
\bibcite{conn12}{{61}{2012}{{{Conn} et~al.}}{{{Conn} et~al.,}}}
\bibcite{Cooley65}{{62}{1965}{{{Cooley} \& {Tukey}}}{{{Cooley} \& {Tukey}}}}
\bibcite{RC3b}{{63}{1994}{{{Corwin} et~al.}}{{{Corwin} Jr., {Buta} \& {de Vaucouleurs}}}}
\bibcite{Cote99}{{64}{1999}{{{C{\^o}t{\'e}}}}{{{C{\^o}t{\'e}}}}}
\bibcite{Cote98}{{65}{1998}{{{C{\^o}t{\'e}} et~al.}}{{{C{\^o}t{\'e}}, {Marzke} \& {West}}}}
\bibcite{Cote01}{{66}{2001}{{{C{\^o}t{\'e}} et~al.}}{{{C{\^o}t{\'e}} et~al.,}}}
\bibcite{Courteau99}{{67}{1999}{{{Courteau} \& {van den Bergh}}}{{{Courteau} \& {van den Bergh}}}}
\bibcite{DaCosta09}{{68}{2009}{{{Da Costa} et~al.}}{{{Da Costa}, {Held}, {Saviane} \& {Gullieuszik}}}}
\bibcite{daCostaMould88}{{69}{1988}{{{Da Costa} \& {Mould}}}{{{Da Costa} \& {Mould}}}}
\bibcite{Davidge05}{{70}{2005}{{{Davidge}}}{{{Davidge}}}}
\bibcite{deBlok00}{{71}{2000}{{{de Blok} \& {Walter}}}{{{de Blok} \& {Walter}}}}
\bibcite{deBlok06a}{{72}{2006}{{{de Blok} \& {Walter}}}{{{de Blok} \& {Walter}}}}
\bibcite{DeRijcke07}{{73}{2006}{{{De Rijcke} et~al.}}{{{De Rijcke}, {Prugniel}, {Simien} \& {Dejonghe}}}}
\bibcite{Deason12}{{74}{2012}{{{Deason} et~al.}}{{{Deason} et~al.,}}}
\bibcite{Demers06kin}{{75}{2006}{{{Demers} et~al.}}{{{Demers}, {Battinelli} \& {Kunkel}}}}
\bibcite{Deveikis08}{{76}{2008}{{{Deveikis} et~al.}}{{{Deveikis}, {Narbutis}, {Stonkut{\.e}}, {Brid{\v z}ius} \& {Vansevi{\v c}ius}}}}
\bibcite{DiCintio12}{{77}{2012}{{{Di Cintio} et~al.}}{{{Di Cintio}, {Knebe}, {Libeskind}, {Hoffman}, {Yepes} \& {Gottl{\"o}ber}}}}
\bibcite{Zinn13}{{78}{2013}{{{di Tullio Zinn} \& {Zinn}}}{{{di Tullio Zinn} \& {Zinn}}}}
\bibcite{Doppler41}{{79}{1841}{{{Doppler}}}{{{Doppler}}}}
\bibcite{Dotter08}{{80}{2008}{{{Dotter} et~al.}}{{{Dotter}, {Chaboyer}, {Jevremovi{\'c}}, {Kostov}, {Baron} \& {Ferguson}}}}
\bibcite{Dotter11}{{81}{2011}{{{Dotter} et~al.}}{{{Dotter}, {Sarajedini} \& {Anderson}}}}
\bibcite{Dotter10}{{82}{2010}{{{Dotter} et~al.}}{{{Dotter} et~al.,}}}
\bibcite{Dubath97}{{83}{1997}{{{Dubath} \& {Grillmair}}}{{{Dubath} \& {Grillmair}}}}
\bibcite{Durrell96}{{84}{1996}{{{Durrell} et~al.}}{{{Durrell}, {Harris}, {Geisler} \& {Pudritz}}}}
\bibcite{Eggen62}{{85}{1962}{{{Eggen} et~al.}}{{{Eggen}, {Lynden-Bell} \& {Sandage}}}}
\bibcite{Evans00}{{86}{2000}{{{Evans} \& {Wilkinson}}}{{{Evans} \& {Wilkinson}}}}
\bibcite{Evans03}{{87}{2003}{{{Evans} et~al.}}{{{Evans}, {Wilkinson}, {Perrett} \& {Bridges}}}}
\bibcite{Faifer11}{{88}{2011}{{{Faifer} et~al.}}{{{Faifer} et~al.,}}}
\bibcite{Fardal13}{{89}{2013}{{{Fardal} et~al.}}{{{Fardal} et~al.,}}}
\bibcite{Faria07}{{90}{2007}{{{Faria} et~al.}}{{{Faria}, {Johnson}, {Ferguson}, {Irwin}, {Ibata}, {Johnston}, {Lewis} \& {Tanvir}}}}
\bibcite{Federici93}{{91}{1993}{{{Federici} et~al.}}{{{Federici}, {Bonoli}, {Ciotti}, {Fusi-Pecci}, {Marano}, {Lipovetsky}, {Niezvestny} \& {Spassova}}}}
\bibcite{Federici90}{{92}{1990}{{{Federici} et~al.}}{{{Federici}, {Marano} \& {Fusi Pecci}}}}
\bibcite{Fellgett55}{{93}{1955}{{{Fellgett}}}{{{Fellgett}}}}
\bibcite{Ferguson02}{{94}{2002}{{{Ferguson} et~al.}}{{{Ferguson}, {Irwin}, {Ibata}, {Lewis} \& {Tanvir}}}}
\bibcite{Feroz08}{{95}{2008}{{{Feroz} \& {Hobson}}}{{{Feroz} \& {Hobson}}}}
\bibcite{Feroz09}{{96}{2009}{{{Feroz} et~al.}}{{{Feroz}, {Hobson} \& {Bridges}}}}
\bibcite{Ferraro04}{{97}{2004}{{{Ferraro} et~al.}}{{{Ferraro}, {Sollima}, {Pancino}, {Bellazzini}, {Straniero}, {Origlia} \& {Cool}}}}
\bibcite{Fizeau48}{{98}{1841}{{{Fizeau}}}{{{Fizeau}}}}
\bibcite{Fizeau41}{{99}{1870}{{{Fizeau}}}{{{Fizeau}}}}
\bibcite{Forbes01}{{100}{2001}{{{Forbes} et~al.}}{{{Forbes}, {Beasley}, {Brodie} \& {Kissler-Patig}}}}
\bibcite{Forbes97}{{101}{1997}{{{Forbes} et~al.}}{{{Forbes}, {Brodie} \& {Grillmair}}}}
\bibcite{ForbesForte01}{{102}{2001}{{{Forbes} \& {Forte}}}{{{Forbes} \& {Forte}}}}
\bibcite{FJJ77}{{103}{1977}{{{Ford} et~al.}}{{{Ford}, {Jacoby} \& {Jenner}}}}
\bibcite{Fusci-Pecci00}{{104}{2000}{{{Fusi-Pecci} \& {Clementini}}}{{{Fusi-Pecci} \& {Clementini}}}}
\bibcite{Gallart96c}{{105}{1996a}{{{Gallart} et~al.}}{{{Gallart}, {Aparicio}, {Bertelli} \& {Chiosi}}}}
\bibcite{Gallart96b}{{106}{1996b}{{{Gallart} et~al.}}{{{Gallart}, {Aparicio}, {Bertelli} \& {Chiosi}}}}
\bibcite{Galleti09}{{107}{2009}{{{Galleti} et~al.}}{{{Galleti}, {Bellazzini}, {Buzzoni}, {Federici} \& {Fusi Pecci}}}}
\bibcite{Galleti07}{{108}{2007}{{{Galleti} et~al.}}{{{Galleti}, {Bellazzini}, {Federici}, {Buzzoni} \& {Fusi Pecci}}}}
\bibcite{Galleti06}{{109}{2006}{{{Galleti} et~al.}}{{{Galleti}, {Federici}, {Bellazzini}, {Buzzoni} \& {Fusi Pecci}}}}
\bibcite{GalletiRBC04}{{110}{2004}{{{Galleti} et~al.}}{{{Galleti}, {Federici}, {Bellazzini}, {Fusi Pecci} \& {Macrina}}}}
\bibcite{Gebhardt&KP99}{{111}{1999}{{{Gebhardt} \& {Kissler-Patig}}}{{{Gebhardt} \& {Kissler-Patig}}}}
\bibcite{Geha10}{{112}{2010}{{{Geha} et~al.}}{{{Geha}, {van der Marel}, {Guhathakurta}, {Gilbert}, {Kalirai} \& {Kirby}}}}
\bibcite{Geisler99}{{113}{1999}{{{Geisler} et~al.}}{{{Geisler}, {Armandroff}, {da Costa}, {Lee} \& {Sarajedini}}}}
\bibcite{Georgiev08}{{114}{2008}{{{Georgiev} et~al.}}{{{Georgiev}, {Goudfrooij}, {Puzia} \& {Hilker}}}}
\bibcite{Georgiev06}{{115}{2006}{{{Georgiev} et~al.}}{{{Georgiev}, {Hilker}, {Puzia}, {Chanam{\'e}}, {Mieske}, {Goudfrooij}, {Reisenegger} \& {Infante}}}}
\bibcite{Georgiev10}{{116}{2010}{{{Georgiev} et~al.}}{{{Georgiev}, {Puzia}, {Goudfrooij} \& {Hilker}}}}
\bibcite{Gilbert12}{{117}{2012}{{{Gilbert} et~al.}}{{{Gilbert} et~al.,}}}
\bibcite{GirardiPadova10}{{118}{2010}{{{Girardi} et~al.}}{{{Girardi} et~al.,}}}
\bibcite{Gomez04}{{119}{2004}{{{G{\'o}mez} \& {Richtler}}}{{{G{\'o}mez} \& {Richtler}}}}
\bibcite{Gorski11}{{120}{2011}{{{G{\'o}rski} et~al.}}{{{G{\'o}rski}, {Pietrzy{\'n}ski} \& {Gieren}}}}
\bibcite{Goudfrooij03}{{121}{2003}{{{Goudfrooij} et~al.}}{{{Goudfrooij}, {Strader}, {Brenneman}, {Kissler-Patig}, {Minniti} \& {Edwin Huizinga}}}}
\bibcite{Griffin67}{{122}{1967}{{{Griffin}}}{{{Griffin}}}}
\bibcite{Grocholski09}{{123}{2009}{{{Grocholski} et~al.}}{{{Grocholski}, {Parisi}, {Geisler}, {Sarajedini}, {Cole}, {Clari{\'a}} \& {Smith}}}}
\bibcite{Hargis12}{{124}{2012}{{{Hargis} \& {Rhode}}}{{{Hargis} \& {Rhode}}}}
\bibcite{Harris14BH}{{125}{2014}{{{Harris} et~al.}}{{{Harris}, {Poole} \& {Harris}}}}
\bibcite{Harris96Cat}{{126}{1996}{{{Harris}}}{{{Harris}}}}
\bibcite{Harris01}{{127}{2001}{{{Harris}}}{{{Harris}}}}
\bibcite{Harris13}{{128}{2013}{{{Harris} et~al.}}{{{Harris}, {Harris} \& {Alessi}}}}
\bibcite{Harris81}{{129}{1981}{{{Harris} \& {van den Bergh}}}{{{Harris} \& {van den Bergh}}}}
\bibcite{Hartwick74}{{130}{1974}{{{Hartwick} \& {Sargent}}}{{{Hartwick} \& {Sargent}}}}
\bibcite{Hempel05}{{131}{2005}{{{Hempel} et~al.}}{{{Hempel}, {Geisler}, {Hoard} \& {Harris}}}}
\bibcite{Hesser87}{{132}{1987}{{{Hesser} et~al.}}{{{Hesser}, {Harris} \& {Vandenberg}}}}
\bibcite{Hodge74}{{133}{1974}{{{Hodge}}}{{{Hodge}}}}
\bibcite{Hodge76}{{134}{1976}{{{Hodge}}}{{{Hodge}}}}
\bibcite{Hodge77N6822}{{135}{1977}{{{Hodge}}}{{{Hodge}}}}
\bibcite{Hodge80}{{136}{1980}{{{Hodge}}}{{{Hodge}}}}
\bibcite{Hodgkin09}{{137}{2009}{{{Hodgkin} et~al.}}{{{Hodgkin}, {Irwin}, {Hewett} \& {Warren}}}}
\bibcite{Hubble32}{{138}{1932}{{{Hubble}}}{{{Hubble}}}}
\bibcite{Hubble25N6822}{{139}{1925}{{{Hubble}}}{{{Hubble}}}}
\bibcite{Huchra82}{{140}{1982}{{{Huchra} et~al.}}{{{Huchra}, {Stauffer} \& {van Speybroeck}}}}
\bibcite{Huchra91}{{141}{1991}{{{Huchra} et~al.}}{{{Huchra}, {Brodie} \& {Kent}}}}
\bibcite{Hudson14}{{142}{2014}{{{Hudson} et~al.}}{{{Hudson}, {Harris} \& {Harris}}}}
\bibcite{Huggins68}{{143}{1868}{{{Huggins}}}{{{Huggins}}}}
\bibcite{Hunter07}{{144}{2007}{{Hunter}}{{Hunter}}}
\bibcite{Huxor11}{{145}{2011}{{{Huxor} et~al.}}{{{Huxor} et~al.,}}}
\bibcite{huxor12}{{146}{2013}{{{Huxor} et~al.}}{{{Huxor}, {Ferguson}, {Veljanoski}, {Mackey} \& {Tanvir}}}}
\bibcite{Huxor14}{{147}{2014}{{{Huxor} et~al.}}{{{Huxor} et~al.,}}}
\bibcite{Huxor08}{{148}{2008}{{{Huxor} et~al.}}{{{Huxor}, {Tanvir}, {Ferguson}, {Irwin}, {Ibata}, {Bridges} \& {Lewis}}}}
\bibcite{Huxor05}{{149}{2005}{{{Huxor} et~al.}}{{{Huxor}, {Tanvir}, {Irwin}, {Ibata}, {Collett}, {Ferguson}, {Bridges} \& {Lewis}}}}
\bibcite{hwang11}{{150}{2011}{{{Hwang} et~al.}}{{{Hwang}, {Lee}, {Lee}, {Park}, {Park}, {Kim} \& {Park}}}}
\bibcite{Hwang14}{{151}{2014}{{{Hwang} et~al.}}{{{Hwang}, {Park}, {Lee}, {Lim}, {Hodge}, {Kim}, {Miller} \& {Weisz}}}}
\bibcite{Ibata05}{{152}{2005}{{{Ibata} et~al.}}{{{Ibata}, {Chapman}, {Ferguson}, {Lewis}, {Irwin} \& {Tanvir}}}}
\bibcite{Ibata01}{{153}{2001}{{{Ibata} et~al.}}{{{Ibata}, {Irwin}, {Lewis}, {Ferguson} \& {Tanvir}}}}
\bibcite{Ibata07}{{154}{2007}{{{Ibata} et~al.}}{{{Ibata}, {Martin}, {Irwin}, {Chapman}, {Ferguson}, {Lewis} \& {McConnachie}}}}
\bibcite{Ibata94}{{155}{1994}{{{Ibata} et~al.}}{{{Ibata}, {Gilmore} \& {Irwin}}}}
\bibcite{IbataGilmore95}{{156}{1995}{{{Ibata} et~al.}}{{{Ibata}, {Gilmore} \& {Irwin}}}}
\bibcite{Ibata13Natur}{{157}{2013}{{{Ibata} et~al.}}{{{Ibata} et~al.,}}}
\bibcite{Ibata14}{{158}{2014}{{{Ibata} et~al.}}{{{Ibata} et~al.,}}}
\bibcite{Irwin08}{{159}{2008}{{{Irwin} et~al.}}{{{Irwin}, {Ferguson}, {Huxor}, {Tanvir}, {Ibata} \& {Lewis}}}}
\bibcite{Irwin05}{{160}{2005}{{{Irwin} et~al.}}{{{Irwin}, {Ferguson}, {Ibata}, {Lewis} \& {Tanvir}}}}
\bibcite{Irwin04}{{161}{2004}{{{Irwin} et~al.}}{{{Irwin} et~al.,}}}
\bibcite{Israel96}{{162}{1996}{{{Israel} et~al.}}{{{Israel}, {Bontekoe} \& {Kester}}}}
\bibcite{jang12}{{163}{2012}{{{Jang} et~al.}}{{{Jang}, {Lim}, {Park} \& {Lee}}}}
\bibcite{Jeffreys61book}{{164}{1961}{{{Jeffreys}}}{{{Jeffreys}}}}
\bibcite{Jordan04}{{165}{2004}{{{Jord{\'a}n} et~al.}}{{{Jord{\'a}n} et~al.,}}}
\bibcite{Kaiser04}{{166}{2004}{{{Kaiser}}}{{{Kaiser}}}}
\bibcite{Kaiser10}{{167}{2010}{{{Kaiser} et~al.}}{{{Kaiser} et~al.,}}}
\bibcite{Kartha14}{{168}{2014}{{{Kartha} et~al.}}{{{Kartha}, {Forbes}, {Spitler}, {Romanowsky}, {Arnold} \& {Brodie}}}}
\bibcite{Kass95}{{169}{1995}{{{Kass} \& {Raftery}}}{{{Kass} \& {Raftery}}}}
\bibcite{Keller12}{{170}{2012}{{{Keller} et~al.}}{{{Keller}, {Mackey} \& {Da Costa}}}}
\bibcite{Kim13}{{171}{2013}{{{Kim} et~al.}}{{{Kim}, {Yoon}, {Sohn}, {Kim}, {Kim}, {Chung}, {Lee} \& {Lee}}}}
\bibcite{Kim07}{{172}{2007}{{{Kim} et~al.}}{{{Kim} et~al.,}}}
\bibcite{King62}{{173}{1962}{{{King}}}{{{King}}}}
\bibcite{Kinman95spec}{{174}{1959}{{{Kinman}}}{{{Kinman}}}}
\bibcite{Kirby14}{{175}{2014}{{{Kirby} et~al.}}{{{Kirby}, {Bullock}, {Boylan-Kolchin}, {Kaplinghat} \& {Cohen}}}}
\bibcite{KP02}{{176}{2002}{{{Kissler-Patig} et~al.}}{{{Kissler-Patig}, {Brodie} \& {Minniti}}}}
\bibcite{Koch10b}{{177}{2010}{{{Koch} \& {C{\^o}t{\'e}}}}{{{Koch} \& {C{\^o}t{\'e}}}}}
\bibcite{Koch08}{{178}{2008}{{{Koch} \& {McWilliam}}}{{{Koch} \& {McWilliam}}}}
\bibcite{Koch10a}{{179}{2010}{{{Koch} \& {McWilliam}}}{{{Koch} \& {McWilliam}}}}
\bibcite{Koposov07}{{180}{2007}{{{Koposov} et~al.}}{{{Koposov} et~al.,}}}
\bibcite{Kravtsov05}{{181}{2005}{{{Kravtsov} \& {Gnedin}}}{{{Kravtsov} \& {Gnedin}}}}
\bibcite{Kriek10}{{182}{2010}{{{Kriek} et~al.}}{{{Kriek} et~al.,}}}
\bibcite{KunduWhitmore01a}{{183}{2001}{{{Kundu} \& {Whitmore}}}{{{Kundu} \& {Whitmore}}}}
\bibcite{Kuntschner02}{{184}{2002}{{{Kuntschner} et~al.}}{{{Kuntschner}, {Ziegler}, {Sharples}, {Worthey} \& {Fricke}}}}
\bibcite{Kurtz98}{{185}{1998}{{{Kurtz} \& {Mink}}}{{{Kurtz} \& {Mink}}}}
\bibcite{LarsenHST01}{{186}{2001}{{{Larsen} et~al.}}{{{Larsen}, {Brodie}, {Huchra}, {Forbes} \& {Grillmair}}}}
\bibcite{Larson72}{{187}{1972}{{{Larson}}}{{{Larson}}}}
\bibcite{Law10}{{188}{2010}{{{Law} \& {Majewski}}}{{{Law} \& {Majewski}}}}
\bibcite{LeeFreedmanMadore93}{{189}{1993}{{{Lee} et~al.}}{{{Lee}, {Freedman} \& {Madore}}}}
\bibcite{Lee08}{{190}{2008}{{{Lee} et~al.}}{{{Lee}, {Hwang}, {Kim}, {Park}, {Geisler}, {Sarajedini} \& {Harris}}}}
\bibcite{Lewis02}{{191}{2002}{{{Lewis} \& {Bridle}}}{{{Lewis} \& {Bridle}}}}
\bibcite{Lewis13}{{192}{2013}{{{Lewis} et~al.}}{{{Lewis} et~al.,}}}
\bibcite{Libeskind05}{{193}{2005}{{{Libeskind} et~al.}}{{{Libeskind}, {Frenk}, {Cole}, {Helly}, {Jenkins}, {Navarro} \& {Power}}}}
\bibcite{Libeskind11}{{194}{2011}{{{Libeskind} et~al.}}{{{Libeskind}, {Knebe}, {Hoffman}, {Gottl{\"o}ber}, {Yepes} \& {Steinmetz}}}}
\bibcite{Lotz04}{{195}{2004}{{{Lotz} et~al.}}{{{Lotz}, {Miller} \& {Ferguson}}}}
\bibcite{Lovell11}{{196}{2011}{{{Lovell} et~al.}}{{{Lovell}, {Eke}, {Frenk} \& {Jenkins}}}}
\bibcite{Mackey10a}{{197}{2010a}{{{Mackey} et~al.}}{{{Mackey} et~al.,}}}
\bibcite{Mackey06}{{198}{2006}{{{Mackey} et~al.}}{{{Mackey} et~al.,}}}
\bibcite{Mackey10b}{{199}{2010b}{{{Mackey} et~al.}}{{{Mackey} et~al.,}}}
\bibcite{Mackey13}{{200}{2013}{{{Mackey} et~al.}}{{{Mackey} et~al.,}}}
\bibcite{Mackey05}{{201}{2005}{{{Mackey} \& {van den Bergh}}}{{{Mackey} \& {van den Bergh}}}}
\bibcite{Magnier06}{{202}{2006}{{{Magnier}}}{{{Magnier}}}}
\bibcite{Mamon05}{{203}{2005}{{{Mamon} \& {{\L }okas}}}{{{Mamon} \& {{\L }okas}}}}
\bibcite{MarastonSSP98}{{204}{1998}{{{Maraston}}}{{{Maraston}}}}
\bibcite{MarigoPadova08}{{205}{2008}{{{Marigo} et~al.}}{{{Marigo}, {Girardi}, {Bressan}, {Groenewegen}, {Silva} \& {Granato}}}}
\bibcite{MF09}{{206}{2009}{{{Mar{\'{\i }}n-Franch} et~al.}}{{{Mar{\'{\i }}n-Franch} et~al.,}}}
\bibcite{Martin06}{{207}{2006}{{{Martin} et~al.}}{{{Martin}, {Ibata}, {Irwin}, {Chapman}, {Lewis}, {Ferguson}, {Tanvir} \& {McConnachie}}}}
\bibcite{Martin13}{{208}{2013}{{{Martin} et~al.}}{{{Martin}, {Ibata}, {McConnachie}, {Dougal Mackey}, {Ferguson}, {Irwin}, {Lewis} \& {Fardal}}}}
\bibcite{Martin09}{{209}{2009}{{{Martin} et~al.}}{{{Martin} et~al.,}}}
\bibcite{MartinezDelgado99}{{210}{1999}{{{Mart{\'{\i }}nez-Delgado} et~al.}}{{{Mart{\'{\i }}nez-Delgado}, {Aparicio} \& {Gallart}}}}
\bibcite{Mateo98}{{211}{1998}{{{Mateo}}}{{{Mateo}}}}
\bibcite{Mayall53}{{212}{1953}{{{Mayall} \& {Eggen}}}{{{Mayall} \& {Eggen}}}}
\bibcite{McConnachie12}{{213}{2012}{{{McConnachie}}}{{{McConnachie}}}}
\bibcite{McConnachie10}{{214}{2010}{{{McConnachie} et~al.}}{{{McConnachie}, {Ferguson}, {Irwin}, {Dubinski}, {Widrow}, {Dotter}, {Ibata} \& {Lewis}}}}
\bibcite{McConnachie05}{{215}{2005}{{{McConnachie} et~al.}}{{{McConnachie}, {Irwin}, {Ferguson}, {Ibata}, {Lewis} \& {Tanvir}}}}
\bibcite{mcconnachie09}{{216}{2009}{{{McConnachie} et~al.}}{{{McConnachie}, {Irwin} \& {Ibata}}}}
\bibcite{McMillan11}{{217}{2011}{{{McMillan}}}{{{McMillan}}}}
\bibcite{Metz07}{{218}{2007}{{{Metz} et~al.}}{{{Metz}, {Kroupa} \& {Jerjen}}}}
\bibcite{Miller07}{{219}{2007}{{{Miller} \& {Lotz}}}{{{Miller} \& {Lotz}}}}
\bibcite{Miller98}{{220}{1998}{{{Miller} et~al.}}{{{Miller}, {Lotz}, {Ferguson}, {Stiavelli} \& {Whitmore}}}}
\bibcite{Miller97}{{221}{1997}{{{Miller} et~al.}}{{{Miller}, {Whitmore}, {Schweizer} \& {Fall}}}}
\bibcite{Milone08}{{222}{2008}{{{Milone} et~al.}}{{{Milone} et~al.,}}}
\bibcite{Minniti95}{{223}{1995}{{{Minniti}}}{{{Minniti}}}}
\bibcite{Mochejska98}{{224}{1998}{{{Mochejska} et~al.}}{{{Mochejska}, {Kaluzny}, {Krockenberger}, {Sasselov} \& {Stanek}}}}
\bibcite{Morgan56}{{225}{1956}{{{Morgan}}}{{{Morgan}}}}
\bibcite{Morgan59}{{226}{1959}{{{Morgan}}}{{{Morgan}}}}
\bibcite{Morganson12}{{227}{2012}{{{Morganson} et~al.}}{{{Morganson} et~al.,}}}
\bibcite{Muratov10}{{228}{2010}{{{Muratov} \& {Gnedin}}}{{{Muratov} \& {Gnedin}}}}
\bibcite{Nantais10}{{229}{2010}{{{Nantais} \& {Huchra}}}{{{Nantais} \& {Huchra}}}}
\bibcite{NFW96}{{230}{1996}{{{Navarro} et~al.}}{{{Navarro}, {Frenk} \& {White}}}}
\bibcite{Newber02}{{231}{2002}{{{Newberg} et~al.}}{{{Newberg} et~al.,}}}
\bibcite{Oliphant07}{{232}{2007}{{Oliphant}}{{Oliphant}}}
\bibcite{Olsen04}{{233}{2004}{{{Olsen} et~al.}}{{{Olsen}, {Miller}, {Suntzeff}, {Schommer} \& {Bright}}}}
\bibcite{Onaka08}{{234}{2008}{{{Onaka} et~al.}}{{{Onaka}, {Tonry}, {Isani}, {Lee}, {Uyeshiro}, {Rae}, {Robertson} \& {Ching}}}}
\bibcite{Pagel98}{{235}{1998}{{{Pagel} \& {Tautvaisiene}}}{{{Pagel} \& {Tautvaisiene}}}}
\bibcite{Penarrubia14}{{236}{2014}{{{Pe{\~n}arrubia} et~al.}}{{{Pe{\~n}arrubia}, {Ma}, {Walker} \& {McConnachie}}}}
\bibcite{Peacock10}{{237}{2010}{{{Peacock} et~al.}}{{{Peacock}, {Maccarone}, {Knigge}, {Kundu}, {Waters}, {Zepf} \& {Zurek}}}}
\bibcite{Peebles84}{{238}{1984}{{{Peebles}}}{{{Peebles}}}}
\bibcite{Pengetal11}{{239}{2011}{{{Peng} et~al.}}{{{Peng} et~al.,}}}
\bibcite{Peng08}{{240}{2008}{{{Peng} et~al.}}{{{Peng} et~al.,}}}
\bibcite{Perez07}{{241}{2007}{{P{\'e}rez \& Granger}}{{P{\'e}rez \& Granger}}}
\bibcite{Perina09}{{242}{2009}{{{Perina} et~al.}}{{{Perina}, {Federici}, {Bellazzini}, {Cacciari}, {Fusi Pecci} \& {Galleti}}}}
\bibcite{Perrett02}{{243}{2002}{{{Perrett} et~al.}}{{{Perrett}, {Bridges}, {Hanes}, {Irwin}, {Brodie}, {Carter}, {Huchra} \& {Watson}}}}
\bibcite{Perrett03}{{244}{2003}{{{Perrett} et~al.}}{{{Perrett}, {Stiff}, {Hanes} \& {Bridges}}}}
\bibcite{Peterson89}{{245}{1989}{{{Peterson}}}{{{Peterson}}}}
\bibcite{Pierce05}{{246}{2005}{{{Pierce} et~al.}}{{{Pierce}, {Brodie}, {Forbes}, {Beasley}, {Proctor} \& {Strader}}}}
\bibcite{Piotto07}{{247}{2007}{{{Piotto} et~al.}}{{{Piotto} et~al.,}}}
\bibcite{Piotto12}{{248}{2012}{{{Piotto} et~al.}}{{{Piotto} et~al.,}}}
\bibcite{Pota13}{{249}{2013}{{{Pota} et~al.}}{{{Pota} et~al.,}}}
\bibcite{Pota13BH}{{250}{2013}{{{Pota} et~al.}}{{{Pota}, {Graham}, {Forbes}, {Romanowsky}, {Brodie} \& {Strader}}}}
\bibcite{Puzia05b}{{251}{2005}{{{Puzia} et~al.}}{{{Puzia}, {Kissler-Patig}, {Thomas}, {Maraston}, {Saglia}, {Bender}, {Goudfrooij} \& {Hempel}}}}
\bibcite{Puzia02}{{252}{2002}{{{Puzia} et~al.}}{{{Puzia}, {Zepf}, {Kissler-Patig}, {Hilker}, {Minniti} \& {Goudfrooij}}}}
\bibcite{Regnault09}{{253}{2009}{{{Regnault} et~al.}}{{{Regnault} et~al.,}}}
\bibcite{Reitzel04}{{254}{2004}{{{Reitzel} et~al.}}{{{Reitzel}, {Guhathakurta} \& {Rich}}}}
\bibcite{Rhode12}{{255}{2012}{{{Rhode}}}{{{Rhode}}}}
\bibcite{Richardson11}{{256}{2011}{{{Richardson} et~al.}}{{{Richardson} et~al.,}}}
\bibcite{Richtler03}{{257}{2003}{{{Richtler}}}{{{Richtler}}}}
\bibcite{Roberts72}{{258}{1972}{{{Roberts}}}{{{Roberts}}}}
\bibcite{Rubenstein97}{{259}{1997}{{{Rubenstein} \& {Bailyn}}}{{{Rubenstein} \& {Bailyn}}}}
\bibcite{Salaris06Book}{{260}{2006}{{{Salaris} \& {Cassisi}}}{{{Salaris} \& {Cassisi}}}}
\bibcite{Sarajedini89}{{261}{1989}{{{Sarajedini} \& {King}}}{{{Sarajedini} \& {King}}}}
\bibcite{Sargent77}{{262}{1977}{{{Sargent} et~al.}}{{{Sargent}, {Kowal}, {Hartwick} \& {van den Bergh}}}}
\bibcite{Sargent77gal}{{263}{1977}{{{Sargent} et~al.}}{{{Sargent}, {Schechter}, {Boksenberg} \& {Shortridge}}}}
\bibcite{Saviane00}{{264}{2000}{{{Saviane} et~al.}}{{{Saviane}, {Rosenberg}, {Piotto} \& {Aparicio}}}}
\bibcite{Schiavon12}{{265}{2012}{{{Schiavon} et~al.}}{{{Schiavon}, {Caldwell}, {Morrison}, {Harding}, {Courteau}, {MacArthur} \& {Graves}}}}
\bibcite{Schiavon04}{{266}{2004}{{{Schiavon} et~al.}}{{{Schiavon}, {Rose}, {Courteau} \& {MacArthur}}}}
\bibcite{Schlafly11}{{267}{2011}{{{Schlafly} \& {Finkbeiner}}}{{{Schlafly} \& {Finkbeiner}}}}
\bibcite{Schlegel98}{{268}{1998}{{{Schlegel} et~al.}}{{{Schlegel}, {Finkbeiner} \& {Davis}}}}
\bibcite{Schonrich10}{{269}{2010}{{{Sch{\"o}nrich} et~al.}}{{{Sch{\"o}nrich}, {Binney} \& {Dehnen}}}}
\bibcite{Schuberth12}{{270}{2012}{{{Schuberth} et~al.}}{{{Schuberth}, {Richtler}, {Hilker}, {Salinas}, {Dirsch} \& {Larsen}}}}
\bibcite{SZ78}{{271}{1978}{{{Searle} \& {Zinn}}}{{{Searle} \& {Zinn}}}}
\bibcite{Seigar08}{{272}{2008}{{{Seigar} et~al.}}{{{Seigar}, {Barth} \& {Bullock}}}}
\bibcite{Seth04}{{273}{2004}{{{Seth} et~al.}}{{{Seth}, {Olsen}, {Miller}, {Lotz} \& {Telford}}}}
\bibcite{Seyfert45}{{274}{1945}{{{Seyfert} \& {Nassau}}}{{{Seyfert} \& {Nassau}}}}
\bibcite{sharina06ages}{{275}{2006}{{Sharina et~al.}}{{Sharina, Afanasiev \& Puzia}}}
\bibcite{SharinaDavoust09}{{276}{2009}{{{Sharina} \& {Davoust}}}{{{Sharina} \& {Davoust}}}}
\bibcite{Sharina05}{{277}{2005}{{{Sharina} et~al.}}{{{Sharina}, {Puzia} \& {Makarov}}}}
\bibcite{Sharov88}{{278}{1988}{{{Sharov}}}{{{Sharov}}}}
\bibcite{Siegel07}{{279}{2007}{{{Siegel} et~al.}}{{{Siegel} et~al.,}}}
\bibcite{Simkin74}{{280}{1974}{{{Simkin}}}{{{Simkin}}}}
\bibcite{Skilling04}{{281}{2004}{{{Skilling}}}{{{Skilling}}}}
\bibcite{Spitler09}{{282}{2009}{{{Spitler} \& {Forbes}}}{{{Spitler} \& {Forbes}}}}
\bibcite{Spitler08}{{283}{2008}{{{Spitler} et~al.}}{{{Spitler}, {Forbes}, {Strader}, {Brodie} \& {Gallagher}}}}
\bibcite{Stetson93}{{284}{1993}{{{Stetson}}}{{{Stetson}}}}
\bibcite{Stiavelli04}{{285}{2004}{{{Stiavelli} et~al.}}{{{Stiavelli}, {Fall} \& {Panagia}}}}
\bibcite{Strader11}{{286}{2011}{{{Strader} et~al.}}{{{Strader} et~al.,}}}
\bibcite{Tinsley78}{{287}{1978}{{{Tinsley} \& {Larson}}}{{{Tinsley} \& {Larson}}}}
\bibcite{Tollerud12}{{288}{2012}{{{Tollerud} et~al.}}{{{Tollerud} et~al.,}}}
\bibcite{TonryDavis79}{{289}{1979}{{{Tonry} \& {Davis}}}{{{Tonry} \& {Davis}}}}
\bibcite{Tonry09}{{290}{2009}{{{Tonry} \& {Onaka}}}{{{Tonry} \& {Onaka}}}}
\bibcite{Tonry12photsys}{{291}{2012}{{{Tonry} et~al.}}{{{Tonry} et~al.,}}}
\bibcite{Trancho07}{{292}{2007}{{{Trancho} et~al.}}{{{Trancho}, {Bastian}, {Miller} \& {Schweizer}}}}
\bibcite{Udry99}{{293}{1999}{{{Udry} et~al.}}{{{Udry} et~al.,}}}
\bibcite{Usher12}{{294}{2012}{{{Usher} et~al.}}{{{Usher} et~al.,}}}
\bibcite{Usher13}{{295}{2013}{{{Usher} et~al.}}{{{Usher}, {Forbes}, {Spitler}, {Brodie}, {Romanowsky}, {Strader} \& {Woodley}}}}
\bibcite{vdBergh69}{{296}{1969}{{{van den Bergh}}}{{{van den Bergh}}}}
\bibcite{vdBergh98}{{297}{1998}{{{van den Bergh}}}{{{van den Bergh}}}}
\bibcite{vdMarel12}{{298}{2012}{{{van der Marel} et~al.}}{{{van der Marel}, {Fardal}, {Besla}, {Beaton}, {Sohn}, {Anderson}, {Brown} \& {Guhathakurta}}}}
\bibcite{vdMarel08}{{299}{2008}{{{van der Marel} \& {Guhathakurta}}}{{{van der Marel} \& {Guhathakurta}}}}
\bibcite{vanderWell11}{{300}{2011}{{{van der Wel} et~al.}}{{{van der Wel} et~al.,}}}
\bibcite{VazdekisSSP10}{{301}{2010}{{{Vazdekis} et~al.}}{{{Vazdekis}, {S{\'a}nchez-Bl{\'a}zquez}, {Falc{\'o}n-Barroso}, {Cenarro}, {Beasley}, {Cardiel}, {Gorgas} \& {Peletier}}}}
\bibcite{Veljanoski13b}{{302}{2013a}{{{Veljanoski} et~al.}}{{{Veljanoski} et~al.,}}}
\bibcite{Veljanoski13a}{{303}{2013b}{{{Veljanoski} et~al.}}{{{Veljanoski} et~al.,}}}
\bibcite{Veljanoski14}{{304}{2014}{{{Veljanoski} et~al.}}{{{Veljanoski} et~al.,}}}
\bibcite{Vetesnik62a}{{305}{1962}{{{Vete{\v s}nik}}}{{{Vete{\v s}nik}}}}
\bibcite{Villanova07}{{306}{2007}{{{Villanova} et~al.}}{{{Villanova} et~al.,}}}
\bibcite{Watkins10}{{307}{2010}{{{Watkins} et~al.}}{{{Watkins}, {Evans} \& {An}}}}
\bibcite{Watkins13}{{308}{2013}{{{Watkins} et~al.}}{{{Watkins}, {Evans} \& {van de Ven}}}}
\bibcite{Weldrake03}{{309}{2003}{{{Weldrake} et~al.}}{{{Weldrake}, {de Blok} \& {Walter}}}}
\bibcite{West04}{{310}{2004}{{{West} et~al.}}{{{West}, {C{\^o}t{\'e}}, {Marzke} \& {Jord{\'a}n}}}}
\bibcite{WhitmoreSchwiezer95}{{311}{1995}{{{Whitmore} \& {Schweizer}}}{{{Whitmore} \& {Schweizer}}}}
\bibcite{Wilson92}{{312}{1992}{{{Wilson}}}{{{Wilson}}}}
\bibcite{Woodley10}{{313}{2010}{{{Woodley} et~al.}}{{{Woodley}, {G{\'o}mez}, {Harris}, {Geisler} \& {Harris}}}}
\bibcite{Woodley11}{{314}{2011}{{{Woodley} \& {Harris}}}{{{Woodley} \& {Harris}}}}
\bibcite{Woodley10a}{{315}{2010}{{{Woodley} et~al.}}{{{Woodley}, {Harris}, {Puzia}, {G{\'o}mez}, {Harris} \& {Geisler}}}}
\bibcite{Yencho06}{{316}{2006}{{{Yencho} et~al.}}{{{Yencho}, {Johnston}, {Bullock} \& {Rhode}}}}
\bibcite{Yi01}{{317}{2001}{{{Yi} et~al.}}{{{Yi}, {Demarque}, {Kim}, {Lee}, {Ree}, {Lejeune} \& {Barnes}}}}
\bibcite{Yoon11}{{318}{2011}{{{Yoon} et~al.}}{{{Yoon} et~al.,}}}
\bibcite{Yoon06}{{319}{2006}{{{Yoon} et~al.}}{{{Yoon}, {Yi} \& {Lee}}}}
\bibcite{Young01}{{320}{2001}{{{Young}}}{{{Young}}}}
\bibcite{YoungLo97}{{321}{1997}{{{Young} \& {Lo}}}{{{Young} \& {Lo}}}}
\bibcite{Young12}{{322}{2012}{{{Young} et~al.}}{{{Young}, {Dowell} \& {Rhode}}}}
\bibcite{Zepf00}{{323}{2000}{{{Zepf} et~al.}}{{{Zepf}, {Beasley}, {Bridges}, {Hanes}, {Sharples}, {Ashman} \& {Geisler}}}}
\bibcite{Zinn85}{{324}{1985}{{{Zinn}}}{{{Zinn}}}}
\bibcite{Zinn96}{{325}{1996}{{{Zinn}}}{{{Zinn}}}}
\bibcite{Zinn84}{{326}{1984}{{{Zinn} \& {West}}}{{{Zinn} \& {West}}}}
\ttl@finishall
