This is BibTeX, Version 0.99d (TeX Live 2013)
Capacity: max_strings=35307, hash_size=35307, hash_prime=30011
The top-level auxiliary file: master.aux
A level-1 auxiliary file: Introduction/Intro.aux
A level-1 auxiliary file: Data/ObsAndDataRed.aux
A level-1 auxiliary file: Kinematics/Kinematics.aux
A level-1 auxiliary file: N147185/N147185.aux
A level-1 auxiliary file: N6822/N6822.aux
A level-1 auxiliary file: Summary/Summary.aux
A level-1 auxiliary file: Data/Appendix.aux
A level-1 auxiliary file: N147185/GChistory.aux
The style file: mn2e.bst
Reallocated field_info (elt_size=4) to 12498 items from 5000.
Database file #1: masterRef.bib
Repeated entry---line 8337 of file masterRef.bib
 : @article{Blom12
 :                ,
I'm skipping whatever remains of this entry
I was expecting a `,' or a `}'---line 9247 of file masterRef.bib
 :   
 :   @ARTICLE{Cote00a,
(Error may have been on previous line)
I'm skipping whatever remains of this entry
Warning--string name "ii" is undefined
--line 9525 of file masterRef.bib
Reallocated str_pool (elt_size=1) to 130000 items from 65000.
You're missing a field part---line 12759 of file masterRef.bib
 :    eid = 
 :          ,
I'm skipping whatever remains of this entry
You're missing a field part---line 12785 of file masterRef.bib
 :    eid = 
 :          ,
I'm skipping whatever remains of this entry
You're missing a field part---line 12811 of file masterRef.bib
 :    eid = 
 :          ,
I'm skipping whatever remains of this entry
Warning--can't use both author and editor fields in Fusci-Pecci00
Warning--empty publisher in Fusci-Pecci00
You've used 326 entries,
            2670 wiz_defined-function locations,
            2490 strings with 69875 characters,
and the built_in function-call counts, 147698 in all, are:
= -- 15282
> -- 10347
< -- 156
+ -- 3494
- -- 3491
* -- 14098
:= -- 25999
add.period$ -- 0
call.type$ -- 326
change.case$ -- 2981
chr.to.int$ -- 323
cite$ -- 328
duplicate$ -- 3735
empty$ -- 5505
format.name$ -- 4065
if$ -- 27411
int.to.chr$ -- 4
int.to.str$ -- 0
missing$ -- 328
newline$ -- 982
num.names$ -- 1330
pop$ -- 2338
preamble$ -- 1
purify$ -- 3307
quote$ -- 0
skip$ -- 5229
stack$ -- 0
substring$ -- 7089
swap$ -- 467
text.length$ -- 38
text.prefix$ -- 1677
top$ -- 0
type$ -- 2928
warning$ -- 2
while$ -- 1188
width$ -- 0
write$ -- 3249
(There were 5 error messages)
