%!PS-Adobe-3.0
%%Pages: (atend)
%%BoundingBox: 112 371 476 739
%%HiResBoundingBox: 112.260937 371.992578 475.178125 738.742969
%.................................
%%Creator: GPL Ghostscript 871 (pswrite)
%%CreationDate: 2013/06/12 12:58:48
%%DocumentData: Clean7Bit
%%LanguageLevel: 2
%%EndComments
%%BeginProlog
% This copyright applies to everything between here and the %%EndProlog:
% Copyright (C) 2010 Artifex Software, Inc.  All rights reserved.
%%BeginResource: procset GS_pswrite_2_0_1001 1.001 0
/GS_pswrite_2_0_1001 80 dict dup begin
/PageSize 2 array def/setpagesize{ PageSize aload pop 3 index eq exch
4 index eq and{ pop pop pop}{ PageSize dup  1
5 -1 roll put 0 4 -1 roll put dup null eq {false} {dup where} ifelse{ exch get exec}
{ pop/setpagedevice where
{ pop 1 dict dup /PageSize PageSize put setpagedevice}
{ /setpage where{ pop PageSize aload pop pageparams 3 {exch pop} repeat
setpage}if}ifelse}ifelse}ifelse} bind def
/!{bind def}bind def/#{load def}!/N/counttomark #
/rG{3{3 -1 roll 255 div}repeat setrgbcolor}!/G{255 div setgray}!/K{0 G}!
/r6{dup 3 -1 roll rG}!/r5{dup 3 1 roll rG}!/r3{dup rG}!
/w/setlinewidth #/J/setlinecap #
/j/setlinejoin #/M/setmiterlimit #/d/setdash #/i/setflat #
/m/moveto #/l/lineto #/c/rcurveto #
/p{N 2 idiv{N -2 roll rlineto}repeat}!
/P{N 0 gt{N -2 roll moveto p}if}!
/h{p closepath}!/H{P closepath}!
/lx{0 rlineto}!/ly{0 exch rlineto}!/v{0 0 6 2 roll c}!/y{2 copy c}!
/re{4 -2 roll m exch dup lx exch ly neg lx h}!
/^{3 index neg 3 index neg}!
/f{P fill}!/f*{P eofill}!/s{H stroke}!/S{P stroke}!
/q/gsave #/Q/grestore #/rf{re fill}!
/Y{P clip newpath}!/Y*{P eoclip newpath}!/rY{re Y}!
/|={pop exch 4 1 roll 1 array astore cvx 3 array astore cvx exch 1 index def exec}!
/|{exch string readstring |=}!
/+{dup type/nametype eq{2 index 7 add -3 bitshift 2 index mul}if}!
/@/currentfile #/${+ @ |}!
/B{{2 copy string{readstring pop}aload pop 4 array astore cvx
3 1 roll}repeat pop pop true}!
/Ix{[1 0 0 1 11 -2 roll exch neg exch neg]exch}!
/,{true exch Ix imagemask}!/If{false exch Ix imagemask}!/I{exch Ix image}!
/Ic{exch Ix false 3 colorimage}!
/F{/Columns counttomark 3 add -2 roll/Rows exch/K -1/BlackIs1 true>>
/CCITTFaxDecode filter}!/FX{<</EndOfBlock false F}!
/X{/ASCII85Decode filter}!/@X{@ X}!/&2{2 index 2 index}!
/@F{@ &2<<F}!/@C{@X &2 FX}!
/$X{+ @X |}!/&4{4 index 4 index}!/$F{+ @ &4<<F |}!/$C{+ @X &4 FX |}!
/IC{3 1 roll 10 dict begin 1{/ImageType/Interpolate/Decode/DataSource
/ImageMatrix/BitsPerComponent/Height/Width}{exch def}forall
currentdict end image}!
/~{@ read {pop} if}!
end def
%%EndResource
/pagesave null def
%%EndProlog
%%Page: 1 1
%%PageBoundingBox: 0 0 612 792
%%BeginPageSetup
GS_pswrite_2_0_1001 begin
612 792 /letter setpagesize
/pagesave save store 197 dict begin
0.1 0.1 scale
%%EndPageSetup
gsave mark
Q q
0 0 6120 0 0 7920 ^ Y
255 0 94 rG
4365 5570.5 m
0 790.59 -640.91 1431.5 -1431.5 1431.5 c
-790.59 0 -1431.5 -640.91 -1431.5 -1431.5 c
0 -790.59 640.91 -1431.5 1431.5 -1431.5 c
790.59 0 1431.5 640.91 1431.5 1431.5 c
f
57 w
3.86369 M
K
4365 5570.5 m
0 790.59 -640.91 1431.5 -1431.5 1431.5 c
-790.59 0 -1431.5 -640.91 -1431.5 -1431.5 c
0 -790.59 640.91 -1431.5 1431.5 -1431.5 c
790.59 0 1431.5 640.91 1431.5 1431.5 c
h
S
0.2 i
1160.91 6008.22 -1.17 -6.01 P
4.21 -8.52 4.8 -13.04 2.75 -25.47 c
-1.58 -8.13 -19.51 -100.36 p
-3.98 -20.5 -7.82 -28.92 -15.35 -33.69 c
-1.17 -6.01 46.73 -10.55 ^ p
-20.73 8.43 -25.24 19.21 -19.74 47.48 c
5.7 29.33 147.36 -28.64 6.36 -1.24 p
22.97 -4.46 31.06 -11.91 28.18 -26.75 c
-0.48 -2.47 6.01 -1.17 13.94 71.73 ^ -0.62 -3.18 p
-2.75 -14.14 -12.68 -18.07 -34.95 -13.75 c
-7.42 1.45 -147.36 28.64 6.18 31.8 p
5.08 26.15 13.37 34.81 34.32 36.97 c
2.96 0.16 0.96 4.95 h
f
1402.39 6330.42 48.48 -22.09 5.9 -2.69 P
21.29 -9.7 27.42 -18.83 21.15 -32.59 c
-1.05 -2.29 5.57 -2.54 30.6 67.16 -5.57 2.54 -1.05 -2.29 p
-6.12 -13.43 -17.18 -15.12 -38.47 -5.41 c
-5.89 2.69 -105.16 47.92 -5.9 2.68 p
-21.29 9.71 -27.27 19.16 -21.15 32.59 c
1.04 2.29 -5.57 2.54 -30.61 -67.16 5.57 -2.54 1.05 2.29 p
6.27 13.76 17.18 15.12 38.47 5.41 c
5.9 -2.69 47.17 -21.5 -46.58 -102.2 -47.17 21.5 -5.9 2.69 p
-21.29 9.7 -27.27 19.15 -21.15 32.59 c
1.05 2.29 -5.57 2.54 -30.9 -67.81 5.57 -2.54 1.19 2.62 p
6.12 13.43 17.03 14.79 38.32 5.09 c
5.9 -2.68 105.15 -47.92 5.9 -2.69 p
21.29 -9.71 27.42 -18.83 21.3 -32.26 c
-1.2 -2.62 5.57 -2.54 30.9 67.81 ^ -1.04 -2.29 p
-6.12 -13.43 -17.18 -15.12 -38.47 -5.41 c
-5.9 2.69 -48.48 22.09 h
f
0.221638 i
1544.52 6742.8 -91.54 -117.16 4.82 -3.77 1.77 2.27 P
9.09 11.63 20.01 10.41 38.45 -4 c
5.11 -3.99 91.06 -71.14 5.11 -3.99 p
18.44 -14.41 22.27 -24.71 13.18 -36.34 c
-1.77 -2.27 4.82 -3.77 91.54 117.16 -24.59 31.09 -3.77 -4.82 p
14.22 -23.9 13.09 -33.53 -5.96 -57.93 c
-18.84 -24.11 p
-11.97 -15.32 -14.15 -16.36 -25.21 -7.71 c
-4.25 3.32 -55.04 43 31.03 39.72 p
13.74 17.59 17.21 18.53 34 11.36 c
3.77 4.82 -39.43 30.81 -3.77 -4.82 p
0.63 -0.95 1.2 -1.39 1.26 -1.9 c
10.33 -13.09 9.97 -16.47 -3.99 -34.34 c
-30.81 -39.43 -71.49 55.85 36.57 46.81 p
14.18 18.16 22.65 20.22 42.77 10.89 c
3.55 4.54 h
f
0.2 i
2133.39 6968.45 43.16 26.71 -3.22 5.2 -2.14 -1.32 P
-12.55 -7.77 -22.68 -3.03 -35 16.87 c
-3.41 5.51 -60.81 98.27 -3.41 5.51 p
-12.31 19.9 -12.04 31.08 0.52 38.84 c
2.14 1.33 -3.22 5.2 -62.14 -38.46 ^ 1.23 0.76 p
12.55 7.77 22.68 3.03 34.99 -16.87 c
3.41 -5.51 61.95 -100.11 p
-0.5 -26.55 -12 -47.64 -32.51 -60.34 c
-15.92 -9.85 -34.17 -11.83 -48.03 -5.16 c
-9.63 4.62 -18.97 14.93 -29.2 31.46 c
-46.79 75.61 -3.41 5.51 p
-12.31 19.9 -12.34 30.89 0.52 38.84 c
2.14 1.33 -3.22 5.2 -63.37 -39.21 ^ 2.45 1.52 p
12.55 7.77 22.38 2.84 34.69 -17.06 c
3.41 -5.51 39.78 -64.29 8.9 -14.39 p
23.3 -37.66 60.85 -47.02 97.58 -24.29 c
23.27 14.39 36.14 34.64 41.42 63.73 c
h
f
2488.93 7334.82 -59.4 -18.73 1.84 -5.84 3.09 0.97 P
16.14 5.09 23.76 -2.32 33.39 -32.88 c
33.99 -107.81 -0.69 -0.22 -171.2 114.38 -50.47 -15.91 1.84 -5.84 p
23.63 4.05 32.75 -2.13 40.66 -27.19 c
2.71 -8.59 33.45 -106.09 p
7.58 -24.04 4.54 -35.94 -10.57 -40.7 c
-3.09 -0.97 1.84 -5.84 59.74 18.84 -1.84 5.84 -2.75 -0.87 p
-17.51 -5.52 -25.49 0.64 -33.5 26.05 c
-41.57 131.84 0.69 0.21 192.94 -128.28 5.84 1.84 -48.28 153.13 -2.6 8.24 p
-6.93 21.97 -3.46 32.5 12.68 37.59 c
3.09 0.97 h
f
2801.78 7181.86 -2.51 -0.27 P
-15.04 -1.58 -21.74 7.13 -24.19 30.4 c
-0.68 6.45 -12.08 114.93 -0.68 6.45 p
-2.45 23.27 2.3 33.18 17.34 34.76 c
2.51 0.27 -0.64 6.09 -73.75 -7.75 0.64 -6.09 2.86 0.3 p
14.68 1.54 21.74 -7.12 24.19 -30.39 c
0.68 -6.45 12.08 -114.93 0.68 -6.44 p
2.45 -23.27 -2.66 -33.22 -17.34 -34.77 c
-2.86 -0.3 0.64 -6.09 73.75 7.75 h
f
3224.22 7366.32 -59.79 6.29 -0.64 -6.09 P
12.13 -1.64 18.05 -7.33 17.11 -16.28 c
-0.49 -4.66 -3.5 -12.66 -7.66 -21.28 c
-57.75 -115.55 -33.39 126.58 -1.43 7.03 p
-2.89 10.44 -3.02 12.62 -2.68 15.84 c
0.79 7.52 8.08 11.46 19.22 10.65 c
0.64 6.09 -74.47 7.82 -0.64 -6.09 p
17.43 -2.92 23.52 -10.43 30.44 -37.59 c
45.87 -173.14 6.09 -0.64 76.11 152.36 p
14.58 28.51 23.75 36.6 42.35 37.9 c
h
f
3590.31 7265.65 -140.58 48.4 -1.99 -5.79 2.72 -0.94 P
13.96 -4.8 16.36 -15.53 8.74 -37.66 c
-2.11 -6.12 -37.62 -109.27 -2.11 -6.12 p
-7.62 -22.12 -16.11 -29.1 -30.07 -24.3 c
-2.72 0.94 -1.99 -5.79 140.58 -48.41 21.39 33.38 -5.79 1.99 p
-17.97 -21.23 -27.44 -23.3 -56.71 -13.21 c
-28.93 9.96 p
-18.38 6.33 -20.07 8.05 -15.5 21.33 c
1.76 5.11 22.73 66.04 47.66 -16.41 p
21.1 -7.27 23.13 -10.25 21.8 -28.45 c
5.79 -1.99 16.29 47.32 ^ p
-0.69 -0.91 -0.93 -1.59 -1.39 -1.81 c
-9.02 -14.03 -12.32 -14.79 -33.77 -7.41 c
-47.32 16.29 29.54 85.78 56.16 -19.34 p
21.78 -7.5 26.49 -14.83 24.23 -36.9 c
5.45 -1.87 h
f
3800.29 7040.33 12.21 -7.63 P
9.16 -5.73 12.13 -8.43 15.64 -15.72 c
2.14 -4.73 3.97 -9.27 4.5 -13.85 c
1.8 -10.04 2.48 -26.6 1.88 -53.39 c
-0.07 -27.97 -0.26 -31.67 2.64 -45.37 c
35.91 -22.02 3.25 5.19 -1.53 0.95 p
-9.16 5.72 -12.94 22.09 -12.71 55.07 c
0.22 29.57 p
0.15 18.59 -1.45 25.53 -8.09 40.72 c
28.01 -8.16 49.19 -1.45 62.54 19.93 c
9.73 15.57 10.26 34.76 1.07 51.97 c
-6.37 12.9 -16.34 22.09 -36.79 34.88 c
-65.03 40.63 -3.24 -5.19 2.14 -1.33 p
12.52 -7.82 12.75 -19 0.35 -38.85 c
-3.43 -5.5 -61.24 -98 -3.43 -5.5 p
-12.4 -19.84 -22.55 -24.54 -35.07 -16.72 c
-2.14 1.34 -3.25 -5.19 62.89 -39.3 3.24 5.19 -2.14 1.34 p
-12.82 8.01 -12.75 19 -0.35 38.85 c
3.43 5.49 h
3855.04 7127.95 18.32 -11.45 P
26.56 -16.6 33.85 -43.65 18.21 -68.69 c
-8.2 -13.13 -21.63 -21.71 -35.6 -22.33 c
-10.57 -0.61 -19.96 2.71 -34.31 11.68 c
-16.79 10.49 h
f
0.250077 i
4235.48 6842.43 -3.88 3.75 P
-0.5 -0.52 -1.01 -0.53 -1.26 -0.79 c
-3.03 -1.58 -4.55 -1.61 -6.62 0.39 c
-1.55 1.5 -3.12 3.51 -6.55 10.32 c
-6.05 11.35 -9.7 16.38 -17.21 23.63 c
-23.82 23.01 -55.4 23.47 -77.41 0.68 c
-10 -10.36 -15.4 -22.16 -16.68 -36.44 c
-0.38 -7.14 -0.01 -14 1.12 -20.09 c
1.11 -5.58 3.58 -15.47 7.16 -30.94 c
2.46 -9.89 4.16 -19.53 5.1 -29.45 c
2.06 -16 -0.57 -25.47 -9.32 -34.53 c
-15.51 -16.05 -37.92 -15.43 -55.79 1.82 c
-8.03 7.75 -13.3 17.84 -14.51 29.03 c
-2.29 14.73 0.11 22.91 11.54 38.9 c
2.49 3.1 -4.4 4.25 -38.76 -40.14 ^ p
5.05 2.63 8.61 2.7 11.2 0.2 c
1.04 -1 2.61 -4.03 6.57 -11.85 c
8.42 -15.64 11.82 -20.93 19.85 -28.68 c
23.3 -22.51 60.46 -21.86 82.97 1.45 c
9 9.32 13.89 21.12 14.92 35.14 c
0.82 11.22 -0.63 21.63 -5.29 40.64 c
-3.28 12.67 -5.47 21.8 -6.84 27.12 c
-1.66 7.61 -2.8 14.72 -3.18 21.59 c
-0.46 11.45 3.67 22.98 10.67 30.23 c
13 13.46 33.89 12.81 49.43 -2.2 c
7.51 -7.25 12 -16.59 13.45 -26.5 c
1.72 -11.17 -0.92 -20.13 -9.33 -34.53 c
-1.74 -2.32 4.4 -4.25 h
f
0.209053 i
4270.69 6479.27 -1.46 2.05 P
-8.78 12.31 -4.5 22.44 14.55 36.02 c
5.28 3.76 94.08 67.11 5.27 3.76 p
19.05 13.59 30.02 14.34 38.8 2.02 c
1.46 -2.05 4.98 3.55 -43.07 60.38 ^ 1.67 -2.34 p
8.57 -12.02 4.5 -22.43 -14.54 -36.02 c
-5.28 -3.76 -94.08 -67.11 -5.28 -3.77 p
-19.05 -13.59 -30.22 -14.04 -38.79 -2.02 c
-1.68 2.34 -4.98 -3.55 43.07 -60.37 h
f
0.2 i
4625.35 6258.49 -2.59 5.55 P
-8.41 4.42 -11.54 7.72 -17.2 18.99 c
-3.5 7.5 -43.21 92.66 p
-8.82 18.92 -10.67 27.99 -7.39 36.28 c
-2.59 5.55 -44 -18.93 ^ p
21.73 5.37 31.71 -0.7 43.88 -26.8 c
12.63 -27.08 -136.05 -63.45 -5.87 -2.74 p
-21.21 -9.89 -32.12 -8.62 -38.52 5.08 c
-1.06 2.28 -5.55 -2.59 30.88 -66.23 5.55 2.59 -1.37 2.93 p
-6.09 13.05 -0.36 22.07 20.19 31.66 c
6.85 3.2 136.05 63.45 13.69 -29.37 p
11.26 -24.14 9.65 -36.02 -6.04 -50.08 c
-2.3 -1.87 2.13 -4.57 h
f
4729.04 5857.44 -11.75 55.29 -5.98 -1.27 P
1.95 -9.16 -1.31 -14.63 -9.05 -16.28 c
-4.58 -0.97 -11.87 0.42 -20.23 3.43 c
-57.67 21.97 48.71 47.89 5.16 5.15 p
3.42 2.93 5.94 4.94 8.05 5.39 c
6.34 1.35 11.56 -4.17 13.73 -14.38 c
0.9 -4.23 5.99 1.27 -16.77 78.88 ^ p
2.04 -16.5 -0.99 -23.03 -19.83 -41.75 c
-57.77 -57.18 -57.05 -12.12 -6.34 -1.35 p
-22.89 -4.86 -33.24 -1.18 -36.39 13.61 c
-0.82 3.87 -5.98 -1.27 15.49 -72.89 5.99 1.27 -0.52 2.46 p
-3.07 14.44 4.81 22.37 27.7 27.23 c
6.34 1.35 57.05 12.13 81.36 -31.29 7.59 -2.8 p
11.63 -4.52 18.29 -11.57 22.11 -24.37 c
h
f
1348.2 5158.39 m
-15.86 61.34 -72.81 96.07 -132.07 80.75 c
-58.9 -15.23 -93.53 -74.02 -78.11 -133.61 c
15.32 -59.25 74.11 -93.87 133.36 -78.55 c
57.86 14.96 91.96 72.87 76.82 131.42 c
h
1341.3 5157.73 m
11.81 -45.66 -19.05 -84.5 -79.7 -100.19 c
-58.9 -15.23 -105.08 5.18 -116.98 51.18 c
-11.62 44.96 20.27 85.56 78.82 100.7 c
59.6 15.41 105.78 -4.99 117.86 -51.7 c
h
f
1529.94 4711.56 -68.42 123.43 -5.35 -2.97 1.4 -2.52 P
7.16 -12.91 1.76 -22.48 -18.71 -33.83 c
-5.67 -3.14 -101.07 -56.03 -5.67 -3.14 p
-20.46 -11.34 -31.45 -10.84 -38.6 2.07 c
-1.4 2.52 -5.35 -2.96 36.13 -65.18 ^ -1.4 2.52 p
-7.15 12.91 -1.76 22.48 18.71 33.83 c
5.67 3.14 47.54 26.35 22.16 -39.98 p
11.35 -20.47 10.78 -26.13 -5.63 -38.11 c
2.96 -5.35 50.7 28.1 -2.97 5.35 p
-18.05 -7.54 -23.64 -4.87 -34.81 15.28 c
-22.34 40.3 76.51 42.41 25.48 -45.97 p
10.82 -19.52 9.06 -27.49 -9.45 -43.11 c
2.97 -5.35 h
f
0.226555 i
1952.88 4250.04 -115.55 93.57 -3.85 -4.75 2.24 -1.81 P
11.47 -9.29 10.06 -20.19 -4.67 -38.37 c
-4.08 -5.04 -72.73 -89.8 -4.08 -5.04 p
-14.73 -18.18 -25.09 -21.83 -36.56 -12.54 c
-2.24 1.81 -3.85 -4.76 115.55 -93.57 31.52 24.05 -4.76 3.85 p
-24.14 -13.8 -33.75 -12.51 -57.81 6.98 c
-23.78 19.26 p
-15.11 12.23 -16.11 14.43 -7.27 25.34 c
3.4 4.2 43.95 54.27 39.17 -31.71 p
17.34 -14.05 18.22 -17.54 10.76 -34.19 c
4.76 -3.85 31.49 38.89 ^ p
-0.96 -0.61 -1.41 -1.17 -1.92 -1.22 c
-13.27 -10.1 -16.64 -9.69 -34.27 4.59 c
-38.89 31.49 57.09 70.5 46.16 -37.38 p
17.9 -14.5 19.82 -23 10.14 -42.96 c
4.48 -3.62 h
f
0.2 i
2053.11 3940.29 85.48 -39.86 P
20.88 -9.74 36.95 -14.45 54.22 -15.75 c
41.65 -3.54 76.36 17.23 94.61 56.38 c
17.04 36.54 12.7 77.49 -11.34 108.56 c
-5.5 6.94 -11.79 13.05 -18.38 18.5 c
-10.7 8.57 -18.23 12.87 -42.05 23.98 c
-75.37 35.14 -2.59 -5.55 2.28 -1.07 p
13.38 -6.24 14.97 -17.31 5.08 -38.52 c
-2.74 -5.87 -48.84 -104.73 -2.74 -5.87 p
-9.89 -21.21 -19.39 -27.11 -32.77 -20.87 c
-2.29 1.07 h
2183.73 4099.43 27.73 -12.93 P
25.12 -11.71 38.79 -22.45 47.88 -37.02 c
15.52 -25.5 15.5 -60.45 -0.62 -95.04 c
-11.71 -25.12 -26.89 -41.48 -46.29 -50.71 c
-21.94 -10.43 -42.76 -9.06 -71.14 4.18 c
-14.36 6.69 p
-18.93 8.82 -20.64 18.77 -8.02 45.84 c
h
f
2555.11 3765.09 -2.45 0.57 P
-14.73 3.4 -18.24 13.82 -12.98 36.62 c
1.46 6.32 26 112.6 1.46 6.31 p
5.27 22.8 12.98 30.63 27.71 27.22 c
2.46 -0.57 1.38 5.96 -72.26 16.68 -1.38 -5.96 2.81 -0.65 p
14.38 -3.32 18.24 -13.82 12.97 -36.62 c
-1.46 -6.31 -26 -112.6 -1.46 -6.32 p
-5.26 -22.8 -13.33 -30.54 -27.71 -27.22 c
-2.8 0.65 -1.37 -5.96 72.26 -16.68 h
f
0.36 i
3039.44 3927.01 -62.28 0 0 -6 3.32 0 P
17.35 0 22.52 -9.36 22.52 -41.36 c
0 -112.93 -0.74 0 -129.32 160.29 -53.1 0 0 -6 p
23.41 -3.26 30.15 -11.9 30.15 -38.17 c
0 -120.21 p
0 -25.19 -6.37 -35.63 -21.93 -35.63 c
-3.18 0 0 -6 62.64 0 ^ -2.94 0 p
-18.72 0 -24.59 8.28 -24.59 34.94 c
0 138.34 0.72 0 146.11 -180.36 6.18 0 0 169.03 p
0 23.02 6.43 32.06 23.21 32.06 c
3.22 0 h
f
0.2 i
3336.17 3763.26 86.59 23.2 P
15.3 4.1 25.71 8.38 34.26 14.02 c
18.56 12.8 27.21 33.38 21.89 53.2 c
-7.17 26.77 -34.09 43.79 -66.81 42.1 c
-0.19 0.7 p
12.1 7.71 15.96 11.36 21.43 18.79 c
7.85 11.05 10.34 24.02 6.7 37.57 c
-4.29 16 -17.05 27.48 -35.82 32.14 c
-12.8 3.28 -29.64 2.12 -50.5 -3.47 c
-70.94 -19.01 1.59 -5.91 2.78 0.75 p
14.26 3.82 22.24 -3.73 28.3 -26.34 c
1.68 -6.26 29.91 -111.62 1.68 -6.26 p
6.05 -22.6 2.91 -33.13 -11.34 -36.95 c
-2.78 -0.75 h
3356.13 3884.89 -22.36 83.46 14.95 4.01 P
13.21 3.54 18.18 4.5 26.22 3.67 c
18.53 -1 32.71 -13.6 37.93 -33.07 c
6.71 -25.04 -7.02 -44.74 -36.23 -52.57 c
h
3358.83 3874.81 18.78 5.03 P
35.12 9.41 62.32 -3.06 70.05 -31.92 c
3.08 -11.48 2.49 -23.19 -1.37 -32.42 c
-5.29 -12.23 -13.66 -18.57 -30.35 -23.04 c
-10.08 -2.7 p
-18.08 -4.84 -24.37 0.55 -31.55 27.32 c
h
f
3907.14 3995.84 43.96 25.38 -3.06 5.3 -2.18 -1.26 P
-12.78 -7.38 -22.76 -2.34 -34.46 17.93 c
-3.24 5.61 -57.78 100.08 -3.24 5.61 p
-11.7 20.27 -11.08 31.43 1.7 38.81 c
2.18 1.26 -3.06 5.3 -63.29 -36.54 ^ 1.25 0.72 p
12.79 7.38 22.76 2.34 34.46 -17.93 c
3.24 -5.61 58.86 -101.95 p
-1.31 -26.53 -13.45 -47.26 -34.34 -59.32 c
-16.21 -9.36 -34.52 -10.78 -48.16 -3.7 c
-9.49 4.91 -18.51 15.5 -28.23 32.34 c
-44.46 77.01 -3.24 5.61 p
-11.7 20.27 -11.39 31.25 1.7 38.81 c
2.18 1.26 -3.06 5.3 -64.54 -37.26 3.06 -5.3 2.49 1.44 p
12.79 7.38 22.45 2.15 34.15 -18.11 c
3.24 -5.61 37.8 -65.47 8.46 -14.65 p
22.14 -38.35 59.38 -48.86 96.79 -27.25 c
23.7 13.68 37.18 33.52 43.35 62.44 c
h
f
0.250077 i
4165.39 4319.85 10 10.36 P
7.5 7.77 10.77 10.12 18.63 12.04 c
5.07 1.11 9.89 1.96 14.48 1.53 c
10.19 -0.33 26.53 -3.1 52.61 -9.27 c
27.34 -5.89 30.93 -6.84 44.93 -6.86 c
29 30.55 -4.4 4.25 -1.25 -1.29 p
-7.5 -7.77 -24.3 -8.06 -56.5 -0.99 c
-28.88 6.37 p
-18.14 4.01 -25.27 3.89 -41.51 0.55 c
13.81 25.7 11.64 47.81 -6.49 65.32 c
-13.21 12.75 -31.87 17.27 -50.62 11.84 c
-13.94 -3.55 -25 -11.38 -41.76 -28.73 c
-53.27 -55.16 4.4 -4.25 1.75 1.81 p
10.25 10.62 21.24 8.52 38.07 -7.73 c
4.66 -4.5 83.13 -80.27 4.66 -4.5 p
16.83 -16.26 19.32 -27.16 9.06 -37.78 c
-1.75 -1.81 4.4 -4.25 51.52 53.35 -4.4 4.25 -1.75 -1.81 p
-10.5 -10.87 -21.24 -8.52 -38.07 7.74 c
-4.66 4.5 h
4091.07 4391.62 15 15.54 P
21.76 22.53 49.74 24.04 70.97 3.53 c
11.13 -10.75 16.74 -25.68 14.44 -39.46 c
-1.6 -10.46 -6.8 -18.96 -18.55 -31.13 c
-13.76 -14.25 h
f
0.2 i
4397.11 4821.5 -3.06 -5.3 P
3.11 -4.7 3.22 -8.1 0.16 -13.4 c
-0.54 -0.93 -1.08 -1.87 -1.93 -2.62 c
-0.9 -1.56 -2.29 -3.25 -3.82 -4.45 c
-1.21 -1.38 -3.95 -3.95 -7.89 -7.91 c
-10.81 -10.8 -17.59 -18.95 -23.17 -28.61 c
-29.88 -51.75 -9.76 -116.99 46.04 -149.21 c
53.94 -31.14 111.95 -10.59 148.48 52.7 c
10.44 18.08 20 40.41 23.73 54.06 c
-40.53 23.4 p
-23.07 13.32 -27.41 21.64 -18.77 36.61 c
1.8 3.12 -5.61 3.24 -41.94 -72.64 5.61 -3.24 3.96 6.86 p
8.64 14.96 17.89 15.86 40.02 3.08 c
13.72 -7.92 p
19.33 -11.16 21.11 -21.75 7.79 -44.82 c
-24.66 -42.71 -81.19 -52.06 -133.57 -21.82 c
-48.32 27.9 -66.51 74.15 -44.37 112.5 c
8.82 15.28 24.42 27.89 41.37 33.48 c
14 4.8 25.74 4.26 42.86 -0.64 c
2.7 4.68 h
f
4643.67 5186.48 51.58 -13.34 6.27 -1.62 P
22.66 -5.86 30.28 -13.78 26.49 -28.42 c
-0.63 -2.44 5.93 -1.54 18.48 71.45 -5.93 1.53 -0.63 -2.44 p
-3.7 -14.29 -14.29 -17.87 -36.95 -12.01 c
-6.27 1.62 -111.88 28.93 -6.27 1.63 p
-22.66 5.86 -30.18 14.13 -26.49 28.42 c
0.63 2.44 -5.92 1.53 -18.48 -71.45 5.93 -1.53 0.63 2.44 p
3.79 14.64 14.29 17.87 36.94 12.01 c
6.27 -1.62 50.19 -12.98 -28.12 -108.74 -50.19 12.98 -6.27 1.63 p
-22.66 5.86 -30.18 14.13 -26.49 28.42 c
0.63 2.44 -5.92 1.54 -18.66 -72.15 5.93 -1.53 0.72 2.79 p
3.7 14.29 14.2 17.52 36.85 11.66 c
6.27 -1.62 111.88 -28.93 6.27 -1.62 p
22.66 -5.86 30.28 -13.78 26.58 -28.07 c
-0.72 -2.79 5.93 -1.53 18.66 72.15 ^ -0.63 -2.44 p
-3.7 -14.29 -14.29 -17.87 -36.95 -12.01 c
-6.27 1.62 -51.58 13.34 h
f
1 i
1239.5 5520.5 m
0 16.57 -13.43 30 -30 30 c
-16.57 0 -30 -13.43 -30 -30 c
0 -16.57 13.43 -30 30 -30 c
16.57 0 30 13.43 30 30 c
f
14 w
1239.5 5520.5 m
0 16.57 -13.43 30 -30 30 c
-16.57 0 -30 -13.43 -30 -30 c
0 -16.57 13.43 -30 30 -30 c
16.57 0 30 13.43 30 30 c
h
S
4679.5 5520.5 m
0 16.57 -13.43 30 -30 30 c
-16.57 0 -30 -13.43 -30 -30 c
0 -16.57 13.43 -30 30 -30 c
16.57 0 30 13.43 30 30 c
f
4679.5 5520.5 m
0 16.57 -13.43 30 -30 30 c
-16.57 0 -30 -13.43 -30 -30 c
0 -16.57 13.43 -30 30 -30 c
16.57 0 30 13.43 30 30 c
h
S
255 168 66 rG
1949.5 6578.5 0 -1890 P
0 -260 282 -278 500 -300 c
290 -30 335 31 475 -240 c
230 310 264 221 475 240 c
220 20 510 10 510 310 c
0 1880 p f
40 w
1 J
2 j
K
1949.5 6578.5 0 -1890 P
0 -260 282 -278 500 -300 c
290 -30 335 31 475 -240 c
230 310 264 221 475 240 c
220 20 510 10 510 310 c
0 1880 h
S
255 G
2024.5 6509.5 0 -1775 P
0 -287 246 -266 451 -287 c
272 -28 329 21 457 -184 c
167 215 236 166 434 184 c
206 20 478 0 478 287 c
0 1775 p f
Q q
2024.5 6509.5 0 -1775 P
0 -287 246 -266 451 -287 c
272 -28 329 21 457 -184 c
167 215 236 166 434 184 c
206 20 478 0 478 287 c
0 1775 p Y
K
2552.5 6561.5 276 -299 195 -11 278 307 -749 3 f
10 w
3.86369 M
1 J
2552.5 6561.5 276 -299 195 -11 278 307 -749 3 H
S
217 0 255 rG
2666.5 6532.5 m
-8 -11 25 -92 30 -98 c
5 -15 67 -69 85 -86 c
6 -16 35 -39 38 -39 c
3 -11 7 -7 14 7 c
-109 141 p
-33 53 -56 84 -58 75 c
f
2749.5 6477.5 m
-4 -12 12 -29 25 -33 c
0 -9 43 -57 49 -66 c
5 -11 28 -47 34 -51 c
8 -5 -3 34 -12 51 c
-12 16 -23 41 -23 54 c
-14 30 p
-11 3 -11 16 -19 22 c
-4 3 -1 33 -4 38 c
-12 -7 -30 -28 -36 -45 c
f
3199.5 6528.5 m
8 -12 -24 -96 -30 -99 c
-40 -31 -65 -48 -84 -87 c
-7 -13 -34 -31 -37 -31 c
-3 -11 -22 -9 -29 5 c
34 16 34 46 v
15 0 58 35 y
26 57 p
10 15 22 27 31 37 c
21 25 30 43 31 37 c
f
3109.5 6478.5 m
4 -12 -12 -36 -26 -40 c
0 -9 -42 -66 -48 -74 c
-4 -12 -27 -32 -34 -36 c
-8 -6 3 34 12 51 c
12 16 23 41 23 55 c
15 28 p
10 4 10 17 18 23 c
4 3 2 33 4 39 c
12 -8 30 -29 36 -46 c
f
2911.5 6332.5 m
6 22 -6 52 -6 75 c
0 39 21 112 -16 112 c
-12 -2 -40 -33 -55 -38 c
-9 -16 18 -52 23 -69 c
0 -14 9 -20 16 -34 c
5 -13 23 -49 38 -46 c
f
2954.5 6328.5 m
-7 22 -5 62 -5 84 c
0 40 -17 106 20 106 c
12 -2 40 -33 55 -38 c
9 -16 -17 -38 -22 -54 c
0 -14 -10 -35 -17 -49 c
-4 -13 -17 -52 -31 -49 c
f
K
2899.5 5952.5 10 90 P
-50 30 -30 90 y
100 0 p
10 -70 -40 -90 y
10 -90 p f
20 w
2899.5 5952.5 10 90 P
-50 30 -30 90 y
100 0 p
10 -70 -40 -90 y
10 -90 h
S
143 255 156 rG
2779.5 6198.5 m
0 63 65 114 145 114 c
80 0 145 -51 145 -114 c
0 -63 -65 -116 -145 -116 c
-80 0 -145 53 -145 116 c
f
K
2779.5 6198.5 m
0 63 65 114 145 114 c
80 0 145 -51 145 -114 c
0 -63 -65 -116 -145 -116 c
-80 0 -145 53 -145 116 c
h
S
2951.5 6191.5 m
10 4 10 9 20 11 c
0 -14 -12 -3 -3 -25 c
1 -5 -12 14 -17 14 c
f
10 w
2951.5 6191.5 m
10 4 10 9 20 11 c
0 -14 -12 -3 -3 -25 c
1 -5 -12 14 -17 14 c
h
S
2831.5 6282.5 m
54 -90 190 -173 y
23 25 p
-117 58 -135 68 -213 148 c
f
2831.5 6282.5 m
54 -90 190 -173 y
23 25 p
-117 58 -135 68 -213 148 c
h
S
2917.5 6312.5 m
11 -40 148 -136 y
6 26 p
-49 22 -114 66 -154 110 c
f
2917.5 6312.5 m
11 -40 148 -136 y
6 26 p
-49 22 -114 66 -154 110 c
h
S
2785.5 6212.5 m
40 -50 147 -126 y
50 9 p
-61 27 -148 76 -197 117 c
f
2785.5 6212.5 m
40 -50 147 -126 y
50 9 p
-61 27 -148 76 -197 117 c
h
S
2812.5 6127.5 m
53 10 236 127 y
-25 28 p
-89 -96 -211 -155 y
f
2812.5 6127.5 m
53 10 236 127 y
-25 28 p
-89 -96 -211 -155 y
h
S
2787.5 6182.5 m
75 30 184 123 y
-30 4 p
-35 -40 -87 -90 -154 -127 c
f
2787.5 6182.5 m
75 30 184 123 y
-30 4 p
-35 -40 -87 -90 -154 -127 c
h
S
2881.5 6091.5 m
35 3 187 98 y
-3 37 p
-43 -51 -184 -135 y
f
2881.5 6091.5 m
35 3 187 98 y
-3 37 p
-43 -51 -184 -135 y
h
S
2945.5 6116.5 m
10 4 10 9 20 11 c
0 -15 -12 -3 -3 -25 c
1 -4 -11 14 -17 14 c
f
2945.5 6116.5 m
10 4 10 9 20 11 c
0 -15 -12 -3 -3 -25 c
1 -4 -11 14 -17 14 c
h
S
2882.5 6151.5 m
10 4 10 9 20 11 c
0 -14 -11 -3 -3 -25 c
2 -5 -12 14 -17 14 c
f
2882.5 6151.5 m
10 4 10 9 20 11 c
0 -14 -11 -3 -3 -25 c
2 -5 -12 14 -17 14 c
h
S
2877.5 6236.5 m
10 4 10 9 20 11 c
0 -15 -12 -3 -3 -25 c
1 -4 -12 14 -17 14 c
f
2877.5 6236.5 m
10 4 10 9 20 11 c
0 -15 -12 -3 -3 -25 c
1 -4 -12 14 -17 14 c
h
S
2811.5 6192.5 m
10 5 10 10 20 12 c
0 -14 -13 -3 -4 -25 c
1 -4 -12 13 -16 13 c
f
2811.5 6192.5 m
10 5 10 10 20 12 c
0 -14 -13 -3 -4 -25 c
1 -4 -12 13 -16 13 c
h
S
3017.5 6155.5 m
10 4 10 9 20 11 c
0 -14 -12 -4 -3 -25 c
1 -4 -12 14 -17 14 c
f
3017.5 6155.5 m
10 4 10 9 20 11 c
0 -14 -12 -4 -3 -25 c
1 -4 -12 14 -17 14 c
h
S
3021.5 6232.5 m
10 5 10 10 20 12 c
0 -14 -13 -3 -4 -25 c
1 -4 -12 13 -16 13 c
f
3021.5 6232.5 m
10 5 10 10 20 12 c
0 -14 -13 -3 -4 -25 c
1 -4 -12 13 -16 13 c
h
S
2945.5 6288.5 m
10 4 10 9 20 11 c
0 -14 -12 -3 -3 -25 c
1 -4 -11 14 -17 14 c
f
2945.5 6288.5 m
10 4 10 9 20 11 c
0 -14 -12 -3 -3 -25 c
1 -4 -11 14 -17 14 c
h
S
2799.5 6196.5 m
-10 4 -11 13 -21 15 c
0 -14 10 -11 1 -33 c
-1 -4 15 18 20 18 c
f
2799.5 6196.5 m
-10 4 -11 13 -21 15 c
0 -14 10 -11 1 -33 c
-1 -4 15 18 20 18 c
h
S
255 G
2719.5 4403.5 0 190 90 10 60 160 200 0 40 -140 90 -10 0 -210 
-210 -10 -22 38 2 142 P
-60 0 -60 -60 v
0 -50 0 -110 y
f
20 w
K
2719.5 4403.5 0 190 90 10 60 160 200 0 40 -140 90 -10 0 -210 
-210 -10 -22 38 2 142 P
-60 0 -60 -60 v
0 -50 0 -110 y
h
S
2664.5 4433.5 0 190 90 10 60 160 200 0 50 -160 80 -10 0 -190 
-177 0 -3 95 P
5 60 -50 75 y
-60 0 -55 -50 v
-5 -40 -5 -120 y
f
0 J
2664.5 4433.5 0 190 90 10 60 160 200 0 50 -160 80 -10 0 -190 
-177 0 -3 95 P
5 60 -50 75 y
-60 0 -55 -50 v
-5 -40 -5 -120 y
h
S
2649.5 4963.5 0 -150 40 -40 520 0 10 190 -170 0 50 -70 -130 0 
50 70 -170 0 50 -70 -130 0 50 70 f
3 w
2649.5 4963.5 0 -150 40 -40 520 0 10 190 -170 0 50 -70 -130 0 
50 70 -170 0 50 -70 -130 0 50 70 H
S
255 G
2778.5 4953.5 20 0 -43 -60 ^ f
2778.5 4953.5 20 0 -43 -60 ^ H
2975.5 4953.5 20 0 -44 -60 ^ f
2778.5 4953.5 20 0 -43 -60 ^ H
2975.5 4953.5 20 0 -44 -60 ^ H
2679.5 4813.5 20 -20 490 0 0 80 -20 30 0 -90 f
0 161 255 rG
2024.5 6860.5 910 -912.5 910 912.5 0 -715 -554.24 -554.24 554.24 -555.76 0 -710 -910 910 
-910 -910 0 710 554.24 555.76 -554.24 554.24 f
25 w
2 J
K
2024.5 6860.5 910 -912.5 910 912.5 S
2024.5 5035.5 554.24 555.76 S
3844.5 5035.5 -554.24 555.76 S
60 w
2024.5 6145.5 554.24 -554.24 S
3844.5 6145.5 -554.24 -554.24 S
2024.5 4325.5 910 910 910 -910 S
2539.5 5285.5 30 620 re
f
3304.5 5870.5 30 0 -10 -579 ^ f
255 168 66 rG
2569.5 5905.5 m
-10 -160 -5 -615 0 -610 c
325 -5 p
-10 -26 0 -60 40 -60 c
40 0 50 34 40 60 c
320 11 10 569 p
-6 4 -56 94 -61 99 c
-231 -7 -299 -94 -301 -102 c
2 8 -113 81 -309 122 c
-17 -9 -49 -70 -64 -84 c
f
20 w
0 J
K
2569.5 5905.5 m
-10 -160 -5 -615 0 -610 c
325 -5 p
-10 -26 0 -60 40 -60 c
40 0 50 34 40 60 c
320 11 10 569 p
-6 4 -56 94 -61 99 c
-231 -7 -299 -94 -301 -102 c
2 8 -113 81 -309 122 c
-17 -9 -49 -70 -64 -84 c
h
S
255 168 66 rG
3240.5 5386.5 54 -85 10 569 P
-6 4 -56 94 -61 99 c
f
1 M
K
3240.5 5386.5 54 -85 10 569 P
-6 4 -56 94 -61 99 c
h
S
255 217 143 rG
2633.5 5989.5 1 -594 P
0 -5 230 57 300 -73 c
70 130 308 63 306 64 c
3 583 p
1 1 -264 71 -301 -102 c
-103 183 -308 123 -309 122 c
f
3.86369 M
K
2633.5 5989.5 1 -594 P
0 -5 230 57 300 -73 c
70 130 308 63 306 64 c
3 583 p
1 1 -264 71 -301 -102 c
-103 183 -308 123 -309 122 c
h
S
25 w
2569.5 5295.5 65 100 S
3294.5 5301.5 -54 85 S
2687.5 5858.5 m
107 2 172 -47 207 -100 c
-25 30 -78 40 -120 52 c
-70 20 -89 -4 -89 49 c
f
3 w
1 J
2687.5 5858.5 m
107 2 172 -47 207 -100 c
-25 30 -78 40 -120 52 c
-70 20 -89 -4 -89 49 c
h
S
2682.5 5698.5 m
107 2 172 -47 207 -100 c
-25 30 -78 40 -120 52 c
-70 20 -89 -4 -89 49 c
f
2682.5 5698.5 m
107 2 172 -47 207 -100 c
-25 30 -78 40 -120 52 c
-70 20 -89 -4 -89 49 c
h
S
2677.5 5538.5 m
107 2 172 -47 207 -100 c
-25 30 -78 40 -120 52 c
-70 20 -89 -4 -89 49 c
f
2677.5 5538.5 m
107 2 172 -47 207 -100 c
-25 30 -78 40 -120 52 c
-70 20 -89 -4 -89 49 c
h
S
3181.5 5858.5 m
-107 2 -172 -47 -207 -100 c
25 30 78 40 120 52 c
70 20 89 -4 89 49 c
f
3181.5 5858.5 m
-107 2 -172 -47 -207 -100 c
25 30 78 40 120 52 c
70 20 89 -4 89 49 c
h
S
3186.5 5698.5 m
-107 2 -172 -47 -207 -100 c
25 30 78 40 120 52 c
70 20 89 -4 89 49 c
f
3186.5 5698.5 m
-107 2 -172 -47 -207 -100 c
25 30 78 40 120 52 c
70 20 89 -4 89 49 c
h
S
3191.5 5538.5 m
-107 2 -172 -47 -207 -100 c
25 30 78 40 120 52 c
70 20 89 -4 89 49 c
f
3191.5 5538.5 m
-107 2 -172 -47 -207 -100 c
25 30 78 40 120 52 c
70 20 89 -4 89 49 c
h
S
2947.5 5870.5 m
-15 -5 -15 -2 v
-3 -98 -6 -372 -25 -506 c
17 -20 27 -32 y
43 45 p
-38 17 -30 495 y
f
10 w
2947.5 5870.5 m
-15 -5 -15 -2 v
-3 -98 -6 -372 -25 -506 c
17 -20 27 -32 y
43 45 p
-38 17 -30 495 y
h
S
3267.5 5910.5 m
10 0 16 -6 y
-26 -284 -4 -568 y
-20 0 p
20 326 8 574 v
f
Q q
0 0 6120 0 0 7920 ^ Y
19 w
3.86369 M
K
2024.5 6509.5 0 -1775 P
0 -287 246 -266 451 -287 c
272 -28 329 21 457 -184 c
167 215 236 166 434 184 c
206 20 478 0 478 287 c
0 1775 h
S
cleartomark end end pagesave restore
 showpage
%%PageTrailer
%%Trailer
%%Pages: 1
%%EOF
