\relax 
\providecommand\hyper@newdestlabel[2]{}
\citation{Doppler41}
\citation{Fizeau48,Fizeau41}
\citation{Huggins68}
\citation{Fellgett55}
\citation{Griffin67}
\citation{Cooley65}
\citation{Blackman58}
\citation{Simkin74}
\citation{Simkin74}
\citation{Sargent77gal}
\citation{TonryDavis79}
\citation{TonryDavis79}
\@writefile{toc}{\contentsline {chapter}{\numberline {A}Radial velocity technique comparison}{144}{appendix.A}}
\@writefile{lof}{\addvspace {10\p@ }}
\@writefile{lot}{\addvspace {10\p@ }}
\newlabel{ch:appendix}{{A}{144}{Radial velocity technique comparison}{appendix.A}{}}
\citation{TonryDavis79}
\citation{Kurtz98}
\citation{Kurtz98}
\citation{Kurtz98}
\citation{TonryDavis79}
\@writefile{lof}{\contentsline {figure}{\numberline {(A.1)}{\ignorespaces \ Comparing the $\chi ^2$ routine and \emph  {xcsao} velocity measurements}}{145}{figure.caption.85}}
\newlabel{fig:xcsao-comp}{{A.1}{145}{\ Comparing the $\chi ^2$ routine and \emph {xcsao} velocity measurements}{figure.caption.85}{}}
\citation{Kurtz98}
\citation{TonryDavis79}
\citation{Kurtz98}
\citation{TonryDavis79}
\@writefile{lot}{\contentsline {table}{\numberline {(A.1)}{\ignorespaces \ Comparing the $\chi ^2$ and cross-correlation velocity techniques }}{147}{table.caption.86}}
\newlabel{tab:rvtable-xcao}{{A.1}{147}{\ Comparing the $\chi ^2$ and cross-correlation velocity techniques}{table.caption.86}{}}
\@setckpt{Data/Appendix}{
\setcounter{page}{149}
\setcounter{equation}{0}
\setcounter{enumi}{0}
\setcounter{enumii}{0}
\setcounter{enumiii}{0}
\setcounter{enumiv}{0}
\setcounter{footnote}{0}
\setcounter{mpfootnote}{0}
\setcounter{part}{0}
\setcounter{chapter}{1}
\setcounter{section}{0}
\setcounter{subsection}{0}
\setcounter{subsubsection}{0}
\setcounter{paragraph}{0}
\setcounter{subparagraph}{0}
\setcounter{figure}{1}
\setcounter{table}{1}
\setcounter{ContinuedFloat}{0}
\setcounter{KVtest}{0}
\setcounter{subfigure}{0}
\setcounter{subfigure@save}{0}
\setcounter{lofdepth}{1}
\setcounter{subtable}{0}
\setcounter{subtable@save}{0}
\setcounter{lotdepth}{1}
\setcounter{Item}{0}
\setcounter{Hfootnote}{14}
\setcounter{bookmark@seq@number}{66}
\setcounter{NAT@ctr}{0}
\setcounter{r@tfl@t}{6}
\setcounter{cp@cntr}{0}
\setcounter{@pps}{0}
\setcounter{@ppsavesec}{0}
\setcounter{@ppsaveapp}{0}
\setcounter{lstnumber}{1}
\setcounter{parentequation}{6}
\setcounter{section@level}{0}
\setcounter{lstlisting}{0}
}
