\relax 
\providecommand\hyper@newdestlabel[2]{}
\citation{Veljanoski14}
\citation{Huxor14}
\citation{Martin06,Huxor08}
\@writefile{toc}{\contentsline {chapter}{\numberline {2}Observations, data reduction and velocity measurements}{42}{chapter.2}}
\@writefile{lof}{\addvspace {10\p@ }}
\@writefile{lot}{\addvspace {10\p@ }}
\newlabel{ch:Data}{{2}{42}{Observations, data reduction and velocity measurements}{chapter.2}{}}
\@writefile{toc}{\contentsline {section}{\numberline {2.1}The observed sample}{42}{section.2.1}}
\citation{Huxor11}
\@writefile{lot}{\contentsline {table}{\numberline {(2.1)}{\ignorespaces Log of spectroscopic observations}}{43}{table.caption.36}}
\newlabel{tab:obslog}{{2.1}{43}{Log of spectroscopic observations}{table.caption.36}{}}
\@writefile{lof}{\contentsline {figure}{\numberline {(2.1)}{\ignorespaces Map of the spectroscopically observed GCs}}{44}{figure.caption.37}}
\newlabel{fig:completenessMap}{{2.1}{44}{Map of the spectroscopically observed GCs}{figure.caption.37}{}}
\@writefile{lof}{\contentsline {figure}{\numberline {(2.2)}{\ignorespaces The radial distribution of the observed GCs}}{44}{figure.caption.38}}
\newlabel{fig:completenessRad}{{2.2}{44}{The radial distribution of the observed GCs}{figure.caption.38}{}}
\@writefile{toc}{\contentsline {section}{\numberline {2.2}The Data reduction}{45}{section.2.2}}
\@writefile{toc}{\contentsline {subsection}{\numberline {2.2.1}\emph  {WHT} and \emph  {KPNO} data}{45}{subsection.2.2.1}}
\newlabel{sec:4-mspecdata}{{2.2.1}{45}{\emph {WHT} and \emph {KPNO} data}{subsection.2.2.1}{}}
\@writefile{toc}{\contentsline {subsubsection}{Data description}{45}{subsection.2.2.1}}
\@writefile{toc}{\contentsline {subsubsection}{Data reduction and calibration}{46}{subsection.2.2.1}}
\@writefile{lof}{\contentsline {figure}{\numberline {(2.3)}{\ignorespaces Examples of fully reduced spectra}}{47}{figure.caption.39}}
\newlabel{fig:specExamples}{{2.3}{47}{Examples of fully reduced spectra}{figure.caption.39}{}}
\newlabel{eq:stack}{{2.1}{47}{Data reduction and calibration}{equation.2.2.1}{}}
\@writefile{toc}{\contentsline {subsection}{\numberline {2.2.2}\emph  {Gemini} Data}{48}{subsection.2.2.2}}
\@writefile{toc}{\contentsline {subsubsection}{Data description}{48}{subsection.2.2.2}}
\@writefile{toc}{\contentsline {subsubsection}{Data reduction and calibration}{48}{subsection.2.2.2}}
\citation{GalletiRBC04,Alves-Brito09}
\@writefile{toc}{\contentsline {section}{\numberline {2.3}Radial velocity measurements}{49}{section.2.3}}
\newlabel{sec:rvm}{{2.3}{49}{Radial velocity measurements}{section.2.3}{}}
\citation{Udry99}
\citation{Udry99}
\citation{Udry99}
\citation{Udry99}
\citation{Udry99}
\citation{Udry99}
\citation{GalletiRBC04}
\citation{Alves-Brito09}
\newlabel{eq:chi2}{{2.2}{50}{Radial velocity measurements}{equation.2.3.2}{}}
\newlabel{eq:k}{{2.3}{50}{Radial velocity measurements}{equation.2.3.3}{}}
\newlabel{RF1}{51}
\@writefile{lot}{\contentsline {table}{\numberline {(2.2)}{\ignorespaces Radial velocity standard stars and GC templates observations}}{51}{table.caption.40}}
\newlabel{tab:rvstd}{{2.2}{51}{Radial velocity standard stars and GC templates observations}{table.caption.40}{}}
\citation{Mackey13}
\citation{Federici93}
\citation{GalletiRBC04}
\citation{Galleti06}
\citation{Galleti07}
\citation{Galleti09}
\citation{Federici93}
\citation{Federici93}
\citation{Galleti07}
\citation{Alves-Brito09}
\citation{Caldwell11}
\citation{Alves-Brito09}
\citation{Alves-Brito09}
\citation{Mackey13}
\citation{Mackey13}
\citation{Federici93}
\citation{Alves-Brito09}
\citation{Caldwell11}
\citation{Federici93}
\citation{Galleti06}
\citation{Galleti07}
\citation{Peterson89}
\citation{Dubath97}
\citation{Mackey13}
\citation{Federici93}
\citation{Alves-Brito09}
\citation{Caldwell11}
\citation{Federici93}
\citation{Galleti06}
\citation{Galleti07}
\citation{Peterson89}
\citation{Dubath97}
\citation{Mackey13}
\citation{TonryDavis79}
\citation{Courteau99}
\citation{McMillan11}
\citation{Schonrich10}
\@writefile{lof}{\contentsline {figure}{\numberline {(2.4)}{\ignorespaces Comparison between \emph  {ISIS} red and blue arm measurements}}{53}{figure.caption.41}}
\newlabel{fig:ISIScomp}{{2.4}{53}{Comparison between \emph {ISIS} red and blue arm measurements}{figure.caption.41}{}}
\@writefile{toc}{\contentsline {subsection}{\numberline {2.3.1}Corrections for perspective}{53}{subsection.2.3.1}}
\newlabel{sec:persp}{{2.3.1}{53}{Corrections for perspective}{subsection.2.3.1}{}}
\@writefile{lot}{\contentsline {table}{\numberline {(2.3)}{\ignorespaces Literature radial velocities for clusters in the presented sample}}{54}{table.caption.42}}
\newlabel{tab:rvcomp}{{2.3}{54}{Literature radial velocities for clusters in the presented sample}{table.caption.42}{}}
\@writefile{lof}{\contentsline {figure}{\numberline {(2.5)}{\ignorespaces Comparison with literature radial velocities}}{54}{figure.caption.43}}
\newlabel{fig:RVLitComp}{{2.5}{54}{Comparison with literature radial velocities}{figure.caption.43}{}}
\citation{vdMarel08}
\citation{vdMarel12}
\citation{vdMarel12}
\newlabel{eq:gal2hel}{{2.4}{55}{Corrections for perspective}{equation.2.3.4}{}}
\newlabel{eq:persp-corr}{{2.5}{55}{Corrections for perspective}{equation.2.3.5}{}}
\citation{vdMarel08}
\citation{vdMarel12}
\citation{Collins11}
\@writefile{toc}{\contentsline {section}{\numberline {2.4}Summary}{56}{section.2.4}}
\citation{Mackey13}
\citation{Mackey13}
\@writefile{lof}{\contentsline {figure}{\numberline {(2.6)}{\ignorespaces Radial velocity map}}{57}{figure.caption.44}}
\newlabel{fig:rvmap}{{2.6}{57}{Radial velocity map}{figure.caption.44}{}}
\newlabel{RF2}{58}
\@writefile{lot}{\contentsline {table}{\numberline {(2.4)}{\ignorespaces Globular cluster radial velocity measurements}}{58}{table.caption.45}}
\newlabel{tab:rvtable}{{2.4}{58}{Globular cluster radial velocity measurements}{table.caption.45}{}}
\newlabel{RF3}{59}
\@setckpt{Data/ObsAndDataRed}{
\setcounter{page}{60}
\setcounter{equation}{5}
\setcounter{enumi}{0}
\setcounter{enumii}{0}
\setcounter{enumiii}{0}
\setcounter{enumiv}{0}
\setcounter{footnote}{1}
\setcounter{mpfootnote}{0}
\setcounter{part}{0}
\setcounter{chapter}{2}
\setcounter{section}{4}
\setcounter{subsection}{0}
\setcounter{subsubsection}{0}
\setcounter{paragraph}{0}
\setcounter{subparagraph}{0}
\setcounter{figure}{6}
\setcounter{table}{4}
\setcounter{ContinuedFloat}{0}
\setcounter{KVtest}{0}
\setcounter{subfigure}{0}
\setcounter{subfigure@save}{0}
\setcounter{lofdepth}{1}
\setcounter{subtable}{0}
\setcounter{subtable@save}{0}
\setcounter{lotdepth}{1}
\setcounter{Item}{0}
\setcounter{Hfootnote}{9}
\setcounter{bookmark@seq@number}{28}
\setcounter{NAT@ctr}{0}
\setcounter{r@tfl@t}{3}
\setcounter{cp@cntr}{0}
\setcounter{@pps}{0}
\setcounter{@ppsavesec}{0}
\setcounter{@ppsaveapp}{0}
\setcounter{lstnumber}{1}
\setcounter{parentequation}{0}
\setcounter{section@level}{0}
\setcounter{lstlisting}{0}
}
