%!PS-Adobe-3.0 EPSF-3.0
%%Title: /disk1/jv/SSPmodels/PadovaGroup/const age/ChabrierNew/NGC147.eps
%%Creator: matplotlib version 1.1.1rc2, http://matplotlib.sourceforge.net/
%%CreationDate: Mon Jun  2 14:27:55 2014
%%Orientation: portrait
%%BoundingBox: 90 180 522 612
%%EndComments
%%BeginProlog
/mpldict 11 dict def
mpldict begin
/m { moveto } bind def
/l { lineto } bind def
/r { rlineto } bind def
/c { curveto } bind def
/cl { closepath } bind def
/box {
m
1 index 0 r
0 exch r
neg 0 r
cl
} bind def
/clipbox {
box
clip
newpath
} bind def
%!PS-Adobe-3.0 Resource-Font
%%Title: cmsy10
%%Copyright: Copyright (C) 1994, Basil K. Malyshev. All Rights Reserved.012BaKoMa Fonts Collection, Level-B.
%%Creator: Converted from TrueType to type 3 by PPR
25 dict begin
/_d{bind def}bind def
/_m{moveto}_d
/_l{lineto}_d
/_cl{closepath eofill}_d
/_c{curveto}_d
/_sc{7 -1 roll{setcachedevice}{pop pop pop pop pop pop}ifelse}_d
/_e{exec}_d
/FontName /Cmsy10 def
/PaintType 0 def
/FontMatrix[.001 0 0 .001 0 0]def
/FontBBox[-29 -960 1123 779]def
/FontType 3 def
/Encoding [ /minus ] def
/FontInfo 10 dict dup begin
/FamilyName (cmsy10) def
/FullName (cmsy10) def
/Notice (Copyright (C) 1994, Basil K. Malyshev. All Rights Reserved.012BaKoMa Fonts Collection, Level-B. ) def
/Weight (Regular) def
/Version (1.1/12-Nov-94) def
/ItalicAngle 0.0 def
/isFixedPitch false def
/UnderlinePosition -133 def
/UnderlineThickness 20 def
end readonly def
/CharStrings 1 dict dup begin
/minus{777 0 83 230 694 270 _sc
102 230 _m
96 230 92 232 88 236 _c
84 240 83 245 83 250 _c
83 254 84 259 88 263 _c
92 267 96 270 102 270 _c
676 270 _l
681 270 685 267 689 263 _c
692 259 694 254 694 250 _c
694 245 692 240 689 236 _c
685 232 681 230 676 230 _c
102 230 _l
_cl}_d
end readonly def

/BuildGlyph
 {exch begin
 CharStrings exch
 2 copy known not{pop /.notdef}if
 true 3 1 roll get exec
 end}_d

/BuildChar {
 1 index /Encoding get exch get
 1 index /BuildGlyph get exec
}_d

FontName currentdict end definefont pop
%!PS-Adobe-3.0 Resource-Font
%%Title: cmmi10
%%Copyright: Copyright (C) 1994, Basil K. Malyshev. All Rights Reserved.012BaKoMa Fonts Collection, Level-B.
%%Creator: Converted from TrueType to type 3 by PPR
25 dict begin
/_d{bind def}bind def
/_m{moveto}_d
/_l{lineto}_d
/_cl{closepath eofill}_d
/_c{curveto}_d
/_sc{7 -1 roll{setcachedevice}{pop pop pop pop pop pop}ifelse}_d
/_e{exec}_d
/FontName /Cmmi10 def
/PaintType 0 def
/FontMatrix[.001 0 0 .001 0 0]def
/FontBBox[-34 -250 1048 750]def
/FontType 3 def
/Encoding [ /g /i /K ] def
/FontInfo 10 dict dup begin
/FamilyName (cmmi10) def
/FullName (cmmi10) def
/Notice (Copyright (C) 1994, Basil K. Malyshev. All Rights Reserved.012BaKoMa Fonts Collection, Level-B. ) def
/Weight (Regular) def
/Version (1.1/12-Nov-94) def
/ItalicAngle 0.0 def
/isFixedPitch false def
/UnderlinePosition -133 def
/UnderlineThickness 20 def
end readonly def
/CharStrings 3 dict dup begin
/g{{477 0 14 -204 476 442 _sc
14 -142 _m
14 -126 19 -111 31 -99 _c
42 -87 56 -81 72 -81 _c
82 -81 91 -84 99 -91 _c
106 -97 110 -106 110 -117 _c
110 -129 106 -139 99 -149 _c
92 -159 83 -166 73 -170 _c
91 -175 119 -178 157 -178 _c
187 -178 215 -166 241 -142 _c
266 -118 283 -91 291 -61 _c
320 55 _l
284 18 246 0 207 0 _c
178 0 153 7 133 22 _c
113 36 97 56 87 80 _c
}_e{76 104 71 130 71 158 _c
71 188 77 220 89 254 _c
101 288 119 319 142 348 _c
164 376 190 399 220 416 _c
249 433 280 442 313 442 _c
332 442 349 436 365 426 _c
381 415 393 401 403 383 _c
409 409 424 422 446 422 _c
454 422 461 419 467 414 _c
473 409 476 402 476 394 _c
476 392 476 390 476 389 _c
476 388 475 387 475 386 _c
361 -67 _l
355 -87 346 -106 332 -124 _c
}_e{318 -141 301 -155 282 -167 _c
263 -179 242 -188 220 -194 _c
198 -200 176 -204 156 -204 _c
118 -204 84 -200 56 -193 _c
28 -185 14 -168 14 -142 _c
209 26 _m
251 26 293 55 335 114 _c
390 332 _l
385 355 376 375 362 391 _c
348 407 331 416 311 416 _c
289 416 268 407 248 389 _c
228 371 212 349 199 324 _c
187 300 175 265 163 220 _c
151 175 146 140 146 114 _c
146 91 151 71 161 53 _c
}_e{171 35 187 26 209 26 _c
_cl}_e}_d
/i{{344 0 27 -10 296 661 _sc
78 72 _m
78 84 80 97 86 111 _c
167 326 _l
175 350 180 370 180 386 _c
180 406 172 416 158 416 _c
132 416 110 402 93 375 _c
75 347 63 317 55 284 _c
53 280 51 278 47 278 _c
35 278 _l
29 278 27 281 27 287 _c
27 290 _l
37 330 54 365 76 396 _c
98 426 126 442 160 442 _c
184 442 204 434 220 418 _c
236 402 245 383 245 359 _c
}_e{245 346 242 333 237 320 _c
156 105 _l
146 83 142 63 142 45 _c
142 25 149 15 165 15 _c
191 15 212 29 230 57 _c
247 85 259 115 267 147 _c
268 151 271 153 275 153 _c
287 153 _l
289 153 291 152 293 150 _c
295 148 296 146 296 144 _c
296 143 295 142 295 141 _c
285 103 269 68 247 37 _c
224 5 196 -10 163 -10 _c
139 -10 119 -2 103 13 _c
86 29 78 48 78 72 _c
}_e{191 606 _m
191 620 196 632 208 644 _c
220 655 233 661 247 661 _c
258 661 267 657 275 650 _c
282 643 286 634 286 624 _c
286 609 280 596 268 585 _c
256 573 243 568 229 568 _c
218 568 209 571 202 579 _c
194 586 191 595 191 606 _c
_cl}_e}_d
/K{{849 0 37 0 890 683 _sc
47 0 _m
40 0 37 4 37 13 _c
37 15 38 18 39 22 _c
40 26 41 29 43 31 _c
45 33 47 35 50 35 _c
90 35 119 37 135 42 _c
143 44 150 53 154 69 _c
291 618 _l
292 624 293 629 293 632 _c
293 639 289 643 281 644 _c
268 646 244 648 209 648 _c
202 648 199 652 199 661 _c
201 669 203 675 205 678 _c
206 681 210 683 216 683 _c
}_e{485 683 _l
491 683 495 678 495 670 _c
495 668 494 665 493 661 _c
492 657 491 654 489 652 _c
487 649 485 648 482 648 _c
441 648 413 645 397 641 _c
388 637 382 628 378 614 _c
297 290 _l
689 593 _l
689 594 693 598 701 606 _c
709 614 713 621 713 629 _c
713 641 701 648 679 648 _c
672 648 669 652 669 661 _c
670 666 671 670 672 673 _c
672 676 674 678 676 680 _c
}_e{678 682 682 683 686 683 _c
880 683 _l
883 683 885 681 887 679 _c
889 676 890 673 890 670 _c
890 668 889 665 888 661 _c
886 657 885 653 883 651 _c
881 649 879 648 876 648 _c
827 648 774 625 716 580 _c
715 580 714 579 714 579 _c
713 579 712 579 712 579 _c
711 579 711 578 711 578 _c
505 418 _l
655 67 _l
663 52 673 43 684 40 _c
694 36 710 35 732 35 _c
}_e{738 35 742 30 742 22 _c
740 14 738 8 736 5 _c
734 1 730 0 725 0 _c
493 0 _l
487 0 484 4 484 13 _c
484 19 485 25 487 29 _c
488 33 491 35 497 35 _c
513 35 528 36 540 40 _c
552 43 558 51 558 64 _c
558 68 557 72 557 74 _c
433 363 _l
287 250 _l
241 65 _l
239 57 239 52 239 51 _c
239 44 243 40 251 39 _c
263 36 287 35 323 35 _c
}_e{329 35 333 30 333 22 _c
331 12 329 6 328 4 _c
326 1 322 0 316 0 _c
47 0 _l
_cl}_e}_d
end readonly def

/BuildGlyph
 {exch begin
 CharStrings exch
 2 copy known not{pop /.notdef}if
 true 3 1 roll get exec
 end}_d

/BuildChar {
 1 index /Encoding get exch get
 1 index /BuildGlyph get exec
}_d

FontName currentdict end definefont pop
%!PS-Adobe-3.0 Resource-Font
%%Title: cmr10
%%Copyright: Copyright (C) 1994, Basil K. Malyshev. All Rights Reserved.012BaKoMa Fonts Collection, Level-B.
%%Creator: Converted from TrueType to type 3 by PPR
25 dict begin
/_d{bind def}bind def
/_m{moveto}_d
/_l{lineto}_d
/_cl{closepath eofill}_d
/_c{curveto}_d
/_sc{7 -1 roll{setcachedevice}{pop pop pop pop pop pop}ifelse}_d
/_e{exec}_d
/FontName /Cmr10 def
/PaintType 0 def
/FontMatrix[.001 0 0 .001 0 0]def
/FontBBox[-44 -250 1009 750]def
/FontType 3 def
/Encoding [ /zero /parenright /parenleft ] def
/FontInfo 10 dict dup begin
/FamilyName (cmr10) def
/FullName (cmr10) def
/Notice (Copyright (C) 1994, Basil K. Malyshev. All Rights Reserved.012BaKoMa Fonts Collection, Level-B. ) def
/Weight (Regular) def
/Version (1.1/12-Nov-94) def
/ItalicAngle 0.0 def
/isFixedPitch false def
/UnderlinePosition -133 def
/UnderlineThickness 20 def
end readonly def
/CharStrings 3 dict dup begin
/zero{{500 0 39 -21 460 666 _sc
250 -21 _m
168 -21 112 12 83 79 _c
53 146 39 226 39 319 _c
39 377 44 431 55 482 _c
65 533 86 576 118 612 _c
149 648 193 666 250 666 _c
294 666 330 655 358 634 _c
386 612 407 585 422 551 _c
436 517 446 480 452 441 _c
457 402 460 361 460 319 _c
460 261 454 208 444 158 _c
433 108 412 65 381 31 _c
350 -3 306 -21 250 -21 _c
250 4 _m
}_e{287 4 315 23 333 61 _c
351 99 362 141 366 187 _c
370 233 373 283 373 335 _c
373 385 370 431 366 473 _c
362 515 351 554 333 588 _c
315 622 287 640 250 640 _c
212 640 184 622 166 588 _c
148 554 136 515 132 473 _c
128 431 126 385 126 335 _c
126 297 126 262 128 230 _c
130 197 135 163 143 128 _c
151 93 163 64 181 40 _c
198 16 221 4 250 4 _c
_cl}_e}_d
/parenright{{388 0 56 -249 291 750 _sc
65 -249 _m
59 -249 56 -246 56 -240 _c
56 -237 56 -235 58 -234 _c
172 -122 229 38 229 250 _c
229 462 172 623 60 733 _c
57 734 56 737 56 741 _c
56 743 57 745 59 747 _c
61 749 63 750 65 750 _c
74 750 _l
76 750 77 749 79 748 _c
127 710 167 664 199 610 _c
231 556 254 498 269 437 _c
283 376 291 314 291 250 _c
291 202 287 156 279 110 _c
}_e{271 64 258 20 241 -24 _c
223 -68 201 -108 175 -146 _c
148 -184 116 -217 79 -247 _c
77 -248 76 -249 74 -249 _c
65 -249 _l
_cl}_e}_d
/parenleft{{388 0 97 -249 332 750 _sc
310 -247 _m
272 -217 240 -184 214 -146 _c
187 -108 165 -67 148 -25 _c
131 17 118 62 110 109 _c
101 155 97 202 97 250 _c
97 298 101 345 110 392 _c
118 438 131 483 149 527 _c
166 570 188 611 215 649 _c
242 687 274 720 310 748 _c
310 749 311 750 315 750 _c
324 750 _l
326 750 327 749 329 747 _c
331 745 332 743 332 741 _c
332 738 331 736 330 735 _c
}_e{297 703 270 668 248 632 _c
226 596 209 557 196 516 _c
183 474 174 432 168 388 _c
162 344 159 298 159 250 _c
159 38 215 -122 329 -232 _c
331 -234 332 -236 332 -240 _c
332 -242 331 -244 329 -246 _c
327 -248 326 -249 324 -249 _c
315 -249 _l
311 -249 310 -248 310 -247 _c
_cl}_e}_d
end readonly def

/BuildGlyph
 {exch begin
 CharStrings exch
 2 copy known not{pop /.notdef}if
 true 3 1 roll get exec
 end}_d

/BuildChar {
 1 index /Encoding get exch get
 1 index /BuildGlyph get exec
}_d

FontName currentdict end definefont pop
%!PS-Adobe-3.0 Resource-Font
%%Title: Bitstream Vera Sans
%%Copyright: Copyright (c) 2003 by Bitstream, Inc. All Rights Reserved.
%%Creator: Converted from TrueType to type 3 by PPR
25 dict begin
/_d{bind def}bind def
/_m{moveto}_d
/_l{lineto}_d
/_cl{closepath eofill}_d
/_c{curveto}_d
/_sc{7 -1 roll{setcachedevice}{pop pop pop pop pop pop}ifelse}_d
/_e{exec}_d
/FontName /BitstreamVeraSans-Roman def
/PaintType 0 def
/FontMatrix[.001 0 0 .001 0 0]def
/FontBBox[-183 -236 1287 928]def
/FontType 3 def
/Encoding [ /space /hyphen /period /zero /one /two /three /four /five /six /seven /eight /A /C /D /G /H /I /N /P /S /V /r /y ] def
/FontInfo 10 dict dup begin
/FamilyName (Bitstream Vera Sans) def
/FullName (Bitstream Vera Sans) def
/Notice (Copyright (c) 2003 by Bitstream, Inc. All Rights Reserved. Bitstream Vera is a trademark of Bitstream, Inc.) def
/Weight (Roman) def
/Version (Release 1.10) def
/ItalicAngle 0.0 def
/isFixedPitch false def
/UnderlinePosition -213 def
/UnderlineThickness 143 def
end readonly def
/CharStrings 24 dict dup begin
/space{318 0 0 0 0 0 _sc
}_d
/hyphen{361 0 49 234 312 314 _sc
49 314 _m
312 314 _l
312 234 _l
49 234 _l
49 314 _l
_cl}_d
/period{318 0 107 0 210 124 _sc
107 124 _m
210 124 _l
210 0 _l
107 0 _l
107 124 _l
_cl}_d
/zero{636 0 66 -13 570 742 _sc
318 664 _m
267 664 229 639 203 589 _c
177 539 165 464 165 364 _c
165 264 177 189 203 139 _c
229 89 267 64 318 64 _c
369 64 407 89 433 139 _c
458 189 471 264 471 364 _c
471 464 458 539 433 589 _c
407 639 369 664 318 664 _c
318 742 _m
399 742 461 709 505 645 _c
548 580 570 486 570 364 _c
570 241 548 147 505 83 _c
461 19 399 -13 318 -13 _c
236 -13 173 19 130 83 _c
87 147 66 241 66 364 _c
66 486 87 580 130 645 _c
173 709 236 742 318 742 _c
_cl}_d
/one{636 0 110 0 544 729 _sc
124 83 _m
285 83 _l
285 639 _l
110 604 _l
110 694 _l
284 729 _l
383 729 _l
383 83 _l
544 83 _l
544 0 _l
124 0 _l
124 83 _l
_cl}_d
/two{{636 0 73 0 536 742 _sc
192 83 _m
536 83 _l
536 0 _l
73 0 _l
73 83 _l
110 121 161 173 226 239 _c
290 304 331 346 348 365 _c
380 400 402 430 414 455 _c
426 479 433 504 433 528 _c
433 566 419 598 392 622 _c
365 646 330 659 286 659 _c
255 659 222 653 188 643 _c
154 632 117 616 78 594 _c
78 694 _l
118 710 155 722 189 730 _c
223 738 255 742 284 742 _c
}_e{359 742 419 723 464 685 _c
509 647 532 597 532 534 _c
532 504 526 475 515 449 _c
504 422 484 390 454 354 _c
446 344 420 317 376 272 _c
332 227 271 164 192 83 _c
_cl}_e}_d
/three{{636 0 76 -13 556 742 _sc
406 393 _m
453 383 490 362 516 330 _c
542 298 556 258 556 212 _c
556 140 531 84 482 45 _c
432 6 362 -13 271 -13 _c
240 -13 208 -10 176 -4 _c
144 1 110 10 76 22 _c
76 117 _l
103 101 133 89 166 81 _c
198 73 232 69 268 69 _c
330 69 377 81 409 105 _c
441 129 458 165 458 212 _c
458 254 443 288 413 312 _c
383 336 341 349 287 349 _c
}_e{202 349 _l
202 430 _l
291 430 _l
339 430 376 439 402 459 _c
428 478 441 506 441 543 _c
441 580 427 609 401 629 _c
374 649 336 659 287 659 _c
260 659 231 656 200 650 _c
169 644 135 635 98 623 _c
98 711 _l
135 721 170 729 203 734 _c
235 739 266 742 296 742 _c
370 742 429 725 473 691 _c
517 657 539 611 539 553 _c
539 513 527 479 504 451 _c
481 423 448 403 406 393 _c
_cl}_e}_d
/four{636 0 49 0 580 729 _sc
378 643 _m
129 254 _l
378 254 _l
378 643 _l
352 729 _m
476 729 _l
476 254 _l
580 254 _l
580 172 _l
476 172 _l
476 0 _l
378 0 _l
378 172 _l
49 172 _l
49 267 _l
352 729 _l
_cl}_d
/five{{636 0 77 -13 549 729 _sc
108 729 _m
495 729 _l
495 646 _l
198 646 _l
198 467 _l
212 472 227 476 241 478 _c
255 480 270 482 284 482 _c
365 482 429 459 477 415 _c
525 370 549 310 549 234 _c
549 155 524 94 475 51 _c
426 8 357 -13 269 -13 _c
238 -13 207 -10 175 -6 _c
143 -1 111 6 77 17 _c
77 116 _l
106 100 136 88 168 80 _c
199 72 232 69 267 69 _c
}_e{323 69 368 83 401 113 _c
433 143 450 183 450 234 _c
450 284 433 324 401 354 _c
368 384 323 399 267 399 _c
241 399 214 396 188 390 _c
162 384 135 375 108 363 _c
108 729 _l
_cl}_e}_d
/six{{636 0 70 -13 573 742 _sc
330 404 _m
286 404 251 388 225 358 _c
199 328 186 286 186 234 _c
186 181 199 139 225 109 _c
251 79 286 64 330 64 _c
374 64 409 79 435 109 _c
461 139 474 181 474 234 _c
474 286 461 328 435 358 _c
409 388 374 404 330 404 _c
526 713 _m
526 623 _l
501 635 476 644 451 650 _c
425 656 400 659 376 659 _c
310 659 260 637 226 593 _c
}_e{192 549 172 482 168 394 _c
187 422 211 444 240 459 _c
269 474 301 482 336 482 _c
409 482 467 459 509 415 _c
551 371 573 310 573 234 _c
573 159 550 99 506 54 _c
462 9 403 -13 330 -13 _c
246 -13 181 19 137 83 _c
92 147 70 241 70 364 _c
70 479 97 571 152 639 _c
206 707 280 742 372 742 _c
396 742 421 739 447 735 _c
472 730 498 723 526 713 _c
_cl}_e}_d
/seven{636 0 82 0 551 729 _sc
82 729 _m
551 729 _l
551 687 _l
286 0 _l
183 0 _l
432 646 _l
82 646 _l
82 729 _l
_cl}_d
/eight{{636 0 68 -13 568 742 _sc
318 346 _m
271 346 234 333 207 308 _c
180 283 167 249 167 205 _c
167 161 180 126 207 101 _c
234 76 271 64 318 64 _c
364 64 401 76 428 102 _c
455 127 469 161 469 205 _c
469 249 455 283 429 308 _c
402 333 365 346 318 346 _c
219 388 _m
177 398 144 418 120 447 _c
96 476 85 511 85 553 _c
85 611 105 657 147 691 _c
188 725 245 742 318 742 _c
}_e{390 742 447 725 489 691 _c
530 657 551 611 551 553 _c
551 511 539 476 515 447 _c
491 418 459 398 417 388 _c
464 377 501 355 528 323 _c
554 291 568 251 568 205 _c
568 134 546 80 503 43 _c
459 5 398 -13 318 -13 _c
237 -13 175 5 132 43 _c
89 80 68 134 68 205 _c
68 251 81 291 108 323 _c
134 355 171 377 219 388 _c
183 544 _m
183 506 194 476 218 455 _c
}_e{242 434 275 424 318 424 _c
360 424 393 434 417 455 _c
441 476 453 506 453 544 _c
453 582 441 611 417 632 _c
393 653 360 664 318 664 _c
275 664 242 653 218 632 _c
194 611 183 582 183 544 _c
_cl}_e}_d
/A{684 0 8 0 676 729 _sc
342 632 _m
208 269 _l
476 269 _l
342 632 _l
286 729 _m
398 729 _l
676 0 _l
573 0 _l
507 187 _l
178 187 _l
112 0 _l
8 0 _l
286 729 _l
_cl}_d
/C{{698 0 56 -13 644 742 _sc
644 673 _m
644 569 _l
610 599 575 622 537 638 _c
499 653 460 661 418 661 _c
334 661 270 635 226 584 _c
182 533 160 460 160 364 _c
160 268 182 194 226 143 _c
270 92 334 67 418 67 _c
460 67 499 74 537 90 _c
575 105 610 128 644 159 _c
644 56 _l
609 32 572 15 534 4 _c
496 -7 455 -13 412 -13 _c
302 -13 215 20 151 87 _c
}_e{87 154 56 246 56 364 _c
56 481 87 573 151 641 _c
215 708 302 742 412 742 _c
456 742 497 736 535 725 _c
573 713 610 696 644 673 _c
_cl}_e}_d
/D{770 0 98 0 711 729 _sc
197 648 _m
197 81 _l
316 81 _l
416 81 490 103 537 149 _c
583 195 607 267 607 365 _c
607 463 583 534 537 580 _c
490 625 416 648 316 648 _c
197 648 _l
98 729 _m
301 729 _l
442 729 546 699 612 641 _c
678 582 711 490 711 365 _c
711 239 677 147 611 88 _c
545 29 441 0 301 0 _c
98 0 _l
98 729 _l
_cl}_d
/G{{775 0 56 -13 693 742 _sc
595 104 _m
595 300 _l
434 300 _l
434 381 _l
693 381 _l
693 68 _l
655 40 613 20 567 7 _c
521 -6 472 -13 420 -13 _c
306 -13 216 20 152 86 _c
88 152 56 245 56 364 _c
56 482 88 575 152 642 _c
216 708 306 742 420 742 _c
467 742 512 736 555 724 _c
598 712 638 695 674 673 _c
674 568 _l
637 598 598 621 557 637 _c
516 653 473 661 428 661 _c
}_e{338 661 271 636 227 586 _c
182 536 160 462 160 364 _c
160 265 182 191 227 141 _c
271 91 338 67 428 67 _c
462 67 493 70 521 76 _c
549 82 573 91 595 104 _c
_cl}_e}_d
/H{752 0 98 0 654 729 _sc
98 729 _m
197 729 _l
197 430 _l
555 430 _l
555 729 _l
654 729 _l
654 0 _l
555 0 _l
555 347 _l
197 347 _l
197 0 _l
98 0 _l
98 729 _l
_cl}_d
/I{295 0 98 0 197 729 _sc
98 729 _m
197 729 _l
197 0 _l
98 0 _l
98 729 _l
_cl}_d
/N{748 0 98 0 650 729 _sc
98 729 _m
231 729 _l
554 119 _l
554 729 _l
650 729 _l
650 0 _l
517 0 _l
194 610 _l
194 0 _l
98 0 _l
98 729 _l
_cl}_d
/P{603 0 98 0 569 729 _sc
197 648 _m
197 374 _l
321 374 _l
367 374 402 385 427 409 _c
452 433 465 467 465 511 _c
465 555 452 588 427 612 _c
402 636 367 648 321 648 _c
197 648 _l
98 729 _m
321 729 _l
402 729 464 710 506 673 _c
548 636 569 582 569 511 _c
569 439 548 384 506 348 _c
464 311 402 293 321 293 _c
197 293 _l
197 0 _l
98 0 _l
98 729 _l
_cl}_d
/S{{635 0 66 -13 579 742 _sc
535 705 _m
535 609 _l
497 627 462 640 429 649 _c
395 657 363 662 333 662 _c
279 662 237 651 208 631 _c
179 610 165 580 165 542 _c
165 510 174 485 194 469 _c
213 452 250 439 304 429 _c
364 417 _l
437 403 491 378 526 343 _c
561 307 579 260 579 201 _c
579 130 555 77 508 41 _c
460 5 391 -13 300 -13 _c
265 -13 228 -9 189 -2 _c
}_e{150 5 110 16 69 32 _c
69 134 _l
109 111 148 94 186 83 _c
224 71 262 66 300 66 _c
356 66 399 77 430 99 _c
460 121 476 152 476 194 _c
476 230 465 258 443 278 _c
421 298 385 313 335 323 _c
275 335 _l
201 349 148 372 115 404 _c
82 435 66 478 66 534 _c
66 598 88 649 134 686 _c
179 723 242 742 322 742 _c
356 742 390 739 426 733 _c
461 727 497 717 535 705 _c
}_e{_cl}_e}_d
/V{684 0 8 0 676 729 _sc
286 0 _m
8 729 _l
111 729 _l
342 115 _l
573 729 _l
676 729 _l
398 0 _l
286 0 _l
_cl}_d
/r{411 0 91 0 411 560 _sc
411 463 _m
401 469 390 473 378 476 _c
366 478 353 480 339 480 _c
288 480 249 463 222 430 _c
194 397 181 350 181 288 _c
181 0 _l
91 0 _l
91 547 _l
181 547 _l
181 462 _l
199 495 224 520 254 536 _c
284 552 321 560 365 560 _c
371 560 378 559 386 559 _c
393 558 401 557 411 555 _c
411 463 _l
_cl}_d
/y{592 0 30 -207 562 547 _sc
322 -50 _m
296 -114 271 -157 247 -177 _c
223 -197 191 -207 151 -207 _c
79 -207 _l
79 -132 _l
132 -132 _l
156 -132 175 -126 189 -114 _c
203 -102 218 -75 235 -31 _c
251 9 _l
30 547 _l
125 547 _l
296 119 _l
467 547 _l
562 547 _l
322 -50 _l
_cl}_d
end readonly def

/BuildGlyph
 {exch begin
 CharStrings exch
 2 copy known not{pop /.notdef}if
 true 3 1 roll get exec
 end}_d

/BuildChar {
 1 index /Encoding get exch get
 1 index /BuildGlyph get exec
}_d

FontName currentdict end definefont pop
end
%%EndProlog
mpldict begin
90 180 translate
432 432 0 0 clipbox
gsave
0 0 m
432 0 l
432 432 l
0 432 l
cl
1.000 setgray
fill
grestore
gsave
54 43.2 m
388.8 43.2 l
388.8 388.8 l
54 388.8 l
cl
1.000 setgray
fill
grestore
1.000 setlinewidth
1 setlinejoin
2 setlinecap
[] 0 setdash
0.000 setgray
gsave
334.8 345.6 54 43.2 clipbox
135.193 222 m
139.211 223.728 l
139.211 222.017 l
154.364 222.017 l
154.364 221.982 l
139.211 221.982 l
139.211 220.272 l
135.193 222 l
cl
gsave
0.000 0.000 1.000 setrgbcolor
fill
grestore
stroke
grestore
/p0_0 {
newpath
translate
194.178 209.126 m
205.84 209.126 l
} bind def
/p0_1 {
newpath
translate
162.193 194.925 m
176.094 194.925 l
} bind def
/p0_2 {
newpath
translate
128.983 167.588 m
138.832 167.588 l
} bind def
/p0_3 {
newpath
translate
242.02 293.919 m
256.188 293.919 l
} bind def
/p0_4 {
newpath
translate
120.853 166.082 m
129.247 166.082 l
} bind def
/p0_5 {
newpath
translate
156.563 189.724 m
160.92 189.724 l
} bind def
0 setlinecap
gsave
334.8 345.6 54 43.2 clipbox
0 0 p0_0
stroke
grestore
gsave
334.8 345.6 54 43.2 clipbox
0 0 p0_1
stroke
grestore
gsave
334.8 345.6 54 43.2 clipbox
0 0 p0_2
stroke
grestore
gsave
334.8 345.6 54 43.2 clipbox
0 0 p0_3
stroke
grestore
gsave
334.8 345.6 54 43.2 clipbox
0 0 p0_4
stroke
grestore
gsave
334.8 345.6 54 43.2 clipbox
0 0 p0_5
stroke
grestore
/p1_0 {
newpath
translate
200.009 194.203 m
200.009 224.049 l
} bind def
/p1_1 {
newpath
translate
169.143 170.505 m
169.143 219.345 l
} bind def
/p1_2 {
newpath
translate
133.907 152.423 m
133.907 182.753 l
} bind def
/p1_3 {
newpath
translate
249.104 278.177 m
249.104 309.661 l
} bind def
/p1_4 {
newpath
translate
125.05 159.774 m
125.05 172.389 l
} bind def
/p1_5 {
newpath
translate
158.742 186.22 m
158.742 193.228 l
} bind def
gsave
334.8 345.6 54 43.2 clipbox
0 0 p1_0
stroke
grestore
gsave
334.8 345.6 54 43.2 clipbox
0 0 p1_1
stroke
grestore
gsave
334.8 345.6 54 43.2 clipbox
0 0 p1_2
stroke
grestore
gsave
334.8 345.6 54 43.2 clipbox
0 0 p1_3
stroke
grestore
gsave
334.8 345.6 54 43.2 clipbox
0 0 p1_4
stroke
grestore
gsave
334.8 345.6 54 43.2 clipbox
0 0 p1_5
stroke
grestore
/p2_0 {
newpath
translate
137.4 173.066 m
141.819 173.066 l
} bind def
/p2_1 {
newpath
translate
145.003 188.017 m
149.717 188.017 l
} bind def
0.000 0.000 1.000 setrgbcolor
gsave
334.8 345.6 54 43.2 clipbox
0 0 p2_0
stroke
grestore
gsave
334.8 345.6 54 43.2 clipbox
0 0 p2_1
stroke
grestore
/p3_0 {
newpath
translate
139.61 169.489 m
139.61 176.643 l
} bind def
/p3_1 {
newpath
translate
147.36 184.215 m
147.36 191.818 l
} bind def
gsave
334.8 345.6 54 43.2 clipbox
0 0 p3_0
stroke
grestore
gsave
334.8 345.6 54 43.2 clipbox
0 0 p3_1
stroke
grestore
/p4_0 {
newpath
translate
154.364 215.641 m
154.364 228.359 l
} bind def
0.000 setgray
gsave
334.8 345.6 54 43.2 clipbox
0 0 p4_0
stroke
grestore
1.500 setlinewidth
2 setlinecap
0.000 0.502 0.000 setrgbcolor
gsave
334.8 345.6 54 43.2 clipbox
141.718 180.749 m
149.485 191.462 l
159.395 203.904 l
171.314 219.456 l
176.001 224.294 l
181.76 230.515 l
185.911 234.662 l
189.259 237.773 l
202.651 251.597 l
205.33 254.016 l
207.874 256.781 l
210.82 259.2 l
212.293 260.928 l
214.838 263.002 l
219.391 269.914 l
221.132 271.642 l
220.998 269.914 l
222.07 269.568 l
225.953 275.443 l
231.176 280.627 l
233.319 283.046 l
238.944 288.23 l
240.551 289.958 l
242.292 291.341 l
243.497 292.723 l
246.175 295.142 l
249.121 297.907 l
253.005 301.363 l
255.014 303.437 l
256.889 305.165 l
257.692 306.202 l
260.371 308.275 l
262.647 310.349 l
264.656 312.077 l
266.933 313.805 l
268.406 315.187 l
269.343 315.878 l
270.013 316.915 l
270.683 317.261 l
270.95 317.606 l
274.566 320.371 l
274.7 321.062 l
275.772 321.754 l
275.905 322.099 l
277.245 323.136 l
277.646 323.827 l
278.182 324.173 l
279.387 325.21 l
279.923 325.901 l
281.932 327.283 l
281.932 327.629 l
283.673 329.011 l
283.673 329.357 l
283.271 326.592 l
283.673 325.901 l
284.342 326.592 l
285.28 327.629 l
285.949 327.974 l
286.217 328.32 l
290.101 331.776 l
290.369 332.122 l
290.904 332.467 l
291.306 332.467 l
292.779 333.504 l
293.315 334.195 l
293.851 334.541 l
294.654 334.886 l
295.324 335.923 l
295.19 335.578 l
296.395 336.614 l
296.797 337.306 l
296.931 337.306 l
297.467 337.997 l
298.002 338.342 l
299.074 338.688 l
299.074 339.034 l
299.074 339.034 l
299.743 339.379 l
300.413 340.416 l
301.35 340.762 l
302.02 341.453 l
304.296 343.526 l
305.234 343.872 l
305.502 344.563 l
305.904 344.909 l
306.037 345.254 l
306.305 345.254 l
307.243 345.6 l
306.975 345.946 l
307.377 346.291 l
308.314 348.019 l
310.323 349.056 l
309.787 349.402 l
310.992 349.747 l
311.26 350.093 l
311.126 350.438 l
311.796 351.475 l
312.6 351.821 l
312.466 351.821 l
313.403 352.512 l
313.671 352.858 l
313.537 353.203 l
313.805 353.549 l
315.412 354.586 l
315.144 354.24 l
315.412 354.931 l
315.814 355.277 l
316.751 355.622 l
317.287 355.277 l
317.019 355.968 l
318.224 357.35 l
318.76 355.968 l
318.894 356.314 l
319.429 356.659 l
320.233 357.005 l
319.697 357.005 l
320.099 357.35 l
320.903 357.696 l
320.635 357.35 l
321.572 358.042 l
321.304 358.042 l
322.108 358.387 l
322.376 358.733 l
322.108 358.733 l
323.045 359.424 l
322.777 359.77 l
323.045 359.77 l
323.849 360.115 l
324.652 360.461 l
324.117 360.461 l
324.251 360.461 l
324.518 360.806 l
324.117 361.152 l
324.251 361.152 l
323.179 361.152 l
324.92 361.843 l
324.384 361.843 l
324.518 361.843 l
324.786 362.189 l
325.322 362.534 l
325.054 362.534 l
325.59 362.88 l
325.858 362.88 l
325.59 363.226 l
326.795 363.571 l
327.063 364.262 l
327.465 364.608 l
328.134 364.954 l
328.536 365.299 l
328.804 365.99 l
328.938 365.99 l
329.206 366.336 l
329.875 366.682 l
329.607 366.682 l
329.875 367.027 l
330.411 368.064 l
330.679 368.064 l
330.143 367.718 l
331.348 369.101 l
330.679 369.101 l
331.214 369.446 l
332.554 369.792 l
333.089 370.483 l
332.955 370.829 l
332.42 370.483 l
333.759 371.174 l
333.491 371.174 l
334.696 371.866 l
332.955 371.52 l
334.295 371.866 l
334.964 372.211 l
335.5 372.902 l
336.036 373.248 l
335.902 373.248 l
335.902 373.594 l
336.036 373.594 l
336.303 373.939 l
338.714 374.976 l
336.973 374.63 l
338.446 374.976 l
337.509 374.976 l
337.776 375.322 l
338.178 375.322 l
338.848 376.013 l
338.982 376.358 l
339.116 376.358 l
339.517 376.704 l
339.116 376.704 l
340.857 377.741 l
341.526 377.741 l
341.928 378.086 l
340.857 378.086 l
342.196 378.432 l
341.258 378.432 l
341.392 378.432 l
341.928 378.778 l
342.865 379.123 l
342.062 379.469 l
341.66 379.469 l
343.803 380.16 l
344.606 380.16 l
343.669 380.506 l
344.74 380.506 l
344.472 380.506 l
343.401 380.851 l
343.669 381.197 l
346.08 381.888 l
344.472 381.888 l
346.481 382.579 l
346.08 382.579 l
346.213 382.925 l
346.347 382.925 l
346.347 383.27 l
346.615 383.27 l
347.017 383.616 l
347.954 383.962 l
348.222 384.307 l
348.222 383.962 l
347.687 384.307 l
348.892 384.998 l
348.088 384.653 l
349.16 384.998 l
348.758 385.344 l
350.097 386.035 l
349.829 386.035 l
350.231 386.381 l
349.561 386.381 l
350.499 386.726 l
351.035 387.072 l
350.767 387.072 l
351.035 387.418 l
350.365 387.072 l
350.365 387.072 l
350.365 387.072 l
351.57 387.763 l
351.57 387.763 l
350.901 387.763 l
352.24 388.109 l
351.302 388.109 l
352.909 389.146 l
353.311 389.491 l
352.106 389.146 l
353.177 389.491 l
353.311 389.837 l
354.383 390.528 l
354.115 390.528 l
stroke
grestore
0 setlinecap
[1 3] 0 setdash
1.000 0.000 0.000 setrgbcolor
gsave
334.8 345.6 54 43.2 clipbox
126.451 161.05 m
138.504 176.947 l
146.807 186.624 l
155.779 197.338 l
158.19 199.066 l
167.698 208.397 l
171.314 212.198 l
176.939 218.765 l
182.429 223.949 l
183.233 223.949 l
188.054 228.787 l
190.598 230.861 l
192.607 233.28 l
194.884 235.008 l
196.491 236.736 l
198.5 238.464 l
200.375 240.538 l
204.392 246.067 l
205.999 247.45 l
207.472 249.178 l
219.391 260.928 l
220.596 261.965 l
222.471 264.038 l
224.212 265.421 l
224.882 266.458 l
225.953 267.494 l
227.292 268.531 l
228.632 269.914 l
228.364 269.568 l
229.167 270.259 l
229.703 270.95 l
230.774 271.987 l
231.712 272.678 l
233.587 274.406 l
233.721 274.752 l
242.827 282.701 l
242.961 283.046 l
243.899 283.392 l
244.568 284.429 l
245.372 284.774 l
247.113 286.157 l
247.782 287.194 l
248.854 287.885 l
248.854 288.23 l
250.059 288.922 l
251.13 289.958 l
250.996 289.958 l
252.202 290.65 l
252.336 291.341 l
254.344 292.723 l
253.541 290.65 l
254.746 291.686 l
255.416 292.032 l
256.085 293.069 l
257.291 293.76 l
257.023 294.106 l
257.692 294.451 l
258.63 294.797 l
258.63 294.797 l
259.165 295.488 l
259.701 295.834 l
259.969 296.179 l
260.505 296.525 l
261.04 297.216 l
261.71 297.562 l
262.112 298.253 l
262.781 298.598 l
265.861 301.363 l
266.263 301.363 l
267.201 302.054 l
267.87 302.746 l
268.54 303.091 l
269.209 303.782 l
270.415 304.474 l
271.084 305.165 l
271.486 305.51 l
272.424 306.547 l
273.763 307.584 l
273.629 307.584 l
275.37 308.621 l
276.039 309.312 l
276.039 309.312 l
278.048 311.731 l
279.12 312.422 l
280.057 313.459 l
280.727 314.15 l
280.994 314.496 l
281.262 314.496 l
281.932 315.187 l
282.869 315.187 l
282.601 315.533 l
283.539 316.224 l
283.807 316.224 l
284.075 316.57 l
284.61 316.915 l
285.146 317.606 l
286.619 318.643 l
286.887 318.989 l
285.682 317.952 l
286.485 318.298 l
287.289 319.334 l
287.556 319.334 l
287.69 319.68 l
288.36 320.026 l
288.092 320.026 l
288.762 320.371 l
289.03 320.717 l
289.03 320.371 l
289.431 321.062 l
289.431 320.717 l
289.565 320.717 l
290.101 321.408 l
290.904 321.754 l
291.172 322.099 l
291.44 322.099 l
292.11 322.79 l
290.503 322.445 l
289.967 321.754 l
289.431 321.408 l
289.565 321.062 l
290.235 321.754 l
289.565 321.408 l
293.851 323.827 l
294.386 324.518 l
294.252 324.518 l
294.922 324.518 l
295.324 324.864 l
295.324 324.864 l
294.52 324.864 l
298.404 328.32 l
299.609 328.32 l
299.475 328.666 l
300.547 329.011 l
299.743 329.357 l
300.145 329.357 l
300.815 329.702 l
301.216 330.048 l
301.216 330.048 l
301.216 330.048 l
300.681 329.702 l
300.815 330.048 l
300.681 330.048 l
302.02 330.739 l
302.422 330.739 l
300.948 330.048 l
300.547 329.702 l
300.547 329.702 l
299.877 330.048 l
301.216 330.739 l
300.413 329.357 l
300.547 329.357 l
301.216 330.048 l
301.752 330.394 l
301.618 330.394 l
302.02 331.085 l
302.154 331.085 l
303.627 332.467 l
304.43 333.504 l
304.832 333.504 l
305.1 334.195 l
305.636 334.541 l
305.502 334.541 l
306.171 335.232 l
306.171 335.232 l
306.841 335.578 l
307.644 336.269 l
307.243 336.269 l
307.644 336.614 l
308.984 337.306 l
308.18 337.306 l
309.519 337.651 l
309.653 337.997 l
309.921 338.342 l
310.591 338.342 l
310.725 338.688 l
310.457 339.034 l
311.126 339.034 l
311.528 339.725 l
311.394 339.725 l
311.93 340.07 l
312.198 340.07 l
312.332 340.416 l
312.867 340.762 l
313.001 341.107 l
313.537 341.107 l
313.135 341.107 l
313.671 341.798 l
314.34 342.144 l
314.207 342.144 l
314.608 342.144 l
315.948 343.872 l
316.483 344.218 l
316.349 343.872 l
317.153 344.563 l
317.287 344.909 l
317.555 344.909 l
317.688 345.254 l
317.956 345.254 l
318.09 345.6 l
319.162 346.291 l
319.028 345.946 l
319.028 345.946 l
319.028 345.946 l
319.162 346.291 l
320.635 347.328 l
320.635 346.982 l
319.028 346.982 l
320.501 347.328 l
320.367 347.328 l
320.769 348.019 l
321.036 348.019 l
321.572 348.365 l
321.304 348.365 l
321.17 348.71 l
321.438 348.71 l
322.644 349.056 l
322.777 349.402 l
322.644 349.747 l
322.51 349.747 l
322.51 349.747 l
322.51 349.747 l
323.045 349.747 l
323.581 350.093 l
323.581 350.438 l
324.251 351.13 l
324.251 351.13 l
stroke
grestore
[6 6] 0 setdash
1.000 0.843 0.000 setrgbcolor
gsave
334.8 345.6 54 43.2 clipbox
110.782 135.821 m
122.165 151.027 l
133.816 166.234 l
140.111 173.146 l
142.789 175.565 l
148.681 181.786 l
153.77 186.97 l
159.395 193.882 l
163.814 197.683 l
169.975 204.25 l
172.251 206.323 l
174.394 208.742 l
176.939 211.162 l
178.813 213.235 l
180.956 214.963 l
182.563 216.691 l
184.572 218.419 l
186.045 220.147 l
188.857 223.949 l
190.866 226.368 l
195.955 231.552 l
197.16 232.934 l
200.375 236.045 l
201.714 237.773 l
202.785 238.81 l
203.99 240.192 l
205.33 241.229 l
213.365 249.523 l
215.508 251.251 l
216.981 252.979 l
218.186 253.67 l
219.123 254.707 l
221.132 256.435 l
221.534 257.126 l
222.337 257.818 l
226.221 261.619 l
227.694 263.347 l
230.774 266.112 l
233.988 269.222 l
234.256 269.568 l
234.792 269.914 l
235.328 270.605 l
235.997 270.95 l
236.935 271.642 l
237.872 272.333 l
238.006 272.678 l
240.417 274.406 l
240.952 274.406 l
241.622 275.098 l
242.024 275.443 l
241.488 273.715 l
242.158 274.406 l
242.425 274.061 l
242.961 274.752 l
244.3 275.789 l
244.836 276.48 l
247.514 278.554 l
255.014 287.539 l
255.951 288.23 l
256.621 289.267 l
258.094 290.304 l
258.63 291.341 l
259.567 292.378 l
261.71 293.76 l
262.647 294.797 l
261.844 293.76 l
262.246 294.106 l
262.513 294.106 l
263.183 294.797 l
263.049 294.451 l
263.317 294.797 l
265.192 295.834 l
265.46 296.179 l
265.46 296.179 l
266.531 296.525 l
267.736 297.907 l
268.272 298.253 l
268.406 298.598 l
269.076 298.598 l
269.745 299.29 l
269.745 298.944 l
269.745 298.944 l
269.209 298.944 l
268.808 298.598 l
267.87 298.253 l
268.54 298.598 l
269.745 299.635 l
270.013 299.635 l
271.486 301.018 l
271.888 301.018 l
274.968 304.819 l
275.37 304.819 l
275.236 304.819 l
275.772 305.165 l
276.307 305.856 l
277.78 306.893 l
278.182 307.238 l
278.852 307.584 l
279.253 308.275 l
280.727 309.312 l
281.262 310.003 l
282.334 310.694 l
282.601 311.386 l
283.003 311.386 l
283.673 312.077 l
283.539 311.731 l
283.941 312.077 l
284.342 312.768 l
285.012 312.768 l
285.146 313.459 l
286.351 314.15 l
286.887 314.842 l
287.69 315.187 l
287.69 315.533 l
288.36 316.224 l
289.297 316.915 l
289.565 316.915 l
289.967 317.261 l
290.369 316.915 l
283.941 312.077 l
284.342 312.422 l
284.61 313.114 l
285.012 313.114 l
285.682 312.768 l
285.816 313.114 l
285.816 313.114 l
285.949 313.114 l
285.949 312.768 l
286.083 312.768 l
285.414 311.04 l
282.468 309.312 l
282.601 309.658 l
282.601 309.658 l
282.601 309.658 l
282.468 309.312 l
283.003 309.658 l
283.137 310.003 l
283.539 310.349 l
284.342 311.386 l
285.816 312.422 l
286.217 313.459 l
287.69 315.878 l
295.19 321.754 l
298.136 324.518 l
299.609 328.32 l
300.279 329.357 l
299.074 326.246 l
299.743 326.938 l
299.743 327.283 l
301.752 329.011 l
302.154 329.357 l
302.288 329.702 l
303.359 330.394 l
303.359 330.394 l
303.761 330.739 l
304.43 331.43 l
305.368 332.467 l
305.502 332.467 l
306.171 333.504 l
306.707 333.85 l
306.975 333.85 l
307.377 334.541 l
307.377 334.195 l
307.644 334.886 l
307.912 334.886 l
308.046 335.232 l
308.448 335.232 l
308.716 335.923 l
303.091 333.504 l
301.752 332.122 l
301.484 331.43 l
302.02 331.43 l
301.886 330.739 l
301.752 331.085 l
302.02 330.739 l
301.886 330.739 l
302.288 331.085 l
302.556 331.085 l
302.957 331.43 l
303.091 331.776 l
303.225 331.776 l
303.895 332.122 l
303.761 332.467 l
304.029 332.467 l
304.296 332.813 l
304.966 333.158 l
304.698 333.158 l
304.698 333.158 l
304.698 333.158 l
305.234 333.158 l
305.77 333.504 l
305.502 333.85 l
305.636 333.504 l
306.841 334.541 l
307.109 334.541 l
307.243 334.886 l
307.377 334.886 l
307.644 335.232 l
308.046 335.232 l
309.118 335.923 l
309.921 336.96 l
309.787 336.614 l
310.859 337.306 l
310.992 337.651 l
310.992 337.651 l
311.26 337.651 l
311.394 337.997 l
311.662 337.997 l
311.662 338.342 l
311.796 337.997 l
311.796 337.997 l
312.332 338.688 l
313.135 339.379 l
313.537 340.07 l
306.975 331.776 l
307.778 332.813 l
stroke
grestore
[3 5 1 5] 0 setdash
0.502 0.000 0.502 setrgbcolor
gsave
334.8 345.6 54 43.2 clipbox
89.3549 98.496 m
103.416 118.195 l
115.201 133.747 l
121.228 140.659 l
126.719 147.226 l
131.272 152.41 l
142.923 166.579 l
146.405 170.381 l
151.092 176.256 l
160.065 185.933 l
165.02 191.462 l
171.448 198.374 l
173.457 200.794 l
174.93 202.176 l
176.671 204.25 l
180.019 207.706 l
181.358 209.434 l
184.304 212.544 l
185.777 213.926 l
189.929 218.765 l
191.134 219.802 l
192.205 221.184 l
193.411 222.221 l
194.884 223.949 l
196.089 224.986 l
198.232 227.405 l
199.437 228.442 l
201.312 230.515 l
201.848 231.552 l
204.526 235.008 l
206.535 237.082 l
211.222 241.92 l
213.499 244.685 l
214.57 245.376 l
215.24 246.067 l
216.177 247.45 l
216.847 248.141 l
218.32 249.178 l
221.132 252.634 l
221.534 252.979 l
222.07 253.67 l
222.739 254.016 l
223.677 255.398 l
224.346 255.744 l
225.418 257.126 l
225.953 257.472 l
227.56 259.2 l
228.364 260.237 l
228.9 260.582 l
229.569 261.619 l
229.033 260.237 l
230.239 261.274 l
230.774 261.965 l
231.31 262.31 l
232.515 263.693 l
233.319 264.384 l
234.524 265.766 l
235.328 266.112 l
237.069 267.84 l
239.211 269.568 l
240.015 270.605 l
241.086 271.296 l
241.354 272.333 l
241.22 271.642 l
241.22 271.642 l
240.952 270.95 l
241.22 270.95 l
241.622 271.642 l
241.622 271.296 l
241.622 271.296 l
241.488 271.296 l
241.354 270.605 l
241.354 270.605 l
241.488 270.605 l
241.488 270.605 l
241.622 270.259 l
242.693 272.678 l
242.425 271.987 l
242.693 271.987 l
242.693 271.987 l
242.693 271.642 l
243.095 271.642 l
242.693 270.605 l
242.559 270.605 l
242.559 270.259 l
242.693 270.605 l
242.693 270.605 l
242.693 270.605 l
242.425 269.914 l
242.693 270.259 l
242.693 269.568 l
241.086 266.112 l
241.086 266.112 l
241.22 266.112 l
241.354 266.458 l
242.292 267.149 l
244.836 270.259 l
246.577 272.333 l
247.782 273.37 l
257.826 284.429 l
258.496 285.466 l
259.165 285.811 l
259.835 286.848 l
260.772 287.885 l
261.71 288.576 l
260.906 288.23 l
261.576 288.576 l
262.112 288.922 l
263.451 290.65 l
263.317 290.65 l
263.183 290.995 l
263.049 290.995 l
263.451 291.341 l
264.924 292.378 l
264.12 291.341 l
263.317 290.995 l
262.112 289.613 l
262.246 289.267 l
261.978 288.576 l
261.308 287.539 l
254.746 281.318 l
254.746 281.318 l
254.612 281.318 l
254.612 281.318 l
254.612 281.318 l
255.014 281.318 l
255.014 281.664 l
255.684 282.355 l
263.719 289.613 l
264.522 289.958 l
264.924 290.304 l
265.46 290.995 l
266.129 291.341 l
266.531 291.341 l
259.701 284.083 l
259.969 284.083 l
259.969 284.083 l
259.969 284.083 l
259.701 284.083 l
259.835 284.083 l
259.835 284.083 l
259.969 284.083 l
260.237 284.774 l
261.04 286.157 l
261.71 286.848 l
261.576 286.848 l
261.844 287.539 l
262.112 287.539 l
262.112 287.539 l
262.246 287.885 l
262.38 287.885 l
262.513 288.23 l
262.647 288.922 l
263.049 289.613 l
263.853 288.576 l
263.987 288.922 l
264.254 288.922 l
264.388 289.267 l
264.522 289.267 l
265.058 289.613 l
264.924 289.613 l
265.192 289.958 l
265.326 289.613 l
265.326 289.958 l
265.46 289.958 l
265.861 290.304 l
265.995 290.304 l
265.995 290.304 l
266.665 290.995 l
266.799 290.995 l
267.067 291.341 l
267.335 291.341 l
267.335 291.341 l
267.602 291.686 l
267.736 291.341 l
267.87 291.686 l
267.87 291.686 l
268.004 291.686 l
268.406 292.032 l
268.674 292.032 l
268.674 292.378 l
268.942 292.378 l
268.942 292.723 l
269.076 292.723 l
268.942 292.378 l
268.942 292.378 l
268.942 292.378 l
269.076 292.723 l
269.343 292.723 l
269.343 293.069 l
269.879 293.76 l
270.415 294.106 l
270.281 293.76 l
270.549 294.106 l
270.816 294.106 l
270.95 294.451 l
271.218 294.451 l
271.352 294.797 l
271.888 294.797 l
272.29 295.142 l
272.557 295.142 l
273.093 295.834 l
273.361 295.834 l
274.298 296.87 l
274.834 296.87 l
274.968 297.216 l
275.37 297.562 l
275.638 297.562 l
275.772 297.907 l
275.905 297.907 l
275.905 297.907 l
stroke
grestore
0.500 setlinewidth
[] 0 setdash
0.000 setgray
gsave
334.8 345.6 54 43.2 clipbox
/o {
gsave
newpath
translate
0.5 setlinewidth
1 setlinejoin
0 setlinecap
0 -3 m
0 3 l
gsave
0.000 setgray
fill
grestore
stroke
grestore
} bind def
194.178 209.126 o
162.193 194.925 o
128.983 167.588 o
242.02 293.919 o
120.853 166.082 o
156.563 189.724 o
grestore
gsave
334.8 345.6 54 43.2 clipbox
/o {
gsave
newpath
translate
0.5 setlinewidth
1 setlinejoin
0 setlinecap
0 -3 m
0 3 l
gsave
0.000 setgray
fill
grestore
stroke
grestore
} bind def
205.84 209.126 o
176.094 194.925 o
138.832 167.588 o
256.188 293.919 o
129.247 166.082 o
160.92 189.724 o
grestore
gsave
334.8 345.6 54 43.2 clipbox
/o {
gsave
newpath
translate
0.5 setlinewidth
1 setlinejoin
0 setlinecap
3 -1.83697e-16 m
-3 1.83697e-16 l
gsave
0.000 setgray
fill
grestore
stroke
grestore
} bind def
200.009 194.203 o
169.143 170.505 o
133.907 152.423 o
249.104 278.177 o
125.05 159.774 o
158.742 186.22 o
grestore
gsave
334.8 345.6 54 43.2 clipbox
/o {
gsave
newpath
translate
0.5 setlinewidth
1 setlinejoin
0 setlinecap
3 -1.83697e-16 m
-3 1.83697e-16 l
gsave
0.000 setgray
fill
grestore
stroke
grestore
} bind def
200.009 224.049 o
169.143 219.345 o
133.907 182.753 o
249.104 309.661 o
125.05 172.389 o
158.742 193.228 o
grestore
gsave
334.8 345.6 54 43.2 clipbox
/o {
gsave
newpath
translate
0.5 setlinewidth
1 setlinejoin
0 setlinecap
0 -1.5 m
0.397805 -1.5 0.77937 -1.34195 1.06066 -1.06066 c
1.34195 -0.77937 1.5 -0.397805 1.5 0 c
1.5 0.397805 1.34195 0.77937 1.06066 1.06066 c
0.77937 1.34195 0.397805 1.5 0 1.5 c
-0.397805 1.5 -0.77937 1.34195 -1.06066 1.06066 c
-1.34195 0.77937 -1.5 0.397805 -1.5 0 c
-1.5 -0.397805 -1.34195 -0.77937 -1.06066 -1.06066 c
-0.77937 -1.34195 -0.397805 -1.5 0 -1.5 c
cl
gsave
0.000 setgray
fill
grestore
stroke
grestore
} bind def
200.009 209.126 o
169.143 194.925 o
133.907 167.588 o
249.104 293.919 o
125.05 166.082 o
158.742 189.724 o
grestore
0.000 0.000 1.000 setrgbcolor
gsave
334.8 345.6 54 43.2 clipbox
/o {
gsave
newpath
translate
0.5 setlinewidth
1 setlinejoin
0 setlinecap
0 -3 m
0 3 l
gsave
0.000 0.000 1.000 setrgbcolor
fill
grestore
stroke
grestore
} bind def
137.4 173.066 o
145.003 188.017 o
grestore
gsave
334.8 345.6 54 43.2 clipbox
/o {
gsave
newpath
translate
0.5 setlinewidth
1 setlinejoin
0 setlinecap
0 -3 m
0 3 l
gsave
0.000 0.000 1.000 setrgbcolor
fill
grestore
stroke
grestore
} bind def
141.819 173.066 o
149.717 188.017 o
grestore
gsave
334.8 345.6 54 43.2 clipbox
/o {
gsave
newpath
translate
0.5 setlinewidth
1 setlinejoin
0 setlinecap
3 -1.83697e-16 m
-3 1.83697e-16 l
gsave
0.000 0.000 1.000 setrgbcolor
fill
grestore
stroke
grestore
} bind def
139.61 169.489 o
147.36 184.215 o
grestore
gsave
334.8 345.6 54 43.2 clipbox
/o {
gsave
newpath
translate
0.5 setlinewidth
1 setlinejoin
0 setlinecap
3 -1.83697e-16 m
-3 1.83697e-16 l
gsave
0.000 0.000 1.000 setrgbcolor
fill
grestore
stroke
grestore
} bind def
139.61 176.643 o
147.36 191.818 o
grestore
0 setlinejoin
gsave
334.8 345.6 54 43.2 clipbox
/o {
gsave
newpath
translate
0.5 setlinewidth
0 setlinejoin
0 setlinecap
0 2 m
-2 -2 l
2 -2 l
cl
gsave
0.000 setgray
fill
grestore
stroke
grestore
} bind def
139.61 173.066 o
147.36 188.017 o
grestore
1 setlinejoin
0.000 setgray
gsave
334.8 345.6 54 43.2 clipbox
/o {
gsave
newpath
translate
0.5 setlinewidth
1 setlinejoin
0 setlinecap
3 -1.83697e-16 m
-3 1.83697e-16 l
gsave
0.000 setgray
fill
grestore
stroke
grestore
} bind def
154.364 215.641 o
grestore
gsave
334.8 345.6 54 43.2 clipbox
/o {
gsave
newpath
translate
0.5 setlinewidth
1 setlinejoin
0 setlinecap
3 -1.83697e-16 m
-3 1.83697e-16 l
gsave
0.000 setgray
fill
grestore
stroke
grestore
} bind def
154.364 228.359 o
grestore
gsave
334.8 345.6 54 43.2 clipbox
/o {
gsave
newpath
translate
0.5 setlinewidth
1 setlinejoin
0 setlinecap
0 -1.5 m
0.397805 -1.5 0.77937 -1.34195 1.06066 -1.06066 c
1.34195 -0.77937 1.5 -0.397805 1.5 0 c
1.5 0.397805 1.34195 0.77937 1.06066 1.06066 c
0.77937 1.34195 0.397805 1.5 0 1.5 c
-0.397805 1.5 -0.77937 1.34195 -1.06066 1.06066 c
-1.34195 0.77937 -1.5 0.397805 -1.5 0 c
-1.5 -0.397805 -1.34195 -0.77937 -1.06066 -1.06066 c
-0.77937 -1.34195 -0.397805 -1.5 0 -1.5 c
cl
gsave
0.000 setgray
fill
grestore
stroke
grestore
} bind def
154.364 222 o
grestore
2.300 setlinewidth
gsave
/o {
gsave
newpath
translate
2.3 setlinewidth
1 setlinejoin
0 setlinecap
0 0 m
0 5.5 l
gsave
0.000 setgray
fill
grestore
stroke
grestore
} bind def
54 43.2 o
grestore
gsave
/o {
gsave
newpath
translate
2.3 setlinewidth
1 setlinejoin
0 setlinecap
0 0 m
0 -5.5 l
gsave
0.000 setgray
fill
grestore
stroke
grestore
} bind def
54 388.8 o
grestore
/BitstreamVeraSans-Roman findfont
15.000 scalefont
setfont
gsave
43.554688 28.043750 translate
0.000000 rotate
0.000000 0.218750 m /one glyphshow
9.543457 0.218750 m /period glyphshow
14.311523 0.218750 m /five glyphshow
grestore
gsave
/o {
gsave
newpath
translate
2.3 setlinewidth
1 setlinejoin
0 setlinecap
0 0 m
0 5.5 l
gsave
0.000 setgray
fill
grestore
stroke
grestore
} bind def
120.96 43.2 o
grestore
gsave
/o {
gsave
newpath
translate
2.3 setlinewidth
1 setlinejoin
0 setlinecap
0 0 m
0 -5.5 l
gsave
0.000 setgray
fill
grestore
stroke
grestore
} bind def
120.96 388.8 o
grestore
gsave
110.077188 27.840625 translate
0.000000 rotate
0.000000 0.218750 m /two glyphshow
9.543457 0.218750 m /period glyphshow
14.311523 0.218750 m /zero glyphshow
grestore
gsave
/o {
gsave
newpath
translate
2.3 setlinewidth
1 setlinejoin
0 setlinecap
0 0 m
0 5.5 l
gsave
0.000 setgray
fill
grestore
stroke
grestore
} bind def
187.92 43.2 o
grestore
gsave
/o {
gsave
newpath
translate
2.3 setlinewidth
1 setlinejoin
0 setlinecap
0 0 m
0 -5.5 l
gsave
0.000 setgray
fill
grestore
stroke
grestore
} bind def
187.92 388.8 o
grestore
gsave
177.193438 27.840625 translate
0.000000 rotate
0.000000 0.218750 m /two glyphshow
9.543457 0.218750 m /period glyphshow
14.311523 0.218750 m /five glyphshow
grestore
gsave
/o {
gsave
newpath
translate
2.3 setlinewidth
1 setlinejoin
0 setlinecap
0 0 m
0 5.5 l
gsave
0.000 setgray
fill
grestore
stroke
grestore
} bind def
254.88 43.2 o
grestore
gsave
/o {
gsave
newpath
translate
2.3 setlinewidth
1 setlinejoin
0 setlinecap
0 0 m
0 -5.5 l
gsave
0.000 setgray
fill
grestore
stroke
grestore
} bind def
254.88 388.8 o
grestore
gsave
244.020625 27.840625 translate
0.000000 rotate
0.000000 0.218750 m /three glyphshow
9.543457 0.218750 m /period glyphshow
14.311523 0.218750 m /zero glyphshow
grestore
gsave
/o {
gsave
newpath
translate
2.3 setlinewidth
1 setlinejoin
0 setlinecap
0 0 m
0 5.5 l
gsave
0.000 setgray
fill
grestore
stroke
grestore
} bind def
321.84 43.2 o
grestore
gsave
/o {
gsave
newpath
translate
2.3 setlinewidth
1 setlinejoin
0 setlinecap
0 0 m
0 -5.5 l
gsave
0.000 setgray
fill
grestore
stroke
grestore
} bind def
321.84 388.8 o
grestore
gsave
311.136875 27.840625 translate
0.000000 rotate
0.000000 0.218750 m /three glyphshow
9.543457 0.218750 m /period glyphshow
14.311523 0.218750 m /five glyphshow
grestore
gsave
/o {
gsave
newpath
translate
2.3 setlinewidth
1 setlinejoin
0 setlinecap
0 0 m
0 5.5 l
gsave
0.000 setgray
fill
grestore
stroke
grestore
} bind def
388.8 43.2 o
grestore
gsave
/o {
gsave
newpath
translate
2.3 setlinewidth
1 setlinejoin
0 setlinecap
0 0 m
0 -5.5 l
gsave
0.000 setgray
fill
grestore
stroke
grestore
} bind def
388.8 388.8 o
grestore
gsave
377.737500 27.840625 translate
0.000000 rotate
0.000000 0.218750 m /four glyphshow
9.543457 0.218750 m /period glyphshow
14.311523 0.218750 m /zero glyphshow
grestore
1.700 setlinewidth
gsave
/o {
gsave
newpath
translate
1.7 setlinewidth
1 setlinejoin
0 setlinecap
0 0 m
0 3.5 l
gsave
0.000 setgray
fill
grestore
stroke
grestore
} bind def
67.392 43.2 o
grestore
gsave
/o {
gsave
newpath
translate
1.7 setlinewidth
1 setlinejoin
0 setlinecap
0 0 m
0 -3.5 l
gsave
0.000 setgray
fill
grestore
stroke
grestore
} bind def
67.392 388.8 o
grestore
gsave
/o {
gsave
newpath
translate
1.7 setlinewidth
1 setlinejoin
0 setlinecap
0 0 m
0 3.5 l
gsave
0.000 setgray
fill
grestore
stroke
grestore
} bind def
80.784 43.2 o
grestore
gsave
/o {
gsave
newpath
translate
1.7 setlinewidth
1 setlinejoin
0 setlinecap
0 0 m
0 -3.5 l
gsave
0.000 setgray
fill
grestore
stroke
grestore
} bind def
80.784 388.8 o
grestore
gsave
/o {
gsave
newpath
translate
1.7 setlinewidth
1 setlinejoin
0 setlinecap
0 0 m
0 3.5 l
gsave
0.000 setgray
fill
grestore
stroke
grestore
} bind def
94.176 43.2 o
grestore
gsave
/o {
gsave
newpath
translate
1.7 setlinewidth
1 setlinejoin
0 setlinecap
0 0 m
0 -3.5 l
gsave
0.000 setgray
fill
grestore
stroke
grestore
} bind def
94.176 388.8 o
grestore
gsave
/o {
gsave
newpath
translate
1.7 setlinewidth
1 setlinejoin
0 setlinecap
0 0 m
0 3.5 l
gsave
0.000 setgray
fill
grestore
stroke
grestore
} bind def
107.568 43.2 o
grestore
gsave
/o {
gsave
newpath
translate
1.7 setlinewidth
1 setlinejoin
0 setlinecap
0 0 m
0 -3.5 l
gsave
0.000 setgray
fill
grestore
stroke
grestore
} bind def
107.568 388.8 o
grestore
gsave
/o {
gsave
newpath
translate
1.7 setlinewidth
1 setlinejoin
0 setlinecap
0 0 m
0 3.5 l
gsave
0.000 setgray
fill
grestore
stroke
grestore
} bind def
120.96 43.2 o
grestore
gsave
/o {
gsave
newpath
translate
1.7 setlinewidth
1 setlinejoin
0 setlinecap
0 0 m
0 -3.5 l
gsave
0.000 setgray
fill
grestore
stroke
grestore
} bind def
120.96 388.8 o
grestore
gsave
/o {
gsave
newpath
translate
1.7 setlinewidth
1 setlinejoin
0 setlinecap
0 0 m
0 3.5 l
gsave
0.000 setgray
fill
grestore
stroke
grestore
} bind def
134.352 43.2 o
grestore
gsave
/o {
gsave
newpath
translate
1.7 setlinewidth
1 setlinejoin
0 setlinecap
0 0 m
0 -3.5 l
gsave
0.000 setgray
fill
grestore
stroke
grestore
} bind def
134.352 388.8 o
grestore
gsave
/o {
gsave
newpath
translate
1.7 setlinewidth
1 setlinejoin
0 setlinecap
0 0 m
0 3.5 l
gsave
0.000 setgray
fill
grestore
stroke
grestore
} bind def
147.744 43.2 o
grestore
gsave
/o {
gsave
newpath
translate
1.7 setlinewidth
1 setlinejoin
0 setlinecap
0 0 m
0 -3.5 l
gsave
0.000 setgray
fill
grestore
stroke
grestore
} bind def
147.744 388.8 o
grestore
gsave
/o {
gsave
newpath
translate
1.7 setlinewidth
1 setlinejoin
0 setlinecap
0 0 m
0 3.5 l
gsave
0.000 setgray
fill
grestore
stroke
grestore
} bind def
161.136 43.2 o
grestore
gsave
/o {
gsave
newpath
translate
1.7 setlinewidth
1 setlinejoin
0 setlinecap
0 0 m
0 -3.5 l
gsave
0.000 setgray
fill
grestore
stroke
grestore
} bind def
161.136 388.8 o
grestore
gsave
/o {
gsave
newpath
translate
1.7 setlinewidth
1 setlinejoin
0 setlinecap
0 0 m
0 3.5 l
gsave
0.000 setgray
fill
grestore
stroke
grestore
} bind def
174.528 43.2 o
grestore
gsave
/o {
gsave
newpath
translate
1.7 setlinewidth
1 setlinejoin
0 setlinecap
0 0 m
0 -3.5 l
gsave
0.000 setgray
fill
grestore
stroke
grestore
} bind def
174.528 388.8 o
grestore
gsave
/o {
gsave
newpath
translate
1.7 setlinewidth
1 setlinejoin
0 setlinecap
0 0 m
0 3.5 l
gsave
0.000 setgray
fill
grestore
stroke
grestore
} bind def
187.92 43.2 o
grestore
gsave
/o {
gsave
newpath
translate
1.7 setlinewidth
1 setlinejoin
0 setlinecap
0 0 m
0 -3.5 l
gsave
0.000 setgray
fill
grestore
stroke
grestore
} bind def
187.92 388.8 o
grestore
gsave
/o {
gsave
newpath
translate
1.7 setlinewidth
1 setlinejoin
0 setlinecap
0 0 m
0 3.5 l
gsave
0.000 setgray
fill
grestore
stroke
grestore
} bind def
201.312 43.2 o
grestore
gsave
/o {
gsave
newpath
translate
1.7 setlinewidth
1 setlinejoin
0 setlinecap
0 0 m
0 -3.5 l
gsave
0.000 setgray
fill
grestore
stroke
grestore
} bind def
201.312 388.8 o
grestore
gsave
/o {
gsave
newpath
translate
1.7 setlinewidth
1 setlinejoin
0 setlinecap
0 0 m
0 3.5 l
gsave
0.000 setgray
fill
grestore
stroke
grestore
} bind def
214.704 43.2 o
grestore
gsave
/o {
gsave
newpath
translate
1.7 setlinewidth
1 setlinejoin
0 setlinecap
0 0 m
0 -3.5 l
gsave
0.000 setgray
fill
grestore
stroke
grestore
} bind def
214.704 388.8 o
grestore
gsave
/o {
gsave
newpath
translate
1.7 setlinewidth
1 setlinejoin
0 setlinecap
0 0 m
0 3.5 l
gsave
0.000 setgray
fill
grestore
stroke
grestore
} bind def
228.096 43.2 o
grestore
gsave
/o {
gsave
newpath
translate
1.7 setlinewidth
1 setlinejoin
0 setlinecap
0 0 m
0 -3.5 l
gsave
0.000 setgray
fill
grestore
stroke
grestore
} bind def
228.096 388.8 o
grestore
gsave
/o {
gsave
newpath
translate
1.7 setlinewidth
1 setlinejoin
0 setlinecap
0 0 m
0 3.5 l
gsave
0.000 setgray
fill
grestore
stroke
grestore
} bind def
241.488 43.2 o
grestore
gsave
/o {
gsave
newpath
translate
1.7 setlinewidth
1 setlinejoin
0 setlinecap
0 0 m
0 -3.5 l
gsave
0.000 setgray
fill
grestore
stroke
grestore
} bind def
241.488 388.8 o
grestore
gsave
/o {
gsave
newpath
translate
1.7 setlinewidth
1 setlinejoin
0 setlinecap
0 0 m
0 3.5 l
gsave
0.000 setgray
fill
grestore
stroke
grestore
} bind def
254.88 43.2 o
grestore
gsave
/o {
gsave
newpath
translate
1.7 setlinewidth
1 setlinejoin
0 setlinecap
0 0 m
0 -3.5 l
gsave
0.000 setgray
fill
grestore
stroke
grestore
} bind def
254.88 388.8 o
grestore
gsave
/o {
gsave
newpath
translate
1.7 setlinewidth
1 setlinejoin
0 setlinecap
0 0 m
0 3.5 l
gsave
0.000 setgray
fill
grestore
stroke
grestore
} bind def
268.272 43.2 o
grestore
gsave
/o {
gsave
newpath
translate
1.7 setlinewidth
1 setlinejoin
0 setlinecap
0 0 m
0 -3.5 l
gsave
0.000 setgray
fill
grestore
stroke
grestore
} bind def
268.272 388.8 o
grestore
gsave
/o {
gsave
newpath
translate
1.7 setlinewidth
1 setlinejoin
0 setlinecap
0 0 m
0 3.5 l
gsave
0.000 setgray
fill
grestore
stroke
grestore
} bind def
281.664 43.2 o
grestore
gsave
/o {
gsave
newpath
translate
1.7 setlinewidth
1 setlinejoin
0 setlinecap
0 0 m
0 -3.5 l
gsave
0.000 setgray
fill
grestore
stroke
grestore
} bind def
281.664 388.8 o
grestore
gsave
/o {
gsave
newpath
translate
1.7 setlinewidth
1 setlinejoin
0 setlinecap
0 0 m
0 3.5 l
gsave
0.000 setgray
fill
grestore
stroke
grestore
} bind def
295.056 43.2 o
grestore
gsave
/o {
gsave
newpath
translate
1.7 setlinewidth
1 setlinejoin
0 setlinecap
0 0 m
0 -3.5 l
gsave
0.000 setgray
fill
grestore
stroke
grestore
} bind def
295.056 388.8 o
grestore
gsave
/o {
gsave
newpath
translate
1.7 setlinewidth
1 setlinejoin
0 setlinecap
0 0 m
0 3.5 l
gsave
0.000 setgray
fill
grestore
stroke
grestore
} bind def
308.448 43.2 o
grestore
gsave
/o {
gsave
newpath
translate
1.7 setlinewidth
1 setlinejoin
0 setlinecap
0 0 m
0 -3.5 l
gsave
0.000 setgray
fill
grestore
stroke
grestore
} bind def
308.448 388.8 o
grestore
gsave
/o {
gsave
newpath
translate
1.7 setlinewidth
1 setlinejoin
0 setlinecap
0 0 m
0 3.5 l
gsave
0.000 setgray
fill
grestore
stroke
grestore
} bind def
321.84 43.2 o
grestore
gsave
/o {
gsave
newpath
translate
1.7 setlinewidth
1 setlinejoin
0 setlinecap
0 0 m
0 -3.5 l
gsave
0.000 setgray
fill
grestore
stroke
grestore
} bind def
321.84 388.8 o
grestore
gsave
/o {
gsave
newpath
translate
1.7 setlinewidth
1 setlinejoin
0 setlinecap
0 0 m
0 3.5 l
gsave
0.000 setgray
fill
grestore
stroke
grestore
} bind def
335.232 43.2 o
grestore
gsave
/o {
gsave
newpath
translate
1.7 setlinewidth
1 setlinejoin
0 setlinecap
0 0 m
0 -3.5 l
gsave
0.000 setgray
fill
grestore
stroke
grestore
} bind def
335.232 388.8 o
grestore
gsave
/o {
gsave
newpath
translate
1.7 setlinewidth
1 setlinejoin
0 setlinecap
0 0 m
0 3.5 l
gsave
0.000 setgray
fill
grestore
stroke
grestore
} bind def
348.624 43.2 o
grestore
gsave
/o {
gsave
newpath
translate
1.7 setlinewidth
1 setlinejoin
0 setlinecap
0 0 m
0 -3.5 l
gsave
0.000 setgray
fill
grestore
stroke
grestore
} bind def
348.624 388.8 o
grestore
gsave
/o {
gsave
newpath
translate
1.7 setlinewidth
1 setlinejoin
0 setlinecap
0 0 m
0 3.5 l
gsave
0.000 setgray
fill
grestore
stroke
grestore
} bind def
362.016 43.2 o
grestore
gsave
/o {
gsave
newpath
translate
1.7 setlinewidth
1 setlinejoin
0 setlinecap
0 0 m
0 -3.5 l
gsave
0.000 setgray
fill
grestore
stroke
grestore
} bind def
362.016 388.8 o
grestore
gsave
/o {
gsave
newpath
translate
1.7 setlinewidth
1 setlinejoin
0 setlinecap
0 0 m
0 3.5 l
gsave
0.000 setgray
fill
grestore
stroke
grestore
} bind def
375.408 43.2 o
grestore
gsave
/o {
gsave
newpath
translate
1.7 setlinewidth
1 setlinejoin
0 setlinecap
0 0 m
0 -3.5 l
gsave
0.000 setgray
fill
grestore
stroke
grestore
} bind def
375.408 388.8 o
grestore
gsave
/o {
gsave
newpath
translate
1.7 setlinewidth
1 setlinejoin
0 setlinecap
0 0 m
0 3.5 l
gsave
0.000 setgray
fill
grestore
stroke
grestore
} bind def
388.8 43.2 o
grestore
gsave
/o {
gsave
newpath
translate
1.7 setlinewidth
1 setlinejoin
0 setlinecap
0 0 m
0 -3.5 l
gsave
0.000 setgray
fill
grestore
stroke
grestore
} bind def
388.8 388.8 o
grestore
gsave
201.900000 9.840625 translate
0.000000 rotate
/Cmr10 findfont
12.0 scalefont
setfont
0.000000 4.000000 moveto
/parenleft glyphshow

/Cmmi10 findfont
12.0 scalefont
setfont
4.658203 4.000000 moveto
/g glyphshow

/Cmsy10 findfont
12.0 scalefont
setfont
10.382812 4.000000 moveto
/minus glyphshow

/Cmmi10 findfont
12.0 scalefont
setfont
19.705078 4.000000 moveto
/K glyphshow

/Cmr10 findfont
12.0 scalefont
setfont
29.894531 4.000000 moveto
/parenright glyphshow

/Cmr10 findfont
8.4 scalefont
setfont
34.552734 0.938875 moveto
/zero glyphshow


grestore
2.300 setlinewidth
gsave
/o {
gsave
newpath
translate
2.3 setlinewidth
1 setlinejoin
0 setlinecap
0 0 m
5.5 0 l
gsave
0.000 setgray
fill
grestore
stroke
grestore
} bind def
54 43.2 o
grestore
gsave
/o {
gsave
newpath
translate
2.3 setlinewidth
1 setlinejoin
0 setlinecap
0 0 m
-5.5 0 l
gsave
0.000 setgray
fill
grestore
stroke
grestore
} bind def
388.8 43.2 o
grestore
gsave
28.625000 37.520312 translate
0.000000 rotate
0.000000 0.218750 m /zero glyphshow
9.543457 0.218750 m /period glyphshow
14.311523 0.218750 m /two glyphshow
grestore
gsave
/o {
gsave
newpath
translate
2.3 setlinewidth
1 setlinejoin
0 setlinecap
0 0 m
5.5 0 l
gsave
0.000 setgray
fill
grestore
stroke
grestore
} bind def
54 112.32 o
grestore
gsave
/o {
gsave
newpath
translate
2.3 setlinewidth
1 setlinejoin
0 setlinecap
0 0 m
-5.5 0 l
gsave
0.000 setgray
fill
grestore
stroke
grestore
} bind def
388.8 112.32 o
grestore
gsave
27.968750 106.640312 translate
0.000000 rotate
0.000000 0.218750 m /zero glyphshow
9.543457 0.218750 m /period glyphshow
14.311523 0.218750 m /four glyphshow
grestore
gsave
/o {
gsave
newpath
translate
2.3 setlinewidth
1 setlinejoin
0 setlinecap
0 0 m
5.5 0 l
gsave
0.000 setgray
fill
grestore
stroke
grestore
} bind def
54 181.44 o
grestore
gsave
/o {
gsave
newpath
translate
2.3 setlinewidth
1 setlinejoin
0 setlinecap
0 0 m
-5.5 0 l
gsave
0.000 setgray
fill
grestore
stroke
grestore
} bind def
388.8 181.44 o
grestore
gsave
28.078125 175.760313 translate
0.000000 rotate
0.000000 0.218750 m /zero glyphshow
9.543457 0.218750 m /period glyphshow
14.311523 0.218750 m /six glyphshow
grestore
gsave
/o {
gsave
newpath
translate
2.3 setlinewidth
1 setlinejoin
0 setlinecap
0 0 m
5.5 0 l
gsave
0.000 setgray
fill
grestore
stroke
grestore
} bind def
54 250.56 o
grestore
gsave
/o {
gsave
newpath
translate
2.3 setlinewidth
1 setlinejoin
0 setlinecap
0 0 m
-5.5 0 l
gsave
0.000 setgray
fill
grestore
stroke
grestore
} bind def
388.8 250.56 o
grestore
gsave
28.156250 244.880313 translate
0.000000 rotate
0.000000 0.218750 m /zero glyphshow
9.543457 0.218750 m /period glyphshow
14.311523 0.218750 m /eight glyphshow
grestore
gsave
/o {
gsave
newpath
translate
2.3 setlinewidth
1 setlinejoin
0 setlinecap
0 0 m
5.5 0 l
gsave
0.000 setgray
fill
grestore
stroke
grestore
} bind def
54 319.68 o
grestore
gsave
/o {
gsave
newpath
translate
2.3 setlinewidth
1 setlinejoin
0 setlinecap
0 0 m
-5.5 0 l
gsave
0.000 setgray
fill
grestore
stroke
grestore
} bind def
388.8 319.68 o
grestore
gsave
28.796875 314.000313 translate
0.000000 rotate
0.000000 0.218750 m /one glyphshow
9.543457 0.218750 m /period glyphshow
14.311523 0.218750 m /zero glyphshow
grestore
gsave
/o {
gsave
newpath
translate
2.3 setlinewidth
1 setlinejoin
0 setlinecap
0 0 m
5.5 0 l
gsave
0.000 setgray
fill
grestore
stroke
grestore
} bind def
54 388.8 o
grestore
gsave
/o {
gsave
newpath
translate
2.3 setlinewidth
1 setlinejoin
0 setlinecap
0 0 m
-5.5 0 l
gsave
0.000 setgray
fill
grestore
stroke
grestore
} bind def
388.8 388.8 o
grestore
gsave
29.296875 383.229688 translate
0.000000 rotate
0.000000 0.000000 m /one glyphshow
9.543457 0.000000 m /period glyphshow
14.311523 0.000000 m /two glyphshow
grestore
1.700 setlinewidth
gsave
/o {
gsave
newpath
translate
1.7 setlinewidth
1 setlinejoin
0 setlinecap
0 0 m
3.5 0 l
gsave
0.000 setgray
fill
grestore
stroke
grestore
} bind def
54 43.2 o
grestore
gsave
/o {
gsave
newpath
translate
1.7 setlinewidth
1 setlinejoin
0 setlinecap
0 0 m
-3.5 0 l
gsave
0.000 setgray
fill
grestore
stroke
grestore
} bind def
388.8 43.2 o
grestore
gsave
/o {
gsave
newpath
translate
1.7 setlinewidth
1 setlinejoin
0 setlinecap
0 0 m
3.5 0 l
gsave
0.000 setgray
fill
grestore
stroke
grestore
} bind def
54 57.024 o
grestore
gsave
/o {
gsave
newpath
translate
1.7 setlinewidth
1 setlinejoin
0 setlinecap
0 0 m
-3.5 0 l
gsave
0.000 setgray
fill
grestore
stroke
grestore
} bind def
388.8 57.024 o
grestore
gsave
/o {
gsave
newpath
translate
1.7 setlinewidth
1 setlinejoin
0 setlinecap
0 0 m
3.5 0 l
gsave
0.000 setgray
fill
grestore
stroke
grestore
} bind def
54 70.848 o
grestore
gsave
/o {
gsave
newpath
translate
1.7 setlinewidth
1 setlinejoin
0 setlinecap
0 0 m
-3.5 0 l
gsave
0.000 setgray
fill
grestore
stroke
grestore
} bind def
388.8 70.848 o
grestore
gsave
/o {
gsave
newpath
translate
1.7 setlinewidth
1 setlinejoin
0 setlinecap
0 0 m
3.5 0 l
gsave
0.000 setgray
fill
grestore
stroke
grestore
} bind def
54 84.672 o
grestore
gsave
/o {
gsave
newpath
translate
1.7 setlinewidth
1 setlinejoin
0 setlinecap
0 0 m
-3.5 0 l
gsave
0.000 setgray
fill
grestore
stroke
grestore
} bind def
388.8 84.672 o
grestore
gsave
/o {
gsave
newpath
translate
1.7 setlinewidth
1 setlinejoin
0 setlinecap
0 0 m
3.5 0 l
gsave
0.000 setgray
fill
grestore
stroke
grestore
} bind def
54 98.496 o
grestore
gsave
/o {
gsave
newpath
translate
1.7 setlinewidth
1 setlinejoin
0 setlinecap
0 0 m
-3.5 0 l
gsave
0.000 setgray
fill
grestore
stroke
grestore
} bind def
388.8 98.496 o
grestore
gsave
/o {
gsave
newpath
translate
1.7 setlinewidth
1 setlinejoin
0 setlinecap
0 0 m
3.5 0 l
gsave
0.000 setgray
fill
grestore
stroke
grestore
} bind def
54 112.32 o
grestore
gsave
/o {
gsave
newpath
translate
1.7 setlinewidth
1 setlinejoin
0 setlinecap
0 0 m
-3.5 0 l
gsave
0.000 setgray
fill
grestore
stroke
grestore
} bind def
388.8 112.32 o
grestore
gsave
/o {
gsave
newpath
translate
1.7 setlinewidth
1 setlinejoin
0 setlinecap
0 0 m
3.5 0 l
gsave
0.000 setgray
fill
grestore
stroke
grestore
} bind def
54 126.144 o
grestore
gsave
/o {
gsave
newpath
translate
1.7 setlinewidth
1 setlinejoin
0 setlinecap
0 0 m
-3.5 0 l
gsave
0.000 setgray
fill
grestore
stroke
grestore
} bind def
388.8 126.144 o
grestore
gsave
/o {
gsave
newpath
translate
1.7 setlinewidth
1 setlinejoin
0 setlinecap
0 0 m
3.5 0 l
gsave
0.000 setgray
fill
grestore
stroke
grestore
} bind def
54 139.968 o
grestore
gsave
/o {
gsave
newpath
translate
1.7 setlinewidth
1 setlinejoin
0 setlinecap
0 0 m
-3.5 0 l
gsave
0.000 setgray
fill
grestore
stroke
grestore
} bind def
388.8 139.968 o
grestore
gsave
/o {
gsave
newpath
translate
1.7 setlinewidth
1 setlinejoin
0 setlinecap
0 0 m
3.5 0 l
gsave
0.000 setgray
fill
grestore
stroke
grestore
} bind def
54 153.792 o
grestore
gsave
/o {
gsave
newpath
translate
1.7 setlinewidth
1 setlinejoin
0 setlinecap
0 0 m
-3.5 0 l
gsave
0.000 setgray
fill
grestore
stroke
grestore
} bind def
388.8 153.792 o
grestore
gsave
/o {
gsave
newpath
translate
1.7 setlinewidth
1 setlinejoin
0 setlinecap
0 0 m
3.5 0 l
gsave
0.000 setgray
fill
grestore
stroke
grestore
} bind def
54 167.616 o
grestore
gsave
/o {
gsave
newpath
translate
1.7 setlinewidth
1 setlinejoin
0 setlinecap
0 0 m
-3.5 0 l
gsave
0.000 setgray
fill
grestore
stroke
grestore
} bind def
388.8 167.616 o
grestore
gsave
/o {
gsave
newpath
translate
1.7 setlinewidth
1 setlinejoin
0 setlinecap
0 0 m
3.5 0 l
gsave
0.000 setgray
fill
grestore
stroke
grestore
} bind def
54 181.44 o
grestore
gsave
/o {
gsave
newpath
translate
1.7 setlinewidth
1 setlinejoin
0 setlinecap
0 0 m
-3.5 0 l
gsave
0.000 setgray
fill
grestore
stroke
grestore
} bind def
388.8 181.44 o
grestore
gsave
/o {
gsave
newpath
translate
1.7 setlinewidth
1 setlinejoin
0 setlinecap
0 0 m
3.5 0 l
gsave
0.000 setgray
fill
grestore
stroke
grestore
} bind def
54 195.264 o
grestore
gsave
/o {
gsave
newpath
translate
1.7 setlinewidth
1 setlinejoin
0 setlinecap
0 0 m
-3.5 0 l
gsave
0.000 setgray
fill
grestore
stroke
grestore
} bind def
388.8 195.264 o
grestore
gsave
/o {
gsave
newpath
translate
1.7 setlinewidth
1 setlinejoin
0 setlinecap
0 0 m
3.5 0 l
gsave
0.000 setgray
fill
grestore
stroke
grestore
} bind def
54 209.088 o
grestore
gsave
/o {
gsave
newpath
translate
1.7 setlinewidth
1 setlinejoin
0 setlinecap
0 0 m
-3.5 0 l
gsave
0.000 setgray
fill
grestore
stroke
grestore
} bind def
388.8 209.088 o
grestore
gsave
/o {
gsave
newpath
translate
1.7 setlinewidth
1 setlinejoin
0 setlinecap
0 0 m
3.5 0 l
gsave
0.000 setgray
fill
grestore
stroke
grestore
} bind def
54 222.912 o
grestore
gsave
/o {
gsave
newpath
translate
1.7 setlinewidth
1 setlinejoin
0 setlinecap
0 0 m
-3.5 0 l
gsave
0.000 setgray
fill
grestore
stroke
grestore
} bind def
388.8 222.912 o
grestore
gsave
/o {
gsave
newpath
translate
1.7 setlinewidth
1 setlinejoin
0 setlinecap
0 0 m
3.5 0 l
gsave
0.000 setgray
fill
grestore
stroke
grestore
} bind def
54 236.736 o
grestore
gsave
/o {
gsave
newpath
translate
1.7 setlinewidth
1 setlinejoin
0 setlinecap
0 0 m
-3.5 0 l
gsave
0.000 setgray
fill
grestore
stroke
grestore
} bind def
388.8 236.736 o
grestore
gsave
/o {
gsave
newpath
translate
1.7 setlinewidth
1 setlinejoin
0 setlinecap
0 0 m
3.5 0 l
gsave
0.000 setgray
fill
grestore
stroke
grestore
} bind def
54 250.56 o
grestore
gsave
/o {
gsave
newpath
translate
1.7 setlinewidth
1 setlinejoin
0 setlinecap
0 0 m
-3.5 0 l
gsave
0.000 setgray
fill
grestore
stroke
grestore
} bind def
388.8 250.56 o
grestore
gsave
/o {
gsave
newpath
translate
1.7 setlinewidth
1 setlinejoin
0 setlinecap
0 0 m
3.5 0 l
gsave
0.000 setgray
fill
grestore
stroke
grestore
} bind def
54 264.384 o
grestore
gsave
/o {
gsave
newpath
translate
1.7 setlinewidth
1 setlinejoin
0 setlinecap
0 0 m
-3.5 0 l
gsave
0.000 setgray
fill
grestore
stroke
grestore
} bind def
388.8 264.384 o
grestore
gsave
/o {
gsave
newpath
translate
1.7 setlinewidth
1 setlinejoin
0 setlinecap
0 0 m
3.5 0 l
gsave
0.000 setgray
fill
grestore
stroke
grestore
} bind def
54 278.208 o
grestore
gsave
/o {
gsave
newpath
translate
1.7 setlinewidth
1 setlinejoin
0 setlinecap
0 0 m
-3.5 0 l
gsave
0.000 setgray
fill
grestore
stroke
grestore
} bind def
388.8 278.208 o
grestore
gsave
/o {
gsave
newpath
translate
1.7 setlinewidth
1 setlinejoin
0 setlinecap
0 0 m
3.5 0 l
gsave
0.000 setgray
fill
grestore
stroke
grestore
} bind def
54 292.032 o
grestore
gsave
/o {
gsave
newpath
translate
1.7 setlinewidth
1 setlinejoin
0 setlinecap
0 0 m
-3.5 0 l
gsave
0.000 setgray
fill
grestore
stroke
grestore
} bind def
388.8 292.032 o
grestore
gsave
/o {
gsave
newpath
translate
1.7 setlinewidth
1 setlinejoin
0 setlinecap
0 0 m
3.5 0 l
gsave
0.000 setgray
fill
grestore
stroke
grestore
} bind def
54 305.856 o
grestore
gsave
/o {
gsave
newpath
translate
1.7 setlinewidth
1 setlinejoin
0 setlinecap
0 0 m
-3.5 0 l
gsave
0.000 setgray
fill
grestore
stroke
grestore
} bind def
388.8 305.856 o
grestore
gsave
/o {
gsave
newpath
translate
1.7 setlinewidth
1 setlinejoin
0 setlinecap
0 0 m
3.5 0 l
gsave
0.000 setgray
fill
grestore
stroke
grestore
} bind def
54 319.68 o
grestore
gsave
/o {
gsave
newpath
translate
1.7 setlinewidth
1 setlinejoin
0 setlinecap
0 0 m
-3.5 0 l
gsave
0.000 setgray
fill
grestore
stroke
grestore
} bind def
388.8 319.68 o
grestore
gsave
/o {
gsave
newpath
translate
1.7 setlinewidth
1 setlinejoin
0 setlinecap
0 0 m
3.5 0 l
gsave
0.000 setgray
fill
grestore
stroke
grestore
} bind def
54 333.504 o
grestore
gsave
/o {
gsave
newpath
translate
1.7 setlinewidth
1 setlinejoin
0 setlinecap
0 0 m
-3.5 0 l
gsave
0.000 setgray
fill
grestore
stroke
grestore
} bind def
388.8 333.504 o
grestore
gsave
/o {
gsave
newpath
translate
1.7 setlinewidth
1 setlinejoin
0 setlinecap
0 0 m
3.5 0 l
gsave
0.000 setgray
fill
grestore
stroke
grestore
} bind def
54 347.328 o
grestore
gsave
/o {
gsave
newpath
translate
1.7 setlinewidth
1 setlinejoin
0 setlinecap
0 0 m
-3.5 0 l
gsave
0.000 setgray
fill
grestore
stroke
grestore
} bind def
388.8 347.328 o
grestore
gsave
/o {
gsave
newpath
translate
1.7 setlinewidth
1 setlinejoin
0 setlinecap
0 0 m
3.5 0 l
gsave
0.000 setgray
fill
grestore
stroke
grestore
} bind def
54 361.152 o
grestore
gsave
/o {
gsave
newpath
translate
1.7 setlinewidth
1 setlinejoin
0 setlinecap
0 0 m
-3.5 0 l
gsave
0.000 setgray
fill
grestore
stroke
grestore
} bind def
388.8 361.152 o
grestore
gsave
/o {
gsave
newpath
translate
1.7 setlinewidth
1 setlinejoin
0 setlinecap
0 0 m
3.5 0 l
gsave
0.000 setgray
fill
grestore
stroke
grestore
} bind def
54 374.976 o
grestore
gsave
/o {
gsave
newpath
translate
1.7 setlinewidth
1 setlinejoin
0 setlinecap
0 0 m
-3.5 0 l
gsave
0.000 setgray
fill
grestore
stroke
grestore
} bind def
388.8 374.976 o
grestore
gsave
/o {
gsave
newpath
translate
1.7 setlinewidth
1 setlinejoin
0 setlinecap
0 0 m
3.5 0 l
gsave
0.000 setgray
fill
grestore
stroke
grestore
} bind def
54 388.8 o
grestore
gsave
/o {
gsave
newpath
translate
1.7 setlinewidth
1 setlinejoin
0 setlinecap
0 0 m
-3.5 0 l
gsave
0.000 setgray
fill
grestore
stroke
grestore
} bind def
388.8 388.8 o
grestore
gsave
22.968750 199.500000 translate
90.000000 rotate
/Cmr10 findfont
12.0 scalefont
setfont
0.000000 4.000000 moveto
/parenleft glyphshow

/Cmmi10 findfont
12.0 scalefont
setfont
4.658203 4.000000 moveto
/g glyphshow

/Cmsy10 findfont
12.0 scalefont
setfont
10.382812 4.000000 moveto
/minus glyphshow

/Cmmi10 findfont
12.0 scalefont
setfont
19.705078 4.000000 moveto
/i glyphshow

/Cmr10 findfont
12.0 scalefont
setfont
23.835938 4.000000 moveto
/parenright glyphshow

/Cmr10 findfont
8.4 scalefont
setfont
28.494141 0.938875 moveto
/zero glyphshow


grestore
1.000 setlinewidth
2 setlinecap
gsave
54 388.8 m
388.8 388.8 l
stroke
grestore
gsave
388.8 43.2 m
388.8 388.8 l
stroke
grestore
gsave
54 43.2 m
388.8 43.2 l
stroke
grestore
gsave
54 43.2 m
54 388.8 l
stroke
grestore
/BitstreamVeraSans-Roman findfont
16.000 scalefont
setfont
gsave
80.784000 354.005625 translate
0.000000 rotate
0.000000 0.234375 m /N glyphshow
11.968750 0.234375 m /G glyphshow
24.367188 0.234375 m /C glyphshow
35.539062 0.234375 m /space glyphshow
40.625000 0.234375 m /one glyphshow
50.804688 0.234375 m /four glyphshow
60.984375 0.234375 m /seven glyphshow
grestore
/BitstreamVeraSans-Roman findfont
8.000 scalefont
setfont
gsave
255.800030 283.550976 translate
0.000000 rotate
0.000000 0.000000 m /H glyphshow
6.015625 0.000000 m /hyphen glyphshow
8.902344 0.000000 m /I glyphshow
11.261719 0.000000 m /V glyphshow
grestore
gsave
206.704958 198.758016 translate
0.000000 rotate
0.000000 0.000000 m /H glyphshow
6.015625 0.000000 m /hyphen glyphshow
8.902344 0.000000 m /I glyphshow
grestore
gsave
175.839077 184.557312 translate
0.000000 rotate
0.000000 0.000000 m /H glyphshow
6.015625 0.000000 m /hyphen glyphshow
8.902344 0.000000 m /I glyphshow
11.261719 0.000000 m /I glyphshow
grestore
gsave
120.883666 225.000641 translate
0.000000 rotate
0.000000 0.109375 m /S glyphshow
5.078125 0.109375 m /D glyphshow
11.238281 0.109375 m /hyphen glyphshow
14.125000 0.109375 m /one glyphshow
19.214844 0.109375 m /zero glyphshow
grestore
gsave
96.926717 164.244161 translate
0.000000 rotate
0.000000 0.109375 m /S glyphshow
5.078125 0.109375 m /D glyphshow
11.238281 0.109375 m /hyphen glyphshow
14.125000 0.109375 m /five glyphshow
grestore
gsave
127.211386 143.396352 translate
0.000000 rotate
0.000000 0.000000 m /H glyphshow
6.015625 0.000000 m /hyphen glyphshow
8.902344 0.000000 m /I glyphshow
11.261719 0.000000 m /I glyphshow
13.621094 0.000000 m /I glyphshow
grestore
gsave
142.288099 162.698112 translate
0.000000 rotate
0.000000 0.000000 m /P glyphshow
4.324219 0.000000 m /A glyphshow
9.671875 0.000000 m /hyphen glyphshow
12.558594 0.000000 m /one glyphshow
grestore
gsave
124.593250 188.016768 translate
0.000000 rotate
0.000000 0.000000 m /P glyphshow
4.324219 0.000000 m /A glyphshow
9.671875 0.000000 m /hyphen glyphshow
12.558594 0.000000 m /two glyphshow
grestore
gsave
149.367110 177.518657 translate
0.000000 rotate
0.000000 0.109375 m /S glyphshow
5.078125 0.109375 m /D glyphshow
11.238281 0.109375 m /hyphen glyphshow
14.125000 0.109375 m /seven glyphshow
grestore
0.000 0.000 1.000 setrgbcolor
gsave
126.852480 207.250625 translate
0.000000 rotate
0.000000 0.109375 m /hyphen glyphshow
2.886719 0.109375 m /one glyphshow
7.976562 0.109375 m /period glyphshow
10.519531 0.109375 m /seven glyphshow
15.609375 0.109375 m /zero glyphshow
20.699219 0.109375 m /four glyphshow
grestore
gsave
161.671680 241.119425 translate
0.000000 rotate
0.000000 0.109375 m /hyphen glyphshow
2.886719 0.109375 m /one glyphshow
7.976562 0.109375 m /period glyphshow
10.519531 0.109375 m /one glyphshow
15.609375 0.109375 m /four glyphshow
20.699219 0.109375 m /zero glyphshow
grestore
gsave
205.865280 286.047425 translate
0.000000 rotate
0.000000 0.109375 m /hyphen glyphshow
2.886719 0.109375 m /zero glyphshow
7.976562 0.109375 m /period glyphshow
10.519531 0.109375 m /six glyphshow
15.609375 0.109375 m /two glyphshow
20.699219 0.109375 m /five glyphshow
grestore
gsave
253.808640 325.445825 translate
0.000000 rotate
0.000000 0.109375 m /hyphen glyphshow
2.886719 0.109375 m /zero glyphshow
7.976562 0.109375 m /period glyphshow
10.519531 0.109375 m /one glyphshow
15.609375 0.109375 m /seven glyphshow
20.699219 0.109375 m /seven glyphshow
grestore
gsave
287.824320 355.513025 translate
0.000000 rotate
0.000000 0.109375 m /zero glyphshow
5.089844 0.109375 m /period glyphshow
7.632812 0.109375 m /one glyphshow
12.722656 0.109375 m /two glyphshow
17.812500 0.109375 m /one glyphshow
22.902344 0.109375 m /three glyphshow
grestore
1.500 setlinewidth
0.000 0.502 0.000 setrgbcolor
gsave
303.963 113.575 m
327.963 113.575 l
stroke
grestore
0.000 setgray
/BitstreamVeraSans-Roman findfont
12.000 scalefont
setfont
gsave
337.562500 106.875000 translate
0.000000 rotate
0.000000 2.500000 m /one glyphshow
7.634766 2.500000 m /two glyphshow
15.269531 2.500000 m /space glyphshow
19.083984 2.500000 m /G glyphshow
28.382812 2.500000 m /y glyphshow
35.484375 2.500000 m /r glyphshow
grestore
0 setlinecap
[1 3] 0 setdash
1.000 0.000 0.000 setrgbcolor
gsave
303.963 95.95 m
327.963 95.95 l
stroke
grestore
0.000 setgray
gsave
337.562500 89.250000 translate
0.000000 rotate
0.000000 2.500000 m /seven glyphshow
7.634766 2.500000 m /space glyphshow
11.449219 2.500000 m /G glyphshow
20.748047 2.500000 m /y glyphshow
27.849609 2.500000 m /r glyphshow
grestore
[6 6] 0 setdash
1.000 0.843 0.000 setrgbcolor
gsave
303.963 78.325 m
327.963 78.325 l
stroke
grestore
0.000 setgray
gsave
337.562500 71.625000 translate
0.000000 rotate
0.000000 2.500000 m /five glyphshow
7.634766 2.500000 m /space glyphshow
11.449219 2.500000 m /G glyphshow
20.748047 2.500000 m /y glyphshow
27.849609 2.500000 m /r glyphshow
grestore
[3 5 1 5] 0 setdash
0.502 0.000 0.502 setrgbcolor
gsave
303.963 60.7 m
327.963 60.7 l
stroke
grestore
0.000 setgray
gsave
337.562500 54.000000 translate
0.000000 rotate
0.000000 2.500000 m /three glyphshow
7.634766 2.500000 m /space glyphshow
11.449219 2.500000 m /G glyphshow
20.748047 2.500000 m /y glyphshow
27.849609 2.500000 m /r glyphshow
grestore

end
showpage
