%!PS-Adobe-2.0
%%Title: SnPlot.ps
%%Creator: gnuplot 4.6 patchlevel 0
%%CreationDate: Fri Mar 21 18:10:41 2014
%%DocumentFonts: (atend)
%%BoundingBox: 50 50 482 482
%%Orientation: Landscape
%%Pages: (atend)
%%EndComments
%%BeginProlog
/gnudict 256 dict def
gnudict begin
%
% The following true/false flags may be edited by hand if desired.
% The unit line width and grayscale image gamma correction may also be changed.
%
/Color true def
/Blacktext false def
/Solid false def
/Dashlength 1 def
/Landscape true def
/Level1 false def
/Rounded false def
/ClipToBoundingBox false def
/SuppressPDFMark false def
/TransparentPatterns false def
/gnulinewidth 5.000 def
/userlinewidth gnulinewidth def
/Gamma 1.0 def
/BackgroundColor {-1.000 -1.000 -1.000} def
%
/vshift -46 def
/dl1 {
  10.0 Dashlength mul mul
  Rounded { currentlinewidth 0.75 mul sub dup 0 le { pop 0.01 } if } if
} def
/dl2 {
  10.0 Dashlength mul mul
  Rounded { currentlinewidth 0.75 mul add } if
} def
/hpt_ 31.5 def
/vpt_ 31.5 def
/hpt hpt_ def
/vpt vpt_ def
/doclip {
  ClipToBoundingBox {
    newpath 50 50 moveto 482 50 lineto 482 482 lineto 50 482 lineto closepath
    clip
  } if
} def
%
% Gnuplot Prolog Version 4.4 (August 2010)
%
%/SuppressPDFMark true def
%
/M {moveto} bind def
/L {lineto} bind def
/R {rmoveto} bind def
/V {rlineto} bind def
/N {newpath moveto} bind def
/Z {closepath} bind def
/C {setrgbcolor} bind def
/f {rlineto fill} bind def
/g {setgray} bind def
/Gshow {show} def   % May be redefined later in the file to support UTF-8
/vpt2 vpt 2 mul def
/hpt2 hpt 2 mul def
/Lshow {currentpoint stroke M 0 vshift R 
	Blacktext {gsave 0 setgray show grestore} {show} ifelse} def
/Rshow {currentpoint stroke M dup stringwidth pop neg vshift R
	Blacktext {gsave 0 setgray show grestore} {show} ifelse} def
/Cshow {currentpoint stroke M dup stringwidth pop -2 div vshift R 
	Blacktext {gsave 0 setgray show grestore} {show} ifelse} def
/UP {dup vpt_ mul /vpt exch def hpt_ mul /hpt exch def
  /hpt2 hpt 2 mul def /vpt2 vpt 2 mul def} def
/DL {Color {setrgbcolor Solid {pop []} if 0 setdash}
 {pop pop pop 0 setgray Solid {pop []} if 0 setdash} ifelse} def
/BL {stroke userlinewidth 2 mul setlinewidth
	Rounded {1 setlinejoin 1 setlinecap} if} def
/AL {stroke userlinewidth 2 div setlinewidth
	Rounded {1 setlinejoin 1 setlinecap} if} def
/UL {dup gnulinewidth mul /userlinewidth exch def
	dup 1 lt {pop 1} if 10 mul /udl exch def} def
/PL {stroke userlinewidth setlinewidth
	Rounded {1 setlinejoin 1 setlinecap} if} def
3.8 setmiterlimit
% Default Line colors
/LCw {1 1 1} def
/LCb {0 0 0} def
/LCa {0 0 0} def
/LC0 {1 0 0} def
/LC1 {0 1 0} def
/LC2 {0 0 1} def
/LC3 {1 0 1} def
/LC4 {0 1 1} def
/LC5 {1 1 0} def
/LC6 {0 0 0} def
/LC7 {1 0.3 0} def
/LC8 {0.5 0.5 0.5} def
% Default Line Types
/LTw {PL [] 1 setgray} def
/LTb {BL [] LCb DL} def
/LTa {AL [1 udl mul 2 udl mul] 0 setdash LCa setrgbcolor} def
/LT0 {PL [] LC0 DL} def
/LT1 {PL [4 dl1 2 dl2] LC1 DL} def
/LT2 {PL [2 dl1 3 dl2] LC2 DL} def
/LT3 {PL [1 dl1 1.5 dl2] LC3 DL} def
/LT4 {PL [6 dl1 2 dl2 1 dl1 2 dl2] LC4 DL} def
/LT5 {PL [3 dl1 3 dl2 1 dl1 3 dl2] LC5 DL} def
/LT6 {PL [2 dl1 2 dl2 2 dl1 6 dl2] LC6 DL} def
/LT7 {PL [1 dl1 2 dl2 6 dl1 2 dl2 1 dl1 2 dl2] LC7 DL} def
/LT8 {PL [2 dl1 2 dl2 2 dl1 2 dl2 2 dl1 2 dl2 2 dl1 4 dl2] LC8 DL} def
/Pnt {stroke [] 0 setdash gsave 1 setlinecap M 0 0 V stroke grestore} def
/Dia {stroke [] 0 setdash 2 copy vpt add M
  hpt neg vpt neg V hpt vpt neg V
  hpt vpt V hpt neg vpt V closepath stroke
  Pnt} def
/Pls {stroke [] 0 setdash vpt sub M 0 vpt2 V
  currentpoint stroke M
  hpt neg vpt neg R hpt2 0 V stroke
 } def
/Box {stroke [] 0 setdash 2 copy exch hpt sub exch vpt add M
  0 vpt2 neg V hpt2 0 V 0 vpt2 V
  hpt2 neg 0 V closepath stroke
  Pnt} def
/Crs {stroke [] 0 setdash exch hpt sub exch vpt add M
  hpt2 vpt2 neg V currentpoint stroke M
  hpt2 neg 0 R hpt2 vpt2 V stroke} def
/TriU {stroke [] 0 setdash 2 copy vpt 1.12 mul add M
  hpt neg vpt -1.62 mul V
  hpt 2 mul 0 V
  hpt neg vpt 1.62 mul V closepath stroke
  Pnt} def
/Star {2 copy Pls Crs} def
/BoxF {stroke [] 0 setdash exch hpt sub exch vpt add M
  0 vpt2 neg V hpt2 0 V 0 vpt2 V
  hpt2 neg 0 V closepath fill} def
/TriUF {stroke [] 0 setdash vpt 1.12 mul add M
  hpt neg vpt -1.62 mul V
  hpt 2 mul 0 V
  hpt neg vpt 1.62 mul V closepath fill} def
/TriD {stroke [] 0 setdash 2 copy vpt 1.12 mul sub M
  hpt neg vpt 1.62 mul V
  hpt 2 mul 0 V
  hpt neg vpt -1.62 mul V closepath stroke
  Pnt} def
/TriDF {stroke [] 0 setdash vpt 1.12 mul sub M
  hpt neg vpt 1.62 mul V
  hpt 2 mul 0 V
  hpt neg vpt -1.62 mul V closepath fill} def
/DiaF {stroke [] 0 setdash vpt add M
  hpt neg vpt neg V hpt vpt neg V
  hpt vpt V hpt neg vpt V closepath fill} def
/Pent {stroke [] 0 setdash 2 copy gsave
  translate 0 hpt M 4 {72 rotate 0 hpt L} repeat
  closepath stroke grestore Pnt} def
/PentF {stroke [] 0 setdash gsave
  translate 0 hpt M 4 {72 rotate 0 hpt L} repeat
  closepath fill grestore} def
/Circle {stroke [] 0 setdash 2 copy
  hpt 0 360 arc stroke Pnt} def
/CircleF {stroke [] 0 setdash hpt 0 360 arc fill} def
/C0 {BL [] 0 setdash 2 copy moveto vpt 90 450 arc} bind def
/C1 {BL [] 0 setdash 2 copy moveto
	2 copy vpt 0 90 arc closepath fill
	vpt 0 360 arc closepath} bind def
/C2 {BL [] 0 setdash 2 copy moveto
	2 copy vpt 90 180 arc closepath fill
	vpt 0 360 arc closepath} bind def
/C3 {BL [] 0 setdash 2 copy moveto
	2 copy vpt 0 180 arc closepath fill
	vpt 0 360 arc closepath} bind def
/C4 {BL [] 0 setdash 2 copy moveto
	2 copy vpt 180 270 arc closepath fill
	vpt 0 360 arc closepath} bind def
/C5 {BL [] 0 setdash 2 copy moveto
	2 copy vpt 0 90 arc
	2 copy moveto
	2 copy vpt 180 270 arc closepath fill
	vpt 0 360 arc} bind def
/C6 {BL [] 0 setdash 2 copy moveto
	2 copy vpt 90 270 arc closepath fill
	vpt 0 360 arc closepath} bind def
/C7 {BL [] 0 setdash 2 copy moveto
	2 copy vpt 0 270 arc closepath fill
	vpt 0 360 arc closepath} bind def
/C8 {BL [] 0 setdash 2 copy moveto
	2 copy vpt 270 360 arc closepath fill
	vpt 0 360 arc closepath} bind def
/C9 {BL [] 0 setdash 2 copy moveto
	2 copy vpt 270 450 arc closepath fill
	vpt 0 360 arc closepath} bind def
/C10 {BL [] 0 setdash 2 copy 2 copy moveto vpt 270 360 arc closepath fill
	2 copy moveto
	2 copy vpt 90 180 arc closepath fill
	vpt 0 360 arc closepath} bind def
/C11 {BL [] 0 setdash 2 copy moveto
	2 copy vpt 0 180 arc closepath fill
	2 copy moveto
	2 copy vpt 270 360 arc closepath fill
	vpt 0 360 arc closepath} bind def
/C12 {BL [] 0 setdash 2 copy moveto
	2 copy vpt 180 360 arc closepath fill
	vpt 0 360 arc closepath} bind def
/C13 {BL [] 0 setdash 2 copy moveto
	2 copy vpt 0 90 arc closepath fill
	2 copy moveto
	2 copy vpt 180 360 arc closepath fill
	vpt 0 360 arc closepath} bind def
/C14 {BL [] 0 setdash 2 copy moveto
	2 copy vpt 90 360 arc closepath fill
	vpt 0 360 arc} bind def
/C15 {BL [] 0 setdash 2 copy vpt 0 360 arc closepath fill
	vpt 0 360 arc closepath} bind def
/Rec {newpath 4 2 roll moveto 1 index 0 rlineto 0 exch rlineto
	neg 0 rlineto closepath} bind def
/Square {dup Rec} bind def
/Bsquare {vpt sub exch vpt sub exch vpt2 Square} bind def
/S0 {BL [] 0 setdash 2 copy moveto 0 vpt rlineto BL Bsquare} bind def
/S1 {BL [] 0 setdash 2 copy vpt Square fill Bsquare} bind def
/S2 {BL [] 0 setdash 2 copy exch vpt sub exch vpt Square fill Bsquare} bind def
/S3 {BL [] 0 setdash 2 copy exch vpt sub exch vpt2 vpt Rec fill Bsquare} bind def
/S4 {BL [] 0 setdash 2 copy exch vpt sub exch vpt sub vpt Square fill Bsquare} bind def
/S5 {BL [] 0 setdash 2 copy 2 copy vpt Square fill
	exch vpt sub exch vpt sub vpt Square fill Bsquare} bind def
/S6 {BL [] 0 setdash 2 copy exch vpt sub exch vpt sub vpt vpt2 Rec fill Bsquare} bind def
/S7 {BL [] 0 setdash 2 copy exch vpt sub exch vpt sub vpt vpt2 Rec fill
	2 copy vpt Square fill Bsquare} bind def
/S8 {BL [] 0 setdash 2 copy vpt sub vpt Square fill Bsquare} bind def
/S9 {BL [] 0 setdash 2 copy vpt sub vpt vpt2 Rec fill Bsquare} bind def
/S10 {BL [] 0 setdash 2 copy vpt sub vpt Square fill 2 copy exch vpt sub exch vpt Square fill
	Bsquare} bind def
/S11 {BL [] 0 setdash 2 copy vpt sub vpt Square fill 2 copy exch vpt sub exch vpt2 vpt Rec fill
	Bsquare} bind def
/S12 {BL [] 0 setdash 2 copy exch vpt sub exch vpt sub vpt2 vpt Rec fill Bsquare} bind def
/S13 {BL [] 0 setdash 2 copy exch vpt sub exch vpt sub vpt2 vpt Rec fill
	2 copy vpt Square fill Bsquare} bind def
/S14 {BL [] 0 setdash 2 copy exch vpt sub exch vpt sub vpt2 vpt Rec fill
	2 copy exch vpt sub exch vpt Square fill Bsquare} bind def
/S15 {BL [] 0 setdash 2 copy Bsquare fill Bsquare} bind def
/D0 {gsave translate 45 rotate 0 0 S0 stroke grestore} bind def
/D1 {gsave translate 45 rotate 0 0 S1 stroke grestore} bind def
/D2 {gsave translate 45 rotate 0 0 S2 stroke grestore} bind def
/D3 {gsave translate 45 rotate 0 0 S3 stroke grestore} bind def
/D4 {gsave translate 45 rotate 0 0 S4 stroke grestore} bind def
/D5 {gsave translate 45 rotate 0 0 S5 stroke grestore} bind def
/D6 {gsave translate 45 rotate 0 0 S6 stroke grestore} bind def
/D7 {gsave translate 45 rotate 0 0 S7 stroke grestore} bind def
/D8 {gsave translate 45 rotate 0 0 S8 stroke grestore} bind def
/D9 {gsave translate 45 rotate 0 0 S9 stroke grestore} bind def
/D10 {gsave translate 45 rotate 0 0 S10 stroke grestore} bind def
/D11 {gsave translate 45 rotate 0 0 S11 stroke grestore} bind def
/D12 {gsave translate 45 rotate 0 0 S12 stroke grestore} bind def
/D13 {gsave translate 45 rotate 0 0 S13 stroke grestore} bind def
/D14 {gsave translate 45 rotate 0 0 S14 stroke grestore} bind def
/D15 {gsave translate 45 rotate 0 0 S15 stroke grestore} bind def
/DiaE {stroke [] 0 setdash vpt add M
  hpt neg vpt neg V hpt vpt neg V
  hpt vpt V hpt neg vpt V closepath stroke} def
/BoxE {stroke [] 0 setdash exch hpt sub exch vpt add M
  0 vpt2 neg V hpt2 0 V 0 vpt2 V
  hpt2 neg 0 V closepath stroke} def
/TriUE {stroke [] 0 setdash vpt 1.12 mul add M
  hpt neg vpt -1.62 mul V
  hpt 2 mul 0 V
  hpt neg vpt 1.62 mul V closepath stroke} def
/TriDE {stroke [] 0 setdash vpt 1.12 mul sub M
  hpt neg vpt 1.62 mul V
  hpt 2 mul 0 V
  hpt neg vpt -1.62 mul V closepath stroke} def
/PentE {stroke [] 0 setdash gsave
  translate 0 hpt M 4 {72 rotate 0 hpt L} repeat
  closepath stroke grestore} def
/CircE {stroke [] 0 setdash 
  hpt 0 360 arc stroke} def
/Opaque {gsave closepath 1 setgray fill grestore 0 setgray closepath} def
/DiaW {stroke [] 0 setdash vpt add M
  hpt neg vpt neg V hpt vpt neg V
  hpt vpt V hpt neg vpt V Opaque stroke} def
/BoxW {stroke [] 0 setdash exch hpt sub exch vpt add M
  0 vpt2 neg V hpt2 0 V 0 vpt2 V
  hpt2 neg 0 V Opaque stroke} def
/TriUW {stroke [] 0 setdash vpt 1.12 mul add M
  hpt neg vpt -1.62 mul V
  hpt 2 mul 0 V
  hpt neg vpt 1.62 mul V Opaque stroke} def
/TriDW {stroke [] 0 setdash vpt 1.12 mul sub M
  hpt neg vpt 1.62 mul V
  hpt 2 mul 0 V
  hpt neg vpt -1.62 mul V Opaque stroke} def
/PentW {stroke [] 0 setdash gsave
  translate 0 hpt M 4 {72 rotate 0 hpt L} repeat
  Opaque stroke grestore} def
/CircW {stroke [] 0 setdash 
  hpt 0 360 arc Opaque stroke} def
/BoxFill {gsave Rec 1 setgray fill grestore} def
/Density {
  /Fillden exch def
  currentrgbcolor
  /ColB exch def /ColG exch def /ColR exch def
  /ColR ColR Fillden mul Fillden sub 1 add def
  /ColG ColG Fillden mul Fillden sub 1 add def
  /ColB ColB Fillden mul Fillden sub 1 add def
  ColR ColG ColB setrgbcolor} def
/BoxColFill {gsave Rec PolyFill} def
/PolyFill {gsave Density fill grestore grestore} def
/h {rlineto rlineto rlineto gsave closepath fill grestore} bind def
%
% PostScript Level 1 Pattern Fill routine for rectangles
% Usage: x y w h s a XX PatternFill
%	x,y = lower left corner of box to be filled
%	w,h = width and height of box
%	  a = angle in degrees between lines and x-axis
%	 XX = 0/1 for no/yes cross-hatch
%
/PatternFill {gsave /PFa [ 9 2 roll ] def
  PFa 0 get PFa 2 get 2 div add PFa 1 get PFa 3 get 2 div add translate
  PFa 2 get -2 div PFa 3 get -2 div PFa 2 get PFa 3 get Rec
  gsave 1 setgray fill grestore clip
  currentlinewidth 0.5 mul setlinewidth
  /PFs PFa 2 get dup mul PFa 3 get dup mul add sqrt def
  0 0 M PFa 5 get rotate PFs -2 div dup translate
  0 1 PFs PFa 4 get div 1 add floor cvi
	{PFa 4 get mul 0 M 0 PFs V} for
  0 PFa 6 get ne {
	0 1 PFs PFa 4 get div 1 add floor cvi
	{PFa 4 get mul 0 2 1 roll M PFs 0 V} for
 } if
  stroke grestore} def
%
/languagelevel where
 {pop languagelevel} {1} ifelse
 2 lt
	{/InterpretLevel1 true def}
	{/InterpretLevel1 Level1 def}
 ifelse
%
% PostScript level 2 pattern fill definitions
%
/Level2PatternFill {
/Tile8x8 {/PaintType 2 /PatternType 1 /TilingType 1 /BBox [0 0 8 8] /XStep 8 /YStep 8}
	bind def
/KeepColor {currentrgbcolor [/Pattern /DeviceRGB] setcolorspace} bind def
<< Tile8x8
 /PaintProc {0.5 setlinewidth pop 0 0 M 8 8 L 0 8 M 8 0 L stroke} 
>> matrix makepattern
/Pat1 exch def
<< Tile8x8
 /PaintProc {0.5 setlinewidth pop 0 0 M 8 8 L 0 8 M 8 0 L stroke
	0 4 M 4 8 L 8 4 L 4 0 L 0 4 L stroke}
>> matrix makepattern
/Pat2 exch def
<< Tile8x8
 /PaintProc {0.5 setlinewidth pop 0 0 M 0 8 L
	8 8 L 8 0 L 0 0 L fill}
>> matrix makepattern
/Pat3 exch def
<< Tile8x8
 /PaintProc {0.5 setlinewidth pop -4 8 M 8 -4 L
	0 12 M 12 0 L stroke}
>> matrix makepattern
/Pat4 exch def
<< Tile8x8
 /PaintProc {0.5 setlinewidth pop -4 0 M 8 12 L
	0 -4 M 12 8 L stroke}
>> matrix makepattern
/Pat5 exch def
<< Tile8x8
 /PaintProc {0.5 setlinewidth pop -2 8 M 4 -4 L
	0 12 M 8 -4 L 4 12 M 10 0 L stroke}
>> matrix makepattern
/Pat6 exch def
<< Tile8x8
 /PaintProc {0.5 setlinewidth pop -2 0 M 4 12 L
	0 -4 M 8 12 L 4 -4 M 10 8 L stroke}
>> matrix makepattern
/Pat7 exch def
<< Tile8x8
 /PaintProc {0.5 setlinewidth pop 8 -2 M -4 4 L
	12 0 M -4 8 L 12 4 M 0 10 L stroke}
>> matrix makepattern
/Pat8 exch def
<< Tile8x8
 /PaintProc {0.5 setlinewidth pop 0 -2 M 12 4 L
	-4 0 M 12 8 L -4 4 M 8 10 L stroke}
>> matrix makepattern
/Pat9 exch def
/Pattern1 {PatternBgnd KeepColor Pat1 setpattern} bind def
/Pattern2 {PatternBgnd KeepColor Pat2 setpattern} bind def
/Pattern3 {PatternBgnd KeepColor Pat3 setpattern} bind def
/Pattern4 {PatternBgnd KeepColor Landscape {Pat5} {Pat4} ifelse setpattern} bind def
/Pattern5 {PatternBgnd KeepColor Landscape {Pat4} {Pat5} ifelse setpattern} bind def
/Pattern6 {PatternBgnd KeepColor Landscape {Pat9} {Pat6} ifelse setpattern} bind def
/Pattern7 {PatternBgnd KeepColor Landscape {Pat8} {Pat7} ifelse setpattern} bind def
} def
%
%
%End of PostScript Level 2 code
%
/PatternBgnd {
  TransparentPatterns {} {gsave 1 setgray fill grestore} ifelse
} def
%
% Substitute for Level 2 pattern fill codes with
% grayscale if Level 2 support is not selected.
%
/Level1PatternFill {
/Pattern1 {0.250 Density} bind def
/Pattern2 {0.500 Density} bind def
/Pattern3 {0.750 Density} bind def
/Pattern4 {0.125 Density} bind def
/Pattern5 {0.375 Density} bind def
/Pattern6 {0.625 Density} bind def
/Pattern7 {0.875 Density} bind def
} def
%
% Now test for support of Level 2 code
%
Level1 {Level1PatternFill} {Level2PatternFill} ifelse
%
/Symbol-Oblique /Symbol findfont [1 0 .167 1 0 0] makefont
dup length dict begin {1 index /FID eq {pop pop} {def} ifelse} forall
currentdict end definefont pop
/MFshow {
   { dup 5 get 3 ge
     { 5 get 3 eq {gsave} {grestore} ifelse }
     {dup dup 0 get findfont exch 1 get scalefont setfont
     [ currentpoint ] exch dup 2 get 0 exch R dup 5 get 2 ne {dup dup 6
     get exch 4 get {Gshow} {stringwidth pop 0 R} ifelse }if dup 5 get 0 eq
     {dup 3 get {2 get neg 0 exch R pop} {pop aload pop M} ifelse} {dup 5
     get 1 eq {dup 2 get exch dup 3 get exch 6 get stringwidth pop -2 div
     dup 0 R} {dup 6 get stringwidth pop -2 div 0 R 6 get
     show 2 index {aload pop M neg 3 -1 roll neg R pop pop} {pop pop pop
     pop aload pop M} ifelse }ifelse }ifelse }
     ifelse }
   forall} def
/Gswidth {dup type /stringtype eq {stringwidth} {pop (n) stringwidth} ifelse} def
/MFwidth {0 exch { dup 5 get 3 ge { 5 get 3 eq { 0 } { pop } ifelse }
 {dup 3 get{dup dup 0 get findfont exch 1 get scalefont setfont
     6 get Gswidth pop add} {pop} ifelse} ifelse} forall} def
/MLshow { currentpoint stroke M
  0 exch R
  Blacktext {gsave 0 setgray MFshow grestore} {MFshow} ifelse } bind def
/MRshow { currentpoint stroke M
  exch dup MFwidth neg 3 -1 roll R
  Blacktext {gsave 0 setgray MFshow grestore} {MFshow} ifelse } bind def
/MCshow { currentpoint stroke M
  exch dup MFwidth -2 div 3 -1 roll R
  Blacktext {gsave 0 setgray MFshow grestore} {MFshow} ifelse } bind def
/XYsave    { [( ) 1 2 true false 3 ()] } bind def
/XYrestore { [( ) 1 2 true false 4 ()] } bind def
Level1 SuppressPDFMark or 
{} {
/SDict 10 dict def
systemdict /pdfmark known not {
  userdict /pdfmark systemdict /cleartomark get put
} if
SDict begin [
  /Title (SnPlot.ps)
  /Subject (gnuplot plot)
  /Creator (gnuplot 4.6 patchlevel 0)
  /Author (jv)
%  /Producer (gnuplot)
%  /Keywords ()
  /CreationDate (Fri Mar 21 18:10:41 2014)
  /DOCINFO pdfmark
end
} ifelse
end
%%EndProlog
%%Page: 1 1
gnudict begin
gsave
doclip
50 50 translate
0.100 0.100 scale
90 rotate
0 -4320 translate
0 setgray
newpath
(Helvetica) findfont 140 scalefont setfont
BackgroundColor 0 lt 3 1 roll 0 lt exch 0 lt or or not {gsave BackgroundColor C clippath fill grestore} if
1.000 UL
LTb
518 595 M
63 0 V
3486 0 R
-63 0 V
stroke
434 595 M
[ [(Helvetica) 140.0 0.0 true true 0 (-3)]
] -46.7 MRshow
1.000 UL
LTb
518 696 M
31 0 V
3518 0 R
-31 0 V
518 798 M
31 0 V
3518 0 R
-31 0 V
518 899 M
31 0 V
3518 0 R
-31 0 V
518 1001 M
31 0 V
3518 0 R
-31 0 V
518 1102 M
63 0 V
3486 0 R
-63 0 V
stroke
434 1102 M
[ [(Helvetica) 140.0 0.0 true true 0 (-2)]
] -46.7 MRshow
1.000 UL
LTb
518 1203 M
31 0 V
3518 0 R
-31 0 V
518 1305 M
31 0 V
3518 0 R
-31 0 V
518 1406 M
31 0 V
3518 0 R
-31 0 V
518 1508 M
31 0 V
3518 0 R
-31 0 V
518 1609 M
63 0 V
3486 0 R
-63 0 V
stroke
434 1609 M
[ [(Helvetica) 140.0 0.0 true true 0 (-1)]
] -46.7 MRshow
1.000 UL
LTb
518 1710 M
31 0 V
3518 0 R
-31 0 V
518 1812 M
31 0 V
3518 0 R
-31 0 V
518 1913 M
31 0 V
3518 0 R
-31 0 V
518 2015 M
31 0 V
3518 0 R
-31 0 V
518 2116 M
63 0 V
3486 0 R
-63 0 V
stroke
434 2116 M
[ [(Helvetica) 140.0 0.0 true true 0 ( 0)]
] -46.7 MRshow
1.000 UL
LTb
518 2217 M
31 0 V
3518 0 R
-31 0 V
518 2319 M
31 0 V
3518 0 R
-31 0 V
518 2420 M
31 0 V
3518 0 R
-31 0 V
518 2522 M
31 0 V
3518 0 R
-31 0 V
518 2623 M
63 0 V
3486 0 R
-63 0 V
stroke
434 2623 M
[ [(Helvetica) 140.0 0.0 true true 0 ( 1)]
] -46.7 MRshow
1.000 UL
LTb
518 2724 M
31 0 V
3518 0 R
-31 0 V
518 2826 M
31 0 V
3518 0 R
-31 0 V
518 2927 M
31 0 V
3518 0 R
-31 0 V
518 3029 M
31 0 V
3518 0 R
-31 0 V
518 3130 M
63 0 V
3486 0 R
-63 0 V
stroke
434 3130 M
[ [(Helvetica) 140.0 0.0 true true 0 ( 2)]
] -46.7 MRshow
1.000 UL
LTb
518 3231 M
31 0 V
3518 0 R
-31 0 V
518 3333 M
31 0 V
3518 0 R
-31 0 V
518 3434 M
31 0 V
3518 0 R
-31 0 V
518 3536 M
31 0 V
3518 0 R
-31 0 V
518 3637 M
63 0 V
3486 0 R
-63 0 V
stroke
434 3637 M
[ [(Helvetica) 140.0 0.0 true true 0 ( 3)]
] -46.7 MRshow
1.000 UL
LTb
518 3738 M
31 0 V
3518 0 R
-31 0 V
518 3840 M
31 0 V
3518 0 R
-31 0 V
518 3941 M
31 0 V
3518 0 R
-31 0 V
518 4043 M
31 0 V
3518 0 R
-31 0 V
518 4144 M
63 0 V
3486 0 R
-63 0 V
stroke
434 4144 M
[ [(Helvetica) 140.0 0.0 true true 0 ( 4)]
] -46.7 MRshow
1.000 UL
LTb
4067 595 M
0 63 V
0 3486 R
0 -63 V
stroke
4067 455 M
[ [(Helvetica) 140.0 0.0 true true 0 (-18)]
] -46.7 MCshow
1.000 UL
LTb
4008 595 M
0 31 V
0 3518 R
0 -31 V
3949 595 M
0 31 V
0 3518 R
0 -31 V
3890 595 M
0 31 V
0 3518 R
0 -31 V
3830 595 M
0 31 V
0 3518 R
0 -31 V
3771 595 M
0 31 V
0 3518 R
0 -31 V
3712 595 M
0 31 V
0 3518 R
0 -31 V
3653 595 M
0 31 V
0 3518 R
0 -31 V
3594 595 M
0 31 V
0 3518 R
0 -31 V
3535 595 M
0 31 V
0 3518 R
0 -31 V
3476 595 M
0 31 V
0 3518 R
0 -31 V
0 -3518 R
0 63 V
0 3486 R
0 -63 V
stroke
3476 455 M
[ [(Helvetica) 140.0 0.0 true true 0 (-17)]
] -46.7 MCshow
1.000 UL
LTb
3416 595 M
0 31 V
0 3518 R
0 -31 V
3357 595 M
0 31 V
0 3518 R
0 -31 V
3298 595 M
0 31 V
0 3518 R
0 -31 V
3239 595 M
0 31 V
0 3518 R
0 -31 V
3180 595 M
0 31 V
0 3518 R
0 -31 V
3121 595 M
0 31 V
0 3518 R
0 -31 V
3061 595 M
0 31 V
0 3518 R
0 -31 V
3002 595 M
0 31 V
0 3518 R
0 -31 V
2943 595 M
0 31 V
0 3518 R
0 -31 V
2884 595 M
0 31 V
0 3518 R
0 -31 V
0 -3518 R
0 63 V
0 3486 R
0 -63 V
stroke
2884 455 M
[ [(Helvetica) 140.0 0.0 true true 0 (-16)]
] -46.7 MCshow
1.000 UL
LTb
2825 595 M
0 31 V
0 3518 R
0 -31 V
2766 595 M
0 31 V
0 3518 R
0 -31 V
2707 595 M
0 31 V
0 3518 R
0 -31 V
2647 595 M
0 31 V
0 3518 R
0 -31 V
2588 595 M
0 31 V
0 3518 R
0 -31 V
2529 595 M
0 31 V
0 3518 R
0 -31 V
2470 595 M
0 31 V
0 3518 R
0 -31 V
2411 595 M
0 31 V
0 3518 R
0 -31 V
2352 595 M
0 31 V
0 3518 R
0 -31 V
2293 595 M
0 31 V
0 3518 R
0 -31 V
0 -3518 R
0 63 V
0 3486 R
0 -63 V
stroke
2293 455 M
[ [(Helvetica) 140.0 0.0 true true 0 (-15)]
] -46.7 MCshow
1.000 UL
LTb
2233 595 M
0 31 V
0 3518 R
0 -31 V
2174 595 M
0 31 V
0 3518 R
0 -31 V
2115 595 M
0 31 V
0 3518 R
0 -31 V
2056 595 M
0 31 V
0 3518 R
0 -31 V
1997 595 M
0 31 V
0 3518 R
0 -31 V
1938 595 M
0 31 V
0 3518 R
0 -31 V
1878 595 M
0 31 V
0 3518 R
0 -31 V
1819 595 M
0 31 V
0 3518 R
0 -31 V
1760 595 M
0 31 V
0 3518 R
0 -31 V
1701 595 M
0 31 V
0 3518 R
0 -31 V
0 -3518 R
0 63 V
0 3486 R
0 -63 V
stroke
1701 455 M
[ [(Helvetica) 140.0 0.0 true true 0 (-14)]
] -46.7 MCshow
1.000 UL
LTb
1642 595 M
0 31 V
0 3518 R
0 -31 V
1583 595 M
0 31 V
0 3518 R
0 -31 V
1524 595 M
0 31 V
0 3518 R
0 -31 V
1464 595 M
0 31 V
0 3518 R
0 -31 V
1405 595 M
0 31 V
0 3518 R
0 -31 V
1346 595 M
0 31 V
0 3518 R
0 -31 V
1287 595 M
0 31 V
0 3518 R
0 -31 V
1228 595 M
0 31 V
0 3518 R
0 -31 V
1169 595 M
0 31 V
0 3518 R
0 -31 V
1110 595 M
0 31 V
0 3518 R
0 -31 V
0 -3518 R
0 63 V
0 3486 R
0 -63 V
stroke
1110 455 M
[ [(Helvetica) 140.0 0.0 true true 0 (-13)]
] -46.7 MCshow
1.000 UL
LTb
1050 595 M
0 31 V
0 3518 R
0 -31 V
991 595 M
0 31 V
0 3518 R
0 -31 V
932 595 M
0 31 V
0 3518 R
0 -31 V
873 595 M
0 31 V
0 3518 R
0 -31 V
814 595 M
0 31 V
0 3518 R
0 -31 V
755 595 M
0 31 V
0 3518 R
0 -31 V
695 595 M
0 31 V
0 3518 R
0 -31 V
636 595 M
0 31 V
0 3518 R
0 -31 V
577 595 M
0 31 V
0 3518 R
0 -31 V
518 595 M
0 31 V
0 3518 R
0 -31 V
518 595 M
0 63 V
0 3486 R
0 -63 V
stroke
518 455 M
[ [(Helvetica) 140.0 0.0 true true 0 (-12)]
] -46.7 MCshow
1.000 UL
LTb
1.000 UL
LTb
518 4144 N
518 595 L
3549 0 V
0 3549 V
-3549 0 V
Z stroke
LCb setrgbcolor
112 2369 M
currentpoint gsave translate -270 rotate 0 0 moveto
[ [(Helvetica) 140.0 0.0 true true 0 (log)]
[(Helvetica) 112.0 -42.0 true true 0 (10)]
[(Helvetica) 140.0 0.0 true true 0 (\()]
[(Times-Italic) 140.0 0.0 true true 0 (S)]
[(Times-Italic) 112.0 -42.0 true true 0 (N)]
[(Helvetica) 140.0 0.0 true true 0 (\))]
] -32.7 MCshow
grestore
LTb
LCb setrgbcolor
2292 245 M
[ [(Times-Italic) 140.0 0.0 true true 0 (M)]
[(Times-Italic) 112.0 -42.0 true true 0 (V)]
] -32.7 MCshow
LTb
1.500 UP
1.000 UL
LTb
% Begin plot #1
0.800 UP
2.000 UL
LT0
0.75 0.75 0.75 C LCb setrgbcolor
3385 4011 M
[ [(Helvetica) 140.0 0.0 true true 0 (Peng et. al. 2008)]
] -46.7 MRshow
LT0
0.75 0.75 0.75 C 3469 4011 M
430 0 V
-430 31 R
0 -62 V
430 62 R
0 -62 V
4049 2169 M
0 106 V
-31 -106 R
62 0 V
-62 106 R
62 0 V
3978 2096 M
0 138 V
-31 -138 R
62 0 V
-62 138 R
62 0 V
3659 2057 M
0 213 V
-31 -213 R
62 0 V
-62 213 R
62 0 V
16 178 R
0 77 V
-31 -77 R
62 0 V
-62 77 R
62 0 V
3292 2124 M
0 236 V
-31 -236 R
62 0 V
-62 236 R
62 0 V
490 25 R
0 80 V
-31 -80 R
62 0 V
-62 80 R
62 0 V
-67 -249 R
0 126 V
-31 -126 R
62 0 V
-62 126 R
62 0 V
-31 -326 R
0 230 V
-31 -230 R
62 0 V
-62 230 R
62 0 V
135 196 R
0 63 V
-31 -63 R
62 0 V
-62 63 R
62 0 V
3872 1592 M
0 1048 V
3841 1592 M
62 0 V
-62 1048 R
62 0 V
-73 -295 R
0 87 V
-31 -87 R
62 0 V
-62 87 R
62 0 V
3718 2198 M
0 134 V
-31 -134 R
62 0 V
-62 134 R
62 0 V
-43 170 R
0 67 V
-31 -67 R
62 0 V
-62 67 R
62 0 V
3570 2453 M
0 82 V
-31 -82 R
62 0 V
-62 82 R
62 0 V
164 -425 R
0 176 V
-31 -176 R
62 0 V
-62 176 R
62 0 V
-244 -30 R
0 133 V
-31 -133 R
62 0 V
-62 133 R
62 0 V
378 -63 R
0 83 V
-31 -83 R
62 0 V
stroke 3992 2326 M
-62 83 R
62 0 V
3688 2280 M
0 112 V
-31 -112 R
62 0 V
-62 112 R
62 0 V
3115 1694 M
0 844 V
-31 -844 R
62 0 V
-62 844 R
62 0 V
400 -330 R
0 165 V
-31 -165 R
62 0 V
-62 165 R
62 0 V
88 -314 R
0 226 V
-31 -226 R
62 0 V
-62 226 R
62 0 V
-321 59 R
0 138 V
-31 -138 R
62 0 V
-62 138 R
62 0 V
-61 -416 R
0 254 V
-31 -254 R
62 0 V
-62 254 R
62 0 V
40 -585 R
0 762 V
-31 -762 R
62 0 V
-62 762 R
62 0 V
3239 2047 M
0 301 V
-31 -301 R
62 0 V
-62 301 R
62 0 V
-73 30 R
0 153 V
-31 -153 R
62 0 V
-62 153 R
62 0 V
194 42 R
0 71 V
-31 -71 R
62 0 V
-62 71 R
62 0 V
3263 2187 M
0 242 V
-31 -242 R
62 0 V
-62 242 R
62 0 V
51 -127 R
0 139 V
-31 -139 R
62 0 V
-62 139 R
62 0 V
2919 1851 M
0 530 V
-31 -530 R
62 0 V
-62 530 R
62 0 V
206 -492 R
0 454 V
-31 -454 R
62 0 V
-62 454 R
62 0 V
206 63 R
0 112 V
-31 -112 R
62 0 V
-62 112 R
62 0 V
-416 40 R
0 102 V
-31 -102 R
62 0 V
-62 102 R
62 0 V
58 -434 R
0 206 V
-31 -206 R
62 0 V
-62 206 R
62 0 V
stroke 3128 2432 M
330 -332 R
0 207 V
-31 -207 R
62 0 V
-62 207 R
62 0 V
-144 48 R
0 126 V
-31 -126 R
62 0 V
-62 126 R
62 0 V
3026 830 M
0 2572 V
2995 830 M
62 0 V
-62 2572 R
62 0 V
253 -813 R
0 76 V
-31 -76 R
62 0 V
-62 76 R
62 0 V
3032 2018 M
0 291 V
-31 -291 R
62 0 V
-62 291 R
62 0 V
16 -104 R
0 288 V
-31 -288 R
62 0 V
-62 288 R
62 0 V
-196 117 R
0 100 V
-31 -100 R
62 0 V
-62 100 R
62 0 V
394 -462 R
0 179 V
-31 -179 R
62 0 V
-62 179 R
62 0 V
2902 2047 M
0 382 V
-31 -382 R
62 0 V
-62 382 R
62 0 V
99 -405 R
0 357 V
-31 -357 R
62 0 V
-62 357 R
62 0 V
-410 63 R
0 181 V
-31 -181 R
62 0 V
-62 181 R
62 0 V
88 -264 R
0 203 V
-31 -203 R
62 0 V
-62 203 R
62 0 V
4049 2222 Circle
3978 2165 Circle
3659 2163 Circle
3706 2487 Circle
3292 2242 Circle
3813 2425 Circle
3777 2279 Circle
3777 2131 Circle
3943 2473 Circle
3872 2116 Circle
3830 2388 Circle
3718 2265 Circle
3706 2535 Circle
3570 2494 Circle
3765 2198 Circle
3552 2322 Circle
3961 2367 Circle
3688 2336 Circle
3115 2116 Circle
3546 2291 Circle
3665 2172 Circle
3375 2413 Circle
3345 2193 Circle
3416 2116 Circle
3239 2198 Circle
3197 2454 Circle
3422 2609 Circle
3263 2308 Circle
3345 2371 Circle
2919 2116 Circle
3156 2116 Circle
3393 2462 Circle
3008 2609 Circle
3097 2329 Circle
3458 2204 Circle
3345 2418 Circle
3026 2116 Circle
3310 2627 Circle
3032 2163 Circle
3079 2349 Circle
2914 2660 Circle
3339 2337 Circle
2902 2238 Circle
3032 2202 Circle
2653 2534 Circle
2772 2463 Circle
3684 4011 Circle
% End plot #1
% Begin plot #2
0.700 UP
2.000 UL
LT0
0.00 0.00 0.00 C LCb setrgbcolor
3385 3871 M
[ [(Helvetica) 140.0 0.0 true true 0 (Miller et. al. 2007)]
] -46.7 MRshow
LT0
0.00 0.00 0.00 C 3469 3871 M
430 0 V
-430 31 R
0 -62 V
430 62 R
0 -62 V
1778 2618 M
0 233 V
-31 -233 R
62 0 V
-62 233 R
62 0 V
170 -705 R
0 649 V
-31 -649 R
62 0 V
-62 649 R
62 0 V
3221 2182 M
0 233 V
-31 -233 R
62 0 V
-62 233 R
62 0 V
973 1102 M
-31 0 R
62 0 V
-62 0 R
62 0 V
3694 2258 M
0 122 V
-31 -122 R
62 0 V
-62 122 R
62 0 V
914 1274 M
0 2414 V
883 1274 M
62 0 V
883 3688 M
62 0 V
3162 2207 M
0 233 V
-31 -233 R
62 0 V
-62 233 R
62 0 V
-622 -15 R
0 203 V
-31 -203 R
62 0 V
-62 203 R
62 0 V
1328 859 M
0 2971 V
1297 859 M
62 0 V
-62 2971 R
62 0 V
29 -1425 R
0 436 V
-31 -436 R
62 0 V
-62 436 R
62 0 V
1920 1102 M
-31 0 R
62 0 V
-62 0 R
62 0 V
-800 0 R
-31 0 R
62 0 V
-62 0 R
62 0 V
856 1278 R
0 405 V
-31 -405 R
62 0 V
-62 405 R
62 0 V
502 -162 R
0 142 V
-31 -142 R
62 0 V
-62 142 R
62 0 V
797 -608 R
0 223 V
-31 -223 R
62 0 V
-62 223 R
62 0 V
-558 -66 R
0 233 V
-31 -233 R
62 0 V
-62 233 R
62 0 V
1470 2740 M
0 253 V
-31 -253 R
62 0 V
-62 253 R
62 0 V
stroke 1501 2993 M
2813 2501 M
0 152 V
-31 -152 R
62 0 V
-62 152 R
62 0 V
2222 2060 M
0 639 V
-31 -639 R
62 0 V
-62 639 R
62 0 V
1388 2517 M
0 446 V
-31 -446 R
62 0 V
-62 446 R
62 0 V
1050 2679 M
0 456 V
-31 -456 R
62 0 V
-62 456 R
62 0 V
2571 2562 M
0 152 V
-31 -152 R
62 0 V
-62 152 R
62 0 V
495 -304 R
0 142 V
-31 -142 R
62 0 V
-62 142 R
62 0 V
1683 2496 M
0 386 V
-31 -386 R
62 0 V
-62 386 R
62 0 V
3452 2588 M
0 70 V
-31 -70 R
62 0 V
-62 70 R
62 0 V
3221 2420 M
0 132 V
-31 -132 R
62 0 V
-62 132 R
62 0 V
3103 2364 M
0 153 V
-31 -153 R
62 0 V
-62 153 R
62 0 V
2807 1913 M
0 609 V
-31 -609 R
62 0 V
-62 609 R
62 0 V
957 -345 R
0 162 V
-31 -162 R
62 0 V
-62 162 R
62 0 V
843 2075 M
0 1329 V
812 2075 M
62 0 V
812 3404 M
62 0 V
2618 2167 M
0 365 V
-31 -365 R
62 0 V
-62 365 R
62 0 V
578 -81 R
0 111 V
-31 -111 R
62 0 V
-62 111 R
62 0 V
1033 2851 M
0 284 V
-31 -284 R
62 0 V
-62 284 R
62 0 V
3280 2395 M
0 172 V
-31 -172 R
62 0 V
-62 172 R
62 0 V
1246 2410 M
0 598 V
stroke 1246 3008 M
-31 -598 R
62 0 V
-62 598 R
62 0 V
3233 2121 M
0 274 V
-31 -274 R
62 0 V
-62 274 R
62 0 V
-339 81 R
0 132 V
-31 -132 R
62 0 V
-62 132 R
62 0 V
914 1102 M
-31 0 R
62 0 V
-62 0 R
62 0 V
3677 2309 M
0 111 V
-31 -111 R
62 0 V
-62 111 R
62 0 V
2890 2096 M
0 405 V
-31 -405 R
62 0 V
-62 405 R
62 0 V
300 -846 R
0 618 V
-31 -618 R
62 0 V
-62 618 R
62 0 V
1328 2765 M
0 253 V
-31 -253 R
62 0 V
-62 253 R
62 0 V
2819 2435 M
0 183 V
-31 -183 R
62 0 V
-62 183 R
62 0 V
1228 1102 M
-31 0 R
62 0 V
-62 0 R
62 0 V
3357 2405 M
0 122 V
-31 -122 R
62 0 V
-62 122 R
62 0 V
2843 1852 M
0 639 V
-31 -639 R
62 0 V
-62 639 R
62 0 V
1033 1087 M
0 2707 V
1002 1087 M
62 0 V
-62 2707 R
62 0 V
2334 2440 M
0 274 V
-31 -274 R
62 0 V
-62 274 R
62 0 V
2097 1102 M
-31 0 R
62 0 V
-62 0 R
62 0 V
383 0 R
-31 0 R
62 0 V
-62 0 R
62 0 V
1092 925 M
0 2991 V
1061 925 M
62 0 V
-62 2991 R
62 0 V
1979 2415 M
0 426 V
-31 -426 R
62 0 V
-62 426 R
62 0 V
1506 1102 M
-31 0 R
62 0 V
stroke 1537 1102 M
-62 0 R
62 0 V
-209 0 R
-31 0 R
62 0 V
-62 0 R
62 0 V
3943 2217 M
0 122 V
-31 -122 R
62 0 V
-62 122 R
62 0 V
2925 1903 M
0 537 V
-31 -537 R
62 0 V
-62 537 R
62 0 V
-31 -60 R
0 172 V
-31 -172 R
62 0 V
-62 172 R
62 0 V
490 -304 R
0 142 V
-31 -142 R
62 0 V
-62 142 R
62 0 V
2884 2126 M
0 325 V
-31 -325 R
62 0 V
-62 325 R
62 0 V
490 -497 R
0 405 V
-31 -405 R
62 0 V
-62 405 R
62 0 V
1322 1102 M
-31 0 R
62 0 V
-62 0 R
62 0 V
744 1151 R
0 558 V
-31 -558 R
62 0 V
-62 558 R
62 0 V
1624 1721 M
0 1318 V
1593 1721 M
62 0 V
-62 1318 R
62 0 V
916 -872 R
0 385 V
-31 -385 R
62 0 V
-62 385 R
62 0 V
1092 2471 M
0 588 V
-31 -588 R
62 0 V
-62 588 R
62 0 V
28 -517 R
0 487 V
-31 -487 R
62 0 V
-62 487 R
62 0 V
3221 2126 M
0 244 V
-31 -244 R
62 0 V
-62 244 R
62 0 V
-25 -239 R
0 294 V
-31 -294 R
62 0 V
-62 294 R
62 0 V
1399 1660 M
0 1592 V
1368 1660 M
62 0 V
-62 1592 R
62 0 V
1778 2735 CircleF
1979 2471 CircleF
3221 2299 CircleF
973 1102 CircleF
3694 2319 CircleF
914 2481 CircleF
3162 2324 CircleF
2571 2527 CircleF
1328 2344 CircleF
1388 2623 CircleF
1920 1102 CircleF
1151 1102 CircleF
2038 2582 CircleF
2571 2694 CircleF
3399 2268 CircleF
2872 2430 CircleF
1470 2866 CircleF
2813 2577 CircleF
2222 2380 CircleF
1388 2740 CircleF
1050 2907 CircleF
2571 2638 CircleF
3097 2481 CircleF
1683 2689 CircleF
3452 2623 CircleF
3221 2486 CircleF
3103 2440 CircleF
2807 2217 CircleF
3795 2258 CircleF
843 2740 CircleF
2618 2349 CircleF
3227 2506 CircleF
1033 2993 CircleF
3280 2481 CircleF
1246 2709 CircleF
3233 2258 CircleF
2925 2542 CircleF
914 1102 CircleF
3677 2364 CircleF
2890 2299 CircleF
3221 1964 CircleF
1328 2892 CircleF
2819 2527 CircleF
1228 1102 CircleF
3357 2466 CircleF
2843 2172 CircleF
1033 2440 CircleF
2334 2577 CircleF
2097 1102 CircleF
2511 1102 CircleF
1092 2420 CircleF
1979 2628 CircleF
1506 1102 CircleF
1328 1102 CircleF
3943 2278 CircleF
2925 2172 CircleF
2925 2466 CircleF
3446 2319 CircleF
2884 2288 CircleF
3405 2157 CircleF
1322 1102 CircleF
2097 2532 CircleF
1624 2380 CircleF
2571 2359 CircleF
1092 2765 CircleF
1151 2785 CircleF
3221 2248 CircleF
3227 2278 CircleF
1399 2456 CircleF
3684 3871 CircleF
% End plot #2
% Begin plot #3
1.500 UP
3.000 UL
LT0
0.00 0.00 1.00 C LCb setrgbcolor
3385 3731 M
[ [(Helvetica) 140.0 0.0 true true 0 (NGC 147)]
] -46.7 MRshow
LT0
0.00 0.00 1.00 C 3469 3731 M
430 0 V
-430 31 R
0 -62 V
430 62 R
0 -62 V
2423 2530 M
0 97 V
-31 -97 R
62 0 V
-62 97 R
62 0 V
2423 2578 Box
3684 3731 Box
% End plot #3
% Begin plot #4
1.500 UP
3.000 UL
LT0
0.00 0.00 1.00 C LCb setrgbcolor
3385 3591 M
[ [(Helvetica) 140.0 0.0 true true 0 (NGC 185)]
] -46.7 MRshow
LT0
0.00 0.00 1.00 C 3469 3591 M
430 0 V
-430 31 R
0 -62 V
430 62 R
0 -62 V
2529 2473 M
0 39 V
-31 -39 R
62 0 V
-62 39 R
62 0 V
2529 2493 Dia
3684 3591 Dia
% End plot #4
1.000 UL
LTb
518 4144 N
518 595 L
3549 0 V
0 3549 V
-3549 0 V
Z stroke
1.500 UP
1.000 UL
LTb
stroke
grestore
end
showpage
%%Trailer
%%DocumentFonts: Times-Italic Helvetica
%%Pages: 1
