\relax 
\providecommand\hyper@newdestlabel[2]{}
\citation{Veljanoski13b}
\citation{Baade44}
\citation{Hodge74}
\citation{Baade44}
\citation{Hodge76}
\citation{Baade44}
\citation{FJJ77}
\citation{Hodge74}
\citation{FJJ77}
\citation{Hodge74}
\citation{FJJ77}
\@writefile{toc}{\contentsline {chapter}{\numberline {B}Review of the NGC 147 and NGC 185 GC discovery history}{149}{appendix.B}}
\@writefile{lof}{\addvspace {10\p@ }}
\@writefile{lot}{\addvspace {10\p@ }}
\newlabel{ap:GChistory}{{B}{149}{Review of the NGC 147 and NGC 185 GC discovery history}{appendix.B}{}}
\citation{FJJ77}
\citation{Hodge76}
\citation{Hodge76}
\citation{daCostaMould88}
\citation{Hodge74}
\citation{FJJ77}
\citation{Hodge74}
\citation{daCostaMould88}
\citation{daCostaMould88}
\citation{Hodge76}
\citation{FJJ77}
\citation{daCostaMould88}
\citation{FJJ77}
\citation{Geisler99}
\citation{sharina06ages}
\citation{Hodge76}
\citation{Hodge76}
\citation{Hodge74}
\citation{SharinaDavoust09}
\citation{Hodge76}
\citation{sharina06ages}
\citation{SharinaDavoust09}
\citation{FJJ77}
\@setckpt{N147185/GChistory}{
\setcounter{page}{152}
\setcounter{equation}{0}
\setcounter{enumi}{0}
\setcounter{enumii}{0}
\setcounter{enumiii}{0}
\setcounter{enumiv}{0}
\setcounter{footnote}{0}
\setcounter{mpfootnote}{0}
\setcounter{part}{0}
\setcounter{chapter}{2}
\setcounter{section}{0}
\setcounter{subsection}{0}
\setcounter{subsubsection}{0}
\setcounter{paragraph}{0}
\setcounter{subparagraph}{0}
\setcounter{figure}{0}
\setcounter{table}{0}
\setcounter{ContinuedFloat}{0}
\setcounter{KVtest}{0}
\setcounter{subfigure}{0}
\setcounter{subfigure@save}{0}
\setcounter{lofdepth}{1}
\setcounter{subtable}{0}
\setcounter{subtable@save}{0}
\setcounter{lotdepth}{1}
\setcounter{Item}{0}
\setcounter{Hfootnote}{14}
\setcounter{bookmark@seq@number}{67}
\setcounter{NAT@ctr}{0}
\setcounter{r@tfl@t}{6}
\setcounter{cp@cntr}{0}
\setcounter{@pps}{0}
\setcounter{@ppsavesec}{0}
\setcounter{@ppsaveapp}{0}
\setcounter{lstnumber}{1}
\setcounter{parentequation}{6}
\setcounter{section@level}{0}
\setcounter{lstlisting}{0}
}
