\relax 
\providecommand\hyper@newdestlabel[2]{}
\citation{Veljanoski13b}
\citation{Ferguson02}
\citation{LeeFreedmanMadore93,YoungLo97,Butler05,McConnachie05,Davidge05}
\citation{YoungLo97}
\citation{Davidge05}
\citation{MartinezDelgado99}
\citation{Young01}
\citation{Davidge05}
\citation{Bender91}
\citation{Geha10}
\citation{Geha10}
\citation{vdBergh98,Geha10}
\citation{BattinelliDemers04}
\citation{Watkins13}
\@writefile{toc}{\contentsline {chapter}{\numberline {4}The globular cluster systems of NGC\nobreakspace  {}147 and NGC\nobreakspace  {}185}{88}{chapter.4}}
\@writefile{lof}{\addvspace {10\p@ }}
\@writefile{lot}{\addvspace {10\p@ }}
\newlabel{ch:N147185}{{4}{88}{The globular cluster systems of NGC~147 and NGC~185}{chapter.4}{}}
\citation{McConnachie12}
\citation{McConnachie12}
\citation{McConnachie12}
\citation{McConnachie12}
\citation{conn12}
\citation{conn12}
\citation{McConnachie12}
\citation{RC3b}
\citation{Geha10}
\citation{Geha10}
\citation{Baade44,Hodge76,FJJ77,SharinaDavoust09}
\citation{Baade44,Hodge74}
\citation{daCostaMould88,sharina06ages,SharinaDavoust09}
\citation{GalletiRBC04,hwang11,Huxor11,huxor12,jang12}
\@writefile{lot}{\contentsline {table}{\numberline {(4.1)}{\ignorespaces Basic properties of NGC\nobreakspace  {}147 and NGC\nobreakspace  {}185}}{89}{table.caption.58}}
\newlabel{tab:NGC1data}{{4.1}{89}{Basic properties of NGC~147 and NGC~185}{table.caption.58}{}}
\citation{Regnault09}
\citation{McConnachie10}
\citation{Ibata14}
\citation{Casali07}
\citation{Cioni08}
\citation{Hodgkin09}
\citation{Irwin04}
\@writefile{toc}{\contentsline {section}{\numberline {4.1}The data}{90}{section.4.1}}
\newlabel{sec:N147185data}{{4.1}{90}{The data}{section.4.1}{}}
\citation{Schlegel98}
\@writefile{lot}{\contentsline {table}{\numberline {(4.2)}{\ignorespaces Spectroscopic observations log for NGC\nobreakspace  {}147 and NGC\nobreakspace  {}185 GCs}}{91}{table.caption.59}}
\newlabel{tab:specObsN147185}{{4.2}{91}{Spectroscopic observations log for NGC~147 and NGC~185 GCs}{table.caption.59}{}}
\@writefile{toc}{\contentsline {section}{\numberline {4.2}Discovery of new GCs}{91}{section.4.2}}
\newlabel{sec:discovery}{{4.2}{91}{Discovery of new GCs}{section.4.2}{}}
\@writefile{lof}{\contentsline {figure}{\numberline {(4.1)}{\ignorespaces Fully calibrated, normalised spectra of the newly-discovered GCs.}}{92}{figure.caption.60}}
\newlabel{fig:sampleSpectraN147185}{{4.1}{92}{Fully calibrated, normalised spectra of the newly-discovered GCs}{figure.caption.60}{}}
\citation{Harris96Cat}
\citation{Koposov07}
\citation{Huxor14}
\citation{McConnachie12}
\citation{RC3b}
\citation{McConnachie12}
\citation{RC3b}
\citation{Huxor14}
\citation{Lewis13}
\@writefile{lof}{\contentsline {figure}{\numberline {(4.2)}{\ignorespaces $g$ and $K$ band images of all GC around NGC\nobreakspace  {}147 and NGC\nobreakspace  {}185}}{94}{figure.caption.61}}
\newlabel{fig:cutouts}{{4.2}{94}{$g$ and $K$ band images of all GC around NGC~147 and NGC~185}{figure.caption.61}{}}
\@writefile{lof}{\contentsline {figure}{\numberline {(4.3)}{\ignorespaces Schematic view of NGC\nobreakspace  {}147 and NGC\nobreakspace  {}185}}{95}{figure.caption.63}}
\newlabel{fig:spatialN147185}{{4.3}{95}{Schematic view of NGC~147 and NGC~185}{figure.caption.63}{}}
\citation{Courteau99}
\@writefile{lot}{\contentsline {table}{\numberline {(4.3)}{\ignorespaces Coordinates of the GCs in NGC\nobreakspace  {}147 and NGC\nobreakspace  {}185}}{96}{table.caption.62}}
\newlabel{tab:N147185coords}{{4.3}{96}{Coordinates of the GCs in NGC~147 and NGC~185}{table.caption.62}{}}
\citation{conn12}
\citation{Collins13}
\citation{Schlegel98}
\@writefile{toc}{\contentsline {section}{\numberline {4.3}Photometry}{97}{section.4.3}}
\citation{McConnachie05}
\citation{Ibata07}
\citation{Huxor08}
\newlabel{RF4}{99}
\@writefile{lot}{\contentsline {table}{\numberline {(4.4)}{\ignorespaces Magnitudes of the GCs in NGC147 and NGC\nobreakspace  {}185}}{99}{table.caption.64}}
\newlabel{tab:N147185mags}{{4.4}{99}{Magnitudes of the GCs in NGC147 and NGC~185}{table.caption.64}{}}
\newlabel{RF5}{100}
\@writefile{lot}{\contentsline {table}{\numberline {(4.5)}{\ignorespaces Colours of the GCs in NGC\nobreakspace  {}147 and NGC\nobreakspace  {}185}}{100}{table.caption.65}}
\newlabel{tab:N147185colors}{{4.5}{100}{Colours of the GCs in NGC~147 and NGC~185}{table.caption.65}{}}
\citation{Ibata14}
\citation{Puzia02,Hempel05,Santos11}
\citation{Saviane00,Yi01}
\citation{MarastonSSP98,BruzualCharlot03,MarigoPadova08,VazdekisSSP10,Bressan12}
\citation{GirardiPadova10}
\citation{Kriek10}
\@writefile{toc}{\contentsline {section}{\numberline {4.4}Ages and metallicities}{102}{section.4.4}}
\citation{Bressan12}
\citation{Hodge76}
\citation{Bressan12}
\citation{Bressan12}
\citation{SharinaDavoust09}
\@writefile{lof}{\contentsline {figure}{\numberline {(4.4)}{\ignorespaces SSP diagrams for NGC\nobreakspace  {}147 and NGC\nobreakspace  {}185 GC systems}}{104}{figure.caption.66}}
\newlabel{fig:SSPN147185}{{4.4}{104}{SSP diagrams for NGC~147 and NGC~185 GC systems}{figure.caption.66}{}}
\citation{KP02}
\citation{KP02}
\citation{daCostaMould88}
\citation{sharina06ages,SharinaDavoust09}
\citation{sharina06ages}
\citation{sharina06ages}
\citation{Salaris06Book}
\citation{KP02}
\citation{daCostaMould88}
\citation{sharina06ages,SharinaDavoust09}
\citation{sharina06ages}
\citation{sharina06ages}
\citation{Salaris06Book}
\citation{daCostaMould88,sharina06ages,SharinaDavoust09}
\citation{sharina06ages}
\citation{sharina06ages}
\@writefile{lot}{\contentsline {table}{\numberline {(4.6)}{\ignorespaces Empirical ${\rm  [Fe/H]}$ values for the GCs in NGC\nobreakspace  {}147 and NGC\nobreakspace  {}185}}{105}{table.caption.67}}
\newlabel{tab:cal}{{4.6}{105}{Empirical ${\rm [Fe/H]}$ values for the GCs in NGC~147 and NGC~185}{table.caption.67}{}}
\newlabel{eq:KP02}{{4.5}{105}{Ages and metallicities}{equation.4.4.5}{}}
\citation{Geha10}
\citation{SharinaDavoust09}
\citation{SharinaDavoust09}
\citation{SharinaDavoust09}
\citation{SharinaDavoust09}
\citation{SharinaDavoust09}
\citation{SharinaDavoust09}
\citation{SharinaDavoust09}
\citation{Geha10}
\citation{sharina06ages}
\citation{sharina06ages}
\citation{sharina06ages}
\citation{sharina06ages}
\citation{sharina06ages}
\citation{sharina06ages}
\citation{sharina06ages}
\@writefile{toc}{\contentsline {section}{\numberline {4.5}Kinematics}{106}{section.4.5}}
\newlabel{sec:dEkin}{{4.5}{106}{Kinematics}{section.4.5}{}}
\@writefile{lot}{\contentsline {table}{\numberline {(4.7)}{\ignorespaces $V_{\rm  helio}$ of the GCs around NGC\nobreakspace  {}147 and NGC\nobreakspace  {}185 }}{107}{table.caption.68}}
\newlabel{tab:rvN147185}{{4.7}{107}{$V_{\rm helio}$ of the GCs around NGC~147 and NGC~185}{table.caption.68}{}}
\newlabel{eq:constdisp}{{4.6}{107}{Kinematics}{equation.4.5.6}{}}
\newlabel{eq:rotmodel-dE}{{4.7}{107}{Kinematics}{equation.4.5.7}{}}
\newlabel{eq:like-dwarfs}{{4.8}{107}{Kinematics}{equation.4.5.8}{}}
\citation{Geha10}
\@writefile{toc}{\contentsline {subsubsection}{The kinematics of NGC\nobreakspace  {}147 GC system}{108}{equation.4.5.8}}
\citation{sharina06ages}
\@writefile{lof}{\contentsline {figure}{\numberline {(4.5)}{\ignorespaces Kinematics of the NGC\nobreakspace  {}147 GC system}}{109}{figure.caption.69}}
\newlabel{fig:kinN147}{{4.5}{109}{Kinematics of the NGC~147 GC system}{figure.caption.69}{}}
\@writefile{toc}{\contentsline {subsubsection}{The kinematics of the NGC\nobreakspace  {}185 GC system}{109}{figure.caption.69}}
\citation{Geha10}
\@writefile{toc}{\contentsline {subsubsection}{Testing the kinematic methodology}{110}{figure.caption.70}}
\@writefile{lof}{\contentsline {figure}{\numberline {(4.6)}{\ignorespaces Kinematics of the NGC\nobreakspace  {}185 GC system}}{111}{figure.caption.70}}
\newlabel{fig:kinN185}{{4.6}{111}{Kinematics of the NGC~185 GC system}{figure.caption.70}{}}
\citation{Evans03}
\@writefile{toc}{\contentsline {section}{\numberline {4.6}The dynamical masses of NGC\nobreakspace  {}147 and NGC\nobreakspace  {}185}{112}{section.4.6}}
\citation{NFW96,Watkins10}
\newlabel{eq:Cg3}{{4.9}{113}{The dynamical masses of NGC~147 and NGC~185}{equation.4.6.9}{}}
\citation{DeRijcke07}
\citation{Geha10}
\citation{Geha10}
\@writefile{lot}{\contentsline {table}{\numberline {(4.8)}{\ignorespaces Dynamical masses of NGC\nobreakspace  {}147 and NGC\nobreakspace  {}185}}{114}{table.caption.71}}
\newlabel{tab:N147185mass}{{4.8}{114}{Dynamical masses of NGC~147 and NGC~185}{table.caption.71}{}}
\citation{Durrell96,Miller98,Lotz04,Miller07,Peng08}
\citation{Miller07}
\citation{Seth04,Georgiev08,Georgiev10}
\citation{Peng08}
\newlabel{eq:hypoth-like}{{4.10}{115}{The dynamical masses of NGC~147 and NGC~185}{equation.4.6.10}{}}
\@writefile{toc}{\contentsline {section}{\numberline {4.7}Discussion}{115}{section.4.7}}
\@writefile{toc}{\contentsline {subsection}{\numberline {4.7.1}Comparison to other dwarf elliptical galaxies}{115}{subsection.4.7.1}}
\citation{Miller07}
\citation{Peng08}
\citation{Miller07}
\citation{Miller07}
\citation{Peng08}
\citation{Miller07}
\citation{Peng08}
\citation{Lotz04}
\citation{Huxor14}
\citation{Schlegel98}
\citation{Irwin05}
\citation{GalletiRBC04}
\citation{Huxor14}
\citation{GalletiRBC04}
\citation{Huxor14}
\@writefile{lof}{\contentsline {figure}{\numberline {(4.7)}{\ignorespaces $log(S_N)$ vs. $M_V$ trend for dEs}}{117}{figure.caption.72}}
\newlabel{fig:Sn}{{4.7}{117}{$log(S_N)$ vs. $M_V$ trend for dEs}{figure.caption.72}{}}
\@writefile{toc}{\contentsline {subsection}{\numberline {4.7.2}Comparison to the M31 halo globular clusters}{117}{subsection.4.7.2}}
\@writefile{lof}{\contentsline {figure}{\numberline {(4.8)}{\ignorespaces $(V-I)_0$ vs. $R_{\rm  proj}$ for GC in M31 and NGC\nobreakspace  {}147 and NGC\nobreakspace  {}185}}{118}{figure.caption.73}}
\newlabel{fig:GCcolourcomp}{{4.8}{118}{$(V-I)_0$ vs. $\Rproj $ for GC in M31 and NGC~147 and NGC~185}{figure.caption.73}{}}
\@writefile{toc}{\contentsline {section}{\numberline {4.8}Summary}{118}{section.4.8}}
\@setckpt{N147185/N147185}{
\setcounter{page}{120}
\setcounter{equation}{10}
\setcounter{enumi}{0}
\setcounter{enumii}{0}
\setcounter{enumiii}{0}
\setcounter{enumiv}{0}
\setcounter{footnote}{3}
\setcounter{mpfootnote}{0}
\setcounter{part}{0}
\setcounter{chapter}{4}
\setcounter{section}{8}
\setcounter{subsection}{0}
\setcounter{subsubsection}{0}
\setcounter{paragraph}{0}
\setcounter{subparagraph}{0}
\setcounter{figure}{8}
\setcounter{table}{8}
\setcounter{ContinuedFloat}{0}
\setcounter{KVtest}{0}
\setcounter{subfigure}{0}
\setcounter{subfigure@save}{0}
\setcounter{lofdepth}{1}
\setcounter{subtable}{0}
\setcounter{subtable@save}{0}
\setcounter{lotdepth}{1}
\setcounter{Item}{0}
\setcounter{Hfootnote}{14}
\setcounter{bookmark@seq@number}{53}
\setcounter{NAT@ctr}{0}
\setcounter{r@tfl@t}{5}
\setcounter{cp@cntr}{0}
\setcounter{@pps}{0}
\setcounter{@ppsavesec}{0}
\setcounter{@ppsaveapp}{0}
\setcounter{lstnumber}{1}
\setcounter{parentequation}{3}
\setcounter{section@level}{0}
\setcounter{lstlisting}{0}
}
