\relax 
\providecommand\hyper@newdestlabel[2]{}
\@writefile{toc}{\contentsline {chapter}{\numberline {6}Summary}{139}{chapter.6}}
\@writefile{lof}{\addvspace {10\p@ }}
\@writefile{lot}{\addvspace {10\p@ }}
\@writefile{toc}{\contentsline {section}{\numberline {6.1}Summary of science chapters}{139}{section.6.1}}
\@writefile{toc}{\contentsline {subsubsection}{Kinematics of the M31 outer halo GC system}{139}{section.6.1}}
\citation{Mackey10b}
\@writefile{toc}{\contentsline {subsubsection}{The GC systems of NGC\nobreakspace  {}147 and NGC\nobreakspace  {}185}{140}{section.6.1}}
\citation{Lovell11}
\@writefile{toc}{\contentsline {subsubsection}{The GC system of NGC\nobreakspace  {}6822}{141}{section.6.1}}
\citation{Schiavon12}
\citation{Dotter11}
\citation{Schiavon04}
\@writefile{toc}{\contentsline {section}{\numberline {6.2}Future work}{142}{section.6.2}}
\@writefile{toc}{\contentsline {subsubsection}{The dynamics of the M31 outer halo GC system}{142}{section.6.2}}
\@writefile{toc}{\contentsline {subsubsection}{The metal content of the M31 halo GCs}{142}{section.6.2}}
\@writefile{toc}{\contentsline {section}{\numberline {6.3}Final words}{143}{section.6.3}}
\@setckpt{Summary/Summary}{
\setcounter{page}{144}
\setcounter{equation}{0}
\setcounter{enumi}{0}
\setcounter{enumii}{0}
\setcounter{enumiii}{0}
\setcounter{enumiv}{0}
\setcounter{footnote}{0}
\setcounter{mpfootnote}{0}
\setcounter{part}{0}
\setcounter{chapter}{6}
\setcounter{section}{3}
\setcounter{subsection}{0}
\setcounter{subsubsection}{0}
\setcounter{paragraph}{0}
\setcounter{subparagraph}{0}
\setcounter{figure}{0}
\setcounter{table}{0}
\setcounter{ContinuedFloat}{0}
\setcounter{KVtest}{0}
\setcounter{subfigure}{0}
\setcounter{subfigure@save}{0}
\setcounter{lofdepth}{1}
\setcounter{subtable}{0}
\setcounter{subtable@save}{0}
\setcounter{lotdepth}{1}
\setcounter{Item}{0}
\setcounter{Hfootnote}{14}
\setcounter{bookmark@seq@number}{65}
\setcounter{NAT@ctr}{0}
\setcounter{r@tfl@t}{6}
\setcounter{cp@cntr}{0}
\setcounter{@pps}{0}
\setcounter{@ppsavesec}{0}
\setcounter{@ppsaveapp}{0}
\setcounter{lstnumber}{1}
\setcounter{parentequation}{6}
\setcounter{section@level}{0}
\setcounter{lstlisting}{0}
}
